VPnr	VPgender	VPage	VPeyeDominance	Condition	Block	Trial	Number	LocNumberCurrent	LocClickCorrect	NrClicksPerCircle	TimeTrial	TimeClickCorrect	SizeCircles	ClickTolerance
26	w	21	r	1	1	0	1	"(889, 669)"	"(890, 663)"	1	0	761113.82	72	36
26	w	21	r	1	1	0	2	"(261, 181)"	"(261, 192)"	1	0	764451.15	72	36
26	w	21	r	1	1	0	3	"(261, 638)"	"(260, 627)"	1	0	766403.13	72	36
26	w	21	r	1	1	0	4	"(922, 433)"	"(910, 445)"	1	0	768417.17	72	36
26	w	21	r	1	1	0	5	"(572, 88)"	"(580, 75)"	1	0	769274.54	72	36
26	w	21	r	1	1	0	6	"(884, 76)"	"(875, 75)"	1	0	770105.50	72	36
26	w	21	r	1	1	0	7	"(103, 437)"	"(114, 438)"	1	0	770963.58	72	36
26	w	21	r	1	1	0	8	"(570, 692)"	"(571, 696)"	1	0	772141.51	72	36
26	w	21	r	1	1	0	8	"(570, 692)"	"(571, 696)"	1	   19.57	772141.51	72	36
26	w	21	r	1	1	1	1	"(889, 669)"	"(904, 690)"	1	0	855121.79	72	36
26	w	21	r	1	1	1	2	"(261, 181)"	"(259, 172)"	1	0	856513.31	72	36
26	w	21	r	1	1	1	3	"(261, 638)"	"(279, 646)"	1	0	857400.19	72	36
26	w	21	r	1	1	1	4	"(922, 433)"	"(930, 436)"	1	0	858664.89	72	36
26	w	21	r	1	1	1	5	"(572, 88)"	"(545, 88)"	1	0	859550.58	72	36
26	w	21	r	1	1	1	6	"(884, 76)"	"(892, 82)"	1	0	860415.67	72	36
26	w	21	r	1	1	1	7	"(103, 437)"	"(110, 429)"	1	0	861350.60	72	36
26	w	21	r	1	1	1	8	"(570, 692)"	"(586, 687)"	1	0	862513.32	72	36
26	w	21	r	1	1	1	8	"(570, 692)"	"(586, 687)"	1	    9.29	862513.32	72	36
26	w	21	r	1	1	2	1	"(889, 669)"	"(904, 658)"	1	0	871025.63	72	36
26	w	21	r	1	1	2	2	"(261, 181)"	"(277, 171)"	1	0	872105.69	72	36
26	w	21	r	1	1	2	3	"(261, 638)"	"(255, 662)"	1	0	873152.32	72	36
26	w	21	r	1	1	2	4	"(922, 433)"	"(914, 449)"	1	0	875384.22	72	36
26	w	21	r	1	1	2	5	"(572, 88)"	"(593, 90)"	1	0	876536.16	72	36
26	w	21	r	1	1	2	6	"(884, 76)"	"(874, 77)"	1	0	877208.31	72	36
26	w	21	r	1	1	2	7	"(103, 437)"	"(97, 448)"	1	0	878106.17	72	36
26	w	21	r	1	1	2	8	"(570, 692)"	"(576, 701)"	1	0	878953.64	72	36
26	w	21	r	1	1	2	8	"(570, 692)"	"(576, 701)"	1	    9.76	878953.64	72	36
26	w	21	r	1	1	3	1	"(889, 669)"	"(917, 655)"	1	0	886403.05	72	36
26	w	21	r	1	1	3	2	"(261, 181)"	"(272, 182)"	1	0	887562.42	72	36
26	w	21	r	1	1	3	3	"(261, 638)"	"(266, 626)"	1	0	888361.50	72	36
26	w	21	r	1	1	3	4	"(922, 433)"	"(939, 429)"	1	0	889548.13	72	36
26	w	21	r	1	1	3	5	"(572, 88)"	"(593, 87)"	1	0	890562.09	72	36
26	w	21	r	1	1	3	6	"(884, 76)"	"(896, 68)"	1	0	891238.40	72	36
26	w	21	r	1	1	3	7	"(103, 437)"	"(111, 435)"	1	0	892344.98	72	36
26	w	21	r	1	1	3	8	"(570, 692)"	"(583, 681)"	1	0	893336.98	72	36
26	w	21	r	1	1	3	8	"(570, 692)"	"(583, 681)"	1	    8.65	893336.98	72	36
26	w	21	r	1	1	4	1	"(889, 669)"	"(879, 661)"	1	0	899875.29	72	36
26	w	21	r	1	1	4	2	"(261, 181)"	"(261, 167)"	1	0	900737.36	72	36
26	w	21	r	1	1	4	3	"(261, 638)"	"(276, 652)"	1	0	901576.50	72	36
26	w	21	r	1	1	4	4	"(922, 433)"	"(919, 451)"	1	0	902363.48	72	36
26	w	21	r	1	1	4	5	"(572, 88)"	"(557, 79)"	1	0	903427.34	72	36
26	w	21	r	1	1	4	6	"(884, 76)"	"(900, 73)"	1	0	904148.24	72	36
26	w	21	r	1	1	4	7	"(103, 437)"	"(102, 440)"	1	0	905091.73	72	36
26	w	21	r	1	1	4	8	"(570, 692)"	"(560, 703)"	1	0	905903.35	72	36
26	w	21	r	1	1	4	8	"(570, 692)"	"(560, 703)"	1	    7.52	905903.35	72	36
26	w	21	r	1	1	5	1	"(889, 669)"	"(911, 670)"	1	0	916619.84	72	36
26	w	21	r	1	1	5	2	"(261, 181)"	"(278, 182)"	1	0	917258.20	72	36
26	w	21	r	1	1	5	3	"(261, 638)"	"(256, 649)"	1	0	918179.58	72	36
26	w	21	r	1	1	5	4	"(922, 433)"	"(927, 451)"	1	0	919100.04	72	36
26	w	21	r	1	1	5	5	"(572, 88)"	"(582, 80)"	1	0	919897.91	72	36
26	w	21	r	1	1	5	6	"(884, 76)"	"(891, 76)"	1	0	920485.99	72	36
26	w	21	r	1	1	5	7	"(103, 437)"	"(102, 438)"	1	0	921245.08	72	36
26	w	21	r	1	1	5	8	"(570, 692)"	"(583, 690)"	1	0	922170.18	72	36
26	w	21	r	1	1	5	8	"(570, 692)"	"(583, 690)"	1	    7.51	922170.18	72	36
26	w	21	r	1	1	6	1	"(889, 669)"	"(903, 687)"	1	0	928896.78	72	36
26	w	21	r	1	1	6	2	"(261, 181)"	"(247, 173)"	1	0	929875.86	72	36
26	w	21	r	1	1	6	3	"(261, 638)"	"(260, 633)"	1	0	930658.92	72	36
26	w	21	r	1	1	6	4	"(922, 433)"	"(917, 449)"	1	0	931346.44	72	36
26	w	21	r	1	1	6	5	"(572, 88)"	"(561, 72)"	1	0	931986.67	72	36
26	w	21	r	1	1	6	6	"(884, 76)"	"(868, 80)"	1	0	932533.06	72	36
26	w	21	r	1	1	6	7	"(103, 437)"	"(105, 439)"	1	0	933444.43	72	36
26	w	21	r	1	1	6	8	"(570, 692)"	"(586, 701)"	1	0	934301.32	72	36
26	w	21	r	1	1	6	8	"(570, 692)"	"(586, 701)"	1	    6.63	934301.32	72	36
26	w	21	r	1	1	7	1	"(889, 669)"	"(896, 682)"	1	0	940958.00	72	36
26	w	21	r	1	1	7	2	"(261, 181)"	"(253, 172)"	1	0	941766.89	72	36
26	w	21	r	1	1	7	3	"(261, 638)"	"(253, 652)"	1	0	942878.39	72	36
26	w	21	r	1	1	7	4	"(922, 433)"	"(906, 439)"	1	0	943771.09	72	36
26	w	21	r	1	1	7	5	"(572, 88)"	"(576, 66)"	1	0	944452.78	72	36
26	w	21	r	1	1	7	6	"(884, 76)"	"(885, 63)"	1	0	945110.48	72	36
26	w	21	r	1	1	7	7	"(103, 437)"	"(107, 460)"	1	0	945980.08	72	36
26	w	21	r	1	1	7	8	"(570, 692)"	"(571, 700)"	1	0	946812.65	72	36
26	w	21	r	1	1	7	8	"(570, 692)"	"(571, 700)"	1	    7.28	946812.65	72	36
26	w	21	r	1	1	8	1	"(889, 669)"	"(886, 679)"	1	0	951845.97	72	36
26	w	21	r	1	1	8	2	"(261, 181)"	"(257, 183)"	1	0	952477.73	72	36
26	w	21	r	1	1	8	3	"(261, 638)"	"(263, 645)"	1	0	953166.63	72	36
26	w	21	r	1	1	8	4	"(922, 433)"	"(929, 416)"	1	0	953751.66	72	36
26	w	21	r	1	1	8	5	"(572, 88)"	"(590, 108)"	1	0	954516.41	72	36
26	w	21	r	1	1	8	6	"(884, 76)"	"(925, 73)"	1	0	955204.88	72	36
26	w	21	r	1	1	8	7	"(103, 437)"	"(135, 440)"	1	0	956429.73	72	36
26	w	21	r	1	1	8	8	"(570, 692)"	"(589, 675)"	1	0	957086.23	72	36
26	w	21	r	1	1	8	8	"(570, 692)"	"(589, 675)"	1	    6.19	957086.23	72	36
26	w	21	r	1	1	9	1	"(889, 669)"	"(903, 661)"	1	0	962125.15	72	36
26	w	21	r	1	1	9	2	"(261, 181)"	"(263, 189)"	1	0	962941.20	72	36
26	w	21	r	1	1	9	3	"(261, 638)"	"(269, 649)"	1	0	963836.65	72	36
26	w	21	r	1	1	9	4	"(922, 433)"	"(927, 442)"	1	0	964533.03	72	36
26	w	21	r	1	1	9	5	"(572, 88)"	"(548, 90)"	1	0	965301.25	72	36
26	w	21	r	1	1	9	6	"(884, 76)"	"(904, 72)"	1	0	966109.13	72	36
26	w	21	r	1	1	9	7	"(103, 437)"	"(121, 455)"	1	0	966804.03	72	36
26	w	21	r	1	1	9	8	"(570, 692)"	"(569, 708)"	1	0	967389.10	72	36
26	w	21	r	1	1	9	8	"(570, 692)"	"(569, 708)"	1	    6.43	967389.10	72	36
26	w	21	r	1	1	10	1	"(889, 669)"	"(876, 660)"	1	0	972462.47	72	36
26	w	21	r	1	1	10	2	"(261, 181)"	"(279, 190)"	1	0	973261.20	72	36
26	w	21	r	1	1	10	3	"(261, 638)"	"(251, 653)"	1	0	974085.77	72	36
26	w	21	r	1	1	10	4	"(922, 433)"	"(944, 443)"	1	0	974765.50	72	36
26	w	21	r	1	1	10	5	"(572, 88)"	"(589, 89)"	1	0	975367.09	72	36
26	w	21	r	1	1	10	6	"(884, 76)"	"(914, 79)"	1	0	975951.17	72	36
26	w	21	r	1	1	10	7	"(103, 437)"	"(120, 422)"	1	0	976998.04	72	36
26	w	21	r	1	1	10	8	"(570, 692)"	"(573, 710)"	1	0	977476.87	72	36
26	w	21	r	1	1	10	8	"(570, 692)"	"(573, 710)"	1	    6.19	977476.87	72	36
26	w	21	r	1	2	11	1	"(889, 669)"	"(875, 662)"	1	0	986277.22	72	36
26	w	21	r	1	2	11	2	"(261, 181)"	"(256, 168)"	1	0	987201.06	72	36
26	w	21	r	1	2	11	3	"(261, 638)"	"(288, 624)"	1	0	988053.85	72	36
26	w	21	r	1	2	11	4	"(922, 433)"	"(908, 423)"	1	0	988699.49	72	36
26	w	21	r	1	2	11	5	"(572, 88)"	"(569, 112)"	1	0	989393.19	72	36
26	w	21	r	1	2	11	6	"(884, 76)"	"(893, 78)"	1	0	990030.81	72	36
26	w	21	r	1	2	11	7	"(103, 437)"	"(95, 448)"	1	0	990695.35	72	36
26	w	21	r	1	2	11	8	"(570, 692)"	"(547, 692)"	1	0	991369.34	72	36
26	w	21	r	1	2	11	8	"(570, 692)"	"(547, 692)"	1	    6.57	991369.34	72	36
26	w	21	r	1	2	12	1	"(889, 669)"	"(889, 687)"	1	0	995937.51	72	36
26	w	21	r	1	2	12	2	"(261, 181)"	"(267, 191)"	1	0	996983.97	72	36
26	w	21	r	1	2	12	3	"(261, 638)"	"(270, 651)"	1	0	997690.24	72	36
26	w	21	r	1	2	12	4	"(922, 433)"	"(916, 436)"	1	0	998488.52	72	36
26	w	21	r	1	2	12	5	"(572, 88)"	"(573, 85)"	1	0	999127.76	72	36
26	w	21	r	1	2	12	6	"(884, 76)"	"(906, 65)"	1	0	999760.22	72	36
26	w	21	r	1	2	12	7	"(103, 437)"	"(129, 437)"	1	0	1000405.75	72	36
26	w	21	r	1	2	12	8	"(570, 692)"	"(599, 694)"	2	0	1001416.51	72	36
26	w	21	r	1	2	12	8	"(570, 692)"	"(599, 694)"	2	    6.40	1001416.51	72	36
26	w	21	r	1	2	13	1	"(889, 669)"	"(870, 662)"	1	0	1006273.16	72	36
26	w	21	r	1	2	13	2	"(261, 181)"	"(290, 182)"	1	0	1007042.06	72	36
26	w	21	r	1	2	13	3	"(261, 638)"	"(265, 662)"	1	0	1007863.76	72	36
26	w	21	r	1	2	13	4	"(922, 433)"	"(912, 439)"	1	0	1008473.91	72	36
26	w	21	r	1	2	13	5	"(572, 88)"	"(601, 109)"	1	0	1009078.85	72	36
26	w	21	r	1	2	13	6	"(884, 76)"	"(906, 80)"	1	0	1009848.43	72	36
26	w	21	r	1	2	13	7	"(103, 437)"	"(92, 453)"	1	0	1010704.47	72	36
26	w	21	r	1	2	13	8	"(570, 692)"	"(584, 714)"	1	0	1011343.04	72	36
26	w	21	r	1	2	13	8	"(570, 692)"	"(584, 714)"	1	    6.16	1011343.04	72	36
26	w	21	r	1	2	14	1	"(889, 669)"	"(909, 662)"	1	0	1017242.05	72	36
26	w	21	r	1	2	14	2	"(261, 181)"	"(259, 170)"	1	0	1018345.34	72	36
26	w	21	r	1	2	14	3	"(261, 638)"	"(250, 625)"	1	0	1019346.34	72	36
26	w	21	r	1	2	14	4	"(922, 433)"	"(932, 430)"	1	0	1019971.43	72	36
26	w	21	r	1	2	14	5	"(572, 88)"	"(576, 63)"	1	0	1020458.63	72	36
26	w	21	r	1	2	14	6	"(884, 76)"	"(895, 67)"	1	0	1021065.31	72	36
26	w	21	r	1	2	14	7	"(103, 437)"	"(89, 438)"	1	0	1021843.32	72	36
26	w	21	r	1	2	14	8	"(570, 692)"	"(559, 679)"	1	0	1022360.93	72	36
26	w	21	r	1	2	14	8	"(570, 692)"	"(559, 679)"	1	    6.34	1022360.93	72	36
26	w	21	r	1	2	15	1	"(889, 669)"	"(890, 683)"	1	0	1027599.61	72	36
26	w	21	r	1	2	15	2	"(261, 181)"	"(252, 162)"	1	0	1028544.66	72	36
26	w	21	r	1	2	15	3	"(261, 638)"	"(262, 641)"	1	0	1029738.33	72	36
26	w	21	r	1	2	15	4	"(922, 433)"	"(959, 441)"	1	0	1030697.10	72	36
26	w	21	r	1	2	15	5	"(572, 88)"	"(585, 106)"	1	0	1031432.13	72	36
26	w	21	r	1	2	15	6	"(884, 76)"	"(891, 72)"	1	0	1031919.83	72	36
26	w	21	r	1	2	15	7	"(103, 437)"	"(97, 460)"	1	0	1032648.27	72	36
26	w	21	r	1	2	15	8	"(570, 692)"	"(596, 706)"	1	0	1033083.21	72	36
26	w	21	r	1	2	15	8	"(570, 692)"	"(596, 706)"	1	    6.89	1033083.21	72	36
26	w	21	r	1	2	16	1	"(889, 669)"	"(887, 687)"	1	0	1038496.53	72	36
26	w	21	r	1	2	16	2	"(261, 181)"	"(241, 179)"	1	0	1039297.04	72	36
26	w	21	r	1	2	16	3	"(261, 638)"	"(278, 634)"	1	0	1039976.98	72	36
26	w	21	r	1	2	16	4	"(922, 433)"	"(897, 421)"	1	0	1040611.01	72	36
26	w	21	r	1	2	16	5	"(572, 88)"	"(557, 105)"	1	0	1041162.12	72	36
26	w	21	r	1	2	16	6	"(884, 76)"	"(886, 69)"	1	0	1041923.91	72	36
26	w	21	r	1	2	16	7	"(103, 437)"	"(100, 461)"	1	0	1042720.90	72	36
26	w	21	r	1	2	16	8	"(570, 692)"	"(581, 714)"	1	0	1043355.84	72	36
26	w	21	r	1	2	16	8	"(570, 692)"	"(581, 714)"	1	    5.94	1043355.84	72	36
26	w	21	r	1	2	17	1	"(889, 669)"	"(887, 655)"	1	0	1048074.62	72	36
26	w	21	r	1	2	17	2	"(261, 181)"	"(255, 164)"	1	0	1048809.07	72	36
26	w	21	r	1	2	17	3	"(261, 638)"	"(251, 633)"	1	0	1049842.25	72	36
26	w	21	r	1	2	17	4	"(922, 433)"	"(922, 439)"	1	0	1050586.10	72	36
26	w	21	r	1	2	17	5	"(572, 88)"	"(563, 71)"	1	0	1051627.81	72	36
26	w	21	r	1	2	17	6	"(884, 76)"	"(877, 69)"	1	0	1052291.94	72	36
26	w	21	r	1	2	17	7	"(103, 437)"	"(129, 433)"	1	0	1053281.93	72	36
26	w	21	r	1	2	17	8	"(570, 692)"	"(558, 680)"	1	0	1054010.71	72	36
26	w	21	r	1	2	17	8	"(570, 692)"	"(558, 680)"	1	    7.23	1054010.71	72	36
26	w	21	r	1	2	18	1	"(889, 669)"	"(911, 687)"	1	0	1058233.85	72	36
26	w	21	r	1	2	18	2	"(261, 181)"	"(253, 182)"	1	0	1059098.77	72	36
26	w	21	r	1	2	18	3	"(261, 638)"	"(259, 631)"	1	0	1060179.45	72	36
26	w	21	r	1	2	18	4	"(922, 433)"	"(947, 434)"	1	0	1060907.02	72	36
26	w	21	r	1	2	18	5	"(572, 88)"	"(603, 93)"	1	0	1061627.85	72	36
26	w	21	r	1	2	18	6	"(884, 76)"	"(912, 68)"	1	0	1062298.94	72	36
26	w	21	r	1	2	18	7	"(103, 437)"	"(125, 448)"	1	0	1062970.09	72	36
26	w	21	r	1	2	18	8	"(570, 692)"	"(566, 673)"	1	0	1063603.35	72	36
26	w	21	r	1	2	18	8	"(570, 692)"	"(566, 673)"	1	    6.44	1063603.35	72	36
26	w	21	r	1	2	19	1	"(889, 669)"	"(876, 663)"	1	0	1069420.17	72	36
26	w	21	r	1	2	19	2	"(261, 181)"	"(254, 176)"	1	0	1070244.46	72	36
26	w	21	r	1	2	19	3	"(261, 638)"	"(267, 645)"	1	0	1071653.36	72	36
26	w	21	r	1	2	19	4	"(922, 433)"	"(947, 436)"	1	0	1072325.28	72	36
26	w	21	r	1	2	19	5	"(572, 88)"	"(556, 73)"	1	0	1073011.20	72	36
26	w	21	r	1	2	19	6	"(884, 76)"	"(855, 76)"	1	0	1073554.34	72	36
26	w	21	r	1	2	19	7	"(103, 437)"	"(69, 444)"	1	0	1074244.17	72	36
26	w	21	r	1	2	19	8	"(570, 692)"	"(596, 719)"	2	0	1075403.78	72	36
26	w	21	r	1	2	19	8	"(570, 692)"	"(596, 719)"	2	    7.09	1075403.78	72	36
26	w	21	r	1	2	20	1	"(889, 669)"	"(907, 674)"	1	0	1082298.65	72	36
26	w	21	r	1	2	20	2	"(261, 181)"	"(280, 169)"	1	0	1083086.93	72	36
26	w	21	r	1	2	20	3	"(261, 638)"	"(281, 632)"	1	0	1083757.35	72	36
26	w	21	r	1	2	20	4	"(922, 433)"	"(925, 448)"	1	0	1084404.52	72	36
26	w	21	r	1	2	20	5	"(572, 88)"	"(576, 110)"	1	0	1085042.21	72	36
26	w	21	r	1	2	20	6	"(884, 76)"	"(882, 86)"	1	0	1085581.59	72	36
26	w	21	r	1	2	20	7	"(103, 437)"	"(89, 445)"	1	0	1086188.01	72	36
26	w	21	r	1	2	20	8	"(570, 692)"	"(529, 717)"	1	0	1086764.29	72	36
26	w	21	r	1	2	20	8	"(570, 692)"	"(529, 717)"	1	    5.43	1086764.29	72	36
26	w	21	r	1	3	21	1	"(889, 669)"	"(909, 683)"	1	0	1095204.99	72	36
26	w	21	r	1	3	21	2	"(261, 181)"	"(284, 185)"	1	0	1096021.99	72	36
26	w	21	r	1	3	21	3	"(261, 638)"	"(264, 641)"	1	0	1096677.87	72	36
26	w	21	r	1	3	21	4	"(922, 433)"	"(943, 440)"	1	0	1097309.05	72	36
26	w	21	r	1	3	21	5	"(572, 88)"	"(597, 84)"	1	0	1097917.89	72	36
26	w	21	r	1	3	21	6	"(884, 76)"	"(876, 65)"	1	0	1098470.35	72	36
26	w	21	r	1	3	21	7	"(103, 437)"	"(97, 437)"	1	0	1098965.23	72	36
26	w	21	r	1	3	21	8	"(570, 692)"	"(579, 680)"	1	0	1099510.08	72	36
26	w	21	r	1	3	21	8	"(570, 692)"	"(579, 680)"	1	    5.45	1099510.08	72	36
26	w	21	r	1	3	22	1	"(889, 669)"	"(873, 671)"	1	0	1105166.83	72	36
26	w	21	r	1	3	22	2	"(261, 181)"	"(227, 168)"	1	0	1105988.16	72	36
26	w	21	r	1	3	22	3	"(261, 638)"	"(255, 658)"	1	0	1106596.73	72	36
26	w	21	r	1	3	22	4	"(922, 433)"	"(921, 442)"	1	0	1107181.72	72	36
26	w	21	r	1	3	22	5	"(572, 88)"	"(556, 58)"	1	0	1107748.59	72	36
26	w	21	r	1	3	22	6	"(884, 76)"	"(885, 62)"	1	0	1108260.63	72	36
26	w	21	r	1	3	22	7	"(103, 437)"	"(78, 450)"	1	0	1109045.45	72	36
26	w	21	r	1	3	22	8	"(570, 692)"	"(606, 668)"	1	0	1109724.03	72	36
26	w	21	r	1	3	22	8	"(570, 692)"	"(606, 668)"	1	    5.51	1109724.03	72	36
26	w	21	r	1	3	23	1	"(889, 669)"	"(915, 648)"	1	0	1114741.01	72	36
26	w	21	r	1	3	23	2	"(261, 181)"	"(272, 177)"	1	0	1115413.35	72	36
26	w	21	r	1	3	23	3	"(261, 638)"	"(304, 648)"	1	0	1116333.57	72	36
26	w	21	r	1	3	23	4	"(922, 433)"	"(946, 403)"	1	0	1117053.97	72	36
26	w	21	r	1	3	23	5	"(572, 88)"	"(573, 97)"	1	0	1117607.43	72	36
26	w	21	r	1	3	23	6	"(884, 76)"	"(866, 81)"	1	0	1118100.05	72	36
26	w	21	r	1	3	23	7	"(103, 437)"	"(102, 444)"	1	0	1118767.81	72	36
26	w	21	r	1	3	23	8	"(570, 692)"	"(594, 687)"	1	0	1119309.13	72	36
26	w	21	r	1	3	23	8	"(570, 692)"	"(594, 687)"	1	    5.30	1119309.13	72	36
26	w	21	r	1	3	24	1	"(889, 669)"	"(904, 664)"	1	0	1126223.97	72	36
26	w	21	r	1	3	24	2	"(261, 181)"	"(242, 186)"	1	0	1126924.95	72	36
26	w	21	r	1	3	24	3	"(261, 638)"	"(281, 634)"	1	0	1127789.29	72	36
26	w	21	r	1	3	24	4	"(922, 433)"	"(912, 467)"	1	0	1128454.23	72	36
26	w	21	r	1	3	24	5	"(572, 88)"	"(529, 86)"	1	0	1129173.02	72	36
26	w	21	r	1	3	24	6	"(884, 76)"	"(925, 68)"	1	0	1129758.00	72	36
26	w	21	r	1	3	24	7	"(103, 437)"	"(104, 457)"	1	0	1130550.90	72	36
26	w	21	r	1	3	24	8	"(570, 692)"	"(607, 684)"	2	0	1131631.71	72	36
26	w	21	r	1	3	24	8	"(570, 692)"	"(607, 684)"	2	    6.61	1131631.71	72	36
26	w	21	r	1	3	25	1	"(889, 669)"	"(871, 647)"	1	0	1138606.77	72	36
26	w	21	r	1	3	25	2	"(261, 181)"	"(269, 198)"	1	0	1139297.16	72	36
26	w	21	r	1	3	25	3	"(261, 638)"	"(268, 622)"	1	0	1140001.36	72	36
26	w	21	r	1	3	25	4	"(922, 433)"	"(943, 442)"	1	0	1140856.16	72	36
26	w	21	r	1	3	25	5	"(572, 88)"	"(569, 91)"	1	0	1141439.24	72	36
26	w	21	r	1	3	25	6	"(884, 76)"	"(871, 72)"	1	0	1141983.62	72	36
26	w	21	r	1	3	25	7	"(103, 437)"	"(122, 436)"	1	0	1142601.65	72	36
26	w	21	r	1	3	25	8	"(570, 692)"	"(561, 663)"	1	0	1143174.21	72	36
26	w	21	r	1	3	25	8	"(570, 692)"	"(561, 663)"	1	    5.54	1143174.21	72	36
26	w	21	r	1	3	26	1	"(889, 669)"	"(895, 660)"	1	0	1146727.05	72	36
26	w	21	r	1	3	26	2	"(261, 181)"	"(253, 169)"	1	0	1147560.85	72	36
26	w	21	r	1	3	26	3	"(261, 638)"	"(257, 654)"	1	0	1148217.17	72	36
26	w	21	r	1	3	26	4	"(922, 433)"	"(910, 413)"	1	0	1148751.29	72	36
26	w	21	r	1	3	26	5	"(572, 88)"	"(605, 113)"	1	0	1149367.01	72	36
26	w	21	r	1	3	26	6	"(884, 76)"	"(892, 97)"	1	0	1149817.36	72	36
26	w	21	r	1	3	26	7	"(103, 437)"	"(65, 451)"	1	0	1150359.23	72	36
26	w	21	r	1	3	26	8	"(570, 692)"	"(609, 699)"	3	0	1151546.72	72	36
26	w	21	r	1	3	26	8	"(570, 692)"	"(609, 699)"	3	    5.70	1151546.72	72	36
26	w	21	r	1	3	27	1	"(889, 669)"	"(940, 683)"	1	0	1159415.02	72	36
26	w	21	r	1	3	27	2	"(261, 181)"	"(292, 206)"	1	0	1160384.56	72	36
26	w	21	r	1	3	27	3	"(261, 638)"	"(270, 655)"	1	0	1161383.10	72	36
26	w	21	r	1	3	27	4	"(922, 433)"	"(932, 414)"	1	0	1162337.89	72	36
26	w	21	r	1	3	27	5	"(572, 88)"	"(583, 86)"	1	0	1163121.40	72	36
26	w	21	r	1	3	27	6	"(884, 76)"	"(864, 76)"	1	0	1163695.81	72	36
26	w	21	r	1	3	27	7	"(103, 437)"	"(134, 429)"	1	0	1164414.94	72	36
26	w	21	r	1	3	27	8	"(570, 692)"	"(565, 724)"	1	0	1165032.73	72	36
26	w	21	r	1	3	27	8	"(570, 692)"	"(565, 724)"	1	    6.57	1165032.73	72	36
26	w	21	r	1	3	28	1	"(889, 669)"	"(878, 679)"	1	0	1174681.69	72	36
26	w	21	r	1	3	28	2	"(261, 181)"	"(277, 168)"	1	0	1175575.95	72	36
26	w	21	r	1	3	28	3	"(261, 638)"	"(267, 633)"	1	0	1176107.41	72	36
26	w	21	r	1	3	28	4	"(922, 433)"	"(920, 401)"	1	0	1176904.16	72	36
26	w	21	r	1	3	28	5	"(572, 88)"	"(547, 64)"	1	0	1177388.52	72	36
26	w	21	r	1	3	28	6	"(884, 76)"	"(914, 70)"	1	0	1177959.65	72	36
26	w	21	r	1	3	28	7	"(103, 437)"	"(144, 425)"	1	0	1178631.96	72	36
26	w	21	r	1	3	28	8	"(570, 692)"	"(600, 685)"	1	0	1179250.37	72	36
26	w	21	r	1	3	28	8	"(570, 692)"	"(600, 685)"	1	    5.85	1179250.37	72	36
26	w	21	r	1	3	29	1	"(889, 669)"	"(904, 666)"	1	0	1185324.24	72	36
26	w	21	r	1	3	29	2	"(261, 181)"	"(292, 192)"	1	0	1186105.33	72	36
26	w	21	r	1	3	29	3	"(261, 638)"	"(280, 635)"	1	0	1186849.23	72	36
26	w	21	r	1	3	29	4	"(922, 433)"	"(925, 442)"	1	0	1187571.75	72	36
26	w	21	r	1	3	29	5	"(572, 88)"	"(569, 79)"	10	0	1196306.78	72	36
26	w	21	r	1	3	29	6	"(884, 76)"	"(879, 68)"	1	0	1196857.01	72	36
26	w	21	r	1	3	29	7	"(103, 437)"	"(100, 447)"	1	0	1197626.24	72	36
26	w	21	r	1	3	29	8	"(570, 692)"	"(570, 698)"	1	0	1198465.35	72	36
26	w	21	r	1	3	29	8	"(570, 692)"	"(570, 698)"	1	   14.23	1198465.35	72	36
26	w	21	r	1	3	30	1	"(889, 669)"	"(902, 660)"	1	0	1204497.74	72	36
26	w	21	r	1	3	30	2	"(261, 181)"	"(256, 168)"	1	0	1205220.10	72	36
26	w	21	r	1	3	30	3	"(261, 638)"	"(265, 657)"	1	0	1205891.15	72	36
26	w	21	r	1	3	30	4	"(922, 433)"	"(897, 425)"	1	0	1206650.22	72	36
26	w	21	r	1	3	30	5	"(572, 88)"	"(595, 104)"	1	0	1207361.88	72	36
26	w	21	r	1	3	30	6	"(884, 76)"	"(869, 75)"	1	0	1207938.56	72	36
26	w	21	r	1	3	30	7	"(103, 437)"	"(110, 450)"	1	0	1208783.50	72	36
26	w	21	r	1	3	30	8	"(570, 692)"	"(565, 706)"	1	0	1209292.52	72	36
26	w	21	r	1	3	30	8	"(570, 692)"	"(565, 706)"	1	    5.69	1209292.52	72	36
26	w	21	r	1	4	31	1	"(889, 669)"	"(910, 665)"	1	0	1215106.30	72	36
26	w	21	r	1	4	31	2	"(261, 181)"	"(245, 176)"	1	0	1215860.54	72	36
26	w	21	r	1	4	31	3	"(261, 638)"	"(291, 634)"	1	0	1216633.71	72	36
26	w	21	r	1	4	31	4	"(922, 433)"	"(903, 449)"	1	0	1217396.50	72	36
26	w	21	r	1	4	31	5	"(572, 88)"	"(550, 91)"	1	0	1218226.67	72	36
26	w	21	r	1	4	31	6	"(884, 76)"	"(900, 84)"	1	0	1218683.08	72	36
26	w	21	r	1	4	31	7	"(103, 437)"	"(113, 430)"	1	0	1219253.98	72	36
26	w	21	r	1	4	31	8	"(570, 692)"	"(557, 720)"	1	0	1219874.99	72	36
26	w	21	r	1	4	31	8	"(570, 692)"	"(557, 720)"	1	    5.64	1219874.99	72	36
26	w	21	r	1	4	32	1	"(889, 669)"	"(869, 671)"	1	0	1225014.07	72	36
26	w	21	r	1	4	32	2	"(261, 181)"	"(244, 186)"	1	0	1225757.35	72	36
26	w	21	r	1	4	32	3	"(261, 638)"	"(255, 636)"	1	0	1226317.57	72	36
26	w	21	r	1	4	32	4	"(922, 433)"	"(939, 413)"	1	0	1227023.71	72	36
26	w	21	r	1	4	32	5	"(572, 88)"	"(576, 72)"	1	0	1227842.73	72	36
26	w	21	r	1	4	32	6	"(884, 76)"	"(904, 71)"	1	0	1228388.22	72	36
26	w	21	r	1	4	32	7	"(103, 437)"	"(103, 424)"	1	0	1229346.85	72	36
26	w	21	r	1	4	32	8	"(570, 692)"	"(597, 668)"	1	0	1230149.95	72	36
26	w	21	r	1	4	32	8	"(570, 692)"	"(597, 668)"	1	    6.05	1230149.95	72	36
26	w	21	r	1	4	33	1	"(889, 669)"	"(891, 679)"	1	0	1235941.35	72	36
26	w	21	r	1	4	33	2	"(261, 181)"	"(288, 184)"	1	0	1236636.41	72	36
26	w	21	r	1	4	33	3	"(261, 638)"	"(269, 659)"	1	0	1237327.16	72	36
26	w	21	r	1	4	33	4	"(922, 433)"	"(904, 440)"	1	0	1237917.43	72	36
26	w	21	r	1	4	33	5	"(572, 88)"	"(597, 113)"	1	0	1238599.10	72	36
26	w	21	r	1	4	33	6	"(884, 76)"	"(913, 82)"	1	0	1239204.99	72	36
26	w	21	r	1	4	33	7	"(103, 437)"	"(105, 462)"	1	0	1240055.08	72	36
26	w	21	r	1	4	33	8	"(570, 692)"	"(609, 691)"	1	0	1240638.64	72	36
26	w	21	r	1	4	33	8	"(570, 692)"	"(609, 691)"	1	    5.47	1240638.64	72	36
26	w	21	r	1	4	34	1	"(889, 669)"	"(875, 695)"	1	0	1244771.71	72	36
26	w	21	r	1	4	34	2	"(261, 181)"	"(280, 196)"	1	0	1245438.83	72	36
26	w	21	r	1	4	34	3	"(261, 638)"	"(271, 643)"	1	0	1245981.89	72	36
26	w	21	r	1	4	34	4	"(922, 433)"	"(934, 448)"	1	0	1246560.12	72	36
26	w	21	r	1	4	34	5	"(572, 88)"	"(557, 108)"	1	0	1247099.90	72	36
26	w	21	r	1	4	34	6	"(884, 76)"	"(873, 89)"	1	0	1247742.39	72	36
26	w	21	r	1	4	34	7	"(103, 437)"	"(131, 446)"	1	0	1248236.99	72	36
26	w	21	r	1	4	34	8	"(570, 692)"	"(596, 726)"	1	0	1248860.84	72	36
26	w	21	r	1	4	34	8	"(570, 692)"	"(596, 726)"	1	    4.95	1248860.84	72	36
26	w	21	r	1	4	35	1	"(889, 669)"	"(883, 673)"	1	0	1253767.11	72	36
26	w	21	r	1	4	35	2	"(261, 181)"	"(239, 218)"	1	0	1254481.48	72	36
26	w	21	r	1	4	35	3	"(261, 638)"	"(261, 673)"	1	0	1255082.19	72	36
26	w	21	r	1	4	35	4	"(922, 433)"	"(918, 421)"	1	0	1255757.28	72	36
26	w	21	r	1	4	35	5	"(572, 88)"	"(556, 106)"	1	0	1256695.72	72	36
26	w	21	r	1	4	35	6	"(884, 76)"	"(878, 66)"	1	0	1257294.62	72	36
26	w	21	r	1	4	35	7	"(103, 437)"	"(123, 433)"	1	0	1258124.35	72	36
26	w	21	r	1	4	35	8	"(570, 692)"	"(552, 676)"	1	0	1258908.16	72	36
26	w	21	r	1	4	35	8	"(570, 692)"	"(552, 676)"	1	    5.88	1258908.16	72	36
26	w	21	r	1	4	36	1	"(889, 669)"	"(897, 673)"	1	0	1263821.10	72	36
26	w	21	r	1	4	36	2	"(261, 181)"	"(257, 191)"	1	0	1264652.33	72	36
26	w	21	r	1	4	36	3	"(261, 638)"	"(272, 656)"	1	0	1265285.77	72	36
26	w	21	r	1	4	36	4	"(922, 433)"	"(909, 415)"	9	0	1272309.06	72	36
26	w	21	r	1	4	36	5	"(572, 88)"	"(588, 95)"	1	0	1273080.83	72	36
26	w	21	r	1	4	36	6	"(884, 76)"	"(892, 69)"	1	0	1273607.39	72	36
26	w	21	r	1	4	36	7	"(103, 437)"	"(100, 440)"	1	0	1274446.75	72	36
26	w	21	r	1	4	36	8	"(570, 692)"	"(578, 715)"	1	0	1275312.49	72	36
26	w	21	r	1	4	36	8	"(570, 692)"	"(578, 715)"	1	   12.47	1275312.49	72	36
26	w	21	r	1	4	37	1	"(889, 669)"	"(905, 689)"	1	0	1282157.57	72	36
26	w	21	r	1	4	37	2	"(261, 181)"	"(232, 178)"	1	0	1283040.83	72	36
26	w	21	r	1	4	37	3	"(261, 638)"	"(250, 657)"	1	0	1283571.29	72	36
26	w	21	r	1	4	37	4	"(922, 433)"	"(878, 447)"	1	0	1284254.98	72	36
26	w	21	r	1	4	37	5	"(572, 88)"	"(558, 89)"	1	0	1285063.39	72	36
26	w	21	r	1	4	37	6	"(884, 76)"	"(904, 70)"	1	0	1285806.02	72	36
26	w	21	r	1	4	37	7	"(103, 437)"	"(124, 442)"	1	0	1286495.24	72	36
26	w	21	r	1	4	37	8	"(570, 692)"	"(589, 680)"	1	0	1287142.99	72	36
26	w	21	r	1	4	37	8	"(570, 692)"	"(589, 680)"	1	    6.23	1287142.99	72	36
26	w	21	r	1	4	38	1	"(889, 669)"	"(871, 655)"	1	0	1293304.16	72	36
26	w	21	r	1	4	38	2	"(261, 181)"	"(259, 205)"	1	0	1294064.10	72	36
26	w	21	r	1	4	38	3	"(261, 638)"	"(284, 654)"	1	0	1294608.47	72	36
26	w	21	r	1	4	38	4	"(922, 433)"	"(903, 430)"	1	0	1295342.52	72	36
26	w	21	r	1	4	38	5	"(572, 88)"	"(576, 67)"	1	0	1295928.42	72	36
26	w	21	r	1	4	38	6	"(884, 76)"	"(880, 69)"	1	0	1296361.32	72	36
26	w	21	r	1	4	38	7	"(103, 437)"	"(71, 446)"	1	0	1296968.17	72	36
26	w	21	r	1	4	38	8	"(570, 692)"	"(541, 704)"	1	0	1297417.29	72	36
26	w	21	r	1	4	38	8	"(570, 692)"	"(541, 704)"	1	    4.78	1297417.29	72	36
26	w	21	r	1	4	39	1	"(889, 669)"	"(896, 693)"	1	0	1301791.44	72	36
26	w	21	r	1	4	39	2	"(261, 181)"	"(254, 205)"	1	0	1302904.85	72	36
26	w	21	r	1	4	39	3	"(261, 638)"	"(296, 645)"	1	0	1303545.03	72	36
26	w	21	r	1	4	39	4	"(922, 433)"	"(925, 440)"	1	0	1304327.92	72	36
26	w	21	r	1	4	39	5	"(572, 88)"	"(585, 114)"	1	0	1305032.40	72	36
26	w	21	r	1	4	39	6	"(884, 76)"	"(886, 66)"	1	0	1305599.00	72	36
26	w	21	r	1	4	39	7	"(103, 437)"	"(130, 458)"	1	0	1306414.94	72	36
26	w	21	r	1	4	39	8	"(570, 692)"	"(578, 690)"	1	0	1307082.00	72	36
26	w	21	r	1	4	39	8	"(570, 692)"	"(578, 690)"	1	    6.23	1307082.00	72	36
26	w	21	r	1	4	40	1	"(889, 669)"	"(866, 695)"	1	0	1310840.83	72	36
26	w	21	r	1	4	40	2	"(261, 181)"	"(220, 164)"	1	0	1311616.19	72	36
26	w	21	r	1	4	40	3	"(261, 638)"	"(258, 626)"	1	0	1312248.57	72	36
26	w	21	r	1	4	40	4	"(922, 433)"	"(912, 424)"	1	0	1312911.93	72	36
26	w	21	r	1	4	40	5	"(572, 88)"	"(586, 101)"	1	0	1313583.74	72	36
26	w	21	r	1	4	40	6	"(884, 76)"	"(874, 76)"	1	0	1314400.34	72	36
26	w	21	r	1	4	40	7	"(103, 437)"	"(111, 438)"	1	0	1315321.88	72	36
26	w	21	r	1	4	40	8	"(570, 692)"	"(589, 701)"	1	0	1316104.10	72	36
26	w	21	r	1	4	40	8	"(570, 692)"	"(589, 701)"	1	    6.23	1316104.10	72	36
26	w	21	r	1	5	41	1	"(889, 669)"	"(922, 666)"	1	0	1325291.41	72	36
26	w	21	r	1	5	41	2	"(261, 181)"	"(247, 187)"	1	0	1326179.06	72	36
26	w	21	r	1	5	41	3	"(261, 638)"	"(265, 652)"	1	0	1326865.90	72	36
26	w	21	r	1	5	41	4	"(922, 433)"	"(907, 435)"	1	0	1327467.04	72	36
26	w	21	r	1	5	41	5	"(572, 88)"	"(591, 67)"	1	0	1328071.80	72	36
26	w	21	r	1	5	41	6	"(884, 76)"	"(875, 55)"	1	0	1328671.75	72	36
26	w	21	r	1	5	41	7	"(103, 437)"	"(118, 447)"	1	0	1329544.18	72	36
26	w	21	r	1	5	41	8	"(570, 692)"	"(585, 701)"	1	0	1330441.77	72	36
26	w	21	r	1	5	41	8	"(570, 692)"	"(585, 701)"	1	    6.40	1330441.77	72	36
26	w	21	r	1	5	42	1	"(889, 669)"	"(911, 674)"	1	0	1334564.25	72	36
26	w	21	r	1	5	42	2	"(261, 181)"	"(253, 195)"	1	0	1335403.11	72	36
26	w	21	r	1	5	42	3	"(261, 638)"	"(290, 649)"	1	0	1336546.18	72	36
26	w	21	r	1	5	42	4	"(922, 433)"	"(907, 428)"	1	0	1337250.07	72	36
26	w	21	r	1	5	42	5	"(572, 88)"	"(568, 104)"	1	0	1338036.21	72	36
26	w	21	r	1	5	42	6	"(884, 76)"	"(888, 82)"	1	0	1339145.24	72	36
26	w	21	r	1	5	42	7	"(103, 437)"	"(126, 429)"	1	0	1339899.03	72	36
26	w	21	r	1	5	42	8	"(570, 692)"	"(576, 712)"	1	0	1340490.26	72	36
26	w	21	r	1	5	42	8	"(570, 692)"	"(576, 712)"	1	    6.98	1340490.26	72	36
26	w	21	r	1	5	43	1	"(889, 669)"	"(859, 652)"	1	0	1345179.09	72	36
26	w	21	r	1	5	43	2	"(261, 181)"	"(283, 176)"	1	0	1346225.07	72	36
26	w	21	r	1	5	43	3	"(261, 638)"	"(272, 643)"	1	0	1346860.02	72	36
26	w	21	r	1	5	43	4	"(922, 433)"	"(941, 443)"	1	0	1347500.39	72	36
26	w	21	r	1	5	43	5	"(572, 88)"	"(586, 105)"	1	0	1348171.68	72	36
26	w	21	r	1	5	43	6	"(884, 76)"	"(863, 81)"	1	0	1348673.15	72	36
26	w	21	r	1	5	43	7	"(103, 437)"	"(105, 426)"	1	0	1349408.61	72	36
26	w	21	r	1	5	43	8	"(570, 692)"	"(561, 689)"	1	0	1350109.25	72	36
26	w	21	r	1	5	43	8	"(570, 692)"	"(561, 689)"	1	    5.93	1350109.25	72	36
26	w	21	r	1	5	44	1	"(889, 669)"	"(888, 683)"	1	0	1354227.36	72	36
26	w	21	r	1	5	44	2	"(261, 181)"	"(275, 191)"	1	0	1355132.71	72	36
26	w	21	r	1	5	44	3	"(261, 638)"	"(268, 669)"	1	0	1355796.69	72	36
26	w	21	r	1	5	44	4	"(922, 433)"	"(907, 431)"	1	0	1356379.25	72	36
26	w	21	r	1	5	44	5	"(572, 88)"	"(599, 114)"	1	0	1357362.69	72	36
26	w	21	r	1	5	44	6	"(884, 76)"	"(916, 81)"	1	0	1358420.66	72	36
26	w	21	r	1	5	44	7	"(103, 437)"	"(128, 439)"	1	0	1359324.22	72	36
26	w	21	r	1	5	44	8	"(570, 692)"	"(593, 717)"	1	0	1360716.98	72	36
26	w	21	r	1	5	44	8	"(570, 692)"	"(593, 717)"	1	    7.59	1360716.98	72	36
26	w	21	r	1	5	45	1	"(889, 669)"	"(905, 671)"	1	0	1366300.02	72	36
26	w	21	r	1	5	45	2	"(261, 181)"	"(288, 188)"	1	0	1367126.02	72	36
26	w	21	r	1	5	45	3	"(261, 638)"	"(271, 663)"	1	0	1367981.23	72	36
26	w	21	r	1	5	45	4	"(922, 433)"	"(945, 433)"	1	0	1368620.17	72	36
26	w	21	r	1	5	45	5	"(572, 88)"	"(603, 107)"	1	0	1369445.41	72	36
26	w	21	r	1	5	45	6	"(884, 76)"	"(867, 79)"	1	0	1369929.19	72	36
26	w	21	r	1	5	45	7	"(103, 437)"	"(130, 460)"	3	0	1372515.06	72	36
26	w	21	r	1	5	45	8	"(570, 692)"	"(555, 699)"	1	0	1372998.27	72	36
26	w	21	r	1	5	45	8	"(570, 692)"	"(555, 699)"	1	    7.39	1372998.27	72	36
26	w	21	r	1	5	46	1	"(889, 669)"	"(868, 668)"	1	0	1377003.34	72	36
26	w	21	r	1	5	46	2	"(261, 181)"	"(261, 202)"	1	0	1377781.80	72	36
26	w	21	r	1	5	46	3	"(261, 638)"	"(255, 617)"	1	0	1378565.24	72	36
26	w	21	r	1	5	46	4	"(922, 433)"	"(893, 437)"	1	0	1379194.50	72	36
26	w	21	r	1	5	46	5	"(572, 88)"	"(613, 88)"	1	0	1380163.75	72	36
26	w	21	r	1	5	46	6	"(884, 76)"	"(883, 65)"	1	0	1380762.80	72	36
26	w	21	r	1	5	46	7	"(103, 437)"	"(121, 454)"	1	0	1381467.98	72	36
26	w	21	r	1	5	46	8	"(570, 692)"	"(590, 669)"	1	0	1382050.71	72	36
26	w	21	r	1	5	46	8	"(570, 692)"	"(590, 669)"	1	    6.34	1382050.71	72	36
26	w	21	r	1	5	47	1	"(889, 669)"	"(905, 687)"	1	0	1389342.32	72	36
26	w	21	r	1	5	47	2	"(261, 181)"	"(289, 195)"	1	0	1390076.73	72	36
26	w	21	r	1	5	47	3	"(261, 638)"	"(265, 607)"	1	0	1390707.36	72	36
26	w	21	r	1	5	47	4	"(922, 433)"	"(957, 440)"	1	0	1391739.30	72	36
26	w	21	r	1	5	47	5	"(572, 88)"	"(579, 92)"	1	0	1392253.85	72	36
26	w	21	r	1	5	47	6	"(884, 76)"	"(880, 86)"	1	0	1393220.04	72	36
26	w	21	r	1	5	47	7	"(103, 437)"	"(88, 448)"	1	0	1394211.83	72	36
26	w	21	r	1	5	47	8	"(570, 692)"	"(571, 697)"	1	0	1395038.08	72	36
26	w	21	r	1	5	47	8	"(570, 692)"	"(571, 697)"	1	    6.75	1395038.08	72	36
26	w	21	r	1	5	48	1	"(889, 669)"	"(888, 642)"	1	0	1402359.81	72	36
26	w	21	r	1	5	48	2	"(261, 181)"	"(286, 201)"	1	0	1403223.36	72	36
26	w	21	r	1	5	48	3	"(261, 638)"	"(275, 613)"	1	0	1404175.84	72	36
26	w	21	r	1	5	48	4	"(922, 433)"	"(887, 429)"	1	0	1405160.06	72	36
26	w	21	r	1	5	48	5	"(572, 88)"	"(547, 97)"	1	0	1405951.64	72	36
26	w	21	r	1	5	48	6	"(884, 76)"	"(880, 75)"	1	0	1406741.21	72	36
26	w	21	r	1	5	48	7	"(103, 437)"	"(76, 447)"	1	0	1407374.04	72	36
26	w	21	r	1	5	48	8	"(570, 692)"	"(556, 688)"	1	0	1408056.01	72	36
26	w	21	r	1	5	48	8	"(570, 692)"	"(556, 688)"	1	    6.82	1408056.01	72	36
26	w	21	r	1	5	49	1	"(889, 669)"	"(878, 674)"	1	0	1414207.01	72	36
26	w	21	r	1	5	49	2	"(261, 181)"	"(268, 179)"	1	0	1415118.61	72	36
26	w	21	r	1	5	49	3	"(261, 638)"	"(265, 643)"	1	0	1415788.39	72	36
26	w	21	r	1	5	49	4	"(922, 433)"	"(912, 426)"	1	0	1416375.74	72	36
26	w	21	r	1	5	49	5	"(572, 88)"	"(603, 95)"	1	0	1416909.15	72	36
26	w	21	r	1	5	49	6	"(884, 76)"	"(881, 60)"	1	0	1417423.84	72	36
26	w	21	r	1	5	49	7	"(103, 437)"	"(117, 422)"	1	0	1417896.52	72	36
26	w	21	r	1	5	49	8	"(570, 692)"	"(575, 708)"	1	0	1418575.75	72	36
26	w	21	r	1	5	49	8	"(570, 692)"	"(575, 708)"	1	    5.61	1418575.75	72	36
26	w	21	r	1	5	50	1	"(889, 669)"	"(880, 618)"	1	0	1423637.63	72	36
26	w	21	r	1	5	50	2	"(261, 181)"	"(264, 200)"	2	0	1425735.34	72	36
26	w	21	r	1	5	50	3	"(261, 638)"	"(267, 638)"	1	0	1426262.30	72	36
26	w	21	r	1	5	50	4	"(922, 433)"	"(949, 435)"	1	0	1427304.12	72	36
26	w	21	r	1	5	50	5	"(572, 88)"	"(576, 108)"	1	0	1427861.75	72	36
26	w	21	r	1	5	50	6	"(884, 76)"	"(854, 90)"	1	0	1428448.36	72	36
26	w	21	r	1	5	50	7	"(103, 437)"	"(146, 429)"	1	0	1429192.92	72	36
26	w	21	r	1	5	50	8	"(570, 692)"	"(577, 736)"	1	0	1429974.74	72	36
26	w	21	r	1	5	50	8	"(570, 692)"	"(577, 736)"	1	    7.14	1429974.74	72	36
26	w	21	r	1	6	51	1	"(889, 669)"	"(866, 671)"	1	0	1437391.94	72	36
26	w	21	r	1	6	51	2	"(261, 181)"	"(239, 197)"	1	0	1438264.61	72	36
26	w	21	r	1	6	51	3	"(261, 638)"	"(255, 636)"	1	0	1438846.53	72	36
26	w	21	r	1	6	51	4	"(922, 433)"	"(907, 446)"	1	0	1439534.05	72	36
26	w	21	r	1	6	51	5	"(572, 88)"	"(566, 80)"	1	0	1440222.29	72	36
26	w	21	r	1	6	51	6	"(884, 76)"	"(865, 75)"	1	0	1440887.60	72	36
26	w	21	r	1	6	51	7	"(103, 437)"	"(123, 441)"	1	0	1441601.42	72	36
26	w	21	r	1	6	51	8	"(570, 692)"	"(601, 691)"	1	0	1442225.65	72	36
26	w	21	r	1	6	51	8	"(570, 692)"	"(601, 691)"	1	    5.61	1442225.65	72	36
26	w	21	r	1	6	52	1	"(889, 669)"	"(927, 667)"	1	0	1445264.85	72	36
26	w	21	r	1	6	52	2	"(261, 181)"	"(283, 204)"	1	0	1446070.94	72	36
26	w	21	r	1	6	52	3	"(261, 638)"	"(269, 660)"	1	0	1446840.53	72	36
26	w	21	r	1	6	52	4	"(922, 433)"	"(921, 433)"	1	0	1447481.10	72	36
26	w	21	r	1	6	52	5	"(572, 88)"	"(559, 96)"	1	0	1448102.91	72	36
26	w	21	r	1	6	52	6	"(884, 76)"	"(909, 76)"	1	0	1448646.23	72	36
26	w	21	r	1	6	52	7	"(103, 437)"	"(126, 444)"	1	0	1449361.36	72	36
26	w	21	r	1	6	52	8	"(570, 692)"	"(563, 681)"	1	0	1450170.45	72	36
26	w	21	r	1	6	52	8	"(570, 692)"	"(563, 681)"	1	    5.86	1450170.45	72	36
26	w	21	r	1	6	53	1	"(889, 669)"	"(862, 678)"	1	0	1455056.12	72	36
26	w	21	r	1	6	53	2	"(261, 181)"	"(282, 198)"	1	0	1455640.93	72	36
26	w	21	r	1	6	53	3	"(261, 638)"	"(270, 667)"	1	0	1456210.05	72	36
26	w	21	r	1	6	53	4	"(922, 433)"	"(954, 445)"	1	0	1456786.70	72	36
26	w	21	r	1	6	53	5	"(572, 88)"	"(562, 77)"	1	0	1457528.24	72	36
26	w	21	r	1	6	53	6	"(884, 76)"	"(861, 75)"	1	0	1458202.05	72	36
26	w	21	r	1	6	53	7	"(103, 437)"	"(103, 425)"	1	0	1458678.93	72	36
26	w	21	r	1	6	53	8	"(570, 692)"	"(582, 712)"	1	0	1459322.18	72	36
26	w	21	r	1	6	53	8	"(570, 692)"	"(582, 712)"	1	    5.09	1459322.18	72	36
26	w	21	r	1	6	54	1	"(889, 669)"	"(907, 677)"	1	0	1465162.50	72	36
26	w	21	r	1	6	54	2	"(261, 181)"	"(278, 191)"	1	0	1465883.55	72	36
26	w	21	r	1	6	54	3	"(261, 638)"	"(252, 639)"	1	0	1466480.29	72	36
26	w	21	r	1	6	54	4	"(922, 433)"	"(932, 425)"	1	0	1467065.06	72	36
26	w	21	r	1	6	54	5	"(572, 88)"	"(565, 108)"	1	0	1467728.79	72	36
26	w	21	r	1	6	54	6	"(884, 76)"	"(863, 87)"	1	0	1468169.24	72	36
26	w	21	r	1	6	54	7	"(103, 437)"	"(113, 441)"	1	0	1468808.36	72	36
26	w	21	r	1	6	54	8	"(570, 692)"	"(593, 692)"	1	0	1469267.08	72	36
26	w	21	r	1	6	54	8	"(570, 692)"	"(593, 692)"	1	    5.39	1469267.08	72	36
26	w	21	r	1	6	55	1	"(889, 669)"	"(903, 666)"	1	0	1472721.08	72	36
26	w	21	r	1	6	55	2	"(261, 181)"	"(245, 156)"	1	0	1473466.15	72	36
26	w	21	r	1	6	55	3	"(261, 638)"	"(269, 653)"	1	0	1473953.05	72	36
26	w	21	r	1	6	55	4	"(922, 433)"	"(932, 433)"	1	0	1474503.92	72	36
26	w	21	r	1	6	55	5	"(572, 88)"	"(590, 99)"	1	0	1474960.72	72	36
26	w	21	r	1	6	55	6	"(884, 76)"	"(870, 81)"	1	0	1475506.90	72	36
26	w	21	r	1	6	55	7	"(103, 437)"	"(118, 454)"	1	0	1476176.74	72	36
26	w	21	r	1	6	55	8	"(570, 692)"	"(567, 707)"	1	0	1476657.59	72	36
26	w	21	r	1	6	55	8	"(570, 692)"	"(567, 707)"	1	    4.83	1476657.59	72	36
26	w	21	r	1	6	56	1	"(889, 669)"	"(895, 687)"	1	0	1482302.20	72	36
26	w	21	r	1	6	56	2	"(261, 181)"	"(250, 195)"	1	0	1483003.74	72	36
26	w	21	r	1	6	56	3	"(261, 638)"	"(264, 610)"	1	0	1483562.02	72	36
26	w	21	r	1	6	56	4	"(922, 433)"	"(903, 432)"	1	0	1484245.46	72	36
26	w	21	r	1	6	56	5	"(572, 88)"	"(553, 80)"	1	0	1484801.09	72	36
26	w	21	r	1	6	56	6	"(884, 76)"	"(895, 78)"	1	0	1485450.02	72	36
26	w	21	r	1	6	56	7	"(103, 437)"	"(97, 474)"	1	0	1486130.26	72	36
26	w	21	r	1	6	56	8	"(570, 692)"	"(582, 720)"	1	0	1486705.13	72	36
26	w	21	r	1	6	56	8	"(570, 692)"	"(582, 720)"	1	    5.08	1486705.13	72	36
26	w	21	r	1	6	57	1	"(889, 669)"	"(904, 706)"	1	0	1493440.91	72	36
26	w	21	r	1	6	57	2	"(261, 181)"	"(260, 193)"	1	0	1494018.95	72	36
26	w	21	r	1	6	57	3	"(261, 638)"	"(273, 610)"	1	0	1494691.47	72	36
26	w	21	r	1	6	57	4	"(922, 433)"	"(908, 444)"	1	0	1495193.00	72	36
26	w	21	r	1	6	57	5	"(572, 88)"	"(592, 85)"	1	0	1495601.69	72	36
26	w	21	r	1	6	57	6	"(884, 76)"	"(848, 77)"	1	0	1496067.62	72	36
26	w	21	r	1	6	57	7	"(103, 437)"	"(92, 425)"	1	0	1496747.31	72	36
26	w	21	r	1	6	57	8	"(570, 692)"	"(593, 711)"	1	0	1497276.03	72	36
26	w	21	r	1	6	57	8	"(570, 692)"	"(593, 711)"	1	    4.95	1497276.03	72	36
26	w	21	r	1	6	58	1	"(889, 669)"	"(901, 711)"	1	0	1501075.63	72	36
26	w	21	r	1	6	58	2	"(261, 181)"	"(287, 195)"	1	0	1501814.51	72	36
26	w	21	r	1	6	58	3	"(261, 638)"	"(262, 667)"	1	0	1502354.28	72	36
26	w	21	r	1	6	58	4	"(922, 433)"	"(943, 439)"	1	0	1502898.33	72	36
26	w	21	r	1	6	58	5	"(572, 88)"	"(596, 103)"	1	0	1503490.01	72	36
26	w	21	r	1	6	58	6	"(884, 76)"	"(860, 83)"	1	0	1503954.38	72	36
26	w	21	r	1	6	58	7	"(103, 437)"	"(120, 461)"	1	0	1504557.44	72	36
26	w	21	r	1	6	58	8	"(570, 692)"	"(555, 718)"	1	0	1505132.63	72	36
26	w	21	r	1	6	58	8	"(570, 692)"	"(555, 718)"	1	    5.04	1505132.63	72	36
26	w	21	r	1	6	59	1	"(889, 669)"	"(913, 677)"	1	0	1508411.15	72	36
26	w	21	r	1	6	59	2	"(261, 181)"	"(243, 197)"	1	0	1508986.51	72	36
26	w	21	r	1	6	59	3	"(261, 638)"	"(248, 640)"	1	0	1509498.46	72	36
26	w	21	r	1	6	59	4	"(922, 433)"	"(918, 436)"	1	0	1510013.03	72	36
26	w	21	r	1	6	59	5	"(572, 88)"	"(566, 92)"	1	0	1510573.11	72	36
26	w	21	r	1	6	59	6	"(884, 76)"	"(906, 90)"	1	0	1511026.04	72	36
26	w	21	r	1	6	59	7	"(103, 437)"	"(109, 426)"	1	0	1511627.50	72	36
26	w	21	r	1	6	59	8	"(570, 692)"	"(545, 691)"	1	0	1512042.76	72	36
26	w	21	r	1	6	59	8	"(570, 692)"	"(545, 691)"	1	    4.35	1512042.76	72	36
26	w	21	r	1	6	60	1	"(889, 669)"	"(906, 670)"	1	0	1519285.39	72	36
26	w	21	r	1	6	60	2	"(261, 181)"	"(300, 206)"	1	0	1519933.44	72	36
26	w	21	r	1	6	60	3	"(261, 638)"	"(282, 658)"	1	0	1520377.18	72	36
26	w	21	r	1	6	60	4	"(922, 433)"	"(933, 411)"	1	0	1520780.00	72	36
26	w	21	r	1	6	60	5	"(572, 88)"	"(596, 105)"	1	0	1521437.11	72	36
26	w	21	r	1	6	60	6	"(884, 76)"	"(881, 92)"	1	0	1521852.65	72	36
26	w	21	r	1	6	60	7	"(103, 437)"	"(91, 454)"	1	0	1522397.85	72	36
26	w	21	r	1	6	60	8	"(570, 692)"	"(572, 730)"	1	0	1522770.66	72	36
26	w	21	r	1	6	60	8	"(570, 692)"	"(572, 730)"	1	    4.19	1522770.66	72	36
26	w	21	r	2	7	61	1	"(889, 669)"	"(873, 696)"	1	0	1533435.60	72	36
26	w	21	r	2	7	61	2	"(261, 181)"	"(251, 202)"	1	0	1534060.89	72	36
26	w	21	r	2	7	61	3	"(884, 76)"	"(875, 68)"	1	0	1535509.50	72	36
26	w	21	r	2	7	61	4	"(922, 433)"	"(911, 398)"	1	0	1536577.40	72	36
26	w	21	r	2	7	61	5	"(572, 88)"	"(608, 101)"	1	0	1537470.03	72	36
26	w	21	r	2	7	61	6	"(261, 638)"	"(261, 636)"	1	0	1538291.81	72	36
26	w	21	r	2	7	61	7	"(103, 437)"	"(92, 431)"	1	0	1538787.81	72	36
26	w	21	r	2	7	61	8	"(570, 692)"	"(606, 692)"	1	0	1539349.55	72	36
26	w	21	r	2	7	61	8	"(570, 692)"	"(606, 692)"	1	    6.71	1539349.55	72	36
26	w	21	r	2	7	62	1	"(889, 669)"	"(858, 680)"	1	0	1543844.51	72	36
26	w	21	r	2	7	62	2	"(261, 181)"	"(271, 186)"	1	0	1545628.85	72	36
26	w	21	r	2	7	62	3	"(884, 76)"	"(881, 93)"	1	0	1546244.12	72	36
26	w	21	r	2	7	62	4	"(922, 433)"	"(909, 425)"	1	0	1546917.29	72	36
26	w	21	r	2	7	62	5	"(572, 88)"	"(554, 92)"	1	0	1547528.10	72	36
26	w	21	r	2	7	62	6	"(261, 638)"	"(281, 642)"	1	0	1548145.54	72	36
26	w	21	r	2	7	62	7	"(103, 437)"	"(137, 443)"	1	0	1548549.76	72	36
26	w	21	r	2	7	62	8	"(570, 692)"	"(606, 712)"	1	0	1549167.25	72	36
26	w	21	r	2	7	62	8	"(570, 692)"	"(606, 712)"	1	    6.28	1549167.25	72	36
26	w	21	r	2	7	63	1	"(889, 669)"	"(885, 680)"	1	0	1554199.91	72	36
26	w	21	r	2	7	63	2	"(261, 181)"	"(283, 205)"	1	0	1554980.41	72	36
26	w	21	r	2	7	63	3	"(884, 76)"	"(860, 68)"	1	0	1555758.46	72	36
26	w	21	r	2	7	63	4	"(922, 433)"	"(920, 428)"	10	0	1564158.60	72	36
26	w	21	r	2	7	63	5	"(572, 88)"	"(570, 111)"	1	0	1564952.77	72	36
26	w	21	r	2	7	63	6	"(261, 638)"	"(257, 641)"	1	0	1566141.32	72	36
26	w	21	r	2	7	63	7	"(103, 437)"	"(87, 437)"	1	0	1567126.43	72	36
26	w	21	r	2	7	63	8	"(570, 692)"	"(571, 692)"	1	0	1567720.36	72	36
26	w	21	r	2	7	63	8	"(570, 692)"	"(571, 692)"	1	   14.25	1567720.36	72	36
26	w	21	r	2	7	64	1	"(889, 669)"	"(880, 674)"	1	0	1575054.23	72	36
26	w	21	r	2	7	64	2	"(261, 181)"	"(224, 161)"	1	0	1575734.93	72	36
26	w	21	r	2	7	64	3	"(884, 76)"	"(867, 83)"	1	0	1576478.68	72	36
26	w	21	r	2	7	64	4	"(922, 433)"	"(916, 425)"	1	0	1577045.79	72	36
26	w	21	r	2	7	64	5	"(572, 88)"	"(596, 77)"	1	0	1577638.11	72	36
26	w	21	r	2	7	64	6	"(261, 638)"	"(291, 638)"	1	0	1578318.37	72	36
26	w	21	r	2	7	64	7	"(103, 437)"	"(95, 445)"	1	0	1578910.34	72	36
26	w	21	r	2	7	64	8	"(570, 692)"	"(551, 691)"	1	0	1579478.84	72	36
26	w	21	r	2	7	64	8	"(570, 692)"	"(551, 691)"	1	    5.24	1579478.84	72	36
26	w	21	r	2	7	65	1	"(889, 669)"	"(870, 671)"	1	0	1591071.76	72	36
26	w	21	r	2	7	65	2	"(261, 181)"	"(265, 191)"	1	0	1591679.41	72	36
26	w	21	r	2	7	65	3	"(884, 76)"	"(850, 84)"	1	0	1592689.32	72	36
26	w	21	r	2	7	65	4	"(922, 433)"	"(921, 450)"	1	0	1593329.77	72	36
26	w	21	r	2	7	65	5	"(572, 88)"	"(591, 108)"	1	0	1593962.98	72	36
26	w	21	r	2	7	65	6	"(261, 638)"	"(290, 640)"	1	0	1594727.78	72	36
26	w	21	r	2	7	65	7	"(103, 437)"	"(122, 449)"	1	0	1595558.56	72	36
26	w	21	r	2	7	65	8	"(570, 692)"	"(566, 698)"	1	0	1596126.58	72	36
26	w	21	r	2	7	65	8	"(570, 692)"	"(566, 698)"	1	    6.08	1596126.58	72	36
26	w	21	r	2	7	66	1	"(889, 669)"	"(887, 673)"	1	0	1602255.27	72	36
26	w	21	r	2	7	66	2	"(261, 181)"	"(247, 175)"	1	0	1603089.43	72	36
26	w	21	r	2	7	66	3	"(884, 76)"	"(876, 82)"	1	0	1603674.77	72	36
26	w	21	r	2	7	66	4	"(922, 433)"	"(932, 453)"	1	0	1604216.61	72	36
26	w	21	r	2	7	66	5	"(572, 88)"	"(575, 95)"	1	0	1604892.31	72	36
26	w	21	r	2	7	66	6	"(261, 638)"	"(283, 652)"	1	0	1605879.41	72	36
26	w	21	r	2	7	66	7	"(103, 437)"	"(87, 432)"	1	0	1606466.44	72	36
26	w	21	r	2	7	66	8	"(570, 692)"	"(585, 702)"	1	0	1607039.45	72	36
26	w	21	r	2	7	66	8	"(570, 692)"	"(585, 702)"	1	    5.49	1607039.45	72	36
26	w	21	r	2	7	67	1	"(889, 669)"	"(881, 698)"	1	0	1612567.15	72	36
26	w	21	r	2	7	67	2	"(261, 181)"	"(278, 189)"	1	0	1613288.23	72	36
26	w	21	r	2	7	67	3	"(884, 76)"	"(889, 90)"	1	0	1614058.11	72	36
26	w	21	r	2	7	67	4	"(922, 433)"	"(901, 451)"	1	0	1614563.02	72	36
26	w	21	r	2	7	67	5	"(572, 88)"	"(581, 104)"	1	0	1615176.63	72	36
26	w	21	r	2	7	67	6	"(261, 638)"	"(289, 641)"	1	0	1615945.45	72	36
26	w	21	r	2	7	67	7	"(103, 437)"	"(108, 463)"	1	0	1616754.41	72	36
26	w	21	r	2	7	67	8	"(570, 692)"	"(552, 708)"	1	0	1617272.77	72	36
26	w	21	r	2	7	67	8	"(570, 692)"	"(552, 708)"	1	    5.50	1617272.77	72	36
26	w	21	r	2	7	68	1	"(889, 669)"	"(897, 675)"	1	0	1620731.01	72	36
26	w	21	r	2	7	68	2	"(261, 181)"	"(259, 186)"	1	0	1621578.55	72	36
26	w	21	r	2	7	68	3	"(884, 76)"	"(868, 62)"	1	0	1622408.87	72	36
26	w	21	r	2	7	68	4	"(922, 433)"	"(933, 467)"	1	0	1622929.68	72	36
26	w	21	r	2	7	68	5	"(572, 88)"	"(593, 101)"	1	0	1623434.00	72	36
26	w	21	r	2	7	68	6	"(261, 638)"	"(272, 630)"	1	0	1623977.27	72	36
26	w	21	r	2	7	68	7	"(103, 437)"	"(120, 415)"	1	0	1624339.12	72	36
26	w	21	r	2	7	68	8	"(570, 692)"	"(541, 700)"	1	0	1624747.46	72	36
26	w	21	r	2	7	68	8	"(570, 692)"	"(541, 700)"	1	    4.97	1624747.46	72	36
26	w	21	r	2	7	69	1	"(889, 669)"	"(869, 681)"	1	0	1628819.36	72	36
26	w	21	r	2	7	69	2	"(261, 181)"	"(251, 173)"	1	0	1629665.04	72	36
26	w	21	r	2	7	69	3	"(884, 76)"	"(865, 77)"	1	0	1630449.64	72	36
26	w	21	r	2	7	69	4	"(922, 433)"	"(924, 411)"	1	0	1631077.35	72	36
26	w	21	r	2	7	69	5	"(572, 88)"	"(557, 85)"	1	0	1631842.08	72	36
26	w	21	r	2	7	69	6	"(261, 638)"	"(293, 625)"	1	0	1632627.45	72	36
26	w	21	r	2	7	69	7	"(103, 437)"	"(129, 438)"	1	0	1633193.54	72	36
26	w	21	r	2	7	69	8	"(570, 692)"	"(541, 669)"	1	0	1633737.02	72	36
26	w	21	r	2	7	69	8	"(570, 692)"	"(541, 669)"	1	    5.73	1633737.02	72	36
26	w	21	r	2	7	70	1	"(889, 669)"	"(887, 675)"	1	0	1638132.21	72	36
26	w	21	r	2	7	70	2	"(261, 181)"	"(241, 194)"	1	0	1639051.65	72	36
26	w	21	r	2	7	70	3	"(884, 76)"	"(872, 89)"	1	0	1639700.34	72	36
26	w	21	r	2	7	70	4	"(922, 433)"	"(915, 442)"	1	0	1640129.78	72	36
26	w	21	r	2	7	70	5	"(572, 88)"	"(599, 105)"	1	0	1640955.02	72	36
26	w	21	r	2	7	70	6	"(261, 638)"	"(259, 667)"	1	0	1641644.85	72	36
26	w	21	r	2	7	70	7	"(103, 437)"	"(110, 442)"	1	0	1642210.68	72	36
26	w	21	r	2	7	70	8	"(570, 692)"	"(593, 699)"	1	0	1642796.33	72	36
26	w	21	r	2	7	70	8	"(570, 692)"	"(593, 699)"	1	    5.49	1642796.33	72	36
26	w	21	r	2	8	71	1	"(889, 669)"	"(887, 651)"	1	0	1651569.72	72	36
26	w	21	r	2	8	71	2	"(261, 181)"	"(259, 180)"	1	0	1652180.32	72	36
26	w	21	r	2	8	71	3	"(884, 76)"	"(876, 87)"	1	0	1652747.72	72	36
26	w	21	r	2	8	71	4	"(922, 433)"	"(916, 417)"	1	0	1653242.86	72	36
26	w	21	r	2	8	71	5	"(572, 88)"	"(591, 93)"	1	0	1653835.94	72	36
26	w	21	r	2	8	71	6	"(261, 638)"	"(288, 639)"	1	0	1654572.01	72	36
26	w	21	r	2	8	71	7	"(103, 437)"	"(116, 432)"	1	0	1655153.80	72	36
26	w	21	r	2	8	71	8	"(570, 692)"	"(577, 683)"	1	0	1655762.64	72	36
26	w	21	r	2	8	71	8	"(570, 692)"	"(577, 683)"	1	    5.12	1655762.64	72	36
26	w	21	r	2	8	72	1	"(889, 669)"	"(887, 685)"	1	0	1661708.75	72	36
26	w	21	r	2	8	72	2	"(261, 181)"	"(236, 174)"	1	0	1662345.96	72	36
26	w	21	r	2	8	72	3	"(884, 76)"	"(893, 66)"	1	0	1663059.72	72	36
26	w	21	r	2	8	72	4	"(922, 433)"	"(931, 463)"	1	0	1663675.55	72	36
26	w	21	r	2	8	72	5	"(572, 88)"	"(547, 90)"	1	0	1664218.62	72	36
26	w	21	r	2	8	72	6	"(261, 638)"	"(271, 672)"	1	0	1664815.57	72	36
26	w	21	r	2	8	72	7	"(103, 437)"	"(96, 412)"	1	0	1665348.40	72	36
26	w	21	r	2	8	72	8	"(570, 692)"	"(585, 692)"	1	0	1665884.38	72	36
26	w	21	r	2	8	72	8	"(570, 692)"	"(585, 692)"	1	    4.81	1665884.38	72	36
26	w	21	r	2	8	73	1	"(889, 669)"	"(883, 697)"	1	0	1670125.50	72	36
26	w	21	r	2	8	73	2	"(261, 181)"	"(276, 172)"	1	0	1670707.67	72	36
26	w	21	r	2	8	73	3	"(884, 76)"	"(891, 69)"	1	0	1671403.75	72	36
26	w	21	r	2	8	73	4	"(922, 433)"	"(922, 417)"	1	0	1671860.28	72	36
26	w	21	r	2	8	73	5	"(572, 88)"	"(571, 100)"	1	0	1672445.77	72	36
26	w	21	r	2	8	73	6	"(261, 638)"	"(274, 677)"	1	0	1673359.66	72	36
26	w	21	r	2	8	73	7	"(103, 437)"	"(124, 461)"	1	0	1674157.79	72	36
26	w	21	r	2	8	73	8	"(570, 692)"	"(578, 708)"	2	0	1675115.18	72	36
26	w	21	r	2	8	73	8	"(570, 692)"	"(578, 708)"	2	    5.66	1675115.18	72	36
26	w	21	r	2	8	74	1	"(889, 669)"	"(859, 652)"	1	0	1678410.83	72	36
26	w	21	r	2	8	74	2	"(261, 181)"	"(290, 180)"	1	0	1679390.30	72	36
26	w	21	r	2	8	74	3	"(884, 76)"	"(869, 88)"	1	0	1679998.45	72	36
26	w	21	r	2	8	74	4	"(922, 433)"	"(900, 432)"	1	0	1680478.95	72	36
26	w	21	r	2	8	74	5	"(572, 88)"	"(557, 71)"	1	0	1681077.60	72	36
26	w	21	r	2	8	74	6	"(261, 638)"	"(285, 630)"	1	0	1681695.11	72	36
26	w	21	r	2	8	74	7	"(103, 437)"	"(110, 439)"	1	0	1682278.62	72	36
26	w	21	r	2	8	74	8	"(570, 692)"	"(576, 691)"	1	0	1682813.80	72	36
26	w	21	r	2	8	74	8	"(570, 692)"	"(576, 691)"	1	    5.19	1682813.80	72	36
26	w	21	r	2	8	75	1	"(889, 669)"	"(869, 663)"	1	0	1687749.58	72	36
26	w	21	r	2	8	75	2	"(261, 181)"	"(273, 178)"	1	0	1688749.42	72	36
26	w	21	r	2	8	75	3	"(884, 76)"	"(900, 70)"	1	0	1689566.80	72	36
26	w	21	r	2	8	75	4	"(922, 433)"	"(936, 437)"	1	0	1690165.76	72	36
26	w	21	r	2	8	75	5	"(572, 88)"	"(574, 109)"	1	0	1690739.97	72	36
26	w	21	r	2	8	75	6	"(261, 638)"	"(273, 657)"	1	0	1691429.78	72	36
26	w	21	r	2	8	75	7	"(103, 437)"	"(136, 434)"	1	0	1692453.21	72	36
26	w	21	r	2	8	75	8	"(570, 692)"	"(572, 677)"	1	0	1693319.07	72	36
26	w	21	r	2	8	75	8	"(570, 692)"	"(572, 677)"	1	    6.58	1693319.07	72	36
26	w	21	r	2	8	76	1	"(889, 669)"	"(916, 666)"	1	0	1698428.66	72	36
26	w	21	r	2	8	76	2	"(261, 181)"	"(275, 170)"	1	0	1699404.67	72	36
26	w	21	r	2	8	76	3	"(884, 76)"	"(895, 61)"	1	0	1700095.58	72	36
26	w	21	r	2	8	76	4	"(922, 433)"	"(937, 445)"	1	0	1700736.96	72	36
26	w	21	r	2	8	76	5	"(572, 88)"	"(569, 98)"	1	0	1701383.88	72	36
26	w	21	r	2	8	76	6	"(261, 638)"	"(281, 629)"	1	0	1702198.02	72	36
26	w	21	r	2	8	76	7	"(103, 437)"	"(118, 449)"	1	0	1702742.23	72	36
26	w	21	r	2	8	76	8	"(570, 692)"	"(596, 678)"	1	0	1703231.83	72	36
26	w	21	r	2	8	76	8	"(570, 692)"	"(596, 678)"	1	    5.65	1703231.83	72	36
26	w	21	r	2	8	77	1	"(889, 669)"	"(908, 674)"	1	0	1708008.93	72	36
26	w	21	r	2	8	77	2	"(261, 181)"	"(280, 168)"	1	0	1708804.46	72	36
26	w	21	r	2	8	77	3	"(884, 76)"	"(898, 62)"	1	0	1709608.24	72	36
26	w	21	r	2	8	77	4	"(922, 433)"	"(916, 431)"	1	0	1710183.68	72	36
26	w	21	r	2	8	77	5	"(572, 88)"	"(559, 101)"	1	0	1710673.15	72	36
26	w	21	r	2	8	77	6	"(261, 638)"	"(258, 639)"	1	0	1711344.80	72	36
26	w	21	r	2	8	77	7	"(103, 437)"	"(115, 447)"	1	0	1712027.83	72	36
26	w	21	r	2	8	77	8	"(570, 692)"	"(591, 714)"	2	0	1712895.41	72	36
26	w	21	r	2	8	77	8	"(570, 692)"	"(591, 714)"	2	    6.22	1712895.41	72	36
26	w	21	r	2	8	78	1	"(889, 669)"	"(883, 681)"	1	0	1715734.56	72	36
26	w	21	r	2	8	78	2	"(261, 181)"	"(265, 166)"	1	0	1716238.00	72	36
26	w	21	r	2	8	78	3	"(884, 76)"	"(889, 87)"	1	0	1717008.91	72	36
26	w	21	r	2	8	78	4	"(922, 433)"	"(915, 426)"	1	0	1717425.22	72	36
26	w	21	r	2	8	78	5	"(572, 88)"	"(561, 89)"	1	0	1718109.81	72	36
26	w	21	r	2	8	78	6	"(261, 638)"	"(225, 646)"	1	0	1718728.26	72	36
26	w	21	r	2	8	78	7	"(103, 437)"	"(131, 437)"	1	0	1719119.80	72	36
26	w	21	r	2	8	78	8	"(570, 692)"	"(608, 692)"	1	0	1719677.85	72	36
26	w	21	r	2	8	78	8	"(570, 692)"	"(608, 692)"	1	    4.77	1719677.85	72	36
26	w	21	r	2	8	79	1	"(889, 669)"	"(878, 667)"	1	0	1725550.42	72	36
26	w	21	r	2	8	79	2	"(261, 181)"	"(260, 168)"	1	0	1726199.08	72	36
26	w	21	r	2	8	79	3	"(884, 76)"	"(890, 58)"	1	0	1727509.72	72	36
26	w	21	r	2	8	79	4	"(922, 433)"	"(898, 397)"	1	0	1728287.22	72	36
26	w	21	r	2	8	79	5	"(572, 88)"	"(588, 89)"	1	0	1728879.22	72	36
26	w	21	r	2	8	79	6	"(261, 638)"	"(244, 654)"	1	0	1729633.18	72	36
26	w	21	r	2	8	79	7	"(103, 437)"	"(129, 454)"	1	0	1730217.42	72	36
26	w	21	r	2	8	79	8	"(570, 692)"	"(540, 665)"	1	0	1730810.14	72	36
26	w	21	r	2	8	79	8	"(570, 692)"	"(540, 665)"	1	    5.97	1730810.14	72	36
26	w	21	r	2	8	80	1	"(889, 669)"	"(883, 636)"	1	0	1734439.20	72	36
26	w	21	r	2	8	80	2	"(261, 181)"	"(233, 182)"	1	0	1735326.82	72	36
26	w	21	r	2	8	80	3	"(884, 76)"	"(882, 60)"	1	0	1736112.93	72	36
26	w	21	r	2	8	80	4	"(922, 433)"	"(916, 444)"	1	0	1736614.87	72	36
26	w	21	r	2	8	80	5	"(572, 88)"	"(597, 96)"	1	0	1737239.51	72	36
26	w	21	r	2	8	80	6	"(261, 638)"	"(249, 643)"	1	0	1738041.52	72	36
26	w	21	r	2	8	80	7	"(103, 437)"	"(118, 455)"	1	0	1738529.14	72	36
26	w	21	r	2	8	80	8	"(570, 692)"	"(563, 714)"	1	0	1739072.09	72	36
26	w	21	r	2	8	80	8	"(570, 692)"	"(563, 714)"	1	    5.31	1739072.09	72	36
26	w	21	r	3	9	81	1	"(889, 669)"	"(915, 670)"	1	0	1743879.70	72	36
26	w	21	r	3	9	81	2	"(261, 181)"	"(280, 187)"	1	0	1744670.95	72	36
26	w	21	r	3	9	81	3	"(261, 638)"	"(267, 658)"	1	0	1746543.29	72	36
26	w	21	r	3	9	81	4	"(922, 433)"	"(929, 456)"	1	0	1747256.93	72	36
26	w	21	r	3	9	81	5	"(572, 88)"	"(580, 80)"	1	0	1747913.37	72	36
26	w	21	r	3	9	81	6	"(884, 76)"	"(881, 55)"	1	0	1748383.85	72	36
26	w	21	r	3	9	81	7	"(103, 437)"	"(109, 445)"	3	0	1750967.47	72	36
26	w	21	r	3	9	81	8	"(570, 692)"	"(602, 694)"	1	0	1751504.03	72	36
26	w	21	r	3	9	81	8	"(570, 692)"	"(602, 694)"	1	    8.26	1751504.03	72	36
26	w	21	r	3	9	82	1	"(889, 669)"	"(875, 663)"	1	0	1754777.22	72	36
26	w	21	r	3	9	82	2	"(261, 181)"	"(254, 194)"	1	0	1755450.76	72	36
26	w	21	r	3	9	82	3	"(261, 638)"	"(290, 649)"	1	0	1756593.79	72	36
26	w	21	r	3	9	82	4	"(922, 433)"	"(932, 444)"	1	0	1757609.09	72	36
26	w	21	r	3	9	82	5	"(572, 88)"	"(597, 88)"	1	0	1758367.03	72	36
26	w	21	r	3	9	82	6	"(884, 76)"	"(886, 73)"	1	0	1758888.19	72	36
26	w	21	r	3	9	82	7	"(103, 437)"	"(106, 430)"	1	0	1760159.94	72	36
26	w	21	r	3	9	82	8	"(570, 692)"	"(558, 681)"	1	0	1760920.92	72	36
26	w	21	r	3	9	82	8	"(570, 692)"	"(558, 681)"	1	    7.00	1760920.92	72	36
26	w	21	r	3	9	83	1	"(889, 669)"	"(911, 666)"	1	0	1768315.34	72	36
26	w	21	r	3	9	83	2	"(261, 181)"	"(270, 188)"	1	0	1769053.70	72	36
26	w	21	r	3	9	83	3	"(261, 638)"	"(269, 624)"	1	0	1769827.78	72	36
26	w	21	r	3	9	83	4	"(922, 433)"	"(910, 443)"	1	0	1770616.61	72	36
26	w	21	r	3	9	83	5	"(572, 88)"	"(580, 82)"	1	0	1771313.14	72	36
26	w	21	r	3	9	83	6	"(884, 76)"	"(904, 71)"	1	0	1771961.52	72	36
26	w	21	r	3	9	83	7	"(103, 437)"	"(75, 424)"	1	0	1772544.05	72	36
26	w	21	r	3	9	83	8	"(570, 692)"	"(541, 661)"	1	0	1773184.69	72	36
26	w	21	r	3	9	83	8	"(570, 692)"	"(541, 661)"	1	    6.10	1773184.69	72	36
26	w	21	r	3	9	84	1	"(889, 669)"	"(912, 679)"	1	0	1779896.92	72	36
26	w	21	r	3	9	84	2	"(261, 181)"	"(255, 193)"	1	0	1780577.33	72	36
26	w	21	r	3	9	84	3	"(261, 638)"	"(278, 653)"	1	0	1781458.32	72	36
26	w	21	r	3	9	84	4	"(922, 433)"	"(941, 415)"	1	0	1782106.53	72	36
26	w	21	r	3	9	84	5	"(572, 88)"	"(563, 96)"	1	0	1782635.13	72	36
26	w	21	r	3	9	84	6	"(884, 76)"	"(906, 75)"	1	0	1783163.21	72	36
26	w	21	r	3	9	84	7	"(103, 437)"	"(154, 427)"	1	0	1783708.34	72	36
26	w	21	r	3	9	84	8	"(570, 692)"	"(591, 664)"	1	0	1784433.05	72	36
26	w	21	r	3	9	84	8	"(570, 692)"	"(591, 664)"	1	    5.55	1784433.05	72	36
26	w	21	r	3	9	85	1	"(889, 669)"	"(865, 662)"	1	0	1788380.20	72	36
26	w	21	r	3	9	85	2	"(261, 181)"	"(256, 185)"	1	0	1789005.76	72	36
26	w	21	r	3	9	85	3	"(261, 638)"	"(272, 639)"	1	0	1789892.32	72	36
26	w	21	r	3	9	85	4	"(922, 433)"	"(939, 451)"	1	0	1790465.79	72	36
26	w	21	r	3	9	85	5	"(572, 88)"	"(572, 115)"	1	0	1791164.48	72	36
26	w	21	r	3	9	85	6	"(884, 76)"	"(912, 86)"	1	0	1791673.31	72	36
26	w	21	r	3	9	85	7	"(103, 437)"	"(112, 467)"	1	0	1792373.31	72	36
26	w	21	r	3	9	85	8	"(570, 692)"	"(552, 676)"	1	0	1793162.07	72	36
26	w	21	r	3	9	85	8	"(570, 692)"	"(552, 676)"	1	    5.54	1793162.07	72	36
26	w	21	r	3	9	86	1	"(889, 669)"	"(892, 642)"	1	0	1798834.59	72	36
26	w	21	r	3	9	86	2	"(261, 181)"	"(216, 179)"	1	0	1799531.74	72	36
26	w	21	r	3	9	86	3	"(261, 638)"	"(283, 632)"	1	0	1800394.37	72	36
26	w	21	r	3	9	86	4	"(922, 433)"	"(930, 441)"	1	0	1800971.72	72	36
26	w	21	r	3	9	86	5	"(572, 88)"	"(597, 80)"	1	0	1801693.59	72	36
26	w	21	r	3	9	86	6	"(884, 76)"	"(862, 65)"	1	0	1802213.62	72	36
26	w	21	r	3	9	86	7	"(103, 437)"	"(129, 438)"	1	0	1803098.96	72	36
26	w	21	r	3	9	86	8	"(570, 692)"	"(546, 681)"	1	0	1803898.38	72	36
26	w	21	r	3	9	86	8	"(570, 692)"	"(546, 681)"	1	    5.88	1803898.38	72	36
26	w	21	r	3	9	87	1	"(889, 669)"	"(906, 647)"	1	0	1808420.25	72	36
26	w	21	r	3	9	87	2	"(261, 181)"	"(282, 202)"	1	0	1809196.10	72	36
26	w	21	r	3	9	87	3	"(261, 638)"	"(286, 627)"	1	0	1809697.82	72	36
26	w	21	r	3	9	87	4	"(922, 433)"	"(954, 444)"	1	0	1810293.54	72	36
26	w	21	r	3	9	87	5	"(572, 88)"	"(594, 78)"	1	0	1810701.19	72	36
26	w	21	r	3	9	87	6	"(884, 76)"	"(901, 99)"	1	0	1811130.10	72	36
26	w	21	r	3	9	87	7	"(103, 437)"	"(130, 439)"	1	0	1811717.40	72	36
26	w	21	r	3	9	87	8	"(570, 692)"	"(599, 725)"	1	0	1812309.19	72	36
26	w	21	r	3	9	87	8	"(570, 692)"	"(599, 725)"	1	    4.59	1812309.19	72	36
26	w	21	r	3	9	88	1	"(889, 669)"	"(884, 679)"	1	0	1817364.15	72	36
26	w	21	r	3	9	88	2	"(261, 181)"	"(246, 190)"	1	0	1817909.87	72	36
26	w	21	r	3	9	88	3	"(261, 638)"	"(253, 631)"	1	0	1818502.44	72	36
26	w	21	r	3	9	88	4	"(922, 433)"	"(880, 421)"	6	0	1821916.45	72	36
26	w	21	r	3	9	88	5	"(572, 88)"	"(543, 60)"	1	0	1822406.27	72	36
26	w	21	r	3	9	88	6	"(884, 76)"	"(887, 74)"	1	0	1822965.96	72	36
26	w	21	r	3	9	88	7	"(103, 437)"	"(118, 435)"	1	0	1823413.62	72	36
26	w	21	r	3	9	88	8	"(570, 692)"	"(557, 696)"	1	0	1823874.02	72	36
26	w	21	r	3	9	88	8	"(570, 692)"	"(557, 696)"	1	    7.32	1823874.02	72	36
26	w	21	r	3	9	89	1	"(889, 669)"	"(894, 684)"	1	0	1829747.84	72	36
26	w	21	r	3	9	89	2	"(261, 181)"	"(272, 228)"	1	0	1830837.01	72	36
26	w	21	r	3	9	89	3	"(261, 638)"	"(283, 656)"	1	0	1831388.14	72	36
26	w	21	r	3	9	89	4	"(922, 433)"	"(896, 438)"	1	0	1832189.16	72	36
26	w	21	r	3	9	89	5	"(572, 88)"	"(597, 102)"	1	0	1832783.18	72	36
26	w	21	r	3	9	89	6	"(884, 76)"	"(861, 78)"	1	0	1833543.24	72	36
26	w	21	r	3	9	89	7	"(103, 437)"	"(122, 451)"	1	0	1834215.58	72	36
26	w	21	r	3	9	89	8	"(570, 692)"	"(582, 698)"	1	0	1834716.36	72	36
26	w	21	r	3	9	89	8	"(570, 692)"	"(582, 698)"	1	    6.11	1834716.36	72	36
26	w	21	r	3	9	90	1	"(889, 669)"	"(890, 651)"	1	0	1840733.87	72	36
26	w	21	r	3	9	90	2	"(261, 181)"	"(286, 187)"	1	0	1841527.98	72	36
26	w	21	r	3	9	90	3	"(261, 638)"	"(286, 625)"	1	0	1842150.04	72	36
26	w	21	r	3	9	90	4	"(922, 433)"	"(915, 423)"	1	0	1842901.37	72	36
26	w	21	r	3	9	90	5	"(572, 88)"	"(547, 91)"	1	0	1843476.34	72	36
26	w	21	r	3	9	90	6	"(884, 76)"	"(887, 83)"	1	0	1844063.27	72	36
26	w	21	r	3	9	90	7	"(103, 437)"	"(96, 418)"	1	0	1844615.44	72	36
26	w	21	r	3	9	90	8	"(570, 692)"	"(544, 703)"	1	0	1845103.84	72	36
26	w	21	r	3	9	90	8	"(570, 692)"	"(544, 703)"	1	    5.25	1845103.84	72	36
26	w	21	r	3	10	91	1	"(889, 669)"	"(873, 674)"	1	0	1855072.23	72	36
26	w	21	r	3	10	91	2	"(261, 181)"	"(256, 183)"	1	0	1855853.17	72	36
26	w	21	r	3	10	91	3	"(261, 638)"	"(266, 648)"	1	0	1856433.32	72	36
26	w	21	r	3	10	91	4	"(922, 433)"	"(912, 427)"	1	0	1857096.09	72	36
26	w	21	r	3	10	91	5	"(572, 88)"	"(588, 97)"	1	0	1858045.65	72	36
26	w	21	r	3	10	91	6	"(884, 76)"	"(895, 73)"	1	0	1858527.68	72	36
26	w	21	r	3	10	91	7	"(103, 437)"	"(139, 431)"	1	0	1859262.38	72	36
26	w	21	r	3	10	91	8	"(570, 692)"	"(558, 683)"	1	0	1859980.96	72	36
26	w	21	r	3	10	91	8	"(570, 692)"	"(558, 683)"	1	    5.83	1859980.96	72	36
26	w	21	r	3	10	92	1	"(889, 669)"	"(916, 666)"	1	0	1863670.29	72	36
26	w	21	r	3	10	92	2	"(261, 181)"	"(279, 176)"	1	0	1864223.75	72	36
26	w	21	r	3	10	92	3	"(261, 638)"	"(261, 642)"	1	0	1864839.55	72	36
26	w	21	r	3	10	92	4	"(922, 433)"	"(942, 441)"	1	0	1865519.56	72	36
26	w	21	r	3	10	92	5	"(572, 88)"	"(605, 76)"	1	0	1866088.80	72	36
26	w	21	r	3	10	92	6	"(884, 76)"	"(888, 74)"	1	0	1866633.19	72	36
26	w	21	r	3	10	92	7	"(103, 437)"	"(84, 435)"	1	0	1867288.42	72	36
26	w	21	r	3	10	92	8	"(570, 692)"	"(582, 677)"	1	0	1867847.87	72	36
26	w	21	r	3	10	92	8	"(570, 692)"	"(582, 677)"	1	    5.14	1867847.87	72	36
26	w	21	r	3	10	93	1	"(889, 669)"	"(899, 665)"	1	0	1871479.17	72	36
26	w	21	r	3	10	93	2	"(261, 181)"	"(252, 180)"	1	0	1872198.15	72	36
26	w	21	r	3	10	93	3	"(261, 638)"	"(259, 621)"	1	0	1873022.91	72	36
26	w	21	r	3	10	93	4	"(922, 433)"	"(903, 445)"	1	0	1873703.02	72	36
26	w	21	r	3	10	93	5	"(572, 88)"	"(540, 97)"	1	0	1874272.72	72	36
26	w	21	r	3	10	93	6	"(884, 76)"	"(890, 71)"	1	0	1874894.42	72	36
26	w	21	r	3	10	93	7	"(103, 437)"	"(98, 425)"	1	0	1875489.07	72	36
26	w	21	r	3	10	93	8	"(570, 692)"	"(578, 688)"	1	0	1875952.00	72	36
26	w	21	r	3	10	93	8	"(570, 692)"	"(578, 688)"	1	    5.32	1875952.00	72	36
26	w	21	r	3	10	94	1	"(889, 669)"	"(872, 666)"	1	0	1881193.64	72	36
26	w	21	r	3	10	94	2	"(261, 181)"	"(266, 175)"	1	0	1881919.86	72	36
26	w	21	r	3	10	94	3	"(261, 638)"	"(283, 628)"	1	0	1882735.94	72	36
26	w	21	r	3	10	94	4	"(922, 433)"	"(926, 426)"	1	0	1883303.58	72	36
26	w	21	r	3	10	94	5	"(572, 88)"	"(600, 94)"	1	0	1883943.07	72	36
26	w	21	r	3	10	94	6	"(884, 76)"	"(910, 77)"	1	0	1884641.15	72	36
26	w	21	r	3	10	94	7	"(103, 437)"	"(108, 479)"	1	0	1885342.49	72	36
26	w	21	r	3	10	94	8	"(570, 692)"	"(568, 699)"	1	0	1885985.91	72	36
26	w	21	r	3	10	94	8	"(570, 692)"	"(568, 699)"	1	    5.97	1885985.91	72	36
26	w	21	r	3	10	95	1	"(889, 669)"	"(867, 659)"	1	0	1891094.96	72	36
26	w	21	r	3	10	95	2	"(261, 181)"	"(237, 171)"	1	0	1892064.45	72	36
26	w	21	r	3	10	95	3	"(261, 638)"	"(265, 626)"	1	0	1892718.32	72	36
26	w	21	r	3	10	95	4	"(922, 433)"	"(919, 428)"	1	0	1893506.64	72	36
26	w	21	r	3	10	95	5	"(572, 88)"	"(571, 81)"	1	0	1894192.44	72	36
26	w	21	r	3	10	95	6	"(884, 76)"	"(896, 69)"	1	0	1894698.32	72	36
26	w	21	r	3	10	95	7	"(103, 437)"	"(116, 457)"	1	0	1895504.91	72	36
26	w	21	r	3	10	95	8	"(570, 692)"	"(613, 676)"	1	0	1896232.07	72	36
26	w	21	r	3	10	95	8	"(570, 692)"	"(613, 676)"	1	    6.44	1896232.07	72	36
26	w	21	r	3	10	96	1	"(889, 669)"	"(901, 669)"	1	0	1901233.33	72	36
26	w	21	r	3	10	96	2	"(261, 181)"	"(264, 173)"	1	0	1901865.37	72	36
26	w	21	r	3	10	96	3	"(261, 638)"	"(258, 635)"	1	0	1902311.32	72	36
26	w	21	r	3	10	96	4	"(922, 433)"	"(969, 450)"	1	0	1902873.17	72	36
26	w	21	r	3	10	96	5	"(572, 88)"	"(555, 86)"	1	0	1903578.19	72	36
26	w	21	r	3	10	96	6	"(884, 76)"	"(905, 73)"	1	0	1904536.08	72	36
26	w	21	r	3	10	96	7	"(103, 437)"	"(98, 434)"	1	0	1905258.22	72	36
26	w	21	r	3	10	96	8	"(570, 692)"	"(587, 700)"	1	0	1905938.20	72	36
26	w	21	r	3	10	96	8	"(570, 692)"	"(587, 700)"	1	    5.45	1905938.20	72	36
26	w	21	r	3	10	97	1	"(889, 669)"	"(871, 663)"	1	0	1908904.74	72	36
26	w	21	r	3	10	97	2	"(261, 181)"	"(231, 175)"	1	0	1909586.02	72	36
26	w	21	r	3	10	97	3	"(261, 638)"	"(274, 660)"	1	0	1910311.83	72	36
26	w	21	r	3	10	97	4	"(922, 433)"	"(905, 440)"	1	0	1911016.59	72	36
26	w	21	r	3	10	97	5	"(572, 88)"	"(579, 100)"	1	0	1911579.02	72	36
26	w	21	r	3	10	97	6	"(884, 76)"	"(877, 92)"	1	0	1912019.61	72	36
26	w	21	r	3	10	97	7	"(103, 437)"	"(96, 450)"	1	0	1912707.93	72	36
26	w	21	r	3	10	97	8	"(570, 692)"	"(548, 683)"	1	0	1913161.45	72	36
26	w	21	r	3	10	97	8	"(570, 692)"	"(548, 683)"	1	    4.98	1913161.45	72	36
26	w	21	r	3	10	98	1	"(889, 669)"	"(899, 687)"	1	0	1916729.39	72	36
26	w	21	r	3	10	98	2	"(261, 181)"	"(290, 166)"	1	0	1917217.85	72	36
26	w	21	r	3	10	98	3	"(261, 638)"	"(282, 660)"	1	0	1917769.69	72	36
26	w	21	r	3	10	98	4	"(922, 433)"	"(926, 439)"	1	0	1918433.08	72	36
26	w	21	r	3	10	98	5	"(572, 88)"	"(560, 93)"	1	0	1919112.09	72	36
26	w	21	r	3	10	98	6	"(884, 76)"	"(865, 78)"	1	0	1919624.93	72	36
26	w	21	r	3	10	98	7	"(103, 437)"	"(116, 441)"	1	0	1920496.89	72	36
26	w	21	r	3	10	98	8	"(570, 692)"	"(582, 673)"	1	0	1921104.59	72	36
26	w	21	r	3	10	98	8	"(570, 692)"	"(582, 673)"	1	    5.21	1921104.59	72	36
26	w	21	r	3	10	99	1	"(889, 669)"	"(890, 644)"	1	0	1923712.22	72	36
26	w	21	r	3	10	99	2	"(261, 181)"	"(293, 185)"	1	0	1924194.29	72	36
26	w	21	r	3	10	99	3	"(261, 638)"	"(275, 624)"	1	0	1924992.46	72	36
26	w	21	r	3	10	99	4	"(922, 433)"	"(967, 431)"	1	0	1925579.58	72	36
26	w	21	r	3	10	99	5	"(572, 88)"	"(602, 97)"	1	0	1926273.16	72	36
26	w	21	r	3	10	99	6	"(884, 76)"	"(850, 78)"	1	0	1926900.61	72	36
26	w	21	r	3	10	99	7	"(103, 437)"	"(127, 438)"	1	0	1927587.27	72	36
26	w	21	r	3	10	99	8	"(570, 692)"	"(590, 677)"	1	0	1928010.72	72	36
26	w	21	r	3	10	99	8	"(570, 692)"	"(590, 677)"	1	    5.09	1928010.72	72	36
26	w	21	r	3	10	100	1	"(889, 669)"	"(900, 659)"	1	0	1930857.20	72	36
26	w	21	r	3	10	100	2	"(261, 181)"	"(257, 182)"	1	0	1931705.11	72	36
26	w	21	r	3	10	100	3	"(261, 638)"	"(249, 654)"	1	0	1932594.60	72	36
26	w	21	r	3	10	100	4	"(922, 433)"	"(917, 436)"	1	0	1933155.43	72	36
26	w	21	r	3	10	100	5	"(572, 88)"	"(564, 91)"	1	0	1933611.25	72	36
26	w	21	r	3	10	100	6	"(884, 76)"	"(885, 70)"	1	0	1934172.07	72	36
26	w	21	r	3	10	100	7	"(103, 437)"	"(143, 433)"	1	0	1934994.49	72	36
26	w	21	r	3	10	100	8	"(570, 692)"	"(550, 713)"	1	0	1935658.51	72	36
26	w	21	r	3	10	100	8	"(570, 692)"	"(550, 713)"	1	    5.67	1935658.51	72	36
