VPnr	VPgender	VPage	VPeyeDominance	Condition	Block	Trial	Number	LocNumberCurrent	LocClickCorrect	NrClicksPerCircle	TimeTrial	TimeClickCorrect	SizeCircles	ClickTolerance
27	m	26	l	1	1	0	1	"(889, 669)"	"(865, 665)"	1	0	2270260.50	72	36
27	m	26	l	1	1	0	2	"(261, 181)"	"(252, 167)"	1	0	2271722.43	72	36
27	m	26	l	1	1	0	3	"(884, 76)"	"(874, 85)"	1	0	2272746.20	72	36
27	m	26	l	1	1	0	4	"(922, 433)"	"(938, 446)"	1	0	2274402.04	72	36
27	m	26	l	1	1	0	5	"(572, 88)"	"(564, 94)"	1	0	2275426.49	72	36
27	m	26	l	1	1	0	6	"(261, 638)"	"(268, 647)"	1	0	2276363.23	72	36
27	m	26	l	1	1	0	7	"(103, 437)"	"(90, 439)"	3	0	2279572.33	72	36
27	m	26	l	1	1	0	8	"(570, 692)"	"(567, 695)"	1	0	2280700.38	72	36
27	m	26	l	1	1	0	8	"(570, 692)"	"(567, 695)"	1	   13.96	2280700.38	72	36
27	m	26	l	1	1	1	1	"(889, 669)"	"(917, 655)"	1	0	2295451.03	72	36
27	m	26	l	1	1	1	2	"(261, 181)"	"(268, 178)"	1	0	2296507.47	72	36
27	m	26	l	1	1	1	3	"(884, 76)"	"(874, 81)"	1	0	2297077.85	72	36
27	m	26	l	1	1	1	4	"(922, 433)"	"(949, 427)"	1	0	2297775.85	72	36
27	m	26	l	1	1	1	5	"(572, 88)"	"(567, 87)"	1	0	2298787.53	72	36
27	m	26	l	1	1	1	6	"(261, 638)"	"(266, 651)"	1	0	2299829.29	72	36
27	m	26	l	1	1	1	7	"(103, 437)"	"(94, 428)"	1	0	2300267.53	72	36
27	m	26	l	1	1	1	8	"(570, 692)"	"(584, 702)"	1	0	2300942.21	72	36
27	m	26	l	1	1	1	8	"(570, 692)"	"(584, 702)"	1	    7.33	2300942.21	72	36
27	m	26	l	1	1	2	1	"(889, 669)"	"(907, 671)"	1	0	2311950.02	72	36
27	m	26	l	1	1	2	2	"(261, 181)"	"(287, 179)"	1	0	2312630.47	72	36
27	m	26	l	1	1	2	3	"(884, 76)"	"(904, 89)"	1	0	2313483.42	72	36
27	m	26	l	1	1	2	4	"(922, 433)"	"(935, 459)"	1	0	2314075.75	72	36
27	m	26	l	1	1	2	5	"(572, 88)"	"(543, 88)"	1	0	2314895.23	72	36
27	m	26	l	1	1	2	6	"(261, 638)"	"(244, 638)"	1	0	2316044.63	72	36
27	m	26	l	1	1	2	7	"(103, 437)"	"(84, 417)"	1	0	2316627.97	72	36
27	m	26	l	1	1	2	8	"(570, 692)"	"(569, 712)"	1	0	2317583.20	72	36
27	m	26	l	1	1	2	8	"(570, 692)"	"(569, 712)"	1	    7.58	2317583.20	72	36
27	m	26	l	1	1	3	1	"(889, 669)"	"(894, 671)"	1	0	2322220.82	72	36
27	m	26	l	1	1	3	2	"(261, 181)"	"(215, 182)"	1	0	2322948.46	72	36
27	m	26	l	1	1	3	3	"(884, 76)"	"(874, 85)"	1	0	2323901.44	72	36
27	m	26	l	1	1	3	4	"(922, 433)"	"(897, 444)"	1	0	2325159.14	72	36
27	m	26	l	1	1	3	5	"(572, 88)"	"(560, 91)"	1	0	2326175.07	72	36
27	m	26	l	1	1	3	6	"(261, 638)"	"(271, 639)"	1	0	2327423.54	72	36
27	m	26	l	1	1	3	7	"(103, 437)"	"(104, 454)"	1	0	2328077.71	72	36
27	m	26	l	1	1	3	8	"(570, 692)"	"(593, 729)"	1	0	2328700.92	72	36
27	m	26	l	1	1	3	8	"(570, 692)"	"(593, 729)"	1	    7.76	2328700.92	72	36
27	m	26	l	1	1	4	1	"(889, 669)"	"(907, 676)"	1	0	2332678.58	72	36
27	m	26	l	1	1	4	2	"(261, 181)"	"(264, 182)"	1	0	2333733.98	72	36
27	m	26	l	1	1	4	3	"(884, 76)"	"(878, 78)"	1	0	2334668.84	72	36
27	m	26	l	1	1	4	4	"(922, 433)"	"(908, 441)"	1	0	2335262.34	72	36
27	m	26	l	1	1	4	5	"(572, 88)"	"(552, 93)"	1	0	2336604.56	72	36
27	m	26	l	1	1	4	6	"(261, 638)"	"(252, 662)"	1	0	2337287.86	72	36
27	m	26	l	1	1	4	7	"(103, 437)"	"(107, 458)"	1	0	2337967.88	72	36
27	m	26	l	1	1	4	8	"(570, 692)"	"(579, 705)"	1	0	2338668.56	72	36
27	m	26	l	1	1	4	8	"(570, 692)"	"(579, 705)"	1	    6.92	2338668.56	72	36
27	m	26	l	1	1	5	1	"(889, 669)"	"(932, 677)"	1	0	2341400.69	72	36
27	m	26	l	1	1	5	2	"(261, 181)"	"(259, 176)"	1	0	2342517.92	72	36
27	m	26	l	1	1	5	3	"(884, 76)"	"(885, 70)"	1	0	2343110.48	72	36
27	m	26	l	1	1	5	4	"(922, 433)"	"(928, 417)"	3	0	2345327.36	72	36
27	m	26	l	1	1	5	5	"(572, 88)"	"(561, 97)"	1	0	2346101.88	72	36
27	m	26	l	1	1	5	6	"(261, 638)"	"(255, 663)"	1	0	2347069.83	72	36
27	m	26	l	1	1	5	7	"(103, 437)"	"(99, 451)"	1	0	2347664.82	72	36
27	m	26	l	1	1	5	8	"(570, 692)"	"(604, 697)"	1	0	2348560.37	72	36
27	m	26	l	1	1	5	8	"(570, 692)"	"(604, 697)"	1	    8.09	2348560.37	72	36
27	m	26	l	1	1	6	1	"(889, 669)"	"(901, 662)"	1	0	2352420.82	72	36
27	m	26	l	1	1	6	2	"(261, 181)"	"(266, 177)"	1	0	2353245.79	72	36
27	m	26	l	1	1	6	3	"(884, 76)"	"(916, 78)"	1	0	2354125.92	72	36
27	m	26	l	1	1	6	4	"(922, 433)"	"(941, 434)"	1	0	2354983.18	72	36
27	m	26	l	1	1	6	5	"(572, 88)"	"(582, 90)"	1	0	2356401.45	72	36
27	m	26	l	1	1	6	6	"(261, 638)"	"(275, 638)"	1	0	2357127.53	72	36
27	m	26	l	1	1	6	7	"(103, 437)"	"(111, 403)"	1	0	2357705.62	72	36
27	m	26	l	1	1	6	8	"(570, 692)"	"(563, 710)"	1	0	2358529.78	72	36
27	m	26	l	1	1	6	8	"(570, 692)"	"(563, 710)"	1	    6.98	2358529.78	72	36
27	m	26	l	1	1	7	1	"(889, 669)"	"(906, 667)"	1	0	2365030.48	72	36
27	m	26	l	1	1	7	2	"(261, 181)"	"(267, 189)"	1	0	2365752.38	72	36
27	m	26	l	1	1	7	3	"(884, 76)"	"(918, 80)"	1	0	2366887.45	72	36
27	m	26	l	1	1	7	4	"(922, 433)"	"(929, 452)"	1	0	2367795.11	72	36
27	m	26	l	1	1	7	5	"(572, 88)"	"(583, 85)"	1	0	2368942.75	72	36
27	m	26	l	1	1	7	6	"(261, 638)"	"(283, 644)"	1	0	2369783.54	72	36
27	m	26	l	1	1	7	7	"(103, 437)"	"(102, 455)"	1	0	2370414.81	72	36
27	m	26	l	1	1	7	8	"(570, 692)"	"(589, 711)"	1	0	2371071.06	72	36
27	m	26	l	1	1	7	8	"(570, 692)"	"(589, 711)"	1	    6.92	2371071.06	72	36
27	m	26	l	1	1	8	1	"(889, 669)"	"(889, 703)"	1	0	2377095.81	72	36
27	m	26	l	1	1	8	2	"(261, 181)"	"(226, 191)"	1	0	2377792.21	72	36
27	m	26	l	1	1	8	3	"(884, 76)"	"(880, 88)"	1	0	2378513.79	72	36
27	m	26	l	1	1	8	4	"(922, 433)"	"(917, 429)"	1	0	2379066.43	72	36
27	m	26	l	1	1	8	5	"(572, 88)"	"(592, 98)"	1	0	2379882.39	72	36
27	m	26	l	1	1	8	6	"(261, 638)"	"(304, 652)"	1	0	2380503.86	72	36
27	m	26	l	1	1	8	7	"(103, 437)"	"(87, 436)"	1	0	2381303.94	72	36
27	m	26	l	1	1	8	8	"(570, 692)"	"(551, 652)"	1	0	2381960.30	72	36
27	m	26	l	1	1	8	8	"(570, 692)"	"(551, 652)"	1	    5.90	2381960.30	72	36
27	m	26	l	1	1	9	1	"(889, 669)"	"(891, 673)"	1	0	2388663.86	72	36
27	m	26	l	1	1	9	2	"(261, 181)"	"(264, 193)"	1	0	2389792.37	72	36
27	m	26	l	1	1	9	3	"(884, 76)"	"(860, 70)"	1	0	2390473.98	72	36
27	m	26	l	1	1	9	4	"(922, 433)"	"(939, 435)"	1	0	2391185.71	72	36
27	m	26	l	1	1	9	5	"(572, 88)"	"(565, 96)"	1	0	2392217.68	72	36
27	m	26	l	1	1	9	6	"(261, 638)"	"(265, 593)"	1	0	2392895.84	72	36
27	m	26	l	1	1	9	7	"(103, 437)"	"(104, 469)"	1	0	2393679.86	72	36
27	m	26	l	1	1	9	8	"(570, 692)"	"(591, 719)"	1	0	2394207.54	72	36
27	m	26	l	1	1	9	8	"(570, 692)"	"(591, 719)"	1	    6.29	2394207.54	72	36
27	m	26	l	1	1	10	1	"(889, 669)"	"(932, 659)"	1	0	2402024.42	72	36
27	m	26	l	1	1	10	2	"(261, 181)"	"(314, 191)"	1	0	2402960.39	72	36
27	m	26	l	1	1	10	3	"(884, 76)"	"(906, 87)"	1	0	2403705.07	72	36
27	m	26	l	1	1	10	4	"(922, 433)"	"(925, 448)"	1	0	2404338.63	72	36
27	m	26	l	1	1	10	5	"(572, 88)"	"(568, 83)"	1	0	2405321.32	72	36
27	m	26	l	1	1	10	6	"(261, 638)"	"(268, 641)"	1	0	2406184.52	72	36
27	m	26	l	1	1	10	7	"(103, 437)"	"(78, 446)"	1	0	2406682.48	72	36
27	m	26	l	1	1	10	8	"(570, 692)"	"(586, 691)"	1	0	2407203.37	72	36
27	m	26	l	1	1	10	8	"(570, 692)"	"(586, 691)"	1	    6.31	2407203.37	72	36
27	m	26	l	1	2	11	1	"(889, 669)"	"(852, 657)"	1	0	2412891.61	72	36
27	m	26	l	1	2	11	2	"(261, 181)"	"(272, 199)"	1	0	2413785.25	72	36
27	m	26	l	1	2	11	3	"(884, 76)"	"(898, 92)"	1	0	2414525.65	72	36
27	m	26	l	1	2	11	4	"(922, 433)"	"(923, 411)"	1	0	2415124.56	72	36
27	m	26	l	1	2	11	5	"(572, 88)"	"(573, 77)"	1	0	2415841.66	72	36
27	m	26	l	1	2	11	6	"(261, 638)"	"(262, 645)"	1	0	2416402.64	72	36
27	m	26	l	1	2	11	7	"(103, 437)"	"(84, 449)"	1	0	2416802.23	72	36
27	m	26	l	1	2	11	8	"(570, 692)"	"(573, 695)"	1	0	2417321.84	72	36
27	m	26	l	1	2	11	8	"(570, 692)"	"(573, 695)"	1	    5.26	2417321.84	72	36
27	m	26	l	1	2	12	1	"(889, 669)"	"(882, 682)"	1	0	2420636.29	72	36
27	m	26	l	1	2	12	2	"(261, 181)"	"(259, 215)"	1	0	2421209.50	72	36
27	m	26	l	1	2	12	3	"(884, 76)"	"(898, 73)"	1	0	2421961.45	72	36
27	m	26	l	1	2	12	4	"(922, 433)"	"(929, 420)"	2	0	2423562.78	72	36
27	m	26	l	1	2	12	5	"(572, 88)"	"(575, 77)"	1	0	2424082.34	72	36
27	m	26	l	1	2	12	6	"(261, 638)"	"(266, 624)"	1	0	2424893.67	72	36
27	m	26	l	1	2	12	7	"(103, 437)"	"(104, 440)"	1	0	2425418.19	72	36
27	m	26	l	1	2	12	8	"(570, 692)"	"(591, 718)"	1	0	2426018.72	72	36
27	m	26	l	1	2	12	8	"(570, 692)"	"(591, 718)"	1	    6.08	2426018.72	72	36
27	m	26	l	1	2	13	1	"(889, 669)"	"(885, 665)"	2	0	2437058.73	72	36
27	m	26	l	1	2	13	2	"(261, 181)"	"(264, 193)"	1	0	2437579.64	72	36
27	m	26	l	1	2	13	3	"(884, 76)"	"(882, 82)"	1	0	2438147.97	72	36
27	m	26	l	1	2	13	4	"(922, 433)"	"(928, 447)"	1	0	2438646.05	72	36
27	m	26	l	1	2	13	5	"(572, 88)"	"(596, 90)"	1	0	2439189.61	72	36
27	m	26	l	1	2	13	6	"(261, 638)"	"(277, 641)"	1	0	2439970.96	72	36
27	m	26	l	1	2	13	7	"(103, 437)"	"(88, 426)"	1	0	2440491.06	72	36
27	m	26	l	1	2	13	8	"(570, 692)"	"(579, 658)"	1	0	2441071.05	72	36
27	m	26	l	1	2	13	8	"(570, 692)"	"(579, 658)"	1	    6.83	2441071.05	72	36
27	m	26	l	1	2	14	1	"(889, 669)"	"(851, 689)"	1	0	2445798.27	72	36
27	m	26	l	1	2	14	2	"(261, 181)"	"(251, 198)"	3	0	2448043.90	72	36
27	m	26	l	1	2	14	3	"(884, 76)"	"(921, 76)"	1	0	2448677.61	72	36
27	m	26	l	1	2	14	4	"(922, 433)"	"(889, 435)"	2	0	2450610.77	72	36
27	m	26	l	1	2	14	5	"(572, 88)"	"(584, 82)"	1	0	2451228.78	72	36
27	m	26	l	1	2	14	6	"(261, 638)"	"(245, 668)"	1	0	2451990.15	72	36
27	m	26	l	1	2	14	7	"(103, 437)"	"(122, 428)"	1	0	2452515.33	72	36
27	m	26	l	1	2	14	8	"(570, 692)"	"(583, 703)"	1	0	2453052.15	72	36
27	m	26	l	1	2	14	8	"(570, 692)"	"(583, 703)"	1	    8.00	2453052.15	72	36
27	m	26	l	1	2	15	1	"(889, 669)"	"(874, 698)"	1	0	2465373.10	72	36
27	m	26	l	1	2	15	2	"(261, 181)"	"(245, 196)"	1	0	2466054.25	72	36
27	m	26	l	1	2	15	3	"(884, 76)"	"(897, 103)"	1	0	2466605.18	72	36
27	m	26	l	1	2	15	4	"(922, 433)"	"(943, 468)"	1	0	2467236.41	72	36
27	m	26	l	1	2	15	5	"(572, 88)"	"(545, 126)"	1	0	2467827.52	72	36
27	m	26	l	1	2	15	6	"(261, 638)"	"(220, 623)"	1	0	2468508.33	72	36
27	m	26	l	1	2	15	7	"(103, 437)"	"(94, 468)"	1	0	2469318.18	72	36
27	m	26	l	1	2	15	8	"(570, 692)"	"(582, 704)"	1	0	2469880.87	72	36
27	m	26	l	1	2	15	8	"(570, 692)"	"(582, 704)"	1	    5.38	2469880.87	72	36
27	m	26	l	1	2	16	1	"(889, 669)"	"(898, 667)"	1	0	2479150.37	72	36
27	m	26	l	1	2	16	2	"(261, 181)"	"(264, 177)"	2	0	2480701.17	72	36
27	m	26	l	1	2	16	3	"(884, 76)"	"(896, 71)"	1	0	2481279.96	72	36
27	m	26	l	1	2	16	4	"(922, 433)"	"(926, 437)"	1	0	2481871.61	72	36
27	m	26	l	1	2	16	5	"(572, 88)"	"(578, 139)"	1	0	2482447.71	72	36
27	m	26	l	1	2	16	6	"(261, 638)"	"(276, 658)"	1	0	2483388.29	72	36
27	m	26	l	1	2	16	7	"(103, 437)"	"(107, 455)"	1	0	2483916.92	72	36
27	m	26	l	1	2	16	8	"(570, 692)"	"(608, 705)"	1	0	2484479.13	72	36
27	m	26	l	1	2	16	8	"(570, 692)"	"(608, 705)"	1	    6.11	2484479.13	72	36
27	m	26	l	1	2	17	1	"(889, 669)"	"(873, 693)"	1	0	2487872.17	72	36
27	m	26	l	1	2	17	2	"(261, 181)"	"(264, 180)"	1	0	2488480.59	72	36
27	m	26	l	1	2	17	3	"(884, 76)"	"(865, 107)"	1	0	2489117.31	72	36
27	m	26	l	1	2	17	4	"(922, 433)"	"(944, 460)"	1	0	2489678.66	72	36
27	m	26	l	1	2	17	5	"(572, 88)"	"(583, 103)"	1	0	2490264.52	72	36
27	m	26	l	1	2	17	6	"(261, 638)"	"(258, 641)"	3	0	2491837.96	72	36
27	m	26	l	1	2	17	7	"(103, 437)"	"(94, 395)"	3	0	2494000.22	72	36
27	m	26	l	1	2	17	8	"(570, 692)"	"(611, 721)"	1	0	2494914.23	72	36
27	m	26	l	1	2	17	8	"(570, 692)"	"(611, 721)"	1	    7.68	2494914.23	72	36
27	m	26	l	1	2	18	1	"(889, 669)"	"(932, 679)"	1	0	2500229.97	72	36
27	m	26	l	1	2	18	2	"(261, 181)"	"(288, 220)"	1	0	2500966.60	72	36
27	m	26	l	1	2	18	3	"(884, 76)"	"(878, 73)"	1	0	2501999.55	72	36
27	m	26	l	1	2	18	4	"(922, 433)"	"(909, 430)"	1	0	2502626.57	72	36
27	m	26	l	1	2	18	5	"(572, 88)"	"(560, 71)"	1	0	2503424.54	72	36
27	m	26	l	1	2	18	6	"(261, 638)"	"(282, 652)"	1	0	2504334.88	72	36
27	m	26	l	1	2	18	7	"(103, 437)"	"(121, 463)"	1	0	2504920.95	72	36
27	m	26	l	1	2	18	8	"(570, 692)"	"(574, 683)"	1	0	2505431.75	72	36
27	m	26	l	1	2	18	8	"(570, 692)"	"(574, 683)"	1	    6.17	2505431.75	72	36
27	m	26	l	1	2	19	1	"(889, 669)"	"(918, 687)"	1	0	2508657.58	72	36
27	m	26	l	1	2	19	2	"(261, 181)"	"(289, 197)"	1	0	2509295.31	72	36
27	m	26	l	1	2	19	3	"(884, 76)"	"(913, 95)"	1	0	2509870.54	72	36
27	m	26	l	1	2	19	4	"(922, 433)"	"(918, 407)"	1	0	2510462.85	72	36
27	m	26	l	1	2	19	5	"(572, 88)"	"(585, 69)"	1	0	2511160.62	72	36
27	m	26	l	1	2	19	6	"(261, 638)"	"(253, 593)"	1	0	2511848.29	72	36
27	m	26	l	1	2	19	7	"(103, 437)"	"(91, 441)"	1	0	2512305.34	72	36
27	m	26	l	1	2	19	8	"(570, 692)"	"(600, 714)"	1	0	2512880.01	72	36
27	m	26	l	1	2	19	8	"(570, 692)"	"(600, 714)"	1	    4.95	2512880.01	72	36
27	m	26	l	1	2	20	1	"(889, 669)"	"(852, 659)"	1	0	2517431.12	72	36
27	m	26	l	1	2	20	2	"(261, 181)"	"(304, 200)"	1	0	2518104.44	72	36
27	m	26	l	1	2	20	3	"(884, 76)"	"(908, 84)"	1	0	2518738.64	72	36
27	m	26	l	1	2	20	4	"(922, 433)"	"(921, 468)"	1	0	2519400.33	72	36
27	m	26	l	1	2	20	5	"(572, 88)"	"(585, 115)"	1	0	2520000.70	72	36
27	m	26	l	1	2	20	6	"(261, 638)"	"(274, 658)"	1	0	2520688.73	72	36
27	m	26	l	1	2	20	7	"(103, 437)"	"(99, 389)"	1	0	2521064.03	72	36
27	m	26	l	1	2	20	8	"(570, 692)"	"(585, 700)"	1	0	2521752.35	72	36
27	m	26	l	1	2	20	8	"(570, 692)"	"(585, 700)"	1	    4.98	2521752.35	72	36
27	m	26	l	1	3	21	1	"(889, 669)"	"(869, 656)"	1	0	2526206.78	72	36
27	m	26	l	1	3	21	2	"(261, 181)"	"(241, 205)"	1	0	2526682.20	72	36
27	m	26	l	1	3	21	3	"(884, 76)"	"(925, 100)"	1	0	2527234.26	72	36
27	m	26	l	1	3	21	4	"(922, 433)"	"(930, 448)"	1	0	2527704.31	72	36
27	m	26	l	1	3	21	5	"(572, 88)"	"(575, 117)"	1	0	2528220.83	72	36
27	m	26	l	1	3	21	6	"(261, 638)"	"(287, 676)"	1	0	2528808.09	72	36
27	m	26	l	1	3	21	7	"(103, 437)"	"(104, 423)"	1	0	2529295.00	72	36
27	m	26	l	1	3	21	8	"(570, 692)"	"(586, 673)"	1	0	2529855.16	72	36
27	m	26	l	1	3	21	8	"(570, 692)"	"(586, 673)"	1	    4.32	2529855.16	72	36
27	m	26	l	1	3	22	1	"(889, 669)"	"(872, 676)"	1	0	2533096.69	72	36
27	m	26	l	1	3	22	2	"(261, 181)"	"(251, 196)"	1	0	2533691.12	72	36
27	m	26	l	1	3	22	3	"(884, 76)"	"(909, 67)"	1	0	2534177.91	72	36
27	m	26	l	1	3	22	4	"(922, 433)"	"(931, 472)"	1	0	2534732.83	72	36
27	m	26	l	1	3	22	5	"(572, 88)"	"(541, 61)"	1	0	2535186.23	72	36
27	m	26	l	1	3	22	6	"(261, 638)"	"(257, 652)"	1	0	2535747.05	72	36
27	m	26	l	1	3	22	7	"(103, 437)"	"(108, 415)"	1	0	2536245.30	72	36
27	m	26	l	1	3	22	8	"(570, 692)"	"(594, 690)"	1	0	2536800.46	72	36
27	m	26	l	1	3	22	8	"(570, 692)"	"(594, 690)"	1	    4.24	2536800.46	72	36
27	m	26	l	1	3	23	1	"(889, 669)"	"(867, 670)"	1	0	2539840.17	72	36
27	m	26	l	1	3	23	2	"(261, 181)"	"(249, 200)"	1	0	2540329.60	72	36
27	m	26	l	1	3	23	3	"(884, 76)"	"(908, 102)"	1	0	2540904.39	72	36
27	m	26	l	1	3	23	4	"(922, 433)"	"(928, 407)"	1	0	2541387.42	72	36
27	m	26	l	1	3	23	5	"(572, 88)"	"(567, 93)"	1	0	2542025.89	72	36
27	m	26	l	1	3	23	6	"(261, 638)"	"(259, 667)"	1	0	2542530.70	72	36
27	m	26	l	1	3	23	7	"(103, 437)"	"(103, 436)"	1	0	2542888.41	72	36
27	m	26	l	1	3	23	8	"(570, 692)"	"(569, 649)"	1	0	2543383.75	72	36
27	m	26	l	1	3	23	8	"(570, 692)"	"(569, 649)"	1	    4.16	2543383.75	72	36
27	m	26	l	1	3	24	1	"(889, 669)"	"(872, 660)"	1	0	2553273.67	72	36
27	m	26	l	1	3	24	2	"(261, 181)"	"(280, 210)"	1	0	2553744.93	72	36
27	m	26	l	1	3	24	3	"(884, 76)"	"(886, 62)"	2	0	2555185.24	72	36
27	m	26	l	1	3	24	4	"(922, 433)"	"(931, 423)"	1	0	2555698.26	72	36
27	m	26	l	1	3	24	5	"(572, 88)"	"(612, 98)"	1	0	2556169.18	72	36
27	m	26	l	1	3	24	6	"(261, 638)"	"(256, 675)"	1	0	2556700.06	72	36
27	m	26	l	1	3	24	7	"(103, 437)"	"(127, 472)"	2	0	2557793.95	72	36
27	m	26	l	1	3	24	8	"(570, 692)"	"(541, 664)"	1	0	2558416.65	72	36
27	m	26	l	1	3	24	8	"(570, 692)"	"(541, 664)"	1	    5.85	2558416.65	72	36
27	m	26	l	1	3	25	1	"(889, 669)"	"(897, 680)"	1	0	2561398.54	72	36
27	m	26	l	1	3	25	2	"(261, 181)"	"(242, 205)"	4	0	2563924.62	72	36
27	m	26	l	1	3	25	3	"(884, 76)"	"(847, 77)"	1	0	2564572.44	72	36
27	m	26	l	1	3	25	4	"(922, 433)"	"(930, 462)"	1	0	2565050.21	72	36
27	m	26	l	1	3	25	5	"(572, 88)"	"(541, 118)"	1	0	2566290.09	72	36
27	m	26	l	1	3	25	6	"(261, 638)"	"(278, 649)"	1	0	2566888.88	72	36
27	m	26	l	1	3	25	7	"(103, 437)"	"(94, 423)"	2	0	2567577.87	72	36
27	m	26	l	1	3	25	8	"(570, 692)"	"(590, 681)"	2	0	2568740.98	72	36
27	m	26	l	1	3	25	8	"(570, 692)"	"(590, 681)"	2	    8.02	2568740.98	72	36
27	m	26	l	1	3	26	1	"(889, 669)"	"(895, 692)"	1	0	2573539.05	72	36
27	m	26	l	1	3	26	2	"(261, 181)"	"(275, 209)"	1	0	2574150.93	72	36
27	m	26	l	1	3	26	3	"(884, 76)"	"(861, 110)"	1	0	2574779.52	72	36
27	m	26	l	1	3	26	4	"(922, 433)"	"(920, 462)"	1	0	2575286.27	72	36
27	m	26	l	1	3	26	5	"(572, 88)"	"(579, 87)"	1	0	2575722.31	72	36
27	m	26	l	1	3	26	6	"(261, 638)"	"(268, 644)"	1	0	2576619.12	72	36
27	m	26	l	1	3	26	7	"(103, 437)"	"(104, 452)"	1	0	2577067.73	72	36
27	m	26	l	1	3	26	8	"(570, 692)"	"(587, 668)"	1	0	2577636.29	72	36
27	m	26	l	1	3	26	8	"(570, 692)"	"(587, 668)"	1	    4.93	2577636.29	72	36
27	m	26	l	1	3	27	1	"(889, 669)"	"(910, 684)"	1	0	2586700.83	72	36
27	m	26	l	1	3	27	2	"(261, 181)"	"(287, 199)"	1	0	2587292.54	72	36
27	m	26	l	1	3	27	3	"(884, 76)"	"(926, 97)"	1	0	2587866.62	72	36
27	m	26	l	1	3	27	4	"(922, 433)"	"(939, 473)"	1	0	2588333.54	72	36
27	m	26	l	1	3	27	5	"(572, 88)"	"(560, 110)"	1	0	2588859.29	72	36
27	m	26	l	1	3	27	6	"(261, 638)"	"(257, 659)"	3	0	2590611.58	72	36
27	m	26	l	1	3	27	7	"(103, 437)"	"(119, 470)"	1	0	2591171.93	72	36
27	m	26	l	1	3	27	8	"(570, 692)"	"(578, 711)"	2	0	2592174.26	72	36
27	m	26	l	1	3	27	8	"(570, 692)"	"(578, 711)"	2	    6.12	2592174.26	72	36
27	m	26	l	1	3	28	1	"(889, 669)"	"(925, 690)"	1	0	2595016.00	72	36
27	m	26	l	1	3	28	2	"(261, 181)"	"(242, 165)"	1	0	2595875.40	72	36
27	m	26	l	1	3	28	3	"(884, 76)"	"(866, 68)"	1	0	2596486.23	72	36
27	m	26	l	1	3	28	4	"(922, 433)"	"(900, 432)"	1	0	2597252.00	72	36
27	m	26	l	1	3	28	5	"(572, 88)"	"(564, 103)"	1	0	2597835.04	72	36
27	m	26	l	1	3	28	6	"(261, 638)"	"(267, 661)"	1	0	2598542.09	72	36
27	m	26	l	1	3	28	7	"(103, 437)"	"(95, 393)"	1	0	2599059.90	72	36
27	m	26	l	1	3	28	8	"(570, 692)"	"(576, 730)"	1	0	2599699.32	72	36
27	m	26	l	1	3	28	8	"(570, 692)"	"(576, 730)"	1	    5.31	2599699.32	72	36
27	m	26	l	1	3	29	1	"(889, 669)"	"(870, 651)"	1	0	2602724.72	72	36
27	m	26	l	1	3	29	2	"(261, 181)"	"(258, 161)"	1	0	2603295.15	72	36
27	m	26	l	1	3	29	3	"(884, 76)"	"(872, 96)"	1	0	2603845.00	72	36
27	m	26	l	1	3	29	4	"(922, 433)"	"(916, 444)"	1	0	2604437.70	72	36
27	m	26	l	1	3	29	5	"(572, 88)"	"(584, 95)"	1	0	2605063.93	72	36
27	m	26	l	1	3	29	6	"(261, 638)"	"(235, 660)"	1	0	2605747.53	72	36
27	m	26	l	1	3	29	7	"(103, 437)"	"(92, 458)"	1	0	2606258.89	72	36
27	m	26	l	1	3	29	8	"(570, 692)"	"(550, 708)"	1	0	2606862.22	72	36
27	m	26	l	1	3	29	8	"(570, 692)"	"(550, 708)"	1	    4.75	2606862.22	72	36
27	m	26	l	1	3	30	1	"(889, 669)"	"(914, 650)"	1	0	2609669.13	72	36
27	m	26	l	1	3	30	2	"(261, 181)"	"(271, 186)"	1	0	2610232.39	72	36
27	m	26	l	1	3	30	3	"(884, 76)"	"(893, 80)"	1	0	2611023.48	72	36
27	m	26	l	1	3	30	4	"(922, 433)"	"(937, 452)"	1	0	2611599.31	72	36
27	m	26	l	1	3	30	5	"(572, 88)"	"(579, 108)"	1	0	2612220.20	72	36
27	m	26	l	1	3	30	6	"(261, 638)"	"(236, 646)"	1	0	2612855.12	72	36
27	m	26	l	1	3	30	7	"(103, 437)"	"(79, 444)"	1	0	2613180.47	72	36
27	m	26	l	1	3	30	8	"(570, 692)"	"(565, 681)"	2	0	2614323.90	72	36
27	m	26	l	1	3	30	8	"(570, 692)"	"(565, 681)"	2	    5.14	2614323.90	72	36
27	m	26	l	1	4	31	1	"(889, 669)"	"(931, 674)"	1	0	2617862.83	72	36
27	m	26	l	1	4	31	2	"(261, 181)"	"(247, 149)"	1	0	2618445.57	72	36
27	m	26	l	1	4	31	3	"(884, 76)"	"(872, 114)"	1	0	2618888.40	72	36
27	m	26	l	1	4	31	4	"(922, 433)"	"(919, 426)"	1	0	2619341.64	72	36
27	m	26	l	1	4	31	5	"(572, 88)"	"(591, 91)"	1	0	2620069.65	72	36
27	m	26	l	1	4	31	6	"(261, 638)"	"(260, 655)"	1	0	2620630.57	72	36
27	m	26	l	1	4	31	7	"(103, 437)"	"(80, 457)"	1	0	2620991.36	72	36
27	m	26	l	1	4	31	8	"(570, 692)"	"(562, 703)"	1	0	2621573.24	72	36
27	m	26	l	1	4	31	8	"(570, 692)"	"(562, 703)"	1	    4.40	2621573.24	72	36
27	m	26	l	1	4	32	1	"(889, 669)"	"(886, 678)"	1	0	2625534.94	72	36
27	m	26	l	1	4	32	2	"(261, 181)"	"(260, 191)"	1	0	2625951.01	72	36
27	m	26	l	1	4	32	3	"(884, 76)"	"(871, 93)"	3	0	2627871.89	72	36
27	m	26	l	1	4	32	4	"(922, 433)"	"(920, 475)"	1	0	2628325.27	72	36
27	m	26	l	1	4	32	5	"(572, 88)"	"(555, 119)"	1	0	2628990.91	72	36
27	m	26	l	1	4	32	6	"(261, 638)"	"(253, 655)"	1	0	2629775.31	72	36
27	m	26	l	1	4	32	7	"(103, 437)"	"(86, 453)"	1	0	2630356.66	72	36
27	m	26	l	1	4	32	8	"(570, 692)"	"(573, 724)"	1	0	2631046.43	72	36
27	m	26	l	1	4	32	8	"(570, 692)"	"(573, 724)"	1	    6.10	2631046.43	72	36
27	m	26	l	1	4	33	1	"(889, 669)"	"(890, 690)"	1	0	2633830.48	72	36
27	m	26	l	1	4	33	2	"(261, 181)"	"(247, 164)"	1	0	2634614.63	72	36
27	m	26	l	1	4	33	3	"(884, 76)"	"(895, 91)"	1	0	2635310.31	72	36
27	m	26	l	1	4	33	4	"(922, 433)"	"(929, 435)"	1	0	2635878.81	72	36
27	m	26	l	1	4	33	5	"(572, 88)"	"(548, 96)"	1	0	2636462.00	72	36
27	m	26	l	1	4	33	6	"(261, 638)"	"(284, 618)"	1	0	2637184.27	72	36
27	m	26	l	1	4	33	7	"(103, 437)"	"(103, 433)"	1	0	2637669.34	72	36
27	m	26	l	1	4	33	8	"(570, 692)"	"(605, 716)"	1	0	2638240.03	72	36
27	m	26	l	1	4	33	8	"(570, 692)"	"(605, 716)"	1	    4.96	2638240.03	72	36
27	m	26	l	1	4	34	1	"(889, 669)"	"(898, 674)"	1	0	2642061.77	72	36
27	m	26	l	1	4	34	2	"(261, 181)"	"(272, 161)"	1	0	2642823.33	72	36
27	m	26	l	1	4	34	3	"(884, 76)"	"(909, 78)"	1	0	2643544.69	72	36
27	m	26	l	1	4	34	4	"(922, 433)"	"(937, 444)"	1	0	2644093.34	72	36
27	m	26	l	1	4	34	5	"(572, 88)"	"(608, 81)"	1	0	2644671.21	72	36
27	m	26	l	1	4	34	6	"(261, 638)"	"(238, 651)"	1	0	2645590.19	72	36
27	m	26	l	1	4	34	7	"(103, 437)"	"(120, 451)"	1	0	2646053.43	72	36
27	m	26	l	1	4	34	8	"(570, 692)"	"(602, 688)"	1	0	2646559.44	72	36
27	m	26	l	1	4	34	8	"(570, 692)"	"(602, 688)"	1	    5.68	2646559.44	72	36
27	m	26	l	1	4	35	1	"(889, 669)"	"(892, 698)"	1	0	2649158.40	72	36
27	m	26	l	1	4	35	2	"(261, 181)"	"(263, 189)"	1	0	2649615.78	72	36
27	m	26	l	1	4	35	3	"(884, 76)"	"(879, 96)"	1	0	2650070.40	72	36
27	m	26	l	1	4	35	4	"(922, 433)"	"(942, 442)"	1	0	2650510.24	72	36
27	m	26	l	1	4	35	5	"(572, 88)"	"(599, 66)"	1	0	2651096.86	72	36
27	m	26	l	1	4	35	6	"(261, 638)"	"(271, 626)"	1	0	2651687.46	72	36
27	m	26	l	1	4	35	7	"(103, 437)"	"(102, 438)"	1	0	2651985.92	72	36
27	m	26	l	1	4	35	8	"(570, 692)"	"(587, 672)"	1	0	2652484.77	72	36
27	m	26	l	1	4	35	8	"(570, 692)"	"(587, 672)"	1	    3.91	2652484.77	72	36
27	m	26	l	1	4	36	1	"(889, 669)"	"(862, 683)"	1	0	2659276.27	72	36
27	m	26	l	1	4	36	2	"(261, 181)"	"(251, 184)"	2	0	2660615.87	72	36
27	m	26	l	1	4	36	3	"(884, 76)"	"(916, 81)"	1	0	2661055.62	72	36
27	m	26	l	1	4	36	4	"(922, 433)"	"(912, 427)"	3	0	2663511.91	72	36
27	m	26	l	1	4	36	5	"(572, 88)"	"(559, 94)"	1	0	2664263.06	72	36
27	m	26	l	1	4	36	6	"(261, 638)"	"(274, 662)"	1	0	2664969.55	72	36
27	m	26	l	1	4	36	7	"(103, 437)"	"(115, 437)"	1	0	2665471.69	72	36
27	m	26	l	1	4	36	8	"(570, 692)"	"(576, 678)"	1	0	2666006.15	72	36
27	m	26	l	1	4	36	8	"(570, 692)"	"(576, 678)"	1	    7.32	2666006.15	72	36
27	m	26	l	1	4	37	1	"(889, 669)"	"(888, 674)"	1	0	2669471.76	72	36
27	m	26	l	1	4	37	2	"(261, 181)"	"(236, 197)"	1	0	2670144.89	72	36
27	m	26	l	1	4	37	3	"(884, 76)"	"(883, 73)"	1	0	2670848.41	72	36
27	m	26	l	1	4	37	4	"(922, 433)"	"(929, 464)"	1	0	2671314.40	72	36
27	m	26	l	1	4	37	5	"(572, 88)"	"(551, 95)"	1	0	2671881.69	72	36
27	m	26	l	1	4	37	6	"(261, 638)"	"(274, 671)"	1	0	2672432.18	72	36
27	m	26	l	1	4	37	7	"(103, 437)"	"(117, 483)"	1	0	2672939.61	72	36
27	m	26	l	1	4	37	8	"(570, 692)"	"(556, 711)"	1	0	2673537.92	72	36
27	m	26	l	1	4	37	8	"(570, 692)"	"(556, 711)"	1	    4.78	2673537.92	72	36
27	m	26	l	1	4	38	1	"(889, 669)"	"(911, 694)"	1	0	2678336.83	72	36
27	m	26	l	1	4	38	2	"(261, 181)"	"(255, 137)"	1	0	2678952.21	72	36
27	m	26	l	1	4	38	3	"(884, 76)"	"(870, 102)"	1	0	2679554.87	72	36
27	m	26	l	1	4	38	4	"(922, 433)"	"(931, 471)"	1	0	2680003.38	72	36
27	m	26	l	1	4	38	5	"(572, 88)"	"(551, 74)"	1	0	2680464.69	72	36
27	m	26	l	1	4	38	6	"(261, 638)"	"(262, 629)"	1	0	2681059.22	72	36
27	m	26	l	1	4	38	7	"(103, 437)"	"(123, 448)"	1	0	2681537.06	72	36
27	m	26	l	1	4	38	8	"(570, 692)"	"(545, 717)"	1	0	2682152.61	72	36
27	m	26	l	1	4	38	8	"(570, 692)"	"(545, 717)"	1	    4.51	2682152.61	72	36
27	m	26	l	1	4	39	1	"(889, 669)"	"(922, 688)"	1	0	2689729.56	72	36
27	m	26	l	1	4	39	2	"(261, 181)"	"(268, 198)"	1	0	2690213.34	72	36
27	m	26	l	1	4	39	3	"(884, 76)"	"(924, 88)"	1	0	2690731.23	72	36
27	m	26	l	1	4	39	4	"(922, 433)"	"(931, 438)"	3	0	2692306.43	72	36
27	m	26	l	1	4	39	5	"(572, 88)"	"(524, 99)"	1	0	2692964.03	72	36
27	m	26	l	1	4	39	6	"(261, 638)"	"(277, 665)"	1	0	2693606.03	72	36
27	m	26	l	1	4	39	7	"(103, 437)"	"(93, 396)"	1	0	2693955.78	72	36
27	m	26	l	1	4	39	8	"(570, 692)"	"(584, 706)"	1	0	2694467.08	72	36
27	m	26	l	1	4	39	8	"(570, 692)"	"(584, 706)"	1	    5.45	2694467.08	72	36
27	m	26	l	1	4	40	1	"(889, 669)"	"(911, 664)"	1	0	2704553.69	72	36
27	m	26	l	1	4	40	2	"(261, 181)"	"(222, 190)"	2	0	2705537.77	72	36
27	m	26	l	1	4	40	3	"(884, 76)"	"(860, 68)"	1	0	2706020.10	72	36
27	m	26	l	1	4	40	4	"(922, 433)"	"(943, 456)"	1	0	2706621.08	72	36
27	m	26	l	1	4	40	5	"(572, 88)"	"(520, 88)"	1	0	2707051.26	72	36
27	m	26	l	1	4	40	6	"(261, 638)"	"(275, 634)"	1	0	2707725.29	72	36
27	m	26	l	1	4	40	7	"(103, 437)"	"(135, 426)"	1	0	2708123.17	72	36
27	m	26	l	1	4	40	8	"(570, 692)"	"(523, 706)"	1	0	2708702.00	72	36
27	m	26	l	1	4	40	8	"(570, 692)"	"(523, 706)"	1	    4.95	2708702.00	72	36
27	m	26	l	1	5	41	1	"(889, 669)"	"(898, 676)"	1	0	2715089.96	72	36
27	m	26	l	1	5	41	2	"(261, 181)"	"(270, 147)"	1	0	2715515.19	72	36
27	m	26	l	1	5	41	3	"(884, 76)"	"(839, 105)"	1	0	2716146.86	72	36
27	m	26	l	1	5	41	4	"(922, 433)"	"(924, 485)"	1	0	2716593.65	72	36
27	m	26	l	1	5	41	5	"(572, 88)"	"(561, 126)"	1	0	2717857.35	72	36
27	m	26	l	1	5	41	6	"(261, 638)"	"(274, 622)"	1	0	2718588.24	72	36
27	m	26	l	1	5	41	7	"(103, 437)"	"(128, 444)"	1	0	2718970.85	72	36
27	m	26	l	1	5	41	8	"(570, 692)"	"(595, 671)"	1	0	2719490.42	72	36
27	m	26	l	1	5	41	8	"(570, 692)"	"(595, 671)"	1	    5.08	2719490.42	72	36
27	m	26	l	1	5	42	1	"(889, 669)"	"(853, 650)"	1	0	2722418.32	72	36
27	m	26	l	1	5	42	2	"(261, 181)"	"(235, 140)"	1	0	2722844.88	72	36
27	m	26	l	1	5	42	3	"(884, 76)"	"(874, 77)"	2	0	2723635.60	72	36
27	m	26	l	1	5	42	4	"(922, 433)"	"(930, 466)"	1	0	2724307.48	72	36
27	m	26	l	1	5	42	5	"(572, 88)"	"(601, 63)"	1	0	2724733.85	72	36
27	m	26	l	1	5	42	6	"(261, 638)"	"(289, 631)"	1	0	2725390.42	72	36
27	m	26	l	1	5	42	7	"(103, 437)"	"(105, 456)"	1	0	2725880.98	72	36
27	m	26	l	1	5	42	8	"(570, 692)"	"(528, 700)"	1	0	2726338.61	72	36
27	m	26	l	1	5	42	8	"(570, 692)"	"(528, 700)"	1	    4.70	2726338.61	72	36
27	m	26	l	1	5	43	1	"(889, 669)"	"(903, 685)"	2	0	2733156.96	72	36
27	m	26	l	1	5	43	2	"(261, 181)"	"(226, 193)"	4	0	2735837.92	72	36
27	m	26	l	1	5	43	3	"(884, 76)"	"(885, 68)"	1	0	2736676.83	72	36
27	m	26	l	1	5	43	4	"(922, 433)"	"(933, 464)"	3	0	2739004.49	72	36
27	m	26	l	1	5	43	5	"(572, 88)"	"(566, 36)"	1	0	2739694.98	72	36
27	m	26	l	1	5	43	6	"(261, 638)"	"(265, 658)"	2	0	2740790.45	72	36
27	m	26	l	1	5	43	7	"(103, 437)"	"(135, 467)"	1	0	2741287.68	72	36
27	m	26	l	1	5	43	8	"(570, 692)"	"(595, 710)"	2	0	2742355.99	72	36
27	m	26	l	1	5	43	8	"(570, 692)"	"(595, 710)"	2	   10.09	2742355.99	72	36
27	m	26	l	1	5	44	1	"(889, 669)"	"(900, 687)"	1	0	2748020.22	72	36
27	m	26	l	1	5	44	2	"(261, 181)"	"(276, 203)"	1	0	2748670.07	72	36
27	m	26	l	1	5	44	3	"(884, 76)"	"(895, 91)"	1	0	2749277.15	72	36
27	m	26	l	1	5	44	4	"(922, 433)"	"(907, 413)"	1	0	2749742.60	72	36
27	m	26	l	1	5	44	5	"(572, 88)"	"(550, 81)"	5	0	2753774.75	72	36
27	m	26	l	1	5	44	6	"(261, 638)"	"(250, 653)"	1	0	2754278.29	72	36
27	m	26	l	1	5	44	7	"(103, 437)"	"(75, 418)"	1	0	2755006.65	72	36
27	m	26	l	1	5	44	8	"(570, 692)"	"(597, 704)"	1	0	2755645.58	72	36
27	m	26	l	1	5	44	8	"(570, 692)"	"(597, 704)"	1	    8.29	2755645.58	72	36
27	m	26	l	1	5	45	1	"(889, 669)"	"(901, 677)"	1	0	2759648.98	72	36
27	m	26	l	1	5	45	2	"(261, 181)"	"(218, 179)"	1	0	2760171.78	72	36
27	m	26	l	1	5	45	3	"(884, 76)"	"(910, 106)"	1	0	2760760.82	72	36
27	m	26	l	1	5	45	4	"(922, 433)"	"(919, 427)"	1	0	2761396.35	72	36
27	m	26	l	1	5	45	5	"(572, 88)"	"(563, 89)"	1	0	2761990.29	72	36
27	m	26	l	1	5	45	6	"(261, 638)"	"(269, 634)"	1	0	2762716.05	72	36
27	m	26	l	1	5	45	7	"(103, 437)"	"(100, 444)"	1	0	2763173.34	72	36
27	m	26	l	1	5	45	8	"(570, 692)"	"(591, 702)"	2	0	2763998.56	72	36
27	m	26	l	1	5	45	8	"(570, 692)"	"(591, 702)"	2	    5.19	2763998.56	72	36
27	m	26	l	1	5	46	1	"(889, 669)"	"(857, 703)"	1	0	2768877.85	72	36
27	m	26	l	1	5	46	2	"(261, 181)"	"(240, 213)"	1	0	2769518.88	72	36
27	m	26	l	1	5	46	3	"(884, 76)"	"(909, 90)"	1	0	2770272.06	72	36
27	m	26	l	1	5	46	4	"(922, 433)"	"(925, 440)"	1	0	2770941.89	72	36
27	m	26	l	1	5	46	5	"(572, 88)"	"(590, 115)"	1	0	2771453.94	72	36
27	m	26	l	1	5	46	6	"(261, 638)"	"(255, 642)"	1	0	2772260.65	72	36
27	m	26	l	1	5	46	7	"(103, 437)"	"(78, 443)"	1	0	2773165.91	72	36
27	m	26	l	1	5	46	8	"(570, 692)"	"(579, 701)"	1	0	2773821.83	72	36
27	m	26	l	1	5	46	8	"(570, 692)"	"(579, 701)"	1	    5.59	2773821.83	72	36
27	m	26	l	1	5	47	1	"(889, 669)"	"(881, 672)"	1	0	2776288.10	72	36
27	m	26	l	1	5	47	2	"(261, 181)"	"(235, 145)"	1	0	2776854.89	72	36
27	m	26	l	1	5	47	3	"(884, 76)"	"(892, 52)"	1	0	2777380.76	72	36
27	m	26	l	1	5	47	4	"(922, 433)"	"(922, 457)"	1	0	2777961.22	72	36
27	m	26	l	1	5	47	5	"(572, 88)"	"(573, 116)"	1	0	2778502.06	72	36
27	m	26	l	1	5	47	6	"(261, 638)"	"(258, 642)"	1	0	2779112.39	72	36
27	m	26	l	1	5	47	7	"(103, 437)"	"(103, 442)"	1	0	2779503.41	72	36
27	m	26	l	1	5	47	8	"(570, 692)"	"(593, 712)"	1	0	2780061.60	72	36
27	m	26	l	1	5	47	8	"(570, 692)"	"(593, 712)"	1	    4.36	2780061.60	72	36
27	m	26	l	1	5	48	1	"(889, 669)"	"(848, 677)"	1	0	2782920.75	72	36
27	m	26	l	1	5	48	2	"(261, 181)"	"(297, 196)"	1	0	2783440.21	72	36
27	m	26	l	1	5	48	3	"(884, 76)"	"(907, 84)"	1	0	2783910.38	72	36
27	m	26	l	1	5	48	4	"(922, 433)"	"(936, 440)"	1	0	2784341.66	72	36
27	m	26	l	1	5	48	5	"(572, 88)"	"(596, 119)"	1	0	2784857.05	72	36
27	m	26	l	1	5	48	6	"(261, 638)"	"(238, 622)"	1	0	2785253.87	72	36
27	m	26	l	1	5	48	7	"(103, 437)"	"(97, 411)"	1	0	2785593.52	72	36
27	m	26	l	1	5	48	8	"(570, 692)"	"(605, 690)"	2	0	2786503.10	72	36
27	m	26	l	1	5	48	8	"(570, 692)"	"(605, 690)"	2	    4.06	2786503.10	72	36
27	m	26	l	1	5	49	1	"(889, 669)"	"(848, 692)"	1	0	2791264.68	72	36
27	m	26	l	1	5	49	2	"(261, 181)"	"(269, 228)"	3	0	2793151.76	72	36
27	m	26	l	1	5	49	3	"(884, 76)"	"(915, 109)"	1	0	2793862.42	72	36
27	m	26	l	1	5	49	4	"(922, 433)"	"(931, 453)"	2	0	2794784.13	72	36
27	m	26	l	1	5	49	5	"(572, 88)"	"(532, 105)"	1	0	2795510.83	72	36
27	m	26	l	1	5	49	6	"(261, 638)"	"(251, 629)"	1	0	2796129.71	72	36
27	m	26	l	1	5	49	7	"(103, 437)"	"(102, 468)"	1	0	2796482.49	72	36
27	m	26	l	1	5	49	8	"(570, 692)"	"(540, 709)"	2	0	2797096.34	72	36
27	m	26	l	1	5	49	8	"(570, 692)"	"(540, 709)"	2	    6.35	2797096.34	72	36
27	m	26	l	1	5	50	1	"(889, 669)"	"(904, 650)"	1	0	2800920.94	72	36
27	m	26	l	1	5	50	2	"(261, 181)"	"(260, 156)"	1	0	2801585.98	72	36
27	m	26	l	1	5	50	3	"(884, 76)"	"(925, 83)"	1	0	2802120.80	72	36
27	m	26	l	1	5	50	4	"(922, 433)"	"(927, 387)"	1	0	2802751.66	72	36
27	m	26	l	1	5	50	5	"(572, 88)"	"(613, 97)"	1	0	2803295.94	72	36
27	m	26	l	1	5	50	6	"(261, 638)"	"(237, 656)"	1	0	2803912.61	72	36
27	m	26	l	1	5	50	7	"(103, 437)"	"(130, 440)"	1	0	2804335.48	72	36
27	m	26	l	1	5	50	8	"(570, 692)"	"(561, 675)"	2	0	2805359.51	72	36
27	m	26	l	1	5	50	8	"(570, 692)"	"(561, 675)"	2	    5.09	2805359.51	72	36
27	m	26	l	1	6	51	1	"(889, 669)"	"(871, 702)"	1	0	2809766.57	72	36
27	m	26	l	1	6	51	2	"(261, 181)"	"(264, 208)"	2	0	2811482.12	72	36
27	m	26	l	1	6	51	3	"(884, 76)"	"(875, 64)"	1	0	2812219.39	72	36
27	m	26	l	1	6	51	4	"(922, 433)"	"(928, 451)"	1	0	2813288.83	72	36
27	m	26	l	1	6	51	5	"(572, 88)"	"(558, 116)"	1	0	2813802.02	72	36
27	m	26	l	1	6	51	6	"(261, 638)"	"(252, 691)"	1	0	2814418.11	72	36
27	m	26	l	1	6	51	7	"(103, 437)"	"(121, 453)"	1	0	2814817.62	72	36
27	m	26	l	1	6	51	8	"(570, 692)"	"(588, 696)"	1	0	2815361.33	72	36
27	m	26	l	1	6	51	8	"(570, 692)"	"(588, 696)"	1	    6.20	2815361.33	72	36
27	m	26	l	1	6	52	1	"(889, 669)"	"(901, 686)"	3	0	2823691.17	72	36
27	m	26	l	1	6	52	2	"(261, 181)"	"(257, 207)"	1	0	2824209.57	72	36
27	m	26	l	1	6	52	3	"(884, 76)"	"(871, 96)"	1	0	2824861.16	72	36
27	m	26	l	1	6	52	4	"(922, 433)"	"(925, 448)"	1	0	2825359.94	72	36
27	m	26	l	1	6	52	5	"(572, 88)"	"(569, 75)"	1	0	2825960.24	72	36
27	m	26	l	1	6	52	6	"(261, 638)"	"(245, 618)"	1	0	2826614.07	72	36
27	m	26	l	1	6	52	7	"(103, 437)"	"(83, 446)"	2	0	2827665.90	72	36
27	m	26	l	1	6	52	8	"(570, 692)"	"(544, 665)"	1	0	2828544.25	72	36
27	m	26	l	1	6	52	8	"(570, 692)"	"(544, 665)"	1	    7.53	2828544.25	72	36
27	m	26	l	1	6	53	1	"(889, 669)"	"(879, 665)"	1	0	2832601.91	72	36
27	m	26	l	1	6	53	2	"(261, 181)"	"(278, 181)"	1	0	2833483.27	72	36
27	m	26	l	1	6	53	3	"(884, 76)"	"(902, 99)"	1	0	2834064.31	72	36
27	m	26	l	1	6	53	4	"(922, 433)"	"(943, 414)"	2	0	2835450.17	72	36
27	m	26	l	1	6	53	5	"(572, 88)"	"(536, 123)"	1	0	2836025.01	72	36
27	m	26	l	1	6	53	6	"(261, 638)"	"(287, 634)"	3	0	2837338.68	72	36
27	m	26	l	1	6	53	7	"(103, 437)"	"(103, 450)"	1	0	2837833.70	72	36
27	m	26	l	1	6	53	8	"(570, 692)"	"(620, 700)"	1	0	2838458.51	72	36
27	m	26	l	1	6	53	8	"(570, 692)"	"(620, 700)"	1	    6.50	2838458.51	72	36
27	m	26	l	1	6	54	1	"(889, 669)"	"(899, 711)"	1	0	2850806.28	72	36
27	m	26	l	1	6	54	2	"(261, 181)"	"(229, 218)"	1	0	2851419.41	72	36
27	m	26	l	1	6	54	3	"(884, 76)"	"(844, 102)"	1	0	2851993.64	72	36
27	m	26	l	1	6	54	4	"(922, 433)"	"(941, 439)"	1	0	2852491.17	72	36
27	m	26	l	1	6	54	5	"(572, 88)"	"(616, 58)"	1	0	2852881.81	72	36
27	m	26	l	1	6	54	6	"(261, 638)"	"(295, 669)"	1	0	2853642.77	72	36
27	m	26	l	1	6	54	7	"(103, 437)"	"(104, 443)"	1	0	2854073.74	72	36
27	m	26	l	1	6	54	8	"(570, 692)"	"(575, 707)"	2	0	2854980.28	72	36
27	m	26	l	1	6	54	8	"(570, 692)"	"(575, 707)"	2	    5.26	2854980.28	72	36
27	m	26	l	1	6	55	1	"(889, 669)"	"(856, 657)"	1	0	2859670.64	72	36
27	m	26	l	1	6	55	2	"(261, 181)"	"(289, 198)"	5	0	2861858.62	72	36
27	m	26	l	1	6	55	3	"(884, 76)"	"(879, 91)"	1	0	2862457.62	72	36
27	m	26	l	1	6	55	4	"(922, 433)"	"(935, 445)"	1	0	2863026.22	72	36
27	m	26	l	1	6	55	5	"(572, 88)"	"(568, 83)"	1	0	2863404.69	72	36
27	m	26	l	1	6	55	6	"(261, 638)"	"(251, 636)"	1	0	2863994.86	72	36
27	m	26	l	1	6	55	7	"(103, 437)"	"(80, 458)"	2	0	2864603.32	72	36
27	m	26	l	1	6	55	8	"(570, 692)"	"(554, 677)"	1	0	2865187.63	72	36
27	m	26	l	1	6	55	8	"(570, 692)"	"(554, 677)"	1	    6.29	2865187.63	72	36
27	m	26	l	1	6	56	1	"(889, 669)"	"(919, 661)"	1	0	2867988.48	72	36
27	m	26	l	1	6	56	2	"(261, 181)"	"(255, 200)"	1	0	2868405.80	72	36
27	m	26	l	1	6	56	3	"(884, 76)"	"(866, 69)"	9	0	2874220.11	72	36
27	m	26	l	1	6	56	4	"(922, 433)"	"(909, 423)"	1	0	2874862.80	72	36
27	m	26	l	1	6	56	5	"(572, 88)"	"(593, 98)"	1	0	2875247.67	72	36
27	m	26	l	1	6	56	6	"(261, 638)"	"(217, 666)"	1	0	2875850.47	72	36
27	m	26	l	1	6	56	7	"(103, 437)"	"(143, 453)"	1	0	2876323.47	72	36
27	m	26	l	1	6	56	8	"(570, 692)"	"(600, 686)"	2	0	2877491.10	72	36
27	m	26	l	1	6	56	8	"(570, 692)"	"(600, 686)"	2	    9.99	2877491.10	72	36
27	m	26	l	1	6	57	1	"(889, 669)"	"(902, 705)"	1	0	2879976.25	72	36
27	m	26	l	1	6	57	2	"(261, 181)"	"(245, 222)"	1	0	2880511.10	72	36
27	m	26	l	1	6	57	3	"(884, 76)"	"(898, 69)"	2	0	2881949.89	72	36
27	m	26	l	1	6	57	4	"(922, 433)"	"(918, 417)"	1	0	2882400.54	72	36
27	m	26	l	1	6	57	5	"(572, 88)"	"(552, 70)"	1	0	2882812.64	72	36
27	m	26	l	1	6	57	6	"(261, 638)"	"(258, 638)"	1	0	2883356.39	72	36
27	m	26	l	1	6	57	7	"(103, 437)"	"(118, 445)"	1	0	2883779.82	72	36
27	m	26	l	1	6	57	8	"(570, 692)"	"(597, 702)"	2	0	2884741.79	72	36
27	m	26	l	1	6	57	8	"(570, 692)"	"(597, 702)"	2	    5.33	2884741.79	72	36
27	m	26	l	1	6	58	1	"(889, 669)"	"(860, 663)"	2	0	2888333.87	72	36
27	m	26	l	1	6	58	2	"(261, 181)"	"(222, 176)"	2	0	2889077.08	72	36
27	m	26	l	1	6	58	3	"(884, 76)"	"(898, 91)"	2	0	2890300.65	72	36
27	m	26	l	1	6	58	4	"(922, 433)"	"(946, 433)"	1	0	2890739.50	72	36
27	m	26	l	1	6	58	5	"(572, 88)"	"(552, 95)"	1	0	2891224.68	72	36
27	m	26	l	1	6	58	6	"(261, 638)"	"(269, 620)"	1	0	2891875.82	72	36
27	m	26	l	1	6	58	7	"(103, 437)"	"(106, 462)"	1	0	2892286.50	72	36
27	m	26	l	1	6	58	8	"(570, 692)"	"(583, 710)"	1	0	2892893.20	72	36
27	m	26	l	1	6	58	8	"(570, 692)"	"(583, 710)"	1	    6.25	2892893.20	72	36
27	m	26	l	1	6	59	1	"(889, 669)"	"(849, 637)"	1	0	2898397.03	72	36
27	m	26	l	1	6	59	2	"(261, 181)"	"(259, 191)"	3	0	2900925.90	72	36
27	m	26	l	1	6	59	3	"(884, 76)"	"(903, 75)"	1	0	2901692.99	72	36
27	m	26	l	1	6	59	4	"(922, 433)"	"(947, 428)"	1	0	2902204.24	72	36
27	m	26	l	1	6	59	5	"(572, 88)"	"(567, 91)"	1	0	2903455.95	72	36
27	m	26	l	1	6	59	6	"(261, 638)"	"(241, 640)"	1	0	2904391.38	72	36
27	m	26	l	1	6	59	7	"(103, 437)"	"(89, 447)"	1	0	2904812.14	72	36
27	m	26	l	1	6	59	8	"(570, 692)"	"(559, 671)"	1	0	2905439.21	72	36
27	m	26	l	1	6	59	8	"(570, 692)"	"(559, 671)"	1	    7.59	2905439.21	72	36
27	m	26	l	1	6	60	1	"(889, 669)"	"(908, 679)"	1	0	2909183.95	72	36
27	m	26	l	1	6	60	2	"(261, 181)"	"(266, 223)"	1	0	2909687.48	72	36
27	m	26	l	1	6	60	3	"(884, 76)"	"(931, 82)"	1	0	2910328.32	72	36
27	m	26	l	1	6	60	4	"(922, 433)"	"(920, 437)"	1	0	2910798.62	72	36
27	m	26	l	1	6	60	5	"(572, 88)"	"(579, 114)"	1	0	2911317.09	72	36
27	m	26	l	1	6	60	6	"(261, 638)"	"(232, 654)"	1	0	2912001.36	72	36
27	m	26	l	1	6	60	7	"(103, 437)"	"(104, 465)"	1	0	2912446.23	72	36
27	m	26	l	1	6	60	8	"(570, 692)"	"(561, 716)"	1	0	2912966.49	72	36
27	m	26	l	1	6	60	8	"(570, 692)"	"(561, 716)"	1	    4.70	2912966.49	72	36
27	m	26	l	2	7	61	1	"(889, 669)"	"(867, 703)"	1	0	2917605.38	72	36
27	m	26	l	2	7	61	2	"(261, 181)"	"(262, 156)"	1	0	2918231.63	72	36
27	m	26	l	2	7	61	3	"(261, 638)"	"(263, 637)"	4	0	2921974.38	72	36
27	m	26	l	2	7	61	4	"(922, 433)"	"(917, 428)"	10	0	2928038.54	72	36
27	m	26	l	2	7	61	5	"(572, 88)"	"(602, 84)"	1	0	2928823.40	72	36
27	m	26	l	2	7	61	6	"(884, 76)"	"(885, 88)"	1	0	2930590.54	72	36
27	m	26	l	2	7	61	7	"(103, 437)"	"(117, 456)"	1	0	2932062.99	72	36
27	m	26	l	2	7	61	8	"(570, 692)"	"(549, 709)"	1	0	2932585.93	72	36
27	m	26	l	2	7	61	8	"(570, 692)"	"(549, 709)"	1	   15.50	2932585.93	72	36
27	m	26	l	2	7	62	1	"(889, 669)"	"(864, 689)"	1	0	2936762.84	72	36
27	m	26	l	2	7	62	2	"(261, 181)"	"(281, 186)"	1	0	2937511.96	72	36
27	m	26	l	2	7	62	3	"(261, 638)"	"(280, 628)"	1	0	2938189.04	72	36
27	m	26	l	2	7	62	4	"(922, 433)"	"(916, 445)"	3	0	2940339.75	72	36
27	m	26	l	2	7	62	5	"(572, 88)"	"(571, 91)"	2	0	2941591.95	72	36
27	m	26	l	2	7	62	6	"(884, 76)"	"(913, 78)"	1	0	2942039.40	72	36
27	m	26	l	2	7	62	7	"(103, 437)"	"(123, 450)"	1	0	2943086.69	72	36
27	m	26	l	2	7	62	8	"(570, 692)"	"(590, 727)"	1	0	2943519.28	72	36
27	m	26	l	2	7	62	8	"(570, 692)"	"(590, 727)"	1	    7.45	2943519.28	72	36
27	m	26	l	2	7	63	1	"(889, 669)"	"(890, 696)"	1	0	2948958.35	72	36
27	m	26	l	2	7	63	2	"(261, 181)"	"(252, 188)"	1	0	2949817.59	72	36
27	m	26	l	2	7	63	3	"(261, 638)"	"(283, 637)"	1	0	2950406.39	72	36
27	m	26	l	2	7	63	4	"(922, 433)"	"(937, 414)"	1	0	2951698.57	72	36
27	m	26	l	2	7	63	5	"(572, 88)"	"(558, 85)"	1	0	2952344.91	72	36
27	m	26	l	2	7	63	6	"(884, 76)"	"(887, 66)"	1	0	2952866.53	72	36
27	m	26	l	2	7	63	7	"(103, 437)"	"(101, 480)"	1	0	2953552.82	72	36
27	m	26	l	2	7	63	8	"(570, 692)"	"(556, 698)"	1	0	2954255.92	72	36
27	m	26	l	2	7	63	8	"(570, 692)"	"(556, 698)"	1	    5.97	2954255.92	72	36
27	m	26	l	2	7	64	1	"(889, 669)"	"(901, 687)"	1	0	2957743.35	72	36
27	m	26	l	2	7	64	2	"(261, 181)"	"(291, 195)"	1	0	2958922.05	72	36
27	m	26	l	2	7	64	3	"(261, 638)"	"(268, 634)"	1	0	2959384.58	72	36
27	m	26	l	2	7	64	4	"(922, 433)"	"(940, 433)"	1	0	2960026.06	72	36
27	m	26	l	2	7	64	5	"(572, 88)"	"(582, 95)"	1	0	2960568.50	72	36
27	m	26	l	2	7	64	6	"(884, 76)"	"(928, 92)"	1	0	2960912.72	72	36
27	m	26	l	2	7	64	7	"(103, 437)"	"(89, 447)"	1	0	2961623.68	72	36
27	m	26	l	2	7	64	8	"(570, 692)"	"(560, 675)"	1	0	2962231.28	72	36
27	m	26	l	2	7	64	8	"(570, 692)"	"(560, 675)"	1	    5.08	2962231.28	72	36
27	m	26	l	2	7	65	1	"(889, 669)"	"(919, 679)"	1	0	2966167.85	72	36
27	m	26	l	2	7	65	2	"(261, 181)"	"(244, 149)"	1	0	2966764.37	72	36
27	m	26	l	2	7	65	3	"(261, 638)"	"(268, 601)"	1	0	2967315.61	72	36
27	m	26	l	2	7	65	4	"(922, 433)"	"(911, 466)"	2	0	2968680.81	72	36
27	m	26	l	2	7	65	5	"(572, 88)"	"(562, 107)"	1	0	2969201.65	72	36
27	m	26	l	2	7	65	6	"(884, 76)"	"(880, 87)"	1	0	2969603.99	72	36
27	m	26	l	2	7	65	7	"(103, 437)"	"(127, 472)"	1	0	2970090.01	72	36
27	m	26	l	2	7	65	8	"(570, 692)"	"(551, 657)"	1	0	2970546.04	72	36
27	m	26	l	2	7	65	8	"(570, 692)"	"(551, 657)"	1	    5.26	2970546.04	72	36
27	m	26	l	2	7	66	1	"(889, 669)"	"(913, 655)"	1	0	2981336.25	72	36
27	m	26	l	2	7	66	2	"(261, 181)"	"(262, 212)"	1	0	2981970.72	72	36
27	m	26	l	2	7	66	3	"(261, 638)"	"(265, 630)"	1	0	2982772.14	72	36
27	m	26	l	2	7	66	4	"(922, 433)"	"(938, 450)"	1	0	2983253.94	72	36
27	m	26	l	2	7	66	5	"(572, 88)"	"(552, 92)"	1	0	2983828.42	72	36
27	m	26	l	2	7	66	6	"(884, 76)"	"(911, 81)"	1	0	2984348.74	72	36
27	m	26	l	2	7	66	7	"(103, 437)"	"(107, 427)"	1	0	2985035.97	72	36
27	m	26	l	2	7	66	8	"(570, 692)"	"(600, 680)"	1	0	2985569.77	72	36
27	m	26	l	2	7	66	8	"(570, 692)"	"(600, 680)"	1	    4.90	2985569.77	72	36
27	m	26	l	2	7	67	1	"(889, 669)"	"(844, 677)"	1	0	2988362.33	72	36
27	m	26	l	2	7	67	2	"(261, 181)"	"(290, 172)"	1	0	2988985.99	72	36
27	m	26	l	2	7	67	3	"(261, 638)"	"(267, 642)"	1	0	2989454.15	72	36
27	m	26	l	2	7	67	4	"(922, 433)"	"(899, 426)"	1	0	2989914.25	72	36
27	m	26	l	2	7	67	5	"(572, 88)"	"(602, 84)"	3	0	2991236.91	72	36
27	m	26	l	2	7	67	6	"(884, 76)"	"(873, 63)"	1	0	2991634.14	72	36
27	m	26	l	2	7	67	7	"(103, 437)"	"(56, 433)"	1	0	2992202.23	72	36
27	m	26	l	2	7	67	8	"(570, 692)"	"(535, 664)"	1	0	2992699.48	72	36
27	m	26	l	2	7	67	8	"(570, 692)"	"(535, 664)"	1	    4.96	2992699.48	72	36
27	m	26	l	2	7	68	1	"(889, 669)"	"(906, 695)"	1	0	3000324.94	72	36
27	m	26	l	2	7	68	2	"(261, 181)"	"(257, 182)"	1	0	3000933.23	72	36
27	m	26	l	2	7	68	3	"(261, 638)"	"(283, 646)"	1	0	3001850.09	72	36
27	m	26	l	2	7	68	4	"(922, 433)"	"(899, 442)"	1	0	3002506.52	72	36
27	m	26	l	2	7	68	5	"(572, 88)"	"(565, 54)"	1	0	3002962.11	72	36
27	m	26	l	2	7	68	6	"(884, 76)"	"(904, 72)"	1	0	3003428.17	72	36
27	m	26	l	2	7	68	7	"(103, 437)"	"(116, 428)"	1	0	3004059.20	72	36
27	m	26	l	2	7	68	8	"(570, 692)"	"(603, 702)"	1	0	3004596.95	72	36
27	m	26	l	2	7	68	8	"(570, 692)"	"(603, 702)"	1	    5.06	3004596.95	72	36
27	m	26	l	2	7	69	1	"(889, 669)"	"(890, 686)"	1	0	3014627.67	72	36
27	m	26	l	2	7	69	2	"(261, 181)"	"(270, 220)"	1	0	3015643.83	72	36
27	m	26	l	2	7	69	3	"(261, 638)"	"(224, 625)"	1	0	3016510.51	72	36
27	m	26	l	2	7	69	4	"(922, 433)"	"(970, 438)"	1	0	3017083.65	72	36
27	m	26	l	2	7	69	5	"(572, 88)"	"(586, 68)"	1	0	3017642.66	72	36
27	m	26	l	2	7	69	6	"(884, 76)"	"(866, 69)"	1	0	3018042.97	72	36
27	m	26	l	2	7	69	7	"(103, 437)"	"(78, 447)"	2	0	3019276.72	72	36
27	m	26	l	2	7	69	8	"(570, 692)"	"(591, 697)"	2	0	3020235.67	72	36
27	m	26	l	2	7	69	8	"(570, 692)"	"(591, 697)"	2	    6.56	3020235.67	72	36
27	m	26	l	2	7	70	1	"(889, 669)"	"(876, 662)"	4	0	3033779.92	72	36
27	m	26	l	2	7	70	2	"(261, 181)"	"(242, 217)"	2	0	3035342.13	72	36
27	m	26	l	2	7	70	3	"(261, 638)"	"(249, 648)"	1	0	3035891.32	72	36
27	m	26	l	2	7	70	4	"(922, 433)"	"(940, 460)"	1	0	3036334.65	72	36
27	m	26	l	2	7	70	5	"(572, 88)"	"(575, 117)"	1	0	3036819.20	72	36
27	m	26	l	2	7	70	6	"(884, 76)"	"(865, 82)"	1	0	3037372.77	72	36
27	m	26	l	2	7	70	7	"(103, 437)"	"(86, 433)"	3	0	3039358.95	72	36
27	m	26	l	2	7	70	8	"(570, 692)"	"(554, 671)"	1	0	3040382.08	72	36
27	m	26	l	2	7	70	8	"(570, 692)"	"(554, 671)"	1	    9.63	3040382.08	72	36
27	m	26	l	2	8	71	1	"(889, 669)"	"(916, 675)"	1	0	3047156.96	72	36
27	m	26	l	2	8	71	2	"(261, 181)"	"(269, 164)"	1	0	3047773.55	72	36
27	m	26	l	2	8	71	3	"(261, 638)"	"(286, 657)"	1	0	3048230.39	72	36
27	m	26	l	2	8	71	4	"(922, 433)"	"(910, 479)"	1	0	3048756.97	72	36
27	m	26	l	2	8	71	5	"(572, 88)"	"(582, 109)"	1	0	3049284.37	72	36
27	m	26	l	2	8	71	6	"(884, 76)"	"(918, 72)"	1	0	3049780.75	72	36
27	m	26	l	2	8	71	7	"(103, 437)"	"(131, 410)"	1	0	3050332.58	72	36
27	m	26	l	2	8	71	8	"(570, 692)"	"(604, 710)"	1	0	3050959.70	72	36
27	m	26	l	2	8	71	8	"(570, 692)"	"(604, 710)"	1	    4.31	3050959.70	72	36
27	m	26	l	2	8	72	1	"(889, 669)"	"(881, 673)"	2	0	3057037.36	72	36
27	m	26	l	2	8	72	2	"(261, 181)"	"(266, 197)"	1	0	3057757.15	72	36
27	m	26	l	2	8	72	3	"(261, 638)"	"(268, 659)"	1	0	3058326.86	72	36
27	m	26	l	2	8	72	4	"(922, 433)"	"(943, 404)"	1	0	3058872.84	72	36
27	m	26	l	2	8	72	5	"(572, 88)"	"(555, 117)"	1	0	3059448.27	72	36
27	m	26	l	2	8	72	6	"(884, 76)"	"(925, 82)"	1	0	3059808.30	72	36
27	m	26	l	2	8	72	7	"(103, 437)"	"(75, 455)"	1	0	3060359.08	72	36
27	m	26	l	2	8	72	8	"(570, 692)"	"(598, 691)"	1	0	3060896.73	72	36
27	m	26	l	2	8	72	8	"(570, 692)"	"(598, 691)"	1	    5.33	3060896.73	72	36
27	m	26	l	2	8	73	1	"(889, 669)"	"(847, 671)"	1	0	3063246.94	72	36
27	m	26	l	2	8	73	2	"(261, 181)"	"(229, 170)"	1	0	3064143.86	72	36
27	m	26	l	2	8	73	3	"(261, 638)"	"(287, 636)"	1	0	3064646.41	72	36
27	m	26	l	2	8	73	4	"(922, 433)"	"(950, 438)"	1	0	3065268.85	72	36
27	m	26	l	2	8	73	5	"(572, 88)"	"(540, 85)"	1	0	3065789.65	72	36
27	m	26	l	2	8	73	6	"(884, 76)"	"(917, 98)"	1	0	3066166.75	72	36
27	m	26	l	2	8	73	7	"(103, 437)"	"(85, 467)"	1	0	3066669.16	72	36
27	m	26	l	2	8	73	8	"(570, 692)"	"(564, 681)"	1	0	3067320.61	72	36
27	m	26	l	2	8	73	8	"(570, 692)"	"(564, 681)"	1	    4.69	3067320.61	72	36
27	m	26	l	2	8	74	1	"(889, 669)"	"(863, 681)"	1	0	3072677.99	72	36
27	m	26	l	2	8	74	2	"(261, 181)"	"(282, 218)"	1	0	3073582.50	72	36
27	m	26	l	2	8	74	3	"(261, 638)"	"(309, 662)"	1	0	3074056.76	72	36
27	m	26	l	2	8	74	4	"(922, 433)"	"(909, 440)"	1	0	3074629.96	72	36
27	m	26	l	2	8	74	5	"(572, 88)"	"(578, 127)"	1	0	3075231.59	72	36
27	m	26	l	2	8	74	6	"(884, 76)"	"(912, 51)"	1	0	3075712.19	72	36
27	m	26	l	2	8	74	7	"(103, 437)"	"(51, 441)"	2	0	3077094.45	72	36
27	m	26	l	2	8	74	8	"(570, 692)"	"(559, 697)"	1	0	3077854.84	72	36
27	m	26	l	2	8	74	8	"(570, 692)"	"(559, 697)"	1	    5.83	3077854.84	72	36
27	m	26	l	2	8	75	1	"(889, 669)"	"(920, 673)"	1	0	3081117.79	72	36
27	m	26	l	2	8	75	2	"(261, 181)"	"(251, 200)"	1	0	3081823.90	72	36
27	m	26	l	2	8	75	3	"(261, 638)"	"(267, 636)"	1	0	3082352.53	72	36
27	m	26	l	2	8	75	4	"(922, 433)"	"(934, 414)"	1	0	3082879.35	72	36
27	m	26	l	2	8	75	5	"(572, 88)"	"(562, 79)"	1	0	3083408.33	72	36
27	m	26	l	2	8	75	6	"(884, 76)"	"(875, 89)"	1	0	3084078.34	72	36
27	m	26	l	2	8	75	7	"(103, 437)"	"(109, 431)"	1	0	3084705.38	72	36
27	m	26	l	2	8	75	8	"(570, 692)"	"(615, 674)"	1	0	3085344.66	72	36
27	m	26	l	2	8	75	8	"(570, 692)"	"(615, 674)"	1	    5.19	3085344.66	72	36
27	m	26	l	2	8	76	1	"(889, 669)"	"(937, 675)"	1	0	3094606.57	72	36
27	m	26	l	2	8	76	2	"(261, 181)"	"(232, 186)"	2	0	3095566.65	72	36
27	m	26	l	2	8	76	3	"(261, 638)"	"(253, 605)"	1	0	3096227.30	72	36
27	m	26	l	2	8	76	4	"(922, 433)"	"(888, 408)"	1	0	3096862.51	72	36
27	m	26	l	2	8	76	5	"(572, 88)"	"(621, 90)"	1	0	3097367.75	72	36
27	m	26	l	2	8	76	6	"(884, 76)"	"(900, 89)"	1	0	3097791.88	72	36
27	m	26	l	2	8	76	7	"(103, 437)"	"(116, 470)"	1	0	3098289.58	72	36
27	m	26	l	2	8	76	8	"(570, 692)"	"(581, 668)"	1	0	3098852.27	72	36
27	m	26	l	2	8	76	8	"(570, 692)"	"(581, 668)"	1	    5.24	3098852.27	72	36
27	m	26	l	2	8	77	1	"(889, 669)"	"(861, 674)"	1	0	3103209.59	72	36
27	m	26	l	2	8	77	2	"(261, 181)"	"(265, 186)"	1	0	3103890.87	72	36
27	m	26	l	2	8	77	3	"(261, 638)"	"(272, 626)"	1	0	3104466.40	72	36
27	m	26	l	2	8	77	4	"(922, 433)"	"(901, 446)"	1	0	3105015.83	72	36
27	m	26	l	2	8	77	5	"(572, 88)"	"(578, 128)"	1	0	3105447.52	72	36
27	m	26	l	2	8	77	6	"(884, 76)"	"(919, 94)"	1	0	3105826.27	72	36
27	m	26	l	2	8	77	7	"(103, 437)"	"(113, 425)"	1	0	3106337.00	72	36
27	m	26	l	2	8	77	8	"(570, 692)"	"(570, 695)"	2	0	3107170.38	72	36
27	m	26	l	2	8	77	8	"(570, 692)"	"(570, 695)"	2	    4.63	3107170.38	72	36
27	m	26	l	2	8	78	1	"(889, 669)"	"(923, 676)"	1	0	3109472.68	72	36
27	m	26	l	2	8	78	2	"(261, 181)"	"(226, 175)"	2	0	3110944.04	72	36
27	m	26	l	2	8	78	3	"(261, 638)"	"(262, 672)"	1	0	3111369.55	72	36
27	m	26	l	2	8	78	4	"(922, 433)"	"(878, 445)"	2	0	3112599.51	72	36
27	m	26	l	2	8	78	5	"(572, 88)"	"(583, 127)"	2	0	3113329.52	72	36
27	m	26	l	2	8	78	6	"(884, 76)"	"(919, 68)"	4	0	3115248.70	72	36
27	m	26	l	2	8	78	7	"(103, 437)"	"(118, 430)"	13	0	3125939.50	72	36
27	m	26	l	2	8	78	8	"(570, 692)"	"(567, 668)"	1	0	3127651.62	72	36
27	m	26	l	2	8	78	8	"(570, 692)"	"(567, 668)"	1	   18.84	3127651.62	72	36
27	m	26	l	2	8	79	1	"(889, 669)"	"(921, 659)"	1	0	3136346.94	72	36
27	m	26	l	2	8	79	2	"(261, 181)"	"(249, 177)"	1	0	3136977.25	72	36
27	m	26	l	2	8	79	3	"(261, 638)"	"(281, 622)"	1	0	3137548.46	72	36
27	m	26	l	2	8	79	4	"(922, 433)"	"(891, 424)"	1	0	3138189.56	72	36
27	m	26	l	2	8	79	5	"(572, 88)"	"(582, 109)"	1	0	3138785.02	72	36
27	m	26	l	2	8	79	6	"(884, 76)"	"(856, 101)"	1	0	3139185.27	72	36
27	m	26	l	2	8	79	7	"(103, 437)"	"(101, 464)"	1	0	3139665.11	72	36
27	m	26	l	2	8	79	8	"(570, 692)"	"(608, 660)"	2	0	3140543.12	72	36
27	m	26	l	2	8	79	8	"(570, 692)"	"(608, 660)"	2	    5.08	3140543.12	72	36
27	m	26	l	2	8	80	1	"(889, 669)"	"(923, 676)"	3	0	3147295.50	72	36
27	m	26	l	2	8	80	2	"(261, 181)"	"(271, 178)"	2	0	3148627.07	72	36
27	m	26	l	2	8	80	3	"(261, 638)"	"(276, 637)"	2	0	3150205.61	72	36
27	m	26	l	2	8	80	4	"(922, 433)"	"(932, 439)"	1	0	3150859.05	72	36
27	m	26	l	2	8	80	5	"(572, 88)"	"(593, 121)"	1	0	3151636.29	72	36
27	m	26	l	2	8	80	6	"(884, 76)"	"(919, 84)"	1	0	3152202.78	72	36
27	m	26	l	2	8	80	7	"(103, 437)"	"(133, 463)"	1	0	3152861.00	72	36
27	m	26	l	2	8	80	8	"(570, 692)"	"(542, 659)"	1	0	3153577.94	72	36
27	m	26	l	2	8	80	8	"(570, 692)"	"(542, 659)"	1	    8.45	3153577.94	72	36
27	m	26	l	3	9	81	1	"(889, 669)"	"(902, 658)"	4	0	3162110.49	72	36
27	m	26	l	3	9	81	2	"(261, 181)"	"(281, 192)"	2	0	3163339.57	72	36
27	m	26	l	3	9	81	3	"(884, 76)"	"(892, 68)"	1	0	3165004.51	72	36
27	m	26	l	3	9	81	4	"(922, 433)"	"(963, 430)"	1	0	3165708.10	72	36
27	m	26	l	3	9	81	5	"(572, 88)"	"(570, 101)"	1	0	3166611.90	72	36
27	m	26	l	3	9	81	6	"(261, 638)"	"(272, 643)"	1	0	3167399.36	72	36
27	m	26	l	3	9	81	7	"(103, 437)"	"(118, 431)"	1	0	3167764.38	72	36
27	m	26	l	3	9	81	8	"(570, 692)"	"(537, 686)"	1	0	3168388.86	72	36
27	m	26	l	3	9	81	8	"(570, 692)"	"(537, 686)"	1	    8.62	3168388.86	72	36
27	m	26	l	3	9	82	1	"(889, 669)"	"(847, 677)"	1	0	3174772.59	72	36
27	m	26	l	3	9	82	2	"(261, 181)"	"(268, 205)"	1	0	3175343.50	72	36
27	m	26	l	3	9	82	3	"(884, 76)"	"(885, 101)"	1	0	3175876.74	72	36
27	m	26	l	3	9	82	4	"(922, 433)"	"(964, 441)"	1	0	3176380.49	72	36
27	m	26	l	3	9	82	5	"(572, 88)"	"(585, 124)"	1	0	3176860.85	72	36
27	m	26	l	3	9	82	6	"(261, 638)"	"(258, 638)"	2	0	3178236.20	72	36
27	m	26	l	3	9	82	7	"(103, 437)"	"(102, 448)"	1	0	3178723.49	72	36
27	m	26	l	3	9	82	8	"(570, 692)"	"(552, 708)"	1	0	3179381.13	72	36
27	m	26	l	3	9	82	8	"(570, 692)"	"(552, 708)"	1	    5.53	3179381.13	72	36
27	m	26	l	3	9	83	1	"(889, 669)"	"(921, 704)"	1	0	3183230.92	72	36
27	m	26	l	3	9	83	2	"(261, 181)"	"(257, 177)"	2	0	3184526.58	72	36
27	m	26	l	3	9	83	3	"(884, 76)"	"(887, 109)"	1	0	3185011.77	72	36
27	m	26	l	3	9	83	4	"(922, 433)"	"(922, 421)"	1	0	3185572.78	72	36
27	m	26	l	3	9	83	5	"(572, 88)"	"(574, 80)"	1	0	3186654.61	72	36
27	m	26	l	3	9	83	6	"(261, 638)"	"(212, 643)"	1	0	3187795.06	72	36
27	m	26	l	3	9	83	7	"(103, 437)"	"(111, 421)"	2	0	3188544.16	72	36
27	m	26	l	3	9	83	8	"(570, 692)"	"(558, 681)"	1	0	3189126.24	72	36
27	m	26	l	3	9	83	8	"(570, 692)"	"(558, 681)"	1	    6.54	3189126.24	72	36
27	m	26	l	3	9	84	1	"(889, 669)"	"(915, 669)"	2	0	3193988.90	72	36
27	m	26	l	3	9	84	2	"(261, 181)"	"(251, 210)"	1	0	3194687.72	72	36
27	m	26	l	3	9	84	3	"(884, 76)"	"(846, 63)"	1	0	3195337.47	72	36
27	m	26	l	3	9	84	4	"(922, 433)"	"(948, 417)"	1	0	3195998.66	72	36
27	m	26	l	3	9	84	5	"(572, 88)"	"(622, 103)"	1	0	3196533.59	72	36
27	m	26	l	3	9	84	6	"(261, 638)"	"(289, 646)"	1	0	3197405.35	72	36
27	m	26	l	3	9	84	7	"(103, 437)"	"(90, 397)"	1	0	3198100.20	72	36
27	m	26	l	3	9	84	8	"(570, 692)"	"(595, 713)"	1	0	3199005.23	72	36
27	m	26	l	3	9	84	8	"(570, 692)"	"(595, 713)"	1	    6.25	3199005.23	72	36
27	m	26	l	3	9	85	1	"(889, 669)"	"(893, 673)"	2	0	3203214.44	72	36
27	m	26	l	3	9	85	2	"(261, 181)"	"(245, 178)"	1	0	3203757.22	72	36
27	m	26	l	3	9	85	3	"(884, 76)"	"(841, 76)"	1	0	3204366.22	72	36
27	m	26	l	3	9	85	4	"(922, 433)"	"(941, 440)"	1	0	3205088.60	72	36
27	m	26	l	3	9	85	5	"(572, 88)"	"(566, 92)"	1	0	3205854.83	72	36
27	m	26	l	3	9	85	6	"(261, 638)"	"(250, 681)"	1	0	3206719.54	72	36
27	m	26	l	3	9	85	7	"(103, 437)"	"(66, 419)"	1	0	3207157.56	72	36
27	m	26	l	3	9	85	8	"(570, 692)"	"(573, 714)"	1	0	3207819.38	72	36
27	m	26	l	3	9	85	8	"(570, 692)"	"(573, 714)"	1	    6.47	3207819.38	72	36
27	m	26	l	3	9	86	1	"(889, 669)"	"(920, 677)"	2	0	3212417.05	72	36
27	m	26	l	3	9	86	2	"(261, 181)"	"(225, 204)"	1	0	3212937.56	72	36
27	m	26	l	3	9	86	3	"(884, 76)"	"(888, 84)"	1	0	3213775.78	72	36
27	m	26	l	3	9	86	4	"(922, 433)"	"(929, 462)"	1	0	3214237.17	72	36
27	m	26	l	3	9	86	5	"(572, 88)"	"(567, 109)"	1	0	3214775.84	72	36
27	m	26	l	3	9	86	6	"(261, 638)"	"(250, 676)"	1	0	3215428.93	72	36
27	m	26	l	3	9	86	7	"(103, 437)"	"(110, 456)"	1	0	3215983.93	72	36
27	m	26	l	3	9	86	8	"(570, 692)"	"(601, 675)"	1	0	3216617.72	72	36
27	m	26	l	3	9	86	8	"(570, 692)"	"(601, 675)"	1	    5.99	3216617.72	72	36
27	m	26	l	3	9	87	1	"(889, 669)"	"(877, 670)"	1	0	3220910.30	72	36
27	m	26	l	3	9	87	2	"(261, 181)"	"(267, 175)"	1	0	3221592.31	72	36
27	m	26	l	3	9	87	3	"(884, 76)"	"(866, 91)"	1	0	3222214.12	72	36
27	m	26	l	3	9	87	4	"(922, 433)"	"(906, 469)"	1	0	3222734.37	72	36
27	m	26	l	3	9	87	5	"(572, 88)"	"(595, 85)"	1	0	3223426.08	72	36
27	m	26	l	3	9	87	6	"(261, 638)"	"(225, 671)"	1	0	3224033.67	72	36
27	m	26	l	3	9	87	7	"(103, 437)"	"(141, 448)"	1	0	3224601.70	72	36
27	m	26	l	3	9	87	8	"(570, 692)"	"(576, 676)"	1	0	3225199.13	72	36
27	m	26	l	3	9	87	8	"(570, 692)"	"(576, 676)"	1	    5.17	3225199.13	72	36
27	m	26	l	3	9	88	1	"(889, 669)"	"(896, 668)"	1	0	3228014.43	72	36
27	m	26	l	3	9	88	2	"(261, 181)"	"(273, 223)"	1	0	3228734.87	72	36
27	m	26	l	3	9	88	3	"(884, 76)"	"(894, 116)"	1	0	3229285.80	72	36
27	m	26	l	3	9	88	4	"(922, 433)"	"(913, 479)"	1	0	3229704.02	72	36
27	m	26	l	3	9	88	5	"(572, 88)"	"(575, 120)"	1	0	3230348.55	72	36
27	m	26	l	3	9	88	6	"(261, 638)"	"(289, 634)"	1	0	3231029.38	72	36
27	m	26	l	3	9	88	7	"(103, 437)"	"(108, 453)"	1	0	3231527.04	72	36
27	m	26	l	3	9	88	8	"(570, 692)"	"(601, 678)"	1	0	3232274.37	72	36
27	m	26	l	3	9	88	8	"(570, 692)"	"(601, 678)"	1	    5.05	3232274.37	72	36
27	m	26	l	3	9	89	1	"(889, 669)"	"(909, 690)"	1	0	3236806.92	72	36
27	m	26	l	3	9	89	2	"(261, 181)"	"(229, 182)"	1	0	3237407.71	72	36
27	m	26	l	3	9	89	3	"(884, 76)"	"(845, 91)"	1	0	3238066.47	72	36
27	m	26	l	3	9	89	4	"(922, 433)"	"(889, 409)"	1	0	3238673.23	72	36
27	m	26	l	3	9	89	5	"(572, 88)"	"(599, 90)"	1	0	3239175.15	72	36
27	m	26	l	3	9	89	6	"(261, 638)"	"(271, 635)"	1	0	3239961.95	72	36
27	m	26	l	3	9	89	7	"(103, 437)"	"(116, 414)"	1	0	3240551.90	72	36
27	m	26	l	3	9	89	8	"(570, 692)"	"(578, 708)"	1	0	3241193.99	72	36
27	m	26	l	3	9	89	8	"(570, 692)"	"(578, 708)"	1	    5.42	3241193.99	72	36
27	m	26	l	3	9	90	1	"(889, 669)"	"(881, 679)"	1	0	3249621.01	72	36
27	m	26	l	3	9	90	2	"(261, 181)"	"(257, 185)"	2	0	3250452.74	72	36
27	m	26	l	3	9	90	3	"(884, 76)"	"(859, 81)"	3	0	3252511.45	72	36
27	m	26	l	3	9	90	4	"(922, 433)"	"(889, 469)"	1	0	3252970.25	72	36
27	m	26	l	3	9	90	5	"(572, 88)"	"(542, 86)"	1	0	3253360.21	72	36
27	m	26	l	3	9	90	6	"(261, 638)"	"(268, 660)"	2	0	3254594.38	72	36
27	m	26	l	3	9	90	7	"(103, 437)"	"(108, 448)"	2	0	3256049.42	72	36
27	m	26	l	3	9	90	8	"(570, 692)"	"(538, 691)"	1	0	3256687.56	72	36
27	m	26	l	3	9	90	8	"(570, 692)"	"(538, 691)"	1	    8.10	3256687.56	72	36
27	m	26	l	3	10	91	1	"(889, 669)"	"(844, 680)"	1	0	3261769.62	72	36
27	m	26	l	3	10	91	2	"(261, 181)"	"(234, 194)"	1	0	3262333.05	72	36
27	m	26	l	3	10	91	3	"(884, 76)"	"(917, 57)"	1	0	3263088.52	72	36
27	m	26	l	3	10	91	4	"(922, 433)"	"(957, 432)"	2	0	3264496.73	72	36
27	m	26	l	3	10	91	5	"(572, 88)"	"(606, 118)"	1	0	3265081.90	72	36
27	m	26	l	3	10	91	6	"(261, 638)"	"(230, 649)"	1	0	3265760.43	72	36
27	m	26	l	3	10	91	7	"(103, 437)"	"(122, 469)"	1	0	3266354.01	72	36
27	m	26	l	3	10	91	8	"(570, 692)"	"(544, 703)"	1	0	3266977.51	72	36
27	m	26	l	3	10	91	8	"(570, 692)"	"(544, 703)"	1	    5.77	3266977.51	72	36
27	m	26	l	3	10	92	1	"(889, 669)"	"(897, 684)"	1	0	3271635.62	72	36
27	m	26	l	3	10	92	2	"(261, 181)"	"(249, 177)"	1	0	3272240.84	72	36
27	m	26	l	3	10	92	3	"(884, 76)"	"(842, 92)"	1	0	3272864.42	72	36
27	m	26	l	3	10	92	4	"(922, 433)"	"(907, 401)"	1	0	3273425.72	72	36
27	m	26	l	3	10	92	5	"(572, 88)"	"(564, 85)"	1	0	3273852.52	72	36
27	m	26	l	3	10	92	6	"(261, 638)"	"(272, 629)"	1	0	3274454.03	72	36
27	m	26	l	3	10	92	7	"(103, 437)"	"(109, 385)"	1	0	3274773.62	72	36
27	m	26	l	3	10	92	8	"(570, 692)"	"(620, 705)"	1	0	3275332.76	72	36
27	m	26	l	3	10	92	8	"(570, 692)"	"(620, 705)"	1	    4.42	3275332.76	72	36
27	m	26	l	3	10	93	1	"(889, 669)"	"(924, 690)"	1	0	3278163.12	72	36
27	m	26	l	3	10	93	2	"(261, 181)"	"(291, 221)"	1	0	3278611.11	72	36
27	m	26	l	3	10	93	3	"(884, 76)"	"(912, 83)"	1	0	3279225.10	72	36
27	m	26	l	3	10	93	4	"(922, 433)"	"(903, 390)"	1	0	3279690.50	72	36
27	m	26	l	3	10	93	5	"(572, 88)"	"(576, 114)"	1	0	3280185.75	72	36
27	m	26	l	3	10	93	6	"(261, 638)"	"(253, 625)"	1	0	3280894.91	72	36
27	m	26	l	3	10	93	7	"(103, 437)"	"(145, 464)"	1	0	3281225.45	72	36
27	m	26	l	3	10	93	8	"(570, 692)"	"(599, 701)"	1	0	3281763.21	72	36
27	m	26	l	3	10	93	8	"(570, 692)"	"(599, 701)"	1	    4.22	3281763.21	72	36
27	m	26	l	3	10	94	1	"(889, 669)"	"(888, 682)"	1	0	3291645.11	72	36
27	m	26	l	3	10	94	2	"(261, 181)"	"(290, 224)"	1	0	3292178.13	72	36
27	m	26	l	3	10	94	3	"(884, 76)"	"(853, 113)"	1	0	3292762.06	72	36
27	m	26	l	3	10	94	4	"(922, 433)"	"(904, 411)"	2	0	3294482.56	72	36
27	m	26	l	3	10	94	5	"(572, 88)"	"(587, 121)"	1	0	3295091.38	72	36
27	m	26	l	3	10	94	6	"(261, 638)"	"(223, 641)"	1	0	3295853.71	72	36
27	m	26	l	3	10	94	7	"(103, 437)"	"(115, 454)"	1	0	3296306.80	72	36
27	m	26	l	3	10	94	8	"(570, 692)"	"(578, 699)"	1	0	3296843.36	72	36
27	m	26	l	3	10	94	8	"(570, 692)"	"(578, 699)"	1	    6.20	3296843.36	72	36
27	m	26	l	3	10	95	1	"(889, 669)"	"(895, 677)"	1	0	3301579.76	72	36
27	m	26	l	3	10	95	2	"(261, 181)"	"(226, 169)"	1	0	3302331.40	72	36
27	m	26	l	3	10	95	3	"(884, 76)"	"(915, 88)"	1	0	3302956.98	72	36
27	m	26	l	3	10	95	4	"(922, 433)"	"(930, 485)"	1	0	3303539.49	72	36
27	m	26	l	3	10	95	5	"(572, 88)"	"(602, 94)"	2	0	3304803.16	72	36
27	m	26	l	3	10	95	6	"(261, 638)"	"(245, 642)"	1	0	3305339.33	72	36
27	m	26	l	3	10	95	7	"(103, 437)"	"(132, 481)"	1	0	3305757.94	72	36
27	m	26	l	3	10	95	8	"(570, 692)"	"(561, 680)"	1	0	3306278.50	72	36
27	m	26	l	3	10	95	8	"(570, 692)"	"(561, 680)"	1	    5.55	3306278.50	72	36
27	m	26	l	3	10	96	1	"(889, 669)"	"(868, 680)"	1	0	3315075.88	72	36
27	m	26	l	3	10	96	2	"(261, 181)"	"(259, 197)"	1	0	3315675.84	72	36
27	m	26	l	3	10	96	3	"(884, 76)"	"(884, 71)"	3	0	3317684.05	72	36
27	m	26	l	3	10	96	4	"(922, 433)"	"(916, 477)"	1	0	3318069.30	72	36
27	m	26	l	3	10	96	5	"(572, 88)"	"(561, 81)"	1	0	3318651.63	72	36
27	m	26	l	3	10	96	6	"(261, 638)"	"(265, 642)"	1	0	3319120.69	72	36
27	m	26	l	3	10	96	7	"(103, 437)"	"(64, 446)"	2	0	3320032.27	72	36
27	m	26	l	3	10	96	8	"(570, 692)"	"(592, 729)"	1	0	3320747.87	72	36
27	m	26	l	3	10	96	8	"(570, 692)"	"(592, 729)"	1	    6.25	3320747.87	72	36
27	m	26	l	3	10	97	1	"(889, 669)"	"(861, 671)"	1	0	3329119.03	72	36
27	m	26	l	3	10	97	2	"(261, 181)"	"(242, 154)"	1	0	3329684.97	72	36
27	m	26	l	3	10	97	3	"(884, 76)"	"(923, 88)"	1	0	3330263.09	72	36
27	m	26	l	3	10	97	4	"(922, 433)"	"(916, 435)"	1	0	3330840.42	72	36
27	m	26	l	3	10	97	5	"(572, 88)"	"(558, 99)"	1	0	3331452.20	72	36
27	m	26	l	3	10	97	6	"(261, 638)"	"(284, 635)"	1	0	3332045.32	72	36
27	m	26	l	3	10	97	7	"(103, 437)"	"(79, 447)"	1	0	3332604.94	72	36
27	m	26	l	3	10	97	8	"(570, 692)"	"(549, 666)"	1	0	3333309.09	72	36
27	m	26	l	3	10	97	8	"(570, 692)"	"(549, 666)"	1	    5.06	3333309.09	72	36
27	m	26	l	3	10	98	1	"(889, 669)"	"(909, 691)"	1	0	3337276.70	72	36
27	m	26	l	3	10	98	2	"(261, 181)"	"(269, 163)"	1	0	3337804.82	72	36
27	m	26	l	3	10	98	3	"(884, 76)"	"(868, 99)"	1	0	3338364.47	72	36
27	m	26	l	3	10	98	4	"(922, 433)"	"(904, 412)"	1	0	3338814.55	72	36
27	m	26	l	3	10	98	5	"(572, 88)"	"(591, 102)"	1	0	3339380.73	72	36
27	m	26	l	3	10	98	6	"(261, 638)"	"(271, 685)"	2	0	3340670.29	72	36
27	m	26	l	3	10	98	7	"(103, 437)"	"(91, 415)"	1	0	3341093.74	72	36
27	m	26	l	3	10	98	8	"(570, 692)"	"(564, 690)"	1	0	3341637.84	72	36
27	m	26	l	3	10	98	8	"(570, 692)"	"(564, 690)"	1	    5.00	3341637.84	72	36
27	m	26	l	3	10	99	1	"(889, 669)"	"(897, 714)"	1	0	3347566.53	72	36
27	m	26	l	3	10	99	2	"(261, 181)"	"(264, 199)"	1	0	3348004.93	72	36
27	m	26	l	3	10	99	3	"(884, 76)"	"(851, 76)"	1	0	3348490.17	72	36
27	m	26	l	3	10	99	4	"(922, 433)"	"(923, 454)"	1	0	3348911.09	72	36
27	m	26	l	3	10	99	5	"(572, 88)"	"(568, 104)"	1	0	3349413.88	72	36
27	m	26	l	3	10	99	6	"(261, 638)"	"(273, 645)"	1	0	3349973.93	72	36
27	m	26	l	3	10	99	7	"(103, 437)"	"(138, 452)"	1	0	3350413.87	72	36
27	m	26	l	3	10	99	8	"(570, 692)"	"(591, 676)"	1	0	3350949.61	72	36
27	m	26	l	3	10	99	8	"(570, 692)"	"(591, 676)"	1	    4.02	3350949.61	72	36
27	m	26	l	3	10	100	1	"(889, 669)"	"(923, 674)"	1	0	3358509.54	72	36
27	m	26	l	3	10	100	2	"(261, 181)"	"(245, 177)"	1	0	3359239.16	72	36
27	m	26	l	3	10	100	3	"(884, 76)"	"(880, 55)"	1	0	3359734.54	72	36
27	m	26	l	3	10	100	4	"(922, 433)"	"(923, 440)"	1	0	3360280.92	72	36
27	m	26	l	3	10	100	5	"(572, 88)"	"(577, 87)"	1	0	3360934.99	72	36
27	m	26	l	3	10	100	6	"(261, 638)"	"(269, 665)"	1	0	3361440.95	72	36
27	m	26	l	3	10	100	7	"(103, 437)"	"(125, 465)"	1	0	3361982.22	72	36
27	m	26	l	3	10	100	8	"(570, 692)"	"(534, 664)"	1	0	3362729.53	72	36
27	m	26	l	3	10	100	8	"(570, 692)"	"(534, 664)"	1	    5.22	3362729.53	72	36
