VPnr	VPgender	VPage	VPeyeDominance	Condition	Block	Trial	Number	LocNumberCurrent	LocClickCorrect	NrClicksPerCircle	TimeTrial	TimeClickCorrect	SizeCircles	ClickTolerance
37	w	26	r	1	1	0	1	"(889, 669)"	"(898, 669)"	1	0	14405226.69	72	36
37	w	26	r	1	1	0	2	"(261, 181)"	"(263, 182)"	1	0	14406275.86	72	36
37	w	26	r	1	1	0	3	"(884, 76)"	"(893, 73)"	1	0	14407513.44	72	36
37	w	26	r	1	1	0	4	"(922, 433)"	"(914, 432)"	1	0	14408459.99	72	36
37	w	26	r	1	1	0	5	"(572, 88)"	"(570, 94)"	1	0	14409220.46	72	36
37	w	26	r	1	1	0	6	"(261, 638)"	"(271, 642)"	1	0	14410291.17	72	36
37	w	26	r	1	1	0	7	"(103, 437)"	"(111, 428)"	1	0	14411306.43	72	36
37	w	26	r	1	1	0	8	"(570, 692)"	"(570, 694)"	1	0	14412082.69	72	36
37	w	26	r	1	1	0	8	"(570, 692)"	"(570, 694)"	1	   10.01	14412082.69	72	36
37	w	26	r	1	1	1	1	"(889, 669)"	"(895, 665)"	1	0	14426804.57	72	36
37	w	26	r	1	1	1	2	"(261, 181)"	"(275, 186)"	1	0	14427677.65	72	36
37	w	26	r	1	1	1	3	"(884, 76)"	"(900, 74)"	1	0	14428874.79	72	36
37	w	26	r	1	1	1	4	"(922, 433)"	"(917, 421)"	1	0	14429452.28	72	36
37	w	26	r	1	1	1	5	"(572, 88)"	"(586, 86)"	1	0	14430038.15	72	36
37	w	26	r	1	1	1	6	"(261, 638)"	"(280, 633)"	1	0	14430900.65	72	36
37	w	26	r	1	1	1	7	"(103, 437)"	"(124, 433)"	1	0	14431572.52	72	36
37	w	26	r	1	1	1	8	"(570, 692)"	"(575, 706)"	1	0	14432379.68	72	36
37	w	26	r	1	1	1	8	"(570, 692)"	"(575, 706)"	1	    7.28	14432379.68	72	36
37	w	26	r	1	1	2	1	"(889, 669)"	"(891, 671)"	1	0	14438251.23	72	36
37	w	26	r	1	1	2	2	"(261, 181)"	"(261, 185)"	1	0	14439085.24	72	36
37	w	26	r	1	1	2	3	"(884, 76)"	"(889, 88)"	1	0	14439851.55	72	36
37	w	26	r	1	1	2	4	"(922, 433)"	"(940, 443)"	1	0	14440403.39	72	36
37	w	26	r	1	1	2	5	"(572, 88)"	"(576, 110)"	1	0	14441132.44	72	36
37	w	26	r	1	1	2	6	"(261, 638)"	"(269, 627)"	1	0	14442222.90	72	36
37	w	26	r	1	1	2	7	"(103, 437)"	"(106, 427)"	1	0	14442852.47	72	36
37	w	26	r	1	1	2	8	"(570, 692)"	"(577, 692)"	1	0	14443510.06	72	36
37	w	26	r	1	1	2	8	"(570, 692)"	"(577, 692)"	1	    6.68	14443510.06	72	36
37	w	26	r	1	1	3	1	"(889, 669)"	"(907, 668)"	1	0	14451206.54	72	36
37	w	26	r	1	1	3	2	"(261, 181)"	"(248, 190)"	1	0	14452014.11	72	36
37	w	26	r	1	1	3	3	"(884, 76)"	"(895, 83)"	1	0	14452788.74	72	36
37	w	26	r	1	1	3	4	"(922, 433)"	"(937, 434)"	1	0	14453311.95	72	36
37	w	26	r	1	1	3	5	"(572, 88)"	"(565, 92)"	1	0	14454197.24	72	36
37	w	26	r	1	1	3	6	"(261, 638)"	"(268, 646)"	1	0	14455044.95	72	36
37	w	26	r	1	1	3	7	"(103, 437)"	"(94, 430)"	1	0	14456052.79	72	36
37	w	26	r	1	1	3	8	"(570, 692)"	"(570, 703)"	1	0	14456767.15	72	36
37	w	26	r	1	1	3	8	"(570, 692)"	"(570, 703)"	1	    6.60	14456767.15	72	36
37	w	26	r	1	1	4	1	"(889, 669)"	"(904, 663)"	1	0	14465693.34	72	36
37	w	26	r	1	1	4	2	"(261, 181)"	"(263, 177)"	1	0	14466525.70	72	36
37	w	26	r	1	1	4	3	"(884, 76)"	"(895, 75)"	1	0	14467256.25	72	36
37	w	26	r	1	1	4	4	"(922, 433)"	"(930, 429)"	1	0	14467933.41	72	36
37	w	26	r	1	1	4	5	"(572, 88)"	"(573, 108)"	1	0	14468578.02	72	36
37	w	26	r	1	1	4	6	"(261, 638)"	"(249, 641)"	1	0	14469293.67	72	36
37	w	26	r	1	1	4	7	"(103, 437)"	"(94, 432)"	1	0	14470365.43	72	36
37	w	26	r	1	1	4	8	"(570, 692)"	"(609, 681)"	1	0	14471103.11	72	36
37	w	26	r	1	1	4	8	"(570, 692)"	"(609, 681)"	1	    6.59	14471103.11	72	36
37	w	26	r	1	1	5	1	"(889, 669)"	"(915, 666)"	1	0	14482293.98	72	36
37	w	26	r	1	1	5	2	"(261, 181)"	"(278, 183)"	1	0	14483112.43	72	36
37	w	26	r	1	1	5	3	"(884, 76)"	"(885, 67)"	1	0	14483775.20	72	36
37	w	26	r	1	1	5	4	"(922, 433)"	"(925, 434)"	1	0	14484406.18	72	36
37	w	26	r	1	1	5	5	"(572, 88)"	"(575, 85)"	1	0	14485399.91	72	36
37	w	26	r	1	1	5	6	"(261, 638)"	"(269, 640)"	1	0	14486230.06	72	36
37	w	26	r	1	1	5	7	"(103, 437)"	"(114, 433)"	1	0	14486805.52	72	36
37	w	26	r	1	1	5	8	"(570, 692)"	"(582, 692)"	1	0	14487494.27	72	36
37	w	26	r	1	1	5	8	"(570, 692)"	"(582, 692)"	1	    6.42	14487494.27	72	36
37	w	26	r	1	1	6	1	"(889, 669)"	"(902, 668)"	1	0	14497391.28	72	36
37	w	26	r	1	1	6	2	"(261, 181)"	"(279, 176)"	1	0	14498328.86	72	36
37	w	26	r	1	1	6	3	"(884, 76)"	"(897, 80)"	1	0	14498943.82	72	36
37	w	26	r	1	1	6	4	"(922, 433)"	"(921, 435)"	1	0	14499502.50	72	36
37	w	26	r	1	1	6	5	"(572, 88)"	"(595, 78)"	1	0	14500447.14	72	36
37	w	26	r	1	1	6	6	"(261, 638)"	"(268, 634)"	1	0	14501173.67	72	36
37	w	26	r	1	1	6	7	"(103, 437)"	"(101, 431)"	1	0	14501734.85	72	36
37	w	26	r	1	1	6	8	"(570, 692)"	"(596, 692)"	1	0	14502382.36	72	36
37	w	26	r	1	1	6	8	"(570, 692)"	"(596, 692)"	1	    6.18	14502382.36	72	36
37	w	26	r	1	1	7	1	"(889, 669)"	"(883, 683)"	1	0	14515199.87	72	36
37	w	26	r	1	1	7	2	"(261, 181)"	"(264, 180)"	1	0	14515790.93	72	36
37	w	26	r	1	1	7	3	"(884, 76)"	"(901, 71)"	1	0	14516600.46	72	36
37	w	26	r	1	1	7	4	"(922, 433)"	"(924, 444)"	1	0	14517135.72	72	36
37	w	26	r	1	1	7	5	"(572, 88)"	"(572, 96)"	1	0	14517784.70	72	36
37	w	26	r	1	1	7	6	"(261, 638)"	"(288, 604)"	1	0	14518471.88	72	36
37	w	26	r	1	1	7	7	"(103, 437)"	"(98, 423)"	1	0	14519177.39	72	36
37	w	26	r	1	1	7	8	"(570, 692)"	"(598, 684)"	1	0	14519827.10	72	36
37	w	26	r	1	1	7	8	"(570, 692)"	"(598, 684)"	1	    5.76	14519827.10	72	36
37	w	26	r	1	1	8	1	"(889, 669)"	"(898, 676)"	1	0	14530769.40	72	36
37	w	26	r	1	1	8	2	"(261, 181)"	"(295, 192)"	1	0	14531418.03	72	36
37	w	26	r	1	1	8	3	"(884, 76)"	"(875, 77)"	1	0	14532266.47	72	36
37	w	26	r	1	1	8	4	"(922, 433)"	"(926, 431)"	1	0	14532842.22	72	36
37	w	26	r	1	1	8	5	"(572, 88)"	"(585, 83)"	1	0	14533490.23	72	36
37	w	26	r	1	1	8	6	"(261, 638)"	"(285, 633)"	1	0	14534208.38	72	36
37	w	26	r	1	1	8	7	"(103, 437)"	"(94, 441)"	1	0	14534691.71	72	36
37	w	26	r	1	1	8	8	"(570, 692)"	"(566, 703)"	1	0	14535355.25	72	36
37	w	26	r	1	1	8	8	"(570, 692)"	"(566, 703)"	1	    5.22	14535355.25	72	36
37	w	26	r	1	1	9	1	"(889, 669)"	"(893, 690)"	1	0	14545138.17	72	36
37	w	26	r	1	1	9	2	"(261, 181)"	"(258, 168)"	1	0	14545761.00	72	36
37	w	26	r	1	1	9	3	"(884, 76)"	"(882, 86)"	1	0	14546432.72	72	36
37	w	26	r	1	1	9	4	"(922, 433)"	"(929, 443)"	1	0	14546970.62	72	36
37	w	26	r	1	1	9	5	"(572, 88)"	"(574, 86)"	1	0	14547634.20	72	36
37	w	26	r	1	1	9	6	"(261, 638)"	"(270, 644)"	1	0	14548297.20	72	36
37	w	26	r	1	1	9	7	"(103, 437)"	"(91, 430)"	1	0	14549153.99	72	36
37	w	26	r	1	1	9	8	"(570, 692)"	"(581, 682)"	1	0	14550075.58	72	36
37	w	26	r	1	1	9	8	"(570, 692)"	"(581, 682)"	1	    5.39	14550075.58	72	36
37	w	26	r	1	1	10	1	"(889, 669)"	"(884, 699)"	1	0	14558693.00	72	36
37	w	26	r	1	1	10	2	"(261, 181)"	"(263, 171)"	1	0	14560009.65	72	36
37	w	26	r	1	1	10	3	"(884, 76)"	"(861, 71)"	1	0	14560956.32	72	36
37	w	26	r	1	1	10	4	"(922, 433)"	"(924, 433)"	1	0	14561647.89	72	36
37	w	26	r	1	1	10	5	"(572, 88)"	"(571, 78)"	1	0	14562170.10	72	36
37	w	26	r	1	1	10	6	"(261, 638)"	"(281, 639)"	1	0	14562850.26	72	36
37	w	26	r	1	1	10	7	"(103, 437)"	"(119, 440)"	1	0	14563524.84	72	36
37	w	26	r	1	1	10	8	"(570, 692)"	"(579, 688)"	1	0	14564420.20	72	36
37	w	26	r	1	1	10	8	"(570, 692)"	"(579, 688)"	1	    6.51	14564420.20	72	36
37	w	26	r	1	2	11	1	"(889, 669)"	"(876, 687)"	1	0	14579059.12	72	36
37	w	26	r	1	2	11	2	"(261, 181)"	"(245, 184)"	1	0	14579925.23	72	36
37	w	26	r	1	2	11	3	"(884, 76)"	"(895, 88)"	1	0	14580640.55	72	36
37	w	26	r	1	2	11	4	"(922, 433)"	"(919, 449)"	1	0	14581460.79	72	36
37	w	26	r	1	2	11	5	"(572, 88)"	"(577, 88)"	1	0	14582153.80	72	36
37	w	26	r	1	2	11	6	"(261, 638)"	"(268, 648)"	1	0	14582805.71	72	36
37	w	26	r	1	2	11	7	"(103, 437)"	"(103, 442)"	1	0	14583574.14	72	36
37	w	26	r	1	2	11	8	"(570, 692)"	"(563, 665)"	1	0	14584301.48	72	36
37	w	26	r	1	2	11	8	"(570, 692)"	"(563, 665)"	1	    6.39	14584301.48	72	36
37	w	26	r	1	2	12	1	"(889, 669)"	"(904, 695)"	1	0	14589349.63	72	36
37	w	26	r	1	2	12	2	"(261, 181)"	"(284, 179)"	1	0	14590028.63	72	36
37	w	26	r	1	2	12	3	"(884, 76)"	"(899, 75)"	1	0	14590972.82	72	36
37	w	26	r	1	2	12	4	"(922, 433)"	"(923, 430)"	1	0	14591606.71	72	36
37	w	26	r	1	2	12	5	"(572, 88)"	"(565, 99)"	1	0	14592204.30	72	36
37	w	26	r	1	2	12	6	"(261, 638)"	"(276, 647)"	1	0	14593041.77	72	36
37	w	26	r	1	2	12	7	"(103, 437)"	"(102, 453)"	1	0	14593827.44	72	36
37	w	26	r	1	2	12	8	"(570, 692)"	"(569, 680)"	1	0	14594725.57	72	36
37	w	26	r	1	2	12	8	"(570, 692)"	"(569, 680)"	1	    6.10	14594725.57	72	36
37	w	26	r	1	2	13	1	"(889, 669)"	"(915, 664)"	1	0	14602044.64	72	36
37	w	26	r	1	2	13	2	"(261, 181)"	"(275, 179)"	1	0	14602703.55	72	36
37	w	26	r	1	2	13	3	"(884, 76)"	"(892, 85)"	1	0	14603310.09	72	36
37	w	26	r	1	2	13	4	"(922, 433)"	"(928, 436)"	1	0	14603943.37	72	36
37	w	26	r	1	2	13	5	"(572, 88)"	"(579, 86)"	1	0	14604524.14	72	36
37	w	26	r	1	2	13	6	"(261, 638)"	"(271, 633)"	1	0	14605117.35	72	36
37	w	26	r	1	2	13	7	"(103, 437)"	"(122, 427)"	1	0	14605805.62	72	36
37	w	26	r	1	2	13	8	"(570, 692)"	"(591, 674)"	1	0	14606535.44	72	36
37	w	26	r	1	2	13	8	"(570, 692)"	"(591, 674)"	1	    5.34	14606535.44	72	36
37	w	26	r	1	2	14	1	"(889, 669)"	"(911, 669)"	1	0	14614309.28	72	36
37	w	26	r	1	2	14	2	"(261, 181)"	"(274, 181)"	1	0	14615030.38	72	36
37	w	26	r	1	2	14	3	"(884, 76)"	"(898, 88)"	1	0	14615851.75	72	36
37	w	26	r	1	2	14	4	"(922, 433)"	"(940, 431)"	1	0	14616421.65	72	36
37	w	26	r	1	2	14	5	"(572, 88)"	"(572, 84)"	1	0	14617544.25	72	36
37	w	26	r	1	2	14	6	"(261, 638)"	"(270, 638)"	1	0	14618465.79	72	36
37	w	26	r	1	2	14	7	"(103, 437)"	"(113, 434)"	1	0	14619008.48	72	36
37	w	26	r	1	2	14	8	"(570, 692)"	"(568, 685)"	1	0	14619871.70	72	36
37	w	26	r	1	2	14	8	"(570, 692)"	"(568, 685)"	1	    6.38	14619871.70	72	36
37	w	26	r	1	2	15	1	"(889, 669)"	"(890, 675)"	1	0	14626500.87	72	36
37	w	26	r	1	2	15	2	"(261, 181)"	"(250, 205)"	1	0	14627381.91	72	36
37	w	26	r	1	2	15	3	"(884, 76)"	"(904, 81)"	1	0	14627950.48	72	36
37	w	26	r	1	2	15	4	"(922, 433)"	"(923, 457)"	1	0	14628510.20	72	36
37	w	26	r	1	2	15	5	"(572, 88)"	"(574, 80)"	1	0	14629190.36	72	36
37	w	26	r	1	2	15	6	"(261, 638)"	"(270, 642)"	1	0	14629836.47	72	36
37	w	26	r	1	2	15	7	"(103, 437)"	"(82, 446)"	1	0	14630406.22	72	36
37	w	26	r	1	2	15	8	"(570, 692)"	"(589, 683)"	1	0	14631135.10	72	36
37	w	26	r	1	2	15	8	"(570, 692)"	"(589, 683)"	1	    5.38	14631135.10	72	36
37	w	26	r	1	2	16	1	"(889, 669)"	"(903, 653)"	1	0	14636440.19	72	36
37	w	26	r	1	2	16	2	"(261, 181)"	"(277, 157)"	1	0	14637105.44	72	36
37	w	26	r	1	2	16	3	"(884, 76)"	"(893, 76)"	1	0	14637958.99	72	36
37	w	26	r	1	2	16	4	"(922, 433)"	"(928, 438)"	1	0	14638570.37	72	36
37	w	26	r	1	2	16	5	"(572, 88)"	"(574, 99)"	1	0	14639191.31	72	36
37	w	26	r	1	2	16	6	"(261, 638)"	"(260, 639)"	1	0	14639974.61	72	36
37	w	26	r	1	2	16	7	"(103, 437)"	"(110, 434)"	1	0	14640463.56	72	36
37	w	26	r	1	2	16	8	"(570, 692)"	"(561, 688)"	1	0	14641261.85	72	36
37	w	26	r	1	2	16	8	"(570, 692)"	"(561, 688)"	1	    5.68	14641261.85	72	36
37	w	26	r	1	2	17	1	"(889, 669)"	"(871, 658)"	1	0	14647262.97	72	36
37	w	26	r	1	2	17	2	"(261, 181)"	"(236, 171)"	1	0	14647927.80	72	36
37	w	26	r	1	2	17	3	"(884, 76)"	"(897, 91)"	1	0	14648569.29	72	36
37	w	26	r	1	2	17	4	"(922, 433)"	"(944, 434)"	1	0	14649095.30	72	36
37	w	26	r	1	2	17	5	"(572, 88)"	"(571, 97)"	1	0	14649699.66	72	36
37	w	26	r	1	2	17	6	"(261, 638)"	"(268, 627)"	1	0	14650322.24	72	36
37	w	26	r	1	2	17	7	"(103, 437)"	"(102, 408)"	1	0	14650735.92	72	36
37	w	26	r	1	2	17	8	"(570, 692)"	"(603, 686)"	1	0	14651352.12	72	36
37	w	26	r	1	2	17	8	"(570, 692)"	"(603, 686)"	1	    4.97	14651352.12	72	36
37	w	26	r	1	2	18	1	"(889, 669)"	"(919, 682)"	1	0	14658537.40	72	36
37	w	26	r	1	2	18	2	"(261, 181)"	"(259, 183)"	1	0	14659175.10	72	36
37	w	26	r	1	2	18	3	"(884, 76)"	"(881, 82)"	1	0	14659785.18	72	36
37	w	26	r	1	2	18	4	"(922, 433)"	"(942, 439)"	1	0	14660361.93	72	36
37	w	26	r	1	2	18	5	"(572, 88)"	"(573, 109)"	1	0	14661144.12	72	36
37	w	26	r	1	2	18	6	"(261, 638)"	"(252, 662)"	1	0	14661769.59	72	36
37	w	26	r	1	2	18	7	"(103, 437)"	"(111, 392)"	1	0	14662296.95	72	36
37	w	26	r	1	2	18	8	"(570, 692)"	"(580, 676)"	1	0	14663217.23	72	36
37	w	26	r	1	2	18	8	"(570, 692)"	"(580, 676)"	1	    5.28	14663217.23	72	36
37	w	26	r	1	2	19	1	"(889, 669)"	"(898, 670)"	1	0	14669450.71	72	36
37	w	26	r	1	2	19	2	"(261, 181)"	"(277, 179)"	1	0	14670114.29	72	36
37	w	26	r	1	2	19	3	"(884, 76)"	"(886, 83)"	1	0	14670775.51	72	36
37	w	26	r	1	2	19	4	"(922, 433)"	"(921, 457)"	1	0	14671366.17	72	36
37	w	26	r	1	2	19	5	"(572, 88)"	"(575, 108)"	1	0	14672042.13	72	36
37	w	26	r	1	2	19	6	"(261, 638)"	"(278, 632)"	1	0	14672915.39	72	36
37	w	26	r	1	2	19	7	"(103, 437)"	"(110, 446)"	1	0	14673578.39	72	36
37	w	26	r	1	2	19	8	"(570, 692)"	"(586, 718)"	1	0	14674299.58	72	36
37	w	26	r	1	2	19	8	"(570, 692)"	"(586, 718)"	1	    5.63	14674299.58	72	36
37	w	26	r	1	2	20	1	"(889, 669)"	"(896, 686)"	1	0	14679793.46	72	36
37	w	26	r	1	2	20	2	"(261, 181)"	"(272, 186)"	2	0	14680850.49	72	36
37	w	26	r	1	2	20	3	"(884, 76)"	"(893, 81)"	3	0	14684288.91	72	36
37	w	26	r	1	2	20	4	"(922, 433)"	"(911, 424)"	3	0	14688795.34	72	36
37	w	26	r	1	2	20	5	"(572, 88)"	"(577, 88)"	1	0	14690619.03	72	36
37	w	26	r	1	2	20	6	"(261, 638)"	"(264, 631)"	1	0	14691515.08	72	36
37	w	26	r	1	2	20	7	"(103, 437)"	"(120, 444)"	1	0	14692188.31	72	36
37	w	26	r	1	2	20	8	"(570, 692)"	"(558, 682)"	1	0	14693146.31	72	36
37	w	26	r	1	2	20	8	"(570, 692)"	"(558, 682)"	1	   14.08	14693146.31	72	36
37	w	26	r	1	3	21	1	"(889, 669)"	"(891, 663)"	1	0	14700105.92	72	36
37	w	26	r	1	3	21	2	"(261, 181)"	"(276, 182)"	1	0	14700721.25	72	36
37	w	26	r	1	3	21	3	"(884, 76)"	"(894, 75)"	1	0	14701318.03	72	36
37	w	26	r	1	3	21	4	"(922, 433)"	"(926, 433)"	1	0	14701827.65	72	36
37	w	26	r	1	3	21	5	"(572, 88)"	"(569, 104)"	1	0	14702635.55	72	36
37	w	26	r	1	3	21	6	"(261, 638)"	"(266, 647)"	1	0	14703314.97	72	36
37	w	26	r	1	3	21	7	"(103, 437)"	"(97, 434)"	1	0	14703771.02	72	36
37	w	26	r	1	3	21	8	"(570, 692)"	"(581, 692)"	1	0	14704315.47	72	36
37	w	26	r	1	3	21	8	"(570, 692)"	"(581, 692)"	1	    4.87	14704315.47	72	36
37	w	26	r	1	3	22	1	"(889, 669)"	"(875, 677)"	1	0	14709514.54	72	36
37	w	26	r	1	3	22	2	"(261, 181)"	"(246, 175)"	1	0	14710739.64	72	36
37	w	26	r	1	3	22	3	"(884, 76)"	"(906, 75)"	1	0	14712006.33	72	36
37	w	26	r	1	3	22	4	"(922, 433)"	"(910, 447)"	1	0	14712733.16	72	36
37	w	26	r	1	3	22	5	"(572, 88)"	"(577, 118)"	1	0	14713525.86	72	36
37	w	26	r	1	3	22	6	"(261, 638)"	"(274, 626)"	1	0	14714348.07	72	36
37	w	26	r	1	3	22	7	"(103, 437)"	"(113, 429)"	1	0	14714956.83	72	36
37	w	26	r	1	3	22	8	"(570, 692)"	"(586, 696)"	1	0	14715842.27	72	36
37	w	26	r	1	3	22	8	"(570, 692)"	"(586, 696)"	1	    7.04	14715842.27	72	36
37	w	26	r	1	3	23	1	"(889, 669)"	"(923, 664)"	1	0	14723286.66	72	36
37	w	26	r	1	3	23	2	"(261, 181)"	"(263, 183)"	1	0	14724108.07	72	36
37	w	26	r	1	3	23	3	"(884, 76)"	"(908, 73)"	1	0	14724867.84	72	36
37	w	26	r	1	3	23	4	"(922, 433)"	"(938, 431)"	1	0	14725454.34	72	36
37	w	26	r	1	3	23	5	"(572, 88)"	"(583, 92)"	1	0	14726222.61	72	36
37	w	26	r	1	3	23	6	"(261, 638)"	"(279, 635)"	1	0	14726915.09	72	36
37	w	26	r	1	3	23	7	"(103, 437)"	"(108, 436)"	1	0	14727461.71	72	36
37	w	26	r	1	3	23	8	"(570, 692)"	"(567, 682)"	1	0	14728069.52	72	36
37	w	26	r	1	3	23	8	"(570, 692)"	"(567, 682)"	1	    5.73	14728069.52	72	36
37	w	26	r	1	3	24	1	"(889, 669)"	"(863, 660)"	1	0	14736750.67	72	36
37	w	26	r	1	3	24	2	"(261, 181)"	"(241, 201)"	1	0	14737454.36	72	36
37	w	26	r	1	3	24	3	"(884, 76)"	"(901, 71)"	1	0	14738086.87	72	36
37	w	26	r	1	3	24	4	"(922, 433)"	"(936, 425)"	1	0	14738676.38	72	36
37	w	26	r	1	3	24	5	"(572, 88)"	"(563, 80)"	1	0	14739495.59	72	36
37	w	26	r	1	3	24	6	"(261, 638)"	"(261, 650)"	1	0	14740271.53	72	36
37	w	26	r	1	3	24	7	"(103, 437)"	"(114, 439)"	1	0	14740877.07	72	36
37	w	26	r	1	3	24	8	"(570, 692)"	"(597, 675)"	1	0	14741537.12	72	36
37	w	26	r	1	3	24	8	"(570, 692)"	"(597, 675)"	1	    5.77	14741537.12	72	36
37	w	26	r	1	3	25	1	"(889, 669)"	"(907, 673)"	1	0	14746748.16	72	36
37	w	26	r	1	3	25	2	"(261, 181)"	"(260, 182)"	1	0	14747622.47	72	36
37	w	26	r	1	3	25	3	"(884, 76)"	"(890, 71)"	1	0	14748358.40	72	36
37	w	26	r	1	3	25	4	"(922, 433)"	"(943, 432)"	1	0	14748980.32	72	36
37	w	26	r	1	3	25	5	"(572, 88)"	"(557, 85)"	1	0	14749645.06	72	36
37	w	26	r	1	3	25	6	"(261, 638)"	"(269, 642)"	2	0	14751296.46	72	36
37	w	26	r	1	3	25	7	"(103, 437)"	"(110, 442)"	1	0	14751835.39	72	36
37	w	26	r	1	3	25	8	"(570, 692)"	"(578, 678)"	1	0	14752856.90	72	36
37	w	26	r	1	3	25	8	"(570, 692)"	"(578, 678)"	1	    6.97	14752856.90	72	36
37	w	26	r	1	3	26	1	"(889, 669)"	"(881, 682)"	1	0	14757941.05	72	36
37	w	26	r	1	3	26	2	"(261, 181)"	"(252, 168)"	1	0	14758622.02	72	36
37	w	26	r	1	3	26	3	"(884, 76)"	"(894, 73)"	1	0	14759534.94	72	36
37	w	26	r	1	3	26	4	"(922, 433)"	"(917, 422)"	1	0	14760229.26	72	36
37	w	26	r	1	3	26	5	"(572, 88)"	"(580, 84)"	1	0	14760895.90	72	36
37	w	26	r	1	3	26	6	"(261, 638)"	"(266, 645)"	1	0	14761685.40	72	36
37	w	26	r	1	3	26	7	"(103, 437)"	"(112, 427)"	1	0	14762336.48	72	36
37	w	26	r	1	3	26	8	"(570, 692)"	"(584, 691)"	1	0	14763133.97	72	36
37	w	26	r	1	3	26	8	"(570, 692)"	"(584, 691)"	1	    5.90	14763133.97	72	36
37	w	26	r	1	3	27	1	"(889, 669)"	"(916, 652)"	1	0	14766841.07	72	36
37	w	26	r	1	3	27	2	"(261, 181)"	"(239, 153)"	1	0	14767534.93	72	36
37	w	26	r	1	3	27	3	"(884, 76)"	"(886, 75)"	1	0	14768320.01	72	36
37	w	26	r	1	3	27	4	"(922, 433)"	"(918, 432)"	1	0	14768981.48	72	36
37	w	26	r	1	3	27	5	"(572, 88)"	"(580, 98)"	1	0	14769535.14	72	36
37	w	26	r	1	3	27	6	"(261, 638)"	"(246, 641)"	1	0	14770373.86	72	36
37	w	26	r	1	3	27	7	"(103, 437)"	"(99, 438)"	1	0	14770821.38	72	36
37	w	26	r	1	3	27	8	"(570, 692)"	"(603, 679)"	1	0	14771605.76	72	36
37	w	26	r	1	3	27	8	"(570, 692)"	"(603, 679)"	1	    5.16	14771605.76	72	36
37	w	26	r	1	3	28	1	"(889, 669)"	"(910, 659)"	1	0	14776775.30	72	36
37	w	26	r	1	3	28	2	"(261, 181)"	"(275, 206)"	1	0	14777440.51	72	36
37	w	26	r	1	3	28	3	"(884, 76)"	"(894, 80)"	1	0	14778217.24	72	36
37	w	26	r	1	3	28	4	"(922, 433)"	"(926, 446)"	1	0	14778837.43	72	36
37	w	26	r	1	3	28	5	"(572, 88)"	"(580, 77)"	1	0	14779461.87	72	36
37	w	26	r	1	3	28	6	"(261, 638)"	"(239, 643)"	1	0	14780615.80	72	36
37	w	26	r	1	3	28	7	"(103, 437)"	"(110, 442)"	1	0	14781281.00	72	36
37	w	26	r	1	3	28	8	"(570, 692)"	"(575, 705)"	1	0	14781967.33	72	36
37	w	26	r	1	3	28	8	"(570, 692)"	"(575, 705)"	1	    5.67	14781967.33	72	36
37	w	26	r	1	3	29	1	"(889, 669)"	"(874, 664)"	1	0	14785648.07	72	36
37	w	26	r	1	3	29	2	"(261, 181)"	"(266, 196)"	1	0	14786159.48	72	36
37	w	26	r	1	3	29	3	"(884, 76)"	"(880, 82)"	1	0	14786744.97	72	36
37	w	26	r	1	3	29	4	"(922, 433)"	"(919, 415)"	1	0	14787343.78	72	36
37	w	26	r	1	3	29	5	"(572, 88)"	"(582, 86)"	1	0	14787957.18	72	36
37	w	26	r	1	3	29	6	"(261, 638)"	"(273, 622)"	1	0	14788713.25	72	36
37	w	26	r	1	3	29	7	"(103, 437)"	"(92, 427)"	1	0	14789280.84	72	36
37	w	26	r	1	3	29	8	"(570, 692)"	"(582, 690)"	1	0	14789810.27	72	36
37	w	26	r	1	3	29	8	"(570, 692)"	"(582, 690)"	1	    4.80	14789810.27	72	36
37	w	26	r	1	3	30	1	"(889, 669)"	"(901, 661)"	1	0	14794216.19	72	36
37	w	26	r	1	3	30	2	"(261, 181)"	"(281, 212)"	1	0	14795001.49	72	36
37	w	26	r	1	3	30	3	"(884, 76)"	"(878, 84)"	1	0	14795625.38	72	36
37	w	26	r	1	3	30	4	"(922, 433)"	"(937, 445)"	1	0	14796225.04	72	36
37	w	26	r	1	3	30	5	"(572, 88)"	"(564, 97)"	1	0	14796767.27	72	36
37	w	26	r	1	3	30	6	"(261, 638)"	"(267, 646)"	1	0	14797521.08	72	36
37	w	26	r	1	3	30	7	"(103, 437)"	"(106, 438)"	1	0	14798095.84	72	36
37	w	26	r	1	3	30	8	"(570, 692)"	"(608, 680)"	1	0	14798785.53	72	36
37	w	26	r	1	3	30	8	"(570, 692)"	"(608, 680)"	1	    5.16	14798785.53	72	36
37	w	26	r	1	4	31	1	"(889, 669)"	"(906, 662)"	1	0	14804839.80	72	36
37	w	26	r	1	4	31	2	"(261, 181)"	"(278, 191)"	1	0	14805648.99	72	36
37	w	26	r	1	4	31	3	"(884, 76)"	"(894, 86)"	1	0	14806351.37	72	36
37	w	26	r	1	4	31	4	"(922, 433)"	"(932, 416)"	1	0	14806931.01	72	36
37	w	26	r	1	4	31	5	"(572, 88)"	"(588, 103)"	1	0	14807544.66	72	36
37	w	26	r	1	4	31	6	"(261, 638)"	"(279, 637)"	1	0	14808290.80	72	36
37	w	26	r	1	4	31	7	"(103, 437)"	"(96, 437)"	1	0	14808815.33	72	36
37	w	26	r	1	4	31	8	"(570, 692)"	"(553, 683)"	1	0	14809474.42	72	36
37	w	26	r	1	4	31	8	"(570, 692)"	"(553, 683)"	1	    5.76	14809474.42	72	36
37	w	26	r	1	4	32	1	"(889, 669)"	"(893, 668)"	1	0	14812432.35	72	36
37	w	26	r	1	4	32	2	"(261, 181)"	"(282, 226)"	1	0	14813331.85	72	36
37	w	26	r	1	4	32	3	"(884, 76)"	"(902, 81)"	2	0	14814432.93	72	36
37	w	26	r	1	4	32	4	"(922, 433)"	"(912, 442)"	1	0	14816003.09	72	36
37	w	26	r	1	4	32	5	"(572, 88)"	"(586, 87)"	1	0	14817362.83	72	36
37	w	26	r	1	4	32	6	"(261, 638)"	"(278, 637)"	1	0	14818403.15	72	36
37	w	26	r	1	4	32	7	"(103, 437)"	"(94, 442)"	1	0	14819056.54	72	36
37	w	26	r	1	4	32	8	"(570, 692)"	"(584, 686)"	1	0	14820808.95	72	36
37	w	26	r	1	4	32	8	"(570, 692)"	"(584, 686)"	1	    9.30	14820808.95	72	36
37	w	26	r	1	4	33	1	"(889, 669)"	"(902, 662)"	1	0	14823863.99	72	36
37	w	26	r	1	4	33	2	"(261, 181)"	"(272, 169)"	1	0	14824552.85	72	36
37	w	26	r	1	4	33	3	"(884, 76)"	"(882, 94)"	1	0	14825232.90	72	36
37	w	26	r	1	4	33	4	"(922, 433)"	"(927, 445)"	1	0	14825899.06	72	36
37	w	26	r	1	4	33	5	"(572, 88)"	"(583, 89)"	1	0	14826449.18	72	36
37	w	26	r	1	4	33	6	"(261, 638)"	"(240, 643)"	1	0	14827195.73	72	36
37	w	26	r	1	4	33	7	"(103, 437)"	"(91, 423)"	1	0	14827803.60	72	36
37	w	26	r	1	4	33	8	"(570, 692)"	"(569, 696)"	1	0	14828425.79	72	36
37	w	26	r	1	4	33	8	"(570, 692)"	"(569, 696)"	1	    5.50	14828425.79	72	36
37	w	26	r	1	4	34	1	"(889, 669)"	"(940, 657)"	1	0	14831538.20	72	36
37	w	26	r	1	4	34	2	"(261, 181)"	"(255, 166)"	2	0	14832723.59	72	36
37	w	26	r	1	4	34	3	"(884, 76)"	"(873, 94)"	1	0	14833354.93	72	36
37	w	26	r	1	4	34	4	"(922, 433)"	"(928, 440)"	1	0	14833906.51	72	36
37	w	26	r	1	4	34	5	"(572, 88)"	"(581, 93)"	1	0	14834771.20	72	36
37	w	26	r	1	4	34	6	"(261, 638)"	"(242, 634)"	1	0	14835730.21	72	36
37	w	26	r	1	4	34	7	"(103, 437)"	"(97, 448)"	1	0	14836242.02	72	36
37	w	26	r	1	4	34	8	"(570, 692)"	"(568, 695)"	1	0	14837106.98	72	36
37	w	26	r	1	4	34	8	"(570, 692)"	"(568, 695)"	1	    6.19	14837106.98	72	36
37	w	26	r	1	4	35	1	"(889, 669)"	"(896, 673)"	1	0	14840361.29	72	36
37	w	26	r	1	4	35	2	"(261, 181)"	"(274, 180)"	1	0	14841146.65	72	36
37	w	26	r	1	4	35	3	"(884, 76)"	"(892, 78)"	1	0	14841939.00	72	36
37	w	26	r	1	4	35	4	"(922, 433)"	"(929, 441)"	1	0	14842548.09	72	36
37	w	26	r	1	4	35	5	"(572, 88)"	"(566, 98)"	1	0	14843314.77	72	36
37	w	26	r	1	4	35	6	"(261, 638)"	"(276, 642)"	1	0	14844253.20	72	36
37	w	26	r	1	4	35	7	"(103, 437)"	"(96, 446)"	1	0	14844842.74	72	36
37	w	26	r	1	4	35	8	"(570, 692)"	"(566, 695)"	1	0	14845530.25	72	36
37	w	26	r	1	4	35	8	"(570, 692)"	"(566, 695)"	1	    5.76	14845530.25	72	36
37	w	26	r	1	4	36	1	"(889, 669)"	"(904, 674)"	1	0	14849065.89	72	36
37	w	26	r	1	4	36	2	"(261, 181)"	"(252, 196)"	1	0	14849763.77	72	36
37	w	26	r	1	4	36	3	"(884, 76)"	"(877, 46)"	1	0	14850394.13	72	36
37	w	26	r	1	4	36	4	"(922, 433)"	"(913, 461)"	1	0	14851059.29	72	36
37	w	26	r	1	4	36	5	"(572, 88)"	"(585, 102)"	1	0	14851658.55	72	36
37	w	26	r	1	4	36	6	"(261, 638)"	"(266, 647)"	1	0	14852625.94	72	36
37	w	26	r	1	4	36	7	"(103, 437)"	"(92, 424)"	1	0	14853171.73	72	36
37	w	26	r	1	4	36	8	"(570, 692)"	"(590, 688)"	1	0	14853813.26	72	36
37	w	26	r	1	4	36	8	"(570, 692)"	"(590, 688)"	1	    5.68	14853813.26	72	36
37	w	26	r	1	4	37	1	"(889, 669)"	"(886, 660)"	1	0	14857284.24	72	36
37	w	26	r	1	4	37	2	"(261, 181)"	"(269, 170)"	1	0	14857971.64	72	36
37	w	26	r	1	4	37	3	"(884, 76)"	"(893, 75)"	1	0	14858678.81	72	36
37	w	26	r	1	4	37	4	"(922, 433)"	"(917, 435)"	1	0	14859283.26	72	36
37	w	26	r	1	4	37	5	"(572, 88)"	"(561, 102)"	1	0	14859955.29	72	36
37	w	26	r	1	4	37	6	"(261, 638)"	"(273, 640)"	1	0	14860674.66	72	36
37	w	26	r	1	4	37	7	"(103, 437)"	"(109, 445)"	1	0	14861283.16	72	36
37	w	26	r	1	4	37	8	"(570, 692)"	"(566, 699)"	1	0	14862014.42	72	36
37	w	26	r	1	4	37	8	"(570, 692)"	"(566, 699)"	1	    5.59	14862014.42	72	36
37	w	26	r	1	4	38	1	"(889, 669)"	"(902, 669)"	1	0	14866211.26	72	36
37	w	26	r	1	4	38	2	"(261, 181)"	"(272, 188)"	1	0	14866906.71	72	36
37	w	26	r	1	4	38	3	"(884, 76)"	"(902, 77)"	2	0	14868084.31	72	36
37	w	26	r	1	4	38	4	"(922, 433)"	"(919, 443)"	1	0	14868804.71	72	36
37	w	26	r	1	4	38	5	"(572, 88)"	"(586, 92)"	1	0	14869506.61	72	36
37	w	26	r	1	4	38	6	"(261, 638)"	"(253, 636)"	1	0	14870405.63	72	36
37	w	26	r	1	4	38	7	"(103, 437)"	"(99, 437)"	1	0	14871197.24	72	36
37	w	26	r	1	4	38	8	"(570, 692)"	"(593, 678)"	1	0	14871876.27	72	36
37	w	26	r	1	4	38	8	"(570, 692)"	"(593, 678)"	1	    6.87	14871876.27	72	36
37	w	26	r	1	4	39	1	"(889, 669)"	"(898, 675)"	1	0	14875968.71	72	36
37	w	26	r	1	4	39	2	"(261, 181)"	"(260, 176)"	1	0	14876743.14	72	36
37	w	26	r	1	4	39	3	"(884, 76)"	"(871, 75)"	1	0	14877581.11	72	36
37	w	26	r	1	4	39	4	"(922, 433)"	"(909, 457)"	1	0	14878286.48	72	36
37	w	26	r	1	4	39	5	"(572, 88)"	"(573, 86)"	1	0	14878917.15	72	36
37	w	26	r	1	4	39	6	"(261, 638)"	"(270, 634)"	1	0	14879805.56	72	36
37	w	26	r	1	4	39	7	"(103, 437)"	"(113, 441)"	1	0	14880388.24	72	36
37	w	26	r	1	4	39	8	"(570, 692)"	"(597, 699)"	1	0	14881078.58	72	36
37	w	26	r	1	4	39	8	"(570, 692)"	"(597, 699)"	1	    6.09	14881078.58	72	36
37	w	26	r	1	4	40	1	"(889, 669)"	"(885, 680)"	1	0	14886557.63	72	36
37	w	26	r	1	4	40	2	"(261, 181)"	"(256, 192)"	1	0	14887181.68	72	36
37	w	26	r	1	4	40	3	"(884, 76)"	"(872, 85)"	1	0	14887864.13	72	36
37	w	26	r	1	4	40	4	"(922, 433)"	"(927, 432)"	1	0	14888495.25	72	36
37	w	26	r	1	4	40	5	"(572, 88)"	"(574, 84)"	1	0	14889151.40	72	36
37	w	26	r	1	4	40	6	"(261, 638)"	"(258, 640)"	1	0	14889854.82	72	36
37	w	26	r	1	4	40	7	"(103, 437)"	"(105, 427)"	1	0	14890353.14	72	36
37	w	26	r	1	4	40	8	"(570, 692)"	"(580, 696)"	1	0	14891151.86	72	36
37	w	26	r	1	4	40	8	"(570, 692)"	"(580, 696)"	1	    5.24	14891151.86	72	36
37	w	26	r	1	5	41	1	"(889, 669)"	"(894, 655)"	1	0	14896806.76	72	36
37	w	26	r	1	5	41	2	"(261, 181)"	"(261, 181)"	1	0	14897825.42	72	36
37	w	26	r	1	5	41	3	"(884, 76)"	"(866, 88)"	1	0	14898516.95	72	36
37	w	26	r	1	5	41	4	"(922, 433)"	"(920, 427)"	1	0	14899181.27	72	36
37	w	26	r	1	5	41	5	"(572, 88)"	"(562, 87)"	1	0	14899791.98	72	36
37	w	26	r	1	5	41	6	"(261, 638)"	"(260, 633)"	1	0	14900678.04	72	36
37	w	26	r	1	5	41	7	"(103, 437)"	"(107, 429)"	1	0	14901244.63	72	36
37	w	26	r	1	5	41	8	"(570, 692)"	"(574, 674)"	1	0	14901996.87	72	36
37	w	26	r	1	5	41	8	"(570, 692)"	"(574, 674)"	1	    6.10	14901996.87	72	36
37	w	26	r	1	5	42	1	"(889, 669)"	"(916, 674)"	1	0	14906230.13	72	36
37	w	26	r	1	5	42	2	"(261, 181)"	"(268, 191)"	1	0	14906911.53	72	36
37	w	26	r	1	5	42	3	"(884, 76)"	"(887, 97)"	1	0	14907638.27	72	36
37	w	26	r	1	5	42	4	"(922, 433)"	"(920, 461)"	1	0	14908205.86	72	36
37	w	26	r	1	5	42	5	"(572, 88)"	"(584, 106)"	1	0	14909105.13	72	36
37	w	26	r	1	5	42	6	"(261, 638)"	"(251, 653)"	1	0	14909823.71	72	36
37	w	26	r	1	5	42	7	"(103, 437)"	"(124, 443)"	1	0	14910344.96	72	36
37	w	26	r	1	5	42	8	"(570, 692)"	"(597, 694)"	1	0	14911070.93	72	36
37	w	26	r	1	5	42	8	"(570, 692)"	"(597, 694)"	1	    5.92	14911070.93	72	36
37	w	26	r	1	5	43	1	"(889, 669)"	"(895, 656)"	1	0	14922840.55	72	36
37	w	26	r	1	5	43	2	"(261, 181)"	"(276, 185)"	1	0	14923560.35	72	36
37	w	26	r	1	5	43	3	"(884, 76)"	"(862, 69)"	1	0	14924307.34	72	36
37	w	26	r	1	5	43	4	"(922, 433)"	"(947, 459)"	1	0	14924929.35	72	36
37	w	26	r	1	5	43	5	"(572, 88)"	"(569, 88)"	1	0	14925472.30	72	36
37	w	26	r	1	5	43	6	"(261, 638)"	"(279, 630)"	1	0	14926201.66	72	36
37	w	26	r	1	5	43	7	"(103, 437)"	"(99, 423)"	2	0	14927807.93	72	36
37	w	26	r	1	5	43	8	"(570, 692)"	"(589, 685)"	1	0	14928518.17	72	36
37	w	26	r	1	5	43	8	"(570, 692)"	"(589, 685)"	1	    6.55	14928518.17	72	36
37	w	26	r	1	5	44	1	"(889, 669)"	"(894, 679)"	1	0	14933514.83	72	36
37	w	26	r	1	5	44	2	"(261, 181)"	"(248, 178)"	1	0	14934335.26	72	36
37	w	26	r	1	5	44	3	"(884, 76)"	"(885, 76)"	1	0	14934944.10	72	36
37	w	26	r	1	5	44	4	"(922, 433)"	"(914, 435)"	1	0	14935488.58	72	36
37	w	26	r	1	5	44	5	"(572, 88)"	"(567, 83)"	1	0	14936552.45	72	36
37	w	26	r	1	5	44	6	"(261, 638)"	"(271, 630)"	1	0	14937464.26	72	36
37	w	26	r	1	5	44	7	"(103, 437)"	"(110, 445)"	1	0	14937954.83	72	36
37	w	26	r	1	5	44	8	"(570, 692)"	"(564, 676)"	1	0	14938754.65	72	36
37	w	26	r	1	5	44	8	"(570, 692)"	"(564, 676)"	1	    6.06	14938754.65	72	36
37	w	26	r	1	5	45	1	"(889, 669)"	"(927, 658)"	1	0	14943253.57	72	36
37	w	26	r	1	5	45	2	"(261, 181)"	"(247, 187)"	2	0	14945143.46	72	36
37	w	26	r	1	5	45	3	"(884, 76)"	"(916, 76)"	1	0	14945817.38	72	36
37	w	26	r	1	5	45	4	"(922, 433)"	"(919, 439)"	1	0	14946512.77	72	36
37	w	26	r	1	5	45	5	"(572, 88)"	"(580, 89)"	1	0	14947193.93	72	36
37	w	26	r	1	5	45	6	"(261, 638)"	"(278, 629)"	1	0	14948040.63	72	36
37	w	26	r	1	5	45	7	"(103, 437)"	"(109, 419)"	1	0	14948584.09	72	36
37	w	26	r	1	5	45	8	"(570, 692)"	"(555, 691)"	1	0	14949217.91	72	36
37	w	26	r	1	5	45	8	"(570, 692)"	"(555, 691)"	1	    6.73	14949217.91	72	36
37	w	26	r	1	5	46	1	"(889, 669)"	"(888, 656)"	1	0	14954154.82	72	36
37	w	26	r	1	5	46	2	"(261, 181)"	"(265, 172)"	1	0	14954735.84	72	36
37	w	26	r	1	5	46	3	"(884, 76)"	"(884, 93)"	1	0	14955284.46	72	36
37	w	26	r	1	5	46	4	"(922, 433)"	"(923, 435)"	1	0	14955865.36	72	36
37	w	26	r	1	5	46	5	"(572, 88)"	"(578, 104)"	1	0	14956624.44	72	36
37	w	26	r	1	5	46	6	"(261, 638)"	"(280, 648)"	1	0	14957232.41	72	36
37	w	26	r	1	5	46	7	"(103, 437)"	"(104, 426)"	1	0	14957770.34	72	36
37	w	26	r	1	5	46	8	"(570, 692)"	"(564, 697)"	1	0	14958575.81	72	36
37	w	26	r	1	5	46	8	"(570, 692)"	"(564, 697)"	1	    4.85	14958575.81	72	36
37	w	26	r	1	5	47	1	"(889, 669)"	"(869, 665)"	1	0	14968906.03	72	36
37	w	26	r	1	5	47	2	"(261, 181)"	"(249, 186)"	1	0	14969601.82	72	36
37	w	26	r	1	5	47	3	"(884, 76)"	"(902, 69)"	1	0	14970370.31	72	36
37	w	26	r	1	5	47	4	"(922, 433)"	"(929, 427)"	1	0	14970884.31	72	36
37	w	26	r	1	5	47	5	"(572, 88)"	"(588, 76)"	1	0	14971426.49	72	36
37	w	26	r	1	5	47	6	"(261, 638)"	"(257, 622)"	1	0	14972057.63	72	36
37	w	26	r	1	5	47	7	"(103, 437)"	"(104, 405)"	1	0	14972611.57	72	36
37	w	26	r	1	5	47	8	"(570, 692)"	"(572, 694)"	1	0	14973336.59	72	36
37	w	26	r	1	5	47	8	"(570, 692)"	"(572, 694)"	1	    5.17	14973336.59	72	36
37	w	26	r	1	5	48	1	"(889, 669)"	"(906, 664)"	1	0	14977960.76	72	36
37	w	26	r	1	5	48	2	"(261, 181)"	"(274, 177)"	1	0	14978507.70	72	36
37	w	26	r	1	5	48	3	"(884, 76)"	"(875, 85)"	1	0	14979044.26	72	36
37	w	26	r	1	5	48	4	"(922, 433)"	"(927, 447)"	1	0	14979626.21	72	36
37	w	26	r	1	5	48	5	"(572, 88)"	"(583, 89)"	1	0	14980317.32	72	36
37	w	26	r	1	5	48	6	"(261, 638)"	"(280, 646)"	1	0	14981011.24	72	36
37	w	26	r	1	5	48	7	"(103, 437)"	"(105, 445)"	1	0	14981466.53	72	36
37	w	26	r	1	5	48	8	"(570, 692)"	"(580, 695)"	1	0	14982049.70	72	36
37	w	26	r	1	5	48	8	"(570, 692)"	"(580, 695)"	1	    4.68	14982049.70	72	36
37	w	26	r	1	5	49	1	"(889, 669)"	"(904, 673)"	1	0	14990218.55	72	36
37	w	26	r	1	5	49	2	"(261, 181)"	"(281, 163)"	1	0	14990997.21	72	36
37	w	26	r	1	5	49	3	"(884, 76)"	"(926, 79)"	1	0	14991564.20	72	36
37	w	26	r	1	5	49	4	"(922, 433)"	"(948, 447)"	1	0	14992518.30	72	36
37	w	26	r	1	5	49	5	"(572, 88)"	"(576, 91)"	1	0	14993106.82	72	36
37	w	26	r	1	5	49	6	"(261, 638)"	"(271, 635)"	1	0	14993857.62	72	36
37	w	26	r	1	5	49	7	"(103, 437)"	"(103, 451)"	1	0	14994305.44	72	36
37	w	26	r	1	5	49	8	"(570, 692)"	"(561, 681)"	1	0	14994937.56	72	36
37	w	26	r	1	5	49	8	"(570, 692)"	"(561, 681)"	1	    5.45	14994937.56	72	36
37	w	26	r	1	5	50	1	"(889, 669)"	"(874, 660)"	1	0	14998861.83	72	36
37	w	26	r	1	5	50	2	"(261, 181)"	"(260, 202)"	1	0	14999515.99	72	36
37	w	26	r	1	5	50	3	"(884, 76)"	"(872, 80)"	1	0	15000163.92	72	36
37	w	26	r	1	5	50	4	"(922, 433)"	"(904, 439)"	1	0	15000818.34	72	36
37	w	26	r	1	5	50	5	"(572, 88)"	"(577, 80)"	1	0	15001302.08	72	36
37	w	26	r	1	5	50	6	"(261, 638)"	"(260, 634)"	1	0	15002051.18	72	36
37	w	26	r	1	5	50	7	"(103, 437)"	"(101, 431)"	1	0	15002563.08	72	36
37	w	26	r	1	5	50	8	"(570, 692)"	"(584, 681)"	1	0	15003171.85	72	36
37	w	26	r	1	5	50	8	"(570, 692)"	"(584, 681)"	1	    5.16	15003171.85	72	36
37	w	26	r	1	6	51	1	"(889, 669)"	"(895, 666)"	1	0	15008653.18	72	36
37	w	26	r	1	6	51	2	"(261, 181)"	"(259, 180)"	1	0	15009464.34	72	36
37	w	26	r	1	6	51	3	"(884, 76)"	"(891, 67)"	1	0	15010179.39	72	36
37	w	26	r	1	6	51	4	"(922, 433)"	"(923, 427)"	1	0	15010798.03	72	36
37	w	26	r	1	6	51	5	"(572, 88)"	"(576, 96)"	1	0	15011388.92	72	36
37	w	26	r	1	6	51	6	"(261, 638)"	"(281, 635)"	1	0	15012045.22	72	36
37	w	26	r	1	6	51	7	"(103, 437)"	"(112, 434)"	1	0	15012603.41	72	36
37	w	26	r	1	6	51	8	"(570, 692)"	"(583, 676)"	1	0	15013326.62	72	36
37	w	26	r	1	6	51	8	"(570, 692)"	"(583, 676)"	1	    5.74	15013326.62	72	36
37	w	26	r	1	6	52	1	"(889, 669)"	"(903, 662)"	1	0	15017014.42	72	36
37	w	26	r	1	6	52	2	"(261, 181)"	"(259, 197)"	1	0	15017508.13	72	36
37	w	26	r	1	6	52	3	"(884, 76)"	"(881, 93)"	1	0	15018188.02	72	36
37	w	26	r	1	6	52	4	"(922, 433)"	"(914, 442)"	1	0	15018829.90	72	36
37	w	26	r	1	6	52	5	"(572, 88)"	"(591, 92)"	1	0	15019454.50	72	36
37	w	26	r	1	6	52	6	"(261, 638)"	"(279, 633)"	1	0	15020326.23	72	36
37	w	26	r	1	6	52	7	"(103, 437)"	"(95, 439)"	1	0	15020851.58	72	36
37	w	26	r	1	6	52	8	"(570, 692)"	"(586, 679)"	1	0	15021548.91	72	36
37	w	26	r	1	6	52	8	"(570, 692)"	"(586, 679)"	1	    5.63	15021548.91	72	36
37	w	26	r	1	6	53	1	"(889, 669)"	"(924, 661)"	1	0	15024837.86	72	36
37	w	26	r	1	6	53	2	"(261, 181)"	"(286, 190)"	1	0	15025509.28	72	36
37	w	26	r	1	6	53	3	"(884, 76)"	"(889, 80)"	1	0	15026412.59	72	36
37	w	26	r	1	6	53	4	"(922, 433)"	"(938, 425)"	1	0	15026877.29	72	36
37	w	26	r	1	6	53	5	"(572, 88)"	"(562, 97)"	1	0	15027373.38	72	36
37	w	26	r	1	6	53	6	"(261, 638)"	"(277, 626)"	1	0	15028039.37	72	36
37	w	26	r	1	6	53	7	"(103, 437)"	"(113, 445)"	1	0	15028604.92	72	36
37	w	26	r	1	6	53	8	"(570, 692)"	"(551, 692)"	1	0	15029462.39	72	36
37	w	26	r	1	6	53	8	"(570, 692)"	"(551, 692)"	1	    5.18	15029462.39	72	36
37	w	26	r	1	6	54	1	"(889, 669)"	"(896, 673)"	1	0	15034751.21	72	36
37	w	26	r	1	6	54	2	"(261, 181)"	"(231, 179)"	1	0	15035390.37	72	36
37	w	26	r	1	6	54	3	"(884, 76)"	"(876, 93)"	1	0	15035988.45	72	36
37	w	26	r	1	6	54	4	"(922, 433)"	"(914, 425)"	1	0	15036429.13	72	36
37	w	26	r	1	6	54	5	"(572, 88)"	"(572, 93)"	1	0	15037015.82	72	36
37	w	26	r	1	6	54	6	"(261, 638)"	"(262, 643)"	1	0	15037605.10	72	36
37	w	26	r	1	6	54	7	"(103, 437)"	"(102, 408)"	1	0	15038134.08	72	36
37	w	26	r	1	6	54	8	"(570, 692)"	"(557, 688)"	1	0	15038798.08	72	36
37	w	26	r	1	6	54	8	"(570, 692)"	"(557, 688)"	1	    4.62	15038798.08	72	36
37	w	26	r	1	6	55	1	"(889, 669)"	"(903, 665)"	1	0	15043550.68	72	36
37	w	26	r	1	6	55	2	"(261, 181)"	"(259, 172)"	1	0	15044270.46	72	36
37	w	26	r	1	6	55	3	"(884, 76)"	"(869, 86)"	1	0	15044902.44	72	36
37	w	26	r	1	6	55	4	"(922, 433)"	"(915, 403)"	1	0	15045494.67	72	36
37	w	26	r	1	6	55	5	"(572, 88)"	"(569, 70)"	1	0	15046054.82	72	36
37	w	26	r	1	6	55	6	"(261, 638)"	"(234, 633)"	1	0	15046671.67	72	36
37	w	26	r	1	6	55	7	"(103, 437)"	"(70, 445)"	1	0	15047174.54	72	36
37	w	26	r	1	6	55	8	"(570, 692)"	"(584, 706)"	1	0	15047700.97	72	36
37	w	26	r	1	6	55	8	"(570, 692)"	"(584, 706)"	1	    4.91	15047700.97	72	36
37	w	26	r	1	6	56	1	"(889, 669)"	"(896, 639)"	1	0	15052250.69	72	36
37	w	26	r	1	6	56	2	"(261, 181)"	"(277, 210)"	1	0	15052862.00	72	36
37	w	26	r	1	6	56	3	"(884, 76)"	"(920, 97)"	1	0	15053451.94	72	36
37	w	26	r	1	6	56	4	"(922, 433)"	"(916, 432)"	1	0	15054007.14	72	36
37	w	26	r	1	6	56	5	"(572, 88)"	"(552, 103)"	1	0	15054717.11	72	36
37	w	26	r	1	6	56	6	"(261, 638)"	"(237, 649)"	1	0	15055421.58	72	36
37	w	26	r	1	6	56	7	"(103, 437)"	"(97, 470)"	1	0	15055965.77	72	36
37	w	26	r	1	6	56	8	"(570, 692)"	"(549, 690)"	1	0	15056751.74	72	36
37	w	26	r	1	6	56	8	"(570, 692)"	"(549, 690)"	1	    5.12	15056751.74	72	36
37	w	26	r	1	6	57	1	"(889, 669)"	"(874, 676)"	1	0	15062189.82	72	36
37	w	26	r	1	6	57	2	"(261, 181)"	"(266, 180)"	1	0	15062799.49	72	36
37	w	26	r	1	6	57	3	"(884, 76)"	"(890, 69)"	1	0	15063410.21	72	36
37	w	26	r	1	6	57	4	"(922, 433)"	"(915, 432)"	1	0	15063944.45	72	36
37	w	26	r	1	6	57	5	"(572, 88)"	"(570, 93)"	1	0	15064704.78	72	36
37	w	26	r	1	6	57	6	"(261, 638)"	"(245, 639)"	1	0	15065420.75	72	36
37	w	26	r	1	6	57	7	"(103, 437)"	"(88, 420)"	1	0	15065936.38	72	36
37	w	26	r	1	6	57	8	"(570, 692)"	"(613, 723)"	1	0	15066575.75	72	36
37	w	26	r	1	6	57	8	"(570, 692)"	"(613, 723)"	1	    5.75	15066575.75	72	36
37	w	26	r	1	6	58	1	"(889, 669)"	"(870, 684)"	1	0	15071634.75	72	36
37	w	26	r	1	6	58	2	"(261, 181)"	"(275, 191)"	1	0	15072505.23	72	36
37	w	26	r	1	6	58	3	"(884, 76)"	"(899, 72)"	1	0	15073055.94	72	36
37	w	26	r	1	6	58	4	"(922, 433)"	"(918, 418)"	1	0	15073518.79	72	36
37	w	26	r	1	6	58	5	"(572, 88)"	"(583, 96)"	1	0	15074039.03	72	36
37	w	26	r	1	6	58	6	"(261, 638)"	"(261, 639)"	1	0	15074727.65	72	36
37	w	26	r	1	6	58	7	"(103, 437)"	"(108, 454)"	1	0	15075240.96	72	36
37	w	26	r	1	6	58	8	"(570, 692)"	"(547, 711)"	1	0	15075849.53	72	36
37	w	26	r	1	6	58	8	"(570, 692)"	"(547, 711)"	1	    4.98	15075849.53	72	36
37	w	26	r	1	6	59	1	"(889, 669)"	"(903, 660)"	1	0	15079665.87	72	36
37	w	26	r	1	6	59	2	"(261, 181)"	"(272, 196)"	1	0	15080489.73	72	36
37	w	26	r	1	6	59	3	"(884, 76)"	"(901, 74)"	1	0	15081087.73	72	36
37	w	26	r	1	6	59	4	"(922, 433)"	"(929, 472)"	1	0	15081630.88	72	36
37	w	26	r	1	6	59	5	"(572, 88)"	"(568, 86)"	1	0	15082193.90	72	36
37	w	26	r	1	6	59	6	"(261, 638)"	"(272, 638)"	1	0	15082808.10	72	36
37	w	26	r	1	6	59	7	"(103, 437)"	"(112, 435)"	1	0	15083279.63	72	36
37	w	26	r	1	6	59	8	"(570, 692)"	"(574, 716)"	1	0	15083782.66	72	36
37	w	26	r	1	6	59	8	"(570, 692)"	"(574, 716)"	1	    4.87	15083782.66	72	36
37	w	26	r	1	6	60	1	"(889, 669)"	"(889, 666)"	1	0	15087171.13	72	36
37	w	26	r	1	6	60	2	"(261, 181)"	"(241, 199)"	1	0	15087642.46	72	36
37	w	26	r	1	6	60	3	"(884, 76)"	"(898, 88)"	1	0	15088293.23	72	36
37	w	26	r	1	6	60	4	"(922, 433)"	"(924, 447)"	1	0	15088753.95	72	36
37	w	26	r	1	6	60	5	"(572, 88)"	"(575, 80)"	1	0	15089394.66	72	36
37	w	26	r	1	6	60	6	"(261, 638)"	"(265, 631)"	1	0	15089999.77	72	36
37	w	26	r	1	6	60	7	"(103, 437)"	"(133, 428)"	1	0	15090447.65	72	36
37	w	26	r	1	6	60	8	"(570, 692)"	"(578, 670)"	1	0	15090962.46	72	36
37	w	26	r	1	6	60	8	"(570, 692)"	"(578, 670)"	1	    4.37	15090962.46	72	36
37	w	26	r	2	7	61	1	"(889, 669)"	"(859, 691)"	1	0	15095895.89	72	36
37	w	26	r	2	7	61	2	"(261, 181)"	"(299, 160)"	1	0	15096368.55	72	36
37	w	26	r	2	7	61	3	"(884, 76)"	"(882, 86)"	1	0	15096947.10	72	36
37	w	26	r	2	7	61	4	"(922, 433)"	"(917, 475)"	1	0	15097401.45	72	36
37	w	26	r	2	7	61	5	"(572, 88)"	"(522, 90)"	1	0	15098009.28	72	36
37	w	26	r	2	7	61	6	"(261, 638)"	"(271, 623)"	1	0	15098713.95	72	36
37	w	26	r	2	7	61	7	"(103, 437)"	"(110, 437)"	1	0	15099154.25	72	36
37	w	26	r	2	7	61	8	"(570, 692)"	"(553, 710)"	1	0	15099672.14	72	36
37	w	26	r	2	7	61	8	"(570, 692)"	"(553, 710)"	1	    4.45	15099672.14	72	36
37	w	26	r	2	7	62	1	"(889, 669)"	"(893, 666)"	1	0	15104482.46	72	36
37	w	26	r	2	7	62	2	"(261, 181)"	"(276, 186)"	1	0	15105114.34	72	36
37	w	26	r	2	7	62	3	"(884, 76)"	"(901, 77)"	1	0	15105759.44	72	36
37	w	26	r	2	7	62	4	"(922, 433)"	"(920, 452)"	1	0	15106322.62	72	36
37	w	26	r	2	7	62	5	"(572, 88)"	"(578, 72)"	1	0	15106848.34	72	36
37	w	26	r	2	7	62	6	"(261, 638)"	"(270, 633)"	1	0	15107633.03	72	36
37	w	26	r	2	7	62	7	"(103, 437)"	"(92, 412)"	1	0	15108513.38	72	36
37	w	26	r	2	7	62	8	"(570, 692)"	"(586, 682)"	1	0	15109216.66	72	36
37	w	26	r	2	7	62	8	"(570, 692)"	"(586, 682)"	1	    6.04	15109216.66	72	36
37	w	26	r	2	7	63	1	"(889, 669)"	"(906, 656)"	1	0	15112691.37	72	36
37	w	26	r	2	7	63	2	"(261, 181)"	"(227, 181)"	1	0	15113288.77	72	36
37	w	26	r	2	7	63	3	"(884, 76)"	"(903, 75)"	1	0	15113825.33	72	36
37	w	26	r	2	7	63	4	"(922, 433)"	"(922, 417)"	1	0	15114370.42	72	36
37	w	26	r	2	7	63	5	"(572, 88)"	"(600, 113)"	1	0	15114873.82	72	36
37	w	26	r	2	7	63	6	"(261, 638)"	"(263, 647)"	1	0	15115641.70	72	36
37	w	26	r	2	7	63	7	"(103, 437)"	"(101, 441)"	1	0	15116170.27	72	36
37	w	26	r	2	7	63	8	"(570, 692)"	"(538, 685)"	1	0	15116732.00	72	36
37	w	26	r	2	7	63	8	"(570, 692)"	"(538, 685)"	1	    4.51	15116732.00	72	36
37	w	26	r	2	7	64	1	"(889, 669)"	"(891, 653)"	1	0	15120833.82	72	36
37	w	26	r	2	7	64	2	"(261, 181)"	"(290, 185)"	1	0	15121510.48	72	36
37	w	26	r	2	7	64	3	"(884, 76)"	"(891, 106)"	1	0	15122081.45	72	36
37	w	26	r	2	7	64	4	"(922, 433)"	"(934, 429)"	1	0	15122665.89	72	36
37	w	26	r	2	7	64	5	"(572, 88)"	"(563, 94)"	1	0	15123306.26	72	36
37	w	26	r	2	7	64	6	"(261, 638)"	"(273, 645)"	1	0	15123938.24	72	36
37	w	26	r	2	7	64	7	"(103, 437)"	"(92, 451)"	1	0	15124355.24	72	36
37	w	26	r	2	7	64	8	"(570, 692)"	"(579, 681)"	1	0	15124948.88	72	36
37	w	26	r	2	7	64	8	"(570, 692)"	"(579, 681)"	1	    4.71	15124948.88	72	36
37	w	26	r	2	7	65	1	"(889, 669)"	"(887, 676)"	1	0	15128441.58	72	36
37	w	26	r	2	7	65	2	"(261, 181)"	"(275, 182)"	1	0	15129068.22	72	36
37	w	26	r	2	7	65	3	"(884, 76)"	"(894, 77)"	1	0	15129811.70	72	36
37	w	26	r	2	7	65	4	"(922, 433)"	"(918, 435)"	1	0	15130395.78	72	36
37	w	26	r	2	7	65	5	"(572, 88)"	"(582, 82)"	1	0	15130963.09	72	36
37	w	26	r	2	7	65	6	"(261, 638)"	"(269, 651)"	1	0	15131764.88	72	36
37	w	26	r	2	7	65	7	"(103, 437)"	"(94, 431)"	1	0	15132227.80	72	36
37	w	26	r	2	7	65	8	"(570, 692)"	"(584, 675)"	1	0	15132866.05	72	36
37	w	26	r	2	7	65	8	"(570, 692)"	"(584, 675)"	1	    4.94	15132866.05	72	36
37	w	26	r	2	7	66	1	"(889, 669)"	"(880, 691)"	1	0	15136995.56	72	36
37	w	26	r	2	7	66	2	"(261, 181)"	"(270, 198)"	1	0	15137788.40	72	36
37	w	26	r	2	7	66	3	"(884, 76)"	"(875, 77)"	1	0	15138402.96	72	36
37	w	26	r	2	7	66	4	"(922, 433)"	"(939, 434)"	1	0	15138957.45	72	36
37	w	26	r	2	7	66	5	"(572, 88)"	"(561, 64)"	1	0	15139515.35	72	36
37	w	26	r	2	7	66	6	"(261, 638)"	"(269, 637)"	1	0	15140131.55	72	36
37	w	26	r	2	7	66	7	"(103, 437)"	"(110, 442)"	1	0	15140635.03	72	36
37	w	26	r	2	7	66	8	"(570, 692)"	"(592, 700)"	1	0	15141244.11	72	36
37	w	26	r	2	7	66	8	"(570, 692)"	"(592, 700)"	1	    5.16	15141244.11	72	36
37	w	26	r	2	7	67	1	"(889, 669)"	"(930, 670)"	1	0	15144362.87	72	36
37	w	26	r	2	7	67	2	"(261, 181)"	"(289, 174)"	1	0	15145050.01	72	36
37	w	26	r	2	7	67	3	"(884, 76)"	"(878, 106)"	1	0	15145551.14	72	36
37	w	26	r	2	7	67	4	"(922, 433)"	"(926, 423)"	1	0	15146035.20	72	36
37	w	26	r	2	7	67	5	"(572, 88)"	"(575, 141)"	1	0	15146554.95	72	36
37	w	26	r	2	7	67	6	"(261, 638)"	"(254, 616)"	1	0	15147485.74	72	36
37	w	26	r	2	7	67	7	"(103, 437)"	"(105, 439)"	1	0	15148004.99	72	36
37	w	26	r	2	7	67	8	"(570, 692)"	"(553, 712)"	1	0	15148571.93	72	36
37	w	26	r	2	7	67	8	"(570, 692)"	"(553, 712)"	1	    5.31	15148571.93	72	36
37	w	26	r	2	7	68	1	"(889, 669)"	"(898, 707)"	1	0	15154724.93	72	36
37	w	26	r	2	7	68	2	"(261, 181)"	"(258, 181)"	1	0	15155459.09	72	36
37	w	26	r	2	7	68	3	"(884, 76)"	"(864, 81)"	1	0	15156011.79	72	36
37	w	26	r	2	7	68	4	"(922, 433)"	"(942, 437)"	1	0	15156680.28	72	36
37	w	26	r	2	7	68	5	"(572, 88)"	"(561, 90)"	1	0	15157252.21	72	36
37	w	26	r	2	7	68	6	"(261, 638)"	"(245, 639)"	1	0	15157972.77	72	36
37	w	26	r	2	7	68	7	"(103, 437)"	"(93, 414)"	3	0	15160300.24	72	36
37	w	26	r	2	7	68	8	"(570, 692)"	"(597, 680)"	1	0	15161058.81	72	36
37	w	26	r	2	7	68	8	"(570, 692)"	"(597, 680)"	1	    7.29	15161058.81	72	36
37	w	26	r	2	7	69	1	"(889, 669)"	"(940, 679)"	1	0	15164095.30	72	36
37	w	26	r	2	7	69	2	"(261, 181)"	"(223, 181)"	1	0	15164636.72	72	36
37	w	26	r	2	7	69	3	"(884, 76)"	"(896, 93)"	1	0	15165259.79	72	36
37	w	26	r	2	7	69	4	"(922, 433)"	"(916, 456)"	1	0	15165709.14	72	36
37	w	26	r	2	7	69	5	"(572, 88)"	"(583, 92)"	1	0	15166287.47	72	36
37	w	26	r	2	7	69	6	"(261, 638)"	"(272, 631)"	1	0	15166821.56	72	36
37	w	26	r	2	7	69	7	"(103, 437)"	"(66, 442)"	1	0	15167349.22	72	36
37	w	26	r	2	7	69	8	"(570, 692)"	"(596, 705)"	2	0	15168765.18	72	36
37	w	26	r	2	7	69	8	"(570, 692)"	"(596, 705)"	2	    5.20	15168765.18	72	36
37	w	26	r	2	7	70	1	"(889, 669)"	"(923, 692)"	1	0	15183621.23	72	36
37	w	26	r	2	7	70	2	"(261, 181)"	"(249, 189)"	1	0	15184100.94	72	36
37	w	26	r	2	7	70	3	"(884, 76)"	"(876, 95)"	1	0	15184537.68	72	36
37	w	26	r	2	7	70	4	"(922, 433)"	"(915, 468)"	1	0	15184942.43	72	36
37	w	26	r	2	7	70	5	"(572, 88)"	"(579, 98)"	1	0	15185421.44	72	36
37	w	26	r	2	7	70	6	"(261, 638)"	"(297, 637)"	1	0	15185840.81	72	36
37	w	26	r	2	7	70	7	"(103, 437)"	"(115, 387)"	1	0	15186206.28	72	36
37	w	26	r	2	7	70	8	"(570, 692)"	"(523, 699)"	1	0	15186662.21	72	36
37	w	26	r	2	7	70	8	"(570, 692)"	"(523, 699)"	1	    3.66	15186662.21	72	36
37	w	26	r	2	8	71	1	"(889, 669)"	"(878, 657)"	1	0	15193709.25	72	36
37	w	26	r	2	8	71	2	"(261, 181)"	"(286, 173)"	2	0	15196190.94	72	36
37	w	26	r	2	8	71	3	"(884, 76)"	"(912, 52)"	1	0	15197065.25	72	36
37	w	26	r	2	8	71	4	"(922, 433)"	"(901, 426)"	1	0	15197750.90	72	36
37	w	26	r	2	8	71	5	"(572, 88)"	"(586, 69)"	1	0	15198429.43	72	36
37	w	26	r	2	8	71	6	"(261, 638)"	"(263, 635)"	1	0	15199150.82	72	36
37	w	26	r	2	8	71	7	"(103, 437)"	"(100, 422)"	1	0	15199641.11	72	36
37	w	26	r	2	8	71	8	"(570, 692)"	"(590, 696)"	1	0	15200224.02	72	36
37	w	26	r	2	8	71	8	"(570, 692)"	"(590, 696)"	1	    7.04	15200224.02	72	36
37	w	26	r	2	8	72	1	"(889, 669)"	"(892, 698)"	1	0	15204162.06	72	36
37	w	26	r	2	8	72	2	"(261, 181)"	"(247, 172)"	1	0	15204672.93	72	36
37	w	26	r	2	8	72	3	"(884, 76)"	"(883, 95)"	1	0	15205222.38	72	36
37	w	26	r	2	8	72	4	"(922, 433)"	"(944, 469)"	1	0	15205663.43	72	36
37	w	26	r	2	8	72	5	"(572, 88)"	"(597, 93)"	1	0	15206166.76	72	36
37	w	26	r	2	8	72	6	"(261, 638)"	"(257, 645)"	1	0	15206630.48	72	36
37	w	26	r	2	8	72	7	"(103, 437)"	"(114, 453)"	1	0	15207096.87	72	36
37	w	26	r	2	8	72	8	"(570, 692)"	"(568, 693)"	1	0	15207541.76	72	36
37	w	26	r	2	8	72	8	"(570, 692)"	"(568, 693)"	1	    4.04	15207541.76	72	36
37	w	26	r	2	8	73	1	"(889, 669)"	"(940, 668)"	1	0	15211185.82	72	36
37	w	26	r	2	8	73	2	"(261, 181)"	"(256, 158)"	1	0	15211592.37	72	36
37	w	26	r	2	8	73	3	"(884, 76)"	"(927, 58)"	1	0	15211982.49	72	36
37	w	26	r	2	8	73	4	"(922, 433)"	"(953, 432)"	3	0	15213911.85	72	36
37	w	26	r	2	8	73	5	"(572, 88)"	"(591, 88)"	1	0	15214582.65	72	36
37	w	26	r	2	8	73	6	"(261, 638)"	"(250, 630)"	1	0	15215190.93	72	36
37	w	26	r	2	8	73	7	"(103, 437)"	"(97, 409)"	1	0	15215704.07	72	36
37	w	26	r	2	8	73	8	"(570, 692)"	"(550, 671)"	1	0	15216319.80	72	36
37	w	26	r	2	8	73	8	"(570, 692)"	"(550, 671)"	1	    5.65	15216319.80	72	36
37	w	26	r	2	8	74	1	"(889, 669)"	"(910, 661)"	1	0	15219567.00	72	36
37	w	26	r	2	8	74	2	"(261, 181)"	"(311, 165)"	1	0	15220139.43	72	36
37	w	26	r	2	8	74	3	"(884, 76)"	"(897, 68)"	1	0	15220579.87	72	36
37	w	26	r	2	8	74	4	"(922, 433)"	"(910, 436)"	1	0	15221106.00	72	36
37	w	26	r	2	8	74	5	"(572, 88)"	"(561, 82)"	3	0	15223321.85	72	36
37	w	26	r	2	8	74	6	"(261, 638)"	"(262, 644)"	2	0	15224808.43	72	36
37	w	26	r	2	8	74	7	"(103, 437)"	"(88, 442)"	1	0	15225320.44	72	36
37	w	26	r	2	8	74	8	"(570, 692)"	"(580, 686)"	1	0	15225969.46	72	36
37	w	26	r	2	8	74	8	"(570, 692)"	"(580, 686)"	1	    7.07	15225969.46	72	36
37	w	26	r	2	8	75	1	"(889, 669)"	"(887, 649)"	1	0	15228744.38	72	36
37	w	26	r	2	8	75	2	"(261, 181)"	"(243, 203)"	1	0	15229442.52	72	36
37	w	26	r	2	8	75	3	"(884, 76)"	"(910, 80)"	1	0	15230266.90	72	36
37	w	26	r	2	8	75	4	"(922, 433)"	"(936, 431)"	1	0	15230769.05	72	36
37	w	26	r	2	8	75	5	"(572, 88)"	"(560, 106)"	1	0	15231226.37	72	36
37	w	26	r	2	8	75	6	"(261, 638)"	"(288, 626)"	1	0	15231899.97	72	36
37	w	26	r	2	8	75	7	"(103, 437)"	"(97, 424)"	1	0	15232282.80	72	36
37	w	26	r	2	8	75	8	"(570, 692)"	"(585, 715)"	1	0	15232729.25	72	36
37	w	26	r	2	8	75	8	"(570, 692)"	"(585, 715)"	1	    4.55	15232729.25	72	36
37	w	26	r	2	8	76	1	"(889, 669)"	"(901, 670)"	1	0	15236088.03	72	36
37	w	26	r	2	8	76	2	"(261, 181)"	"(286, 172)"	2	0	15238079.74	72	36
37	w	26	r	2	8	76	3	"(884, 76)"	"(878, 63)"	1	0	15238727.42	72	36
37	w	26	r	2	8	76	4	"(922, 433)"	"(932, 438)"	1	0	15239256.67	72	36
37	w	26	r	2	8	76	5	"(572, 88)"	"(580, 73)"	1	0	15239839.18	72	36
37	w	26	r	2	8	76	6	"(261, 638)"	"(263, 647)"	1	0	15240690.77	72	36
37	w	26	r	2	8	76	7	"(103, 437)"	"(104, 386)"	1	0	15241235.63	72	36
37	w	26	r	2	8	76	8	"(570, 692)"	"(576, 684)"	2	0	15242418.03	72	36
37	w	26	r	2	8	76	8	"(570, 692)"	"(576, 684)"	2	    7.20	15242418.03	72	36
37	w	26	r	2	8	77	1	"(889, 669)"	"(885, 668)"	1	0	15248097.40	72	36
37	w	26	r	2	8	77	2	"(261, 181)"	"(226, 167)"	1	0	15248595.70	72	36
37	w	26	r	2	8	77	3	"(884, 76)"	"(921, 108)"	1	0	15249039.94	72	36
37	w	26	r	2	8	77	4	"(922, 433)"	"(942, 458)"	1	0	15249490.00	72	36
37	w	26	r	2	8	77	5	"(572, 88)"	"(598, 98)"	1	0	15250042.03	72	36
37	w	26	r	2	8	77	6	"(261, 638)"	"(260, 636)"	4	0	15252354.69	72	36
37	w	26	r	2	8	77	7	"(103, 437)"	"(117, 432)"	1	0	15252809.48	72	36
37	w	26	r	2	8	77	8	"(570, 692)"	"(581, 717)"	1	0	15253416.09	72	36
37	w	26	r	2	8	77	8	"(570, 692)"	"(581, 717)"	1	    5.76	15253416.09	72	36
37	w	26	r	2	8	78	1	"(889, 669)"	"(904, 693)"	1	0	15256572.66	72	36
37	w	26	r	2	8	78	2	"(261, 181)"	"(270, 189)"	1	0	15257043.39	72	36
37	w	26	r	2	8	78	3	"(884, 76)"	"(875, 113)"	1	0	15257466.18	72	36
37	w	26	r	2	8	78	4	"(922, 433)"	"(938, 468)"	1	0	15257891.88	72	36
37	w	26	r	2	8	78	5	"(572, 88)"	"(590, 103)"	1	0	15258405.34	72	36
37	w	26	r	2	8	78	6	"(261, 638)"	"(290, 613)"	1	0	15258897.19	72	36
37	w	26	r	2	8	78	7	"(103, 437)"	"(106, 445)"	1	0	15259299.79	72	36
37	w	26	r	2	8	78	8	"(570, 692)"	"(593, 697)"	1	0	15259752.97	72	36
37	w	26	r	2	8	78	8	"(570, 692)"	"(593, 697)"	1	    3.58	15259752.97	72	36
37	w	26	r	2	8	79	1	"(889, 669)"	"(896, 672)"	1	0	15264818.37	72	36
37	w	26	r	2	8	79	2	"(261, 181)"	"(263, 131)"	1	0	15265276.77	72	36
37	w	26	r	2	8	79	3	"(884, 76)"	"(850, 80)"	1	0	15265714.27	72	36
37	w	26	r	2	8	79	4	"(922, 433)"	"(938, 436)"	1	0	15266161.97	72	36
37	w	26	r	2	8	79	5	"(572, 88)"	"(586, 74)"	1	0	15266629.31	72	36
37	w	26	r	2	8	79	6	"(261, 638)"	"(283, 618)"	1	0	15267230.28	72	36
37	w	26	r	2	8	79	7	"(103, 437)"	"(104, 467)"	1	0	15267644.12	72	36
37	w	26	r	2	8	79	8	"(570, 692)"	"(523, 668)"	1	0	15268115.38	72	36
37	w	26	r	2	8	79	8	"(570, 692)"	"(523, 668)"	1	    3.79	15268115.38	72	36
37	w	26	r	2	8	80	1	"(889, 669)"	"(873, 666)"	1	0	15272514.04	72	36
37	w	26	r	2	8	80	2	"(261, 181)"	"(265, 186)"	1	0	15273011.60	72	36
37	w	26	r	2	8	80	3	"(884, 76)"	"(857, 73)"	1	0	15273690.36	72	36
37	w	26	r	2	8	80	4	"(922, 433)"	"(888, 458)"	1	0	15274161.98	72	36
37	w	26	r	2	8	80	5	"(572, 88)"	"(584, 110)"	1	0	15274733.41	72	36
37	w	26	r	2	8	80	6	"(261, 638)"	"(272, 647)"	1	0	15275324.57	72	36
37	w	26	r	2	8	80	7	"(103, 437)"	"(97, 445)"	1	0	15275786.31	72	36
37	w	26	r	2	8	80	8	"(570, 692)"	"(579, 669)"	1	0	15276489.76	72	36
37	w	26	r	2	8	80	8	"(570, 692)"	"(579, 669)"	1	    4.43	15276489.76	72	36
37	w	26	r	3	9	81	1	"(889, 669)"	"(891, 676)"	1	0	15285355.71	72	36
37	w	26	r	3	9	81	2	"(261, 181)"	"(280, 157)"	1	0	15285994.96	72	36
37	w	26	r	3	9	81	3	"(884, 76)"	"(912, 67)"	1	0	15286684.48	72	36
37	w	26	r	3	9	81	4	"(922, 433)"	"(907, 450)"	1	0	15287162.78	72	36
37	w	26	r	3	9	81	5	"(572, 88)"	"(594, 92)"	1	0	15287603.45	72	36
37	w	26	r	3	9	81	6	"(261, 638)"	"(275, 644)"	1	0	15288179.40	72	36
37	w	26	r	3	9	81	7	"(103, 437)"	"(132, 436)"	1	0	15288734.21	72	36
37	w	26	r	3	9	81	8	"(570, 692)"	"(551, 687)"	1	0	15289307.20	72	36
37	w	26	r	3	9	81	8	"(570, 692)"	"(551, 687)"	1	    4.71	15289307.20	72	36
37	w	26	r	3	9	82	1	"(889, 669)"	"(859, 662)"	1	0	15292874.63	72	36
37	w	26	r	3	9	82	2	"(261, 181)"	"(243, 182)"	1	0	15293307.35	72	36
37	w	26	r	3	9	82	3	"(884, 76)"	"(877, 96)"	1	0	15293924.29	72	36
37	w	26	r	3	9	82	4	"(922, 433)"	"(918, 462)"	1	0	15294325.53	72	36
37	w	26	r	3	9	82	5	"(572, 88)"	"(591, 93)"	1	0	15294958.12	72	36
37	w	26	r	3	9	82	6	"(261, 638)"	"(238, 649)"	1	0	15295499.68	72	36
37	w	26	r	3	9	82	7	"(103, 437)"	"(104, 443)"	1	0	15295884.11	72	36
37	w	26	r	3	9	82	8	"(570, 692)"	"(590, 714)"	1	0	15296459.35	72	36
37	w	26	r	3	9	82	8	"(570, 692)"	"(590, 714)"	1	    4.54	15296459.35	72	36
37	w	26	r	3	9	83	1	"(889, 669)"	"(862, 705)"	1	0	15299515.61	72	36
37	w	26	r	3	9	83	2	"(261, 181)"	"(252, 178)"	3	0	15301270.08	72	36
37	w	26	r	3	9	83	3	"(884, 76)"	"(888, 91)"	1	0	15301917.20	72	36
37	w	26	r	3	9	83	4	"(922, 433)"	"(913, 439)"	2	0	15302979.73	72	36
37	w	26	r	3	9	83	5	"(572, 88)"	"(560, 72)"	1	0	15304284.65	72	36
37	w	26	r	3	9	83	6	"(261, 638)"	"(249, 634)"	1	0	15305102.83	72	36
37	w	26	r	3	9	83	7	"(103, 437)"	"(123, 421)"	1	0	15305606.72	72	36
37	w	26	r	3	9	83	8	"(570, 692)"	"(566, 726)"	1	0	15306375.00	72	36
37	w	26	r	3	9	83	8	"(570, 692)"	"(566, 726)"	1	    7.43	15306375.00	72	36
37	w	26	r	3	9	84	1	"(889, 669)"	"(868, 625)"	1	0	15310902.28	72	36
37	w	26	r	3	9	84	2	"(261, 181)"	"(284, 183)"	1	0	15311516.51	72	36
37	w	26	r	3	9	84	3	"(884, 76)"	"(890, 67)"	1	0	15312060.95	72	36
37	w	26	r	3	9	84	4	"(922, 433)"	"(950, 427)"	1	0	15312613.20	72	36
37	w	26	r	3	9	84	5	"(572, 88)"	"(594, 97)"	1	0	15313172.84	72	36
37	w	26	r	3	9	84	6	"(261, 638)"	"(279, 654)"	1	0	15313884.39	72	36
37	w	26	r	3	9	84	7	"(103, 437)"	"(116, 450)"	1	0	15314404.01	72	36
37	w	26	r	3	9	84	8	"(570, 692)"	"(561, 692)"	1	0	15314924.69	72	36
37	w	26	r	3	9	84	8	"(570, 692)"	"(561, 692)"	1	    4.47	15314924.69	72	36
37	w	26	r	3	9	85	1	"(889, 669)"	"(866, 672)"	1	0	15318158.52	72	36
37	w	26	r	3	9	85	2	"(261, 181)"	"(246, 190)"	1	0	15318757.17	72	36
37	w	26	r	3	9	85	3	"(884, 76)"	"(861, 80)"	1	0	15319400.50	72	36
37	w	26	r	3	9	85	4	"(922, 433)"	"(915, 396)"	3	0	15321117.47	72	36
37	w	26	r	3	9	85	5	"(572, 88)"	"(527, 108)"	1	0	15321756.33	72	36
37	w	26	r	3	9	85	6	"(261, 638)"	"(246, 634)"	6	0	15326621.52	72	36
37	w	26	r	3	9	85	7	"(103, 437)"	"(105, 445)"	1	0	15327285.56	72	36
37	w	26	r	3	9	85	8	"(570, 692)"	"(598, 696)"	1	0	15327909.63	72	36
37	w	26	r	3	9	85	8	"(570, 692)"	"(598, 696)"	1	   10.24	15327909.63	72	36
37	w	26	r	3	9	86	1	"(889, 669)"	"(891, 669)"	1	0	15331335.76	72	36
37	w	26	r	3	9	86	2	"(261, 181)"	"(245, 186)"	1	0	15331894.81	72	36
37	w	26	r	3	9	86	3	"(884, 76)"	"(901, 87)"	1	0	15332553.24	72	36
37	w	26	r	3	9	86	4	"(922, 433)"	"(914, 457)"	1	0	15333327.70	72	36
37	w	26	r	3	9	86	5	"(572, 88)"	"(562, 87)"	1	0	15333848.99	72	36
37	w	26	r	3	9	86	6	"(261, 638)"	"(289, 620)"	1	0	15334720.07	72	36
37	w	26	r	3	9	86	7	"(103, 437)"	"(109, 442)"	1	0	15335196.59	72	36
37	w	26	r	3	9	86	8	"(570, 692)"	"(589, 674)"	1	0	15335742.18	72	36
37	w	26	r	3	9	86	8	"(570, 692)"	"(589, 674)"	1	    5.07	15335742.18	72	36
37	w	26	r	3	9	87	1	"(889, 669)"	"(912, 665)"	1	0	15339233.94	72	36
37	w	26	r	3	9	87	2	"(261, 181)"	"(260, 183)"	1	0	15339935.40	72	36
37	w	26	r	3	9	87	3	"(884, 76)"	"(881, 95)"	1	0	15341237.71	72	36
37	w	26	r	3	9	87	4	"(922, 433)"	"(940, 438)"	1	0	15341917.45	72	36
37	w	26	r	3	9	87	5	"(572, 88)"	"(579, 95)"	1	0	15342429.57	72	36
37	w	26	r	3	9	87	6	"(261, 638)"	"(284, 630)"	1	0	15343128.37	72	36
37	w	26	r	3	9	87	7	"(103, 437)"	"(102, 442)"	1	0	15343688.07	72	36
37	w	26	r	3	9	87	8	"(570, 692)"	"(588, 702)"	1	0	15344282.34	72	36
37	w	26	r	3	9	87	8	"(570, 692)"	"(588, 702)"	1	    5.63	15344282.34	72	36
37	w	26	r	3	9	88	1	"(889, 669)"	"(918, 675)"	1	0	15346878.06	72	36
37	w	26	r	3	9	88	2	"(261, 181)"	"(262, 180)"	1	0	15347614.56	72	36
37	w	26	r	3	9	88	3	"(884, 76)"	"(896, 76)"	1	0	15348422.41	72	36
37	w	26	r	3	9	88	4	"(922, 433)"	"(938, 440)"	1	0	15349001.45	72	36
37	w	26	r	3	9	88	5	"(572, 88)"	"(592, 81)"	1	0	15349656.57	72	36
37	w	26	r	3	9	88	6	"(261, 638)"	"(280, 643)"	1	0	15350352.87	72	36
37	w	26	r	3	9	88	7	"(103, 437)"	"(80, 434)"	1	0	15350879.80	72	36
37	w	26	r	3	9	88	8	"(570, 692)"	"(560, 694)"	1	0	15351480.93	72	36
37	w	26	r	3	9	88	8	"(570, 692)"	"(560, 694)"	1	    5.48	15351480.93	72	36
37	w	26	r	3	9	89	1	"(889, 669)"	"(914, 657)"	2	0	15355562.21	72	36
37	w	26	r	3	9	89	2	"(261, 181)"	"(253, 168)"	1	0	15356160.45	72	36
37	w	26	r	3	9	89	3	"(884, 76)"	"(909, 81)"	1	0	15356763.88	72	36
37	w	26	r	3	9	89	4	"(922, 433)"	"(915, 451)"	1	0	15357518.73	72	36
37	w	26	r	3	9	89	5	"(572, 88)"	"(581, 80)"	1	0	15358566.46	72	36
37	w	26	r	3	9	89	6	"(261, 638)"	"(286, 651)"	1	0	15359230.21	72	36
37	w	26	r	3	9	89	7	"(103, 437)"	"(111, 436)"	1	0	15359823.32	72	36
37	w	26	r	3	9	89	8	"(570, 692)"	"(545, 698)"	1	0	15360568.10	72	36
37	w	26	r	3	9	89	8	"(570, 692)"	"(545, 698)"	1	    6.95	15360568.10	72	36
37	w	26	r	3	9	90	1	"(889, 669)"	"(875, 657)"	1	0	15364591.76	72	36
37	w	26	r	3	9	90	2	"(261, 181)"	"(285, 175)"	1	0	15365539.42	72	36
37	w	26	r	3	9	90	3	"(884, 76)"	"(875, 75)"	1	0	15366140.38	72	36
37	w	26	r	3	9	90	4	"(922, 433)"	"(923, 467)"	1	0	15366718.86	72	36
37	w	26	r	3	9	90	5	"(572, 88)"	"(558, 93)"	1	0	15367239.04	72	36
37	w	26	r	3	9	90	6	"(261, 638)"	"(261, 653)"	1	0	15367823.73	72	36
37	w	26	r	3	9	90	7	"(103, 437)"	"(113, 448)"	1	0	15368248.26	72	36
37	w	26	r	3	9	90	8	"(570, 692)"	"(557, 676)"	1	0	15369065.50	72	36
37	w	26	r	3	9	90	8	"(570, 692)"	"(557, 676)"	1	    5.16	15369065.50	72	36
37	w	26	r	3	10	91	1	"(889, 669)"	"(881, 661)"	1	0	15374471.27	72	36
37	w	26	r	3	10	91	2	"(261, 181)"	"(237, 186)"	1	0	15374985.14	72	36
37	w	26	r	3	10	91	3	"(884, 76)"	"(896, 117)"	1	0	15375551.73	72	36
37	w	26	r	3	10	91	4	"(922, 433)"	"(925, 417)"	1	0	15375968.39	72	36
37	w	26	r	3	10	91	5	"(572, 88)"	"(576, 102)"	1	0	15376439.30	72	36
37	w	26	r	3	10	91	6	"(261, 638)"	"(241, 624)"	1	0	15377008.55	72	36
37	w	26	r	3	10	91	7	"(103, 437)"	"(119, 433)"	1	0	15377416.83	72	36
37	w	26	r	3	10	91	8	"(570, 692)"	"(600, 707)"	1	0	15377897.27	72	36
37	w	26	r	3	10	91	8	"(570, 692)"	"(600, 707)"	1	    3.99	15377897.27	72	36
37	w	26	r	3	10	92	1	"(889, 669)"	"(879, 662)"	1	0	15382067.68	72	36
37	w	26	r	3	10	92	2	"(261, 181)"	"(265, 179)"	2	0	15383866.14	72	36
37	w	26	r	3	10	92	3	"(884, 76)"	"(844, 105)"	1	0	15384471.73	72	36
37	w	26	r	3	10	92	4	"(922, 433)"	"(930, 478)"	1	0	15385283.31	72	36
37	w	26	r	3	10	92	5	"(572, 88)"	"(575, 90)"	1	0	15385834.40	72	36
37	w	26	r	3	10	92	6	"(261, 638)"	"(276, 619)"	1	0	15386594.78	72	36
37	w	26	r	3	10	92	7	"(103, 437)"	"(101, 446)"	1	0	15387016.20	72	36
37	w	26	r	3	10	92	8	"(570, 692)"	"(568, 692)"	1	0	15387601.24	72	36
37	w	26	r	3	10	92	8	"(570, 692)"	"(568, 692)"	1	    6.23	15387601.24	72	36
37	w	26	r	3	10	93	1	"(889, 669)"	"(924, 646)"	1	0	15394188.09	72	36
37	w	26	r	3	10	93	2	"(261, 181)"	"(255, 178)"	1	0	15394777.67	72	36
37	w	26	r	3	10	93	3	"(884, 76)"	"(893, 84)"	1	0	15395521.03	72	36
37	w	26	r	3	10	93	4	"(922, 433)"	"(934, 422)"	1	0	15396083.58	72	36
37	w	26	r	3	10	93	5	"(572, 88)"	"(584, 90)"	1	0	15397052.12	72	36
37	w	26	r	3	10	93	6	"(261, 638)"	"(230, 640)"	1	0	15398040.80	72	36
37	w	26	r	3	10	93	7	"(103, 437)"	"(95, 420)"	1	0	15398468.34	72	36
37	w	26	r	3	10	93	8	"(570, 692)"	"(557, 675)"	1	0	15399248.92	72	36
37	w	26	r	3	10	93	8	"(570, 692)"	"(557, 675)"	1	    5.82	15399248.92	72	36
37	w	26	r	3	10	94	1	"(889, 669)"	"(915, 675)"	1	0	15402825.43	72	36
37	w	26	r	3	10	94	2	"(261, 181)"	"(276, 180)"	1	0	15403466.42	72	36
37	w	26	r	3	10	94	3	"(884, 76)"	"(898, 70)"	1	0	15404217.68	72	36
37	w	26	r	3	10	94	4	"(922, 433)"	"(921, 445)"	1	0	15404755.82	72	36
37	w	26	r	3	10	94	5	"(572, 88)"	"(556, 84)"	1	0	15405410.98	72	36
37	w	26	r	3	10	94	6	"(261, 638)"	"(275, 623)"	1	0	15406048.72	72	36
37	w	26	r	3	10	94	7	"(103, 437)"	"(105, 432)"	1	0	15406563.20	72	36
37	w	26	r	3	10	94	8	"(570, 692)"	"(556, 689)"	1	0	15407112.51	72	36
37	w	26	r	3	10	94	8	"(570, 692)"	"(556, 689)"	1	    4.92	15407112.51	72	36
37	w	26	r	3	10	95	1	"(889, 669)"	"(893, 667)"	1	0	15410004.31	72	36
37	w	26	r	3	10	95	2	"(261, 181)"	"(255, 179)"	1	0	15410570.26	72	36
37	w	26	r	3	10	95	3	"(884, 76)"	"(866, 74)"	1	0	15411137.75	72	36
37	w	26	r	3	10	95	4	"(922, 433)"	"(934, 416)"	1	0	15411708.95	72	36
37	w	26	r	3	10	95	5	"(572, 88)"	"(570, 104)"	1	0	15412269.96	72	36
37	w	26	r	3	10	95	6	"(261, 638)"	"(266, 627)"	1	0	15412802.58	72	36
37	w	26	r	3	10	95	7	"(103, 437)"	"(82, 433)"	1	0	15413219.29	72	36
37	w	26	r	3	10	95	8	"(570, 692)"	"(552, 681)"	1	0	15413676.10	72	36
37	w	26	r	3	10	95	8	"(570, 692)"	"(552, 681)"	1	    4.15	15413676.10	72	36
37	w	26	r	3	10	96	1	"(889, 669)"	"(865, 672)"	1	0	15416201.53	72	36
37	w	26	r	3	10	96	2	"(261, 181)"	"(293, 151)"	1	0	15416715.60	72	36
37	w	26	r	3	10	96	3	"(884, 76)"	"(839, 98)"	1	0	15417354.95	72	36
37	w	26	r	3	10	96	4	"(922, 433)"	"(951, 471)"	1	0	15417891.27	72	36
37	w	26	r	3	10	96	5	"(572, 88)"	"(588, 78)"	1	0	15418466.70	72	36
37	w	26	r	3	10	96	6	"(261, 638)"	"(253, 636)"	1	0	15419068.40	72	36
37	w	26	r	3	10	96	7	"(103, 437)"	"(103, 450)"	1	0	15419554.02	72	36
37	w	26	r	3	10	96	8	"(570, 692)"	"(551, 684)"	1	0	15420036.73	72	36
37	w	26	r	3	10	96	8	"(570, 692)"	"(551, 684)"	1	    4.45	15420036.73	72	36
37	w	26	r	3	10	97	1	"(889, 669)"	"(881, 675)"	1	0	15422450.47	72	36
37	w	26	r	3	10	97	2	"(261, 181)"	"(248, 177)"	1	0	15422977.66	72	36
37	w	26	r	3	10	97	3	"(884, 76)"	"(889, 96)"	1	0	15423530.57	72	36
37	w	26	r	3	10	97	4	"(922, 433)"	"(936, 429)"	1	0	15424042.00	72	36
37	w	26	r	3	10	97	5	"(572, 88)"	"(551, 99)"	1	0	15424675.09	72	36
37	w	26	r	3	10	97	6	"(261, 638)"	"(259, 660)"	1	0	15425364.17	72	36
37	w	26	r	3	10	97	7	"(103, 437)"	"(96, 432)"	1	0	15425823.44	72	36
37	w	26	r	3	10	97	8	"(570, 692)"	"(594, 702)"	1	0	15426458.90	72	36
37	w	26	r	3	10	97	8	"(570, 692)"	"(594, 702)"	1	    4.51	15426458.90	72	36
37	w	26	r	3	10	98	1	"(889, 669)"	"(875, 661)"	1	0	15429330.49	72	36
37	w	26	r	3	10	98	2	"(261, 181)"	"(292, 164)"	1	0	15429821.50	72	36
37	w	26	r	3	10	98	3	"(884, 76)"	"(932, 83)"	1	0	15430403.74	72	36
37	w	26	r	3	10	98	4	"(922, 433)"	"(886, 435)"	1	0	15430883.75	72	36
37	w	26	r	3	10	98	5	"(572, 88)"	"(598, 82)"	1	0	15431363.92	72	36
37	w	26	r	3	10	98	6	"(261, 638)"	"(301, 622)"	1	0	15431931.67	72	36
37	w	26	r	3	10	98	7	"(103, 437)"	"(107, 463)"	1	0	15432331.63	72	36
37	w	26	r	3	10	98	8	"(570, 692)"	"(564, 681)"	1	0	15432818.48	72	36
37	w	26	r	3	10	98	8	"(570, 692)"	"(564, 681)"	1	    3.93	15432818.48	72	36
37	w	26	r	3	10	99	1	"(889, 669)"	"(866, 666)"	1	0	15439491.64	72	36
37	w	26	r	3	10	99	2	"(261, 181)"	"(261, 196)"	1	0	15440011.95	72	36
37	w	26	r	3	10	99	3	"(884, 76)"	"(917, 67)"	3	0	15441988.75	72	36
37	w	26	r	3	10	99	4	"(922, 433)"	"(933, 453)"	1	0	15442549.14	72	36
37	w	26	r	3	10	99	5	"(572, 88)"	"(605, 69)"	1	0	15443124.09	72	36
37	w	26	r	3	10	99	6	"(261, 638)"	"(231, 654)"	1	0	15443828.19	72	36
37	w	26	r	3	10	99	7	"(103, 437)"	"(132, 423)"	2	0	15444955.78	72	36
37	w	26	r	3	10	99	8	"(570, 692)"	"(607, 696)"	1	0	15445643.59	72	36
37	w	26	r	3	10	99	8	"(570, 692)"	"(607, 696)"	1	    7.00	15445643.59	72	36
37	w	26	r	3	10	100	1	"(889, 669)"	"(915, 663)"	2	0	15450406.49	72	36
37	w	26	r	3	10	100	2	"(261, 181)"	"(242, 189)"	1	0	15451115.81	72	36
37	w	26	r	3	10	100	3	"(884, 76)"	"(909, 75)"	1	0	15451787.31	72	36
37	w	26	r	3	10	100	4	"(922, 433)"	"(915, 479)"	1	0	15452422.73	72	36
37	w	26	r	3	10	100	5	"(572, 88)"	"(544, 103)"	1	0	15452987.26	72	36
37	w	26	r	3	10	100	6	"(261, 638)"	"(246, 640)"	1	0	15453707.91	72	36
37	w	26	r	3	10	100	7	"(103, 437)"	"(109, 432)"	1	0	15454181.32	72	36
37	w	26	r	3	10	100	8	"(570, 692)"	"(543, 686)"	1	0	15454892.24	72	36
37	w	26	r	3	10	100	8	"(570, 692)"	"(543, 686)"	1	    6.54	15454892.24	72	36
