VPnr	VPgender	VPage	VPeyeDominance	Condition	Block	Trial	Number	LocNumberCurrent	LocClickCorrect	NrClicksPerCircle	TimeTrial	TimeClickCorrect	SizeCircles	ClickTolerance
5	w	28	r	1	1	0	1	"(889, 669)"	"(896, 657)"	1	0	900325.76	72	36
5	w	28	r	1	1	0	2	"(261, 181)"	"(247, 197)"	1	0	902235.13	72	36
5	w	28	r	1	1	0	3	"(884, 76)"	"(890, 76)"	1	0	903677.90	72	36
5	w	28	r	1	1	0	4	"(922, 433)"	"(921, 449)"	1	0	904454.75	72	36
5	w	28	r	1	1	0	5	"(572, 88)"	"(566, 104)"	1	0	905492.15	72	36
5	w	28	r	1	1	0	6	"(261, 638)"	"(270, 661)"	1	0	906477.67	72	36
5	w	28	r	1	1	0	7	"(103, 437)"	"(114, 447)"	1	0	907374.39	72	36
5	w	28	r	1	1	0	8	"(570, 692)"	"(583, 703)"	1	0	908478.89	72	36
5	w	28	r	1	1	0	8	"(570, 692)"	"(583, 703)"	1	   10.29	908478.89	72	36
5	w	28	r	1	1	1	1	"(889, 669)"	"(910, 662)"	1	0	954294.81	72	36
5	w	28	r	1	1	1	2	"(261, 181)"	"(234, 176)"	1	0	956704.19	72	36
5	w	28	r	1	1	1	3	"(884, 76)"	"(873, 80)"	1	0	957719.20	72	36
5	w	28	r	1	1	1	4	"(922, 433)"	"(909, 454)"	1	0	958424.85	72	36
5	w	28	r	1	1	1	5	"(572, 88)"	"(581, 98)"	1	0	959366.33	72	36
5	w	28	r	1	1	1	6	"(261, 638)"	"(268, 640)"	1	0	960582.25	72	36
5	w	28	r	1	1	1	7	"(103, 437)"	"(107, 419)"	1	0	961669.54	72	36
5	w	28	r	1	1	1	8	"(570, 692)"	"(585, 715)"	1	0	962693.95	72	36
5	w	28	r	1	1	1	8	"(570, 692)"	"(585, 715)"	1	   10.07	962693.95	72	36
5	w	28	r	1	1	2	1	"(889, 669)"	"(904, 705)"	1	0	970190.57	72	36
5	w	28	r	1	1	2	2	"(261, 181)"	"(238, 178)"	1	0	971383.28	72	36
5	w	28	r	1	1	2	3	"(884, 76)"	"(892, 73)"	1	0	972251.36	72	36
5	w	28	r	1	1	2	4	"(922, 433)"	"(934, 451)"	1	0	972824.87	72	36
5	w	28	r	1	1	2	5	"(572, 88)"	"(565, 105)"	1	0	973583.31	72	36
5	w	28	r	1	1	2	6	"(261, 638)"	"(235, 648)"	1	0	974520.78	72	36
5	w	28	r	1	1	2	7	"(103, 437)"	"(111, 445)"	1	0	975583.89	72	36
5	w	28	r	1	1	2	8	"(570, 692)"	"(560, 676)"	1	0	976281.80	72	36
5	w	28	r	1	1	2	8	"(570, 692)"	"(560, 676)"	1	    7.83	976281.80	72	36
5	w	28	r	1	1	3	1	"(889, 669)"	"(881, 682)"	1	0	985970.57	72	36
5	w	28	r	1	1	3	2	"(261, 181)"	"(265, 206)"	1	0	987167.31	72	36
5	w	28	r	1	1	3	3	"(884, 76)"	"(908, 75)"	1	0	988130.00	72	36
5	w	28	r	1	1	3	4	"(922, 433)"	"(920, 457)"	1	0	988871.40	72	36
5	w	28	r	1	1	3	5	"(572, 88)"	"(576, 104)"	1	0	989740.95	72	36
5	w	28	r	1	1	3	6	"(261, 638)"	"(274, 648)"	1	0	990392.42	72	36
5	w	28	r	1	1	3	7	"(103, 437)"	"(79, 427)"	1	0	991088.69	72	36
5	w	28	r	1	1	3	8	"(570, 692)"	"(552, 679)"	1	0	991673.10	72	36
5	w	28	r	1	1	3	8	"(570, 692)"	"(552, 679)"	1	    6.79	991673.10	72	36
5	w	28	r	1	1	4	1	"(889, 669)"	"(891, 672)"	1	0	1002833.62	72	36
5	w	28	r	1	1	4	2	"(261, 181)"	"(278, 188)"	1	0	1004210.73	72	36
5	w	28	r	1	1	4	3	"(884, 76)"	"(862, 74)"	1	0	1004977.15	72	36
5	w	28	r	1	1	4	4	"(922, 433)"	"(944, 442)"	1	0	1005657.75	72	36
5	w	28	r	1	1	4	5	"(572, 88)"	"(588, 86)"	1	0	1006360.32	72	36
5	w	28	r	1	1	4	6	"(261, 638)"	"(281, 652)"	1	0	1007248.24	72	36
5	w	28	r	1	1	4	7	"(103, 437)"	"(92, 456)"	1	0	1007961.08	72	36
5	w	28	r	1	1	4	8	"(570, 692)"	"(566, 708)"	1	0	1008602.75	72	36
5	w	28	r	1	1	4	8	"(570, 692)"	"(566, 708)"	1	    6.72	1008602.75	72	36
5	w	28	r	1	1	5	1	"(889, 669)"	"(887, 649)"	1	0	1014195.27	72	36
5	w	28	r	1	1	5	2	"(261, 181)"	"(276, 194)"	1	0	1015082.19	72	36
5	w	28	r	1	1	5	3	"(884, 76)"	"(878, 101)"	1	0	1015834.08	72	36
5	w	28	r	1	1	5	4	"(922, 433)"	"(925, 444)"	1	0	1016482.82	72	36
5	w	28	r	1	1	5	5	"(572, 88)"	"(535, 70)"	1	0	1017260.90	72	36
5	w	28	r	1	1	5	6	"(261, 638)"	"(293, 627)"	1	0	1018620.66	72	36
5	w	28	r	1	1	5	7	"(103, 437)"	"(123, 443)"	2	0	1020947.61	72	36
5	w	28	r	1	1	5	8	"(570, 692)"	"(562, 718)"	1	0	1021682.55	72	36
5	w	28	r	1	1	5	8	"(570, 692)"	"(562, 718)"	1	    8.49	1021682.55	72	36
5	w	28	r	1	1	6	1	"(889, 669)"	"(891, 699)"	1	0	1027475.90	72	36
5	w	28	r	1	1	6	2	"(261, 181)"	"(278, 183)"	1	0	1028636.44	72	36
5	w	28	r	1	1	6	3	"(884, 76)"	"(897, 76)"	1	0	1029268.85	72	36
5	w	28	r	1	1	6	4	"(922, 433)"	"(914, 425)"	1	0	1030044.15	72	36
5	w	28	r	1	1	6	5	"(572, 88)"	"(586, 89)"	1	0	1030564.87	72	36
5	w	28	r	1	1	6	6	"(261, 638)"	"(250, 632)"	1	0	1031292.94	72	36
5	w	28	r	1	1	6	7	"(103, 437)"	"(98, 453)"	1	0	1031915.58	72	36
5	w	28	r	1	1	6	8	"(570, 692)"	"(565, 684)"	1	0	1032467.91	72	36
5	w	28	r	1	1	6	8	"(570, 692)"	"(565, 684)"	1	    6.02	1032467.91	72	36
5	w	28	r	1	1	7	1	"(889, 669)"	"(867, 672)"	1	0	1039265.81	72	36
5	w	28	r	1	1	7	2	"(261, 181)"	"(268, 179)"	1	0	1040315.38	72	36
5	w	28	r	1	1	7	3	"(884, 76)"	"(899, 99)"	1	0	1040947.52	72	36
5	w	28	r	1	1	7	4	"(922, 433)"	"(932, 453)"	1	0	1041581.15	72	36
5	w	28	r	1	1	7	5	"(572, 88)"	"(571, 93)"	1	0	1042179.99	72	36
5	w	28	r	1	1	7	6	"(261, 638)"	"(246, 637)"	1	0	1042916.91	72	36
5	w	28	r	1	1	7	7	"(103, 437)"	"(117, 457)"	1	0	1043565.86	72	36
5	w	28	r	1	1	7	8	"(570, 692)"	"(598, 692)"	1	0	1044227.82	72	36
5	w	28	r	1	1	7	8	"(570, 692)"	"(598, 692)"	1	    6.07	1044227.82	72	36
5	w	28	r	1	1	8	1	"(889, 669)"	"(884, 672)"	1	0	1051070.31	72	36
5	w	28	r	1	1	8	2	"(261, 181)"	"(281, 192)"	1	0	1052133.47	72	36
5	w	28	r	1	1	8	3	"(884, 76)"	"(875, 104)"	1	0	1052972.98	72	36
5	w	28	r	1	1	8	4	"(922, 433)"	"(929, 459)"	1	0	1053549.08	72	36
5	w	28	r	1	1	8	5	"(572, 88)"	"(563, 90)"	1	0	1054234.61	72	36
5	w	28	r	1	1	8	6	"(261, 638)"	"(278, 638)"	1	0	1055420.31	72	36
5	w	28	r	1	1	8	7	"(103, 437)"	"(92, 440)"	1	0	1055947.33	72	36
5	w	28	r	1	1	8	8	"(570, 692)"	"(618, 694)"	1	0	1056549.81	72	36
5	w	28	r	1	1	8	8	"(570, 692)"	"(618, 694)"	1	    6.36	1056549.81	72	36
5	w	28	r	1	1	9	1	"(889, 669)"	"(868, 677)"	1	0	1064495.21	72	36
5	w	28	r	1	1	9	2	"(261, 181)"	"(260, 189)"	2	0	1066900.38	72	36
5	w	28	r	1	1	9	3	"(884, 76)"	"(877, 98)"	1	0	1067765.17	72	36
5	w	28	r	1	1	9	4	"(922, 433)"	"(929, 427)"	1	0	1068411.52	72	36
5	w	28	r	1	1	9	5	"(572, 88)"	"(599, 96)"	1	0	1069405.04	72	36
5	w	28	r	1	1	9	6	"(261, 638)"	"(270, 650)"	1	0	1070204.42	72	36
5	w	28	r	1	1	9	7	"(103, 437)"	"(121, 462)"	1	0	1070859.96	72	36
5	w	28	r	1	1	9	8	"(570, 692)"	"(588, 721)"	1	0	1071380.50	72	36
5	w	28	r	1	1	9	8	"(570, 692)"	"(588, 721)"	1	    7.56	1071380.50	72	36
5	w	28	r	1	1	10	1	"(889, 669)"	"(902, 679)"	1	0	1078020.82	72	36
5	w	28	r	1	1	10	2	"(261, 181)"	"(245, 176)"	1	0	1079420.84	72	36
5	w	28	r	1	1	10	3	"(884, 76)"	"(865, 96)"	1	0	1080380.56	72	36
5	w	28	r	1	1	10	4	"(922, 433)"	"(912, 434)"	1	0	1081144.21	72	36
5	w	28	r	1	1	10	5	"(572, 88)"	"(551, 104)"	1	0	1082109.48	72	36
5	w	28	r	1	1	10	6	"(261, 638)"	"(257, 643)"	1	0	1083735.29	72	36
5	w	28	r	1	1	10	7	"(103, 437)"	"(117, 437)"	1	0	1084279.84	72	36
5	w	28	r	1	1	10	8	"(570, 692)"	"(566, 683)"	1	0	1085238.52	72	36
5	w	28	r	1	1	10	8	"(570, 692)"	"(566, 683)"	1	    8.43	1085238.52	72	36
5	w	28	r	1	2	11	1	"(889, 669)"	"(869, 684)"	1	0	1098543.69	72	36
5	w	28	r	1	2	11	2	"(261, 181)"	"(260, 203)"	1	0	1099533.36	72	36
5	w	28	r	1	2	11	3	"(884, 76)"	"(896, 83)"	1	0	1100517.23	72	36
5	w	28	r	1	2	11	4	"(922, 433)"	"(895, 441)"	1	0	1101264.09	72	36
5	w	28	r	1	2	11	5	"(572, 88)"	"(550, 87)"	1	0	1101838.12	72	36
5	w	28	r	1	2	11	6	"(261, 638)"	"(290, 645)"	1	0	1102806.66	72	36
5	w	28	r	1	2	11	7	"(103, 437)"	"(111, 426)"	1	0	1103445.60	72	36
5	w	28	r	1	2	11	8	"(570, 692)"	"(561, 699)"	1	0	1104071.81	72	36
5	w	28	r	1	2	11	8	"(570, 692)"	"(561, 699)"	1	    6.53	1104071.81	72	36
5	w	28	r	1	2	12	1	"(889, 669)"	"(915, 668)"	1	0	1109513.90	72	36
5	w	28	r	1	2	12	2	"(261, 181)"	"(277, 191)"	1	0	1110241.49	72	36
5	w	28	r	1	2	12	3	"(884, 76)"	"(913, 68)"	1	0	1110935.95	72	36
5	w	28	r	1	2	12	4	"(922, 433)"	"(924, 466)"	1	0	1111481.83	72	36
5	w	28	r	1	2	12	5	"(572, 88)"	"(606, 79)"	1	0	1112054.95	72	36
5	w	28	r	1	2	12	6	"(261, 638)"	"(273, 629)"	1	0	1112992.88	72	36
5	w	28	r	1	2	12	7	"(103, 437)"	"(92, 428)"	1	0	1113591.35	72	36
5	w	28	r	1	2	12	8	"(570, 692)"	"(553, 684)"	1	0	1114126.66	72	36
5	w	28	r	1	2	12	8	"(570, 692)"	"(553, 684)"	1	    5.22	1114126.66	72	36
5	w	28	r	1	2	13	1	"(889, 669)"	"(893, 690)"	1	0	1118342.54	72	36
5	w	28	r	1	2	13	2	"(261, 181)"	"(294, 188)"	2	0	1120088.44	72	36
5	w	28	r	1	2	13	3	"(884, 76)"	"(881, 70)"	1	0	1120639.33	72	36
5	w	28	r	1	2	13	4	"(922, 433)"	"(916, 437)"	1	0	1121239.43	72	36
5	w	28	r	1	2	13	5	"(572, 88)"	"(574, 107)"	1	0	1121975.59	72	36
5	w	28	r	1	2	13	6	"(261, 638)"	"(269, 668)"	1	0	1122750.99	72	36
5	w	28	r	1	2	13	7	"(103, 437)"	"(79, 449)"	1	0	1123354.67	72	36
5	w	28	r	1	2	13	8	"(570, 692)"	"(565, 701)"	1	0	1124425.96	72	36
5	w	28	r	1	2	13	8	"(570, 692)"	"(565, 701)"	1	    6.89	1124425.96	72	36
5	w	28	r	1	2	14	1	"(889, 669)"	"(906, 674)"	1	0	1130137.22	72	36
5	w	28	r	1	2	14	2	"(261, 181)"	"(236, 189)"	1	0	1130887.21	72	36
5	w	28	r	1	2	14	3	"(884, 76)"	"(891, 81)"	1	0	1131471.58	72	36
5	w	28	r	1	2	14	4	"(922, 433)"	"(929, 455)"	1	0	1132033.88	72	36
5	w	28	r	1	2	14	5	"(572, 88)"	"(594, 86)"	1	0	1132639.10	72	36
5	w	28	r	1	2	14	6	"(261, 638)"	"(289, 663)"	1	0	1133295.72	72	36
5	w	28	r	1	2	14	7	"(103, 437)"	"(111, 439)"	1	0	1133968.45	72	36
5	w	28	r	1	2	14	8	"(570, 692)"	"(569, 692)"	1	0	1134530.13	72	36
5	w	28	r	1	2	14	8	"(570, 692)"	"(569, 692)"	1	    5.60	1134530.13	72	36
5	w	28	r	1	2	15	1	"(889, 669)"	"(899, 676)"	1	0	1139569.84	72	36
5	w	28	r	1	2	15	2	"(261, 181)"	"(285, 180)"	1	0	1140499.55	72	36
5	w	28	r	1	2	15	3	"(884, 76)"	"(873, 87)"	1	0	1140984.70	72	36
5	w	28	r	1	2	15	4	"(922, 433)"	"(924, 456)"	1	0	1141529.23	72	36
5	w	28	r	1	2	15	5	"(572, 88)"	"(555, 74)"	1	0	1142098.27	72	36
5	w	28	r	1	2	15	6	"(261, 638)"	"(288, 651)"	1	0	1143003.31	72	36
5	w	28	r	1	2	15	7	"(103, 437)"	"(106, 435)"	1	0	1143521.97	72	36
5	w	28	r	1	2	15	8	"(570, 692)"	"(592, 684)"	1	0	1144352.09	72	36
5	w	28	r	1	2	15	8	"(570, 692)"	"(592, 684)"	1	    5.80	1144352.09	72	36
5	w	28	r	1	2	16	1	"(889, 669)"	"(870, 690)"	1	0	1149204.40	72	36
5	w	28	r	1	2	16	2	"(261, 181)"	"(244, 166)"	1	0	1149832.18	72	36
5	w	28	r	1	2	16	3	"(884, 76)"	"(890, 87)"	1	0	1150369.58	72	36
5	w	28	r	1	2	16	4	"(922, 433)"	"(931, 422)"	1	0	1150849.33	72	36
5	w	28	r	1	2	16	5	"(572, 88)"	"(587, 87)"	1	0	1151489.90	72	36
5	w	28	r	1	2	16	6	"(261, 638)"	"(275, 638)"	1	0	1152089.15	72	36
5	w	28	r	1	2	16	7	"(103, 437)"	"(109, 453)"	1	0	1152881.14	72	36
5	w	28	r	1	2	16	8	"(570, 692)"	"(569, 682)"	1	0	1153673.45	72	36
5	w	28	r	1	2	16	8	"(570, 692)"	"(569, 682)"	1	    5.36	1153673.45	72	36
5	w	28	r	1	2	17	1	"(889, 669)"	"(902, 703)"	1	0	1160010.74	72	36
5	w	28	r	1	2	17	2	"(261, 181)"	"(291, 180)"	1	0	1161080.96	72	36
5	w	28	r	1	2	17	3	"(884, 76)"	"(861, 83)"	1	0	1161730.16	72	36
5	w	28	r	1	2	17	4	"(922, 433)"	"(907, 427)"	1	0	1162371.48	72	36
5	w	28	r	1	2	17	5	"(572, 88)"	"(582, 120)"	1	0	1162939.50	72	36
5	w	28	r	1	2	17	6	"(261, 638)"	"(262, 648)"	1	0	1163634.81	72	36
5	w	28	r	1	2	17	7	"(103, 437)"	"(111, 445)"	1	0	1164195.92	72	36
5	w	28	r	1	2	17	8	"(570, 692)"	"(555, 700)"	1	0	1164721.28	72	36
5	w	28	r	1	2	17	8	"(570, 692)"	"(555, 700)"	1	    5.41	1164721.28	72	36
5	w	28	r	1	2	18	1	"(889, 669)"	"(880, 665)"	1	0	1172083.83	72	36
5	w	28	r	1	2	18	2	"(261, 181)"	"(266, 203)"	1	0	1173139.49	72	36
5	w	28	r	1	2	18	3	"(884, 76)"	"(900, 74)"	1	0	1173778.41	72	36
5	w	28	r	1	2	18	4	"(922, 433)"	"(923, 431)"	1	0	1174377.94	72	36
5	w	28	r	1	2	18	5	"(572, 88)"	"(591, 92)"	1	0	1174923.21	72	36
5	w	28	r	1	2	18	6	"(261, 638)"	"(274, 608)"	1	0	1175770.47	72	36
5	w	28	r	1	2	18	7	"(103, 437)"	"(111, 439)"	1	0	1176596.63	72	36
5	w	28	r	1	2	18	8	"(570, 692)"	"(574, 697)"	1	0	1177386.75	72	36
5	w	28	r	1	2	18	8	"(570, 692)"	"(574, 697)"	1	    6.64	1177386.75	72	36
5	w	28	r	1	2	19	1	"(889, 669)"	"(900, 689)"	1	0	1182009.86	72	36
5	w	28	r	1	2	19	2	"(261, 181)"	"(292, 177)"	1	0	1182769.55	72	36
5	w	28	r	1	2	19	3	"(884, 76)"	"(892, 87)"	1	0	1183598.06	72	36
5	w	28	r	1	2	19	4	"(922, 433)"	"(909, 433)"	1	0	1184156.27	72	36
5	w	28	r	1	2	19	5	"(572, 88)"	"(559, 70)"	1	0	1184907.38	72	36
5	w	28	r	1	2	19	6	"(261, 638)"	"(271, 659)"	1	0	1185686.57	72	36
5	w	28	r	1	2	19	7	"(103, 437)"	"(109, 454)"	1	0	1186402.69	72	36
5	w	28	r	1	2	19	8	"(570, 692)"	"(579, 719)"	1	0	1186932.58	72	36
5	w	28	r	1	2	19	8	"(570, 692)"	"(579, 719)"	1	    5.98	1186932.58	72	36
5	w	28	r	1	2	20	1	"(889, 669)"	"(877, 703)"	1	0	1197038.06	72	36
5	w	28	r	1	2	20	2	"(261, 181)"	"(237, 198)"	1	0	1197803.41	72	36
5	w	28	r	1	2	20	3	"(884, 76)"	"(874, 93)"	1	0	1198549.65	72	36
5	w	28	r	1	2	20	4	"(922, 433)"	"(906, 419)"	1	0	1199043.36	72	36
5	w	28	r	1	2	20	5	"(572, 88)"	"(570, 89)"	1	0	1199812.20	72	36
5	w	28	r	1	2	20	6	"(261, 638)"	"(275, 641)"	1	0	1200373.95	72	36
5	w	28	r	1	2	20	7	"(103, 437)"	"(104, 454)"	1	0	1201091.82	72	36
5	w	28	r	1	2	20	8	"(570, 692)"	"(557, 697)"	1	0	1201710.49	72	36
5	w	28	r	1	2	20	8	"(570, 692)"	"(557, 697)"	1	    5.53	1201710.49	72	36
5	w	28	r	1	3	21	1	"(889, 669)"	"(877, 683)"	1	0	1207990.20	72	36
5	w	28	r	1	3	21	2	"(261, 181)"	"(266, 200)"	1	0	1208988.81	72	36
5	w	28	r	1	3	21	3	"(884, 76)"	"(869, 109)"	1	0	1209611.65	72	36
5	w	28	r	1	3	21	4	"(922, 433)"	"(921, 423)"	1	0	1210092.65	72	36
5	w	28	r	1	3	21	5	"(572, 88)"	"(573, 87)"	1	0	1210884.10	72	36
5	w	28	r	1	3	21	6	"(261, 638)"	"(276, 634)"	1	0	1211524.35	72	36
5	w	28	r	1	3	21	7	"(103, 437)"	"(123, 451)"	1	0	1212045.75	72	36
5	w	28	r	1	3	21	8	"(570, 692)"	"(570, 688)"	1	0	1212780.96	72	36
5	w	28	r	1	3	21	8	"(570, 692)"	"(570, 688)"	1	    5.78	1212780.96	72	36
5	w	28	r	1	3	22	1	"(889, 669)"	"(898, 686)"	1	0	1216308.82	72	36
5	w	28	r	1	3	22	2	"(261, 181)"	"(249, 199)"	1	0	1217382.23	72	36
5	w	28	r	1	3	22	3	"(884, 76)"	"(878, 94)"	1	0	1217940.82	72	36
5	w	28	r	1	3	22	4	"(922, 433)"	"(928, 459)"	1	0	1218789.03	72	36
5	w	28	r	1	3	22	5	"(572, 88)"	"(562, 94)"	1	0	1219630.03	72	36
5	w	28	r	1	3	22	6	"(261, 638)"	"(277, 652)"	1	0	1220484.85	72	36
5	w	28	r	1	3	22	7	"(103, 437)"	"(96, 435)"	1	0	1221124.92	72	36
5	w	28	r	1	3	22	8	"(570, 692)"	"(585, 675)"	1	0	1221749.17	72	36
5	w	28	r	1	3	22	8	"(570, 692)"	"(585, 675)"	1	    6.15	1221749.17	72	36
5	w	28	r	1	3	23	1	"(889, 669)"	"(889, 655)"	1	0	1227182.76	72	36
5	w	28	r	1	3	23	2	"(261, 181)"	"(270, 177)"	1	0	1227990.76	72	36
5	w	28	r	1	3	23	3	"(884, 76)"	"(890, 92)"	1	0	1228638.48	72	36
5	w	28	r	1	3	23	4	"(922, 433)"	"(933, 421)"	1	0	1229253.85	72	36
5	w	28	r	1	3	23	5	"(572, 88)"	"(594, 92)"	1	0	1229912.28	72	36
5	w	28	r	1	3	23	6	"(261, 638)"	"(279, 638)"	1	0	1230764.97	72	36
5	w	28	r	1	3	23	7	"(103, 437)"	"(122, 438)"	1	0	1231536.59	72	36
5	w	28	r	1	3	23	8	"(570, 692)"	"(571, 708)"	1	0	1232406.35	72	36
5	w	28	r	1	3	23	8	"(570, 692)"	"(571, 708)"	1	    5.99	1232406.35	72	36
5	w	28	r	1	3	24	1	"(889, 669)"	"(889, 691)"	1	0	1236246.48	72	36
5	w	28	r	1	3	24	2	"(261, 181)"	"(248, 198)"	1	0	1237145.54	72	36
5	w	28	r	1	3	24	3	"(884, 76)"	"(893, 94)"	1	0	1237726.26	72	36
5	w	28	r	1	3	24	4	"(922, 433)"	"(920, 444)"	1	0	1238296.40	72	36
5	w	28	r	1	3	24	5	"(572, 88)"	"(571, 77)"	1	0	1238877.90	72	36
5	w	28	r	1	3	24	6	"(261, 638)"	"(252, 627)"	1	0	1239619.62	72	36
5	w	28	r	1	3	24	7	"(103, 437)"	"(116, 435)"	1	0	1240312.65	72	36
5	w	28	r	1	3	24	8	"(570, 692)"	"(602, 699)"	1	0	1241462.71	72	36
5	w	28	r	1	3	24	8	"(570, 692)"	"(602, 699)"	1	    5.91	1241462.71	72	36
5	w	28	r	1	3	25	1	"(889, 669)"	"(904, 698)"	1	0	1246313.21	72	36
5	w	28	r	1	3	25	2	"(261, 181)"	"(226, 174)"	1	0	1246968.33	72	36
5	w	28	r	1	3	25	3	"(884, 76)"	"(881, 71)"	1	0	1247833.37	72	36
5	w	28	r	1	3	25	4	"(922, 433)"	"(930, 424)"	1	0	1248358.78	72	36
5	w	28	r	1	3	25	5	"(572, 88)"	"(576, 89)"	1	0	1248871.73	72	36
5	w	28	r	1	3	25	6	"(261, 638)"	"(274, 659)"	1	0	1249607.25	72	36
5	w	28	r	1	3	25	7	"(103, 437)"	"(118, 452)"	1	0	1250135.90	72	36
5	w	28	r	1	3	25	8	"(570, 692)"	"(521, 674)"	1	0	1250631.16	72	36
5	w	28	r	1	3	25	8	"(570, 692)"	"(521, 674)"	1	    5.31	1250631.16	72	36
5	w	28	r	1	3	26	1	"(889, 669)"	"(887, 669)"	1	0	1257328.21	72	36
5	w	28	r	1	3	26	2	"(261, 181)"	"(287, 179)"	1	0	1257904.03	72	36
5	w	28	r	1	3	26	3	"(884, 76)"	"(866, 95)"	1	0	1258509.72	72	36
5	w	28	r	1	3	26	4	"(922, 433)"	"(915, 466)"	1	0	1259096.82	72	36
5	w	28	r	1	3	26	5	"(572, 88)"	"(571, 92)"	1	0	1259838.08	72	36
5	w	28	r	1	3	26	6	"(261, 638)"	"(269, 648)"	1	0	1260567.03	72	36
5	w	28	r	1	3	26	7	"(103, 437)"	"(92, 448)"	1	0	1261061.88	72	36
5	w	28	r	1	3	26	8	"(570, 692)"	"(548, 701)"	1	0	1261666.10	72	36
5	w	28	r	1	3	26	8	"(570, 692)"	"(548, 701)"	1	    5.44	1261666.10	72	36
5	w	28	r	1	3	27	1	"(889, 669)"	"(914, 690)"	1	0	1265345.97	72	36
5	w	28	r	1	3	27	2	"(261, 181)"	"(272, 199)"	1	0	1266247.87	72	36
5	w	28	r	1	3	27	3	"(884, 76)"	"(879, 99)"	1	0	1267863.09	72	36
5	w	28	r	1	3	27	4	"(922, 433)"	"(945, 428)"	1	0	1268398.82	72	36
5	w	28	r	1	3	27	5	"(572, 88)"	"(588, 102)"	1	0	1269361.50	72	36
5	w	28	r	1	3	27	6	"(261, 638)"	"(279, 634)"	1	0	1270319.99	72	36
5	w	28	r	1	3	27	7	"(103, 437)"	"(123, 437)"	1	0	1271278.95	72	36
5	w	28	r	1	3	27	8	"(570, 692)"	"(572, 683)"	1	0	1272047.30	72	36
5	w	28	r	1	3	27	8	"(570, 692)"	"(572, 683)"	1	    7.62	1272047.30	72	36
5	w	28	r	1	3	28	1	"(889, 669)"	"(873, 661)"	1	0	1277527.63	72	36
5	w	28	r	1	3	28	2	"(261, 181)"	"(275, 203)"	1	0	1278162.35	72	36
5	w	28	r	1	3	28	3	"(884, 76)"	"(883, 72)"	1	0	1278979.37	72	36
5	w	28	r	1	3	28	4	"(922, 433)"	"(935, 450)"	1	0	1279703.46	72	36
5	w	28	r	1	3	28	5	"(572, 88)"	"(555, 88)"	1	0	1280298.83	72	36
5	w	28	r	1	3	28	6	"(261, 638)"	"(281, 626)"	1	0	1281016.67	72	36
5	w	28	r	1	3	28	7	"(103, 437)"	"(133, 440)"	1	0	1281555.10	72	36
5	w	28	r	1	3	28	8	"(570, 692)"	"(611, 684)"	1	0	1282376.83	72	36
5	w	28	r	1	3	28	8	"(570, 692)"	"(611, 684)"	1	    5.90	1282376.83	72	36
5	w	28	r	1	3	29	1	"(889, 669)"	"(904, 682)"	1	0	1286218.39	72	36
5	w	28	r	1	3	29	2	"(261, 181)"	"(271, 188)"	1	0	1286955.14	72	36
5	w	28	r	1	3	29	3	"(884, 76)"	"(911, 85)"	1	0	1287719.60	72	36
5	w	28	r	1	3	29	4	"(922, 433)"	"(927, 412)"	1	0	1288360.74	72	36
5	w	28	r	1	3	29	5	"(572, 88)"	"(578, 103)"	1	0	1288807.91	72	36
5	w	28	r	1	3	29	6	"(261, 638)"	"(253, 646)"	1	0	1289729.34	72	36
5	w	28	r	1	3	29	7	"(103, 437)"	"(64, 423)"	1	0	1290737.14	72	36
5	w	28	r	1	3	29	8	"(570, 692)"	"(574, 687)"	1	0	1291656.44	72	36
5	w	28	r	1	3	29	8	"(570, 692)"	"(574, 687)"	1	    6.21	1291656.44	72	36
5	w	28	r	1	3	30	1	"(889, 669)"	"(881, 693)"	1	0	1295285.64	72	36
5	w	28	r	1	3	30	2	"(261, 181)"	"(288, 172)"	1	0	1295969.03	72	36
5	w	28	r	1	3	30	3	"(884, 76)"	"(862, 82)"	1	0	1296833.54	72	36
5	w	28	r	1	3	30	4	"(922, 433)"	"(927, 446)"	1	0	1297483.91	72	36
5	w	28	r	1	3	30	5	"(572, 88)"	"(544, 86)"	1	0	1298051.97	72	36
5	w	28	r	1	3	30	6	"(261, 638)"	"(246, 647)"	1	0	1299061.79	72	36
5	w	28	r	1	3	30	7	"(103, 437)"	"(83, 459)"	1	0	1299560.57	72	36
5	w	28	r	1	3	30	8	"(570, 692)"	"(568, 705)"	1	0	1300241.62	72	36
5	w	28	r	1	3	30	8	"(570, 692)"	"(568, 705)"	1	    5.83	1300241.62	72	36
5	w	28	r	1	4	31	1	"(889, 669)"	"(869, 673)"	1	0	1309433.15	72	36
5	w	28	r	1	4	31	2	"(261, 181)"	"(284, 184)"	1	0	1310065.18	72	36
5	w	28	r	1	4	31	3	"(884, 76)"	"(896, 73)"	1	0	1310665.94	72	36
5	w	28	r	1	4	31	4	"(922, 433)"	"(929, 457)"	1	0	1311379.03	72	36
5	w	28	r	1	4	31	5	"(572, 88)"	"(590, 113)"	1	0	1312081.15	72	36
5	w	28	r	1	4	31	6	"(261, 638)"	"(250, 636)"	1	0	1312947.27	72	36
5	w	28	r	1	4	31	7	"(103, 437)"	"(127, 452)"	1	0	1313394.41	72	36
5	w	28	r	1	4	31	8	"(570, 692)"	"(581, 679)"	1	0	1313948.57	72	36
5	w	28	r	1	4	31	8	"(570, 692)"	"(581, 679)"	1	    5.38	1313948.57	72	36
5	w	28	r	1	4	32	1	"(889, 669)"	"(914, 684)"	1	0	1317062.48	72	36
5	w	28	r	1	4	32	2	"(261, 181)"	"(265, 182)"	1	0	1317653.82	72	36
5	w	28	r	1	4	32	3	"(884, 76)"	"(911, 90)"	1	0	1318259.06	72	36
5	w	28	r	1	4	32	4	"(922, 433)"	"(932, 426)"	1	0	1318761.14	72	36
5	w	28	r	1	4	32	5	"(572, 88)"	"(591, 89)"	1	0	1319331.94	72	36
5	w	28	r	1	4	32	6	"(261, 638)"	"(282, 645)"	1	0	1320235.63	72	36
5	w	28	r	1	4	32	7	"(103, 437)"	"(118, 433)"	1	0	1321004.76	72	36
5	w	28	r	1	4	32	8	"(570, 692)"	"(550, 679)"	1	0	1321515.71	72	36
5	w	28	r	1	4	32	8	"(570, 692)"	"(550, 679)"	1	    5.42	1321515.71	72	36
5	w	28	r	1	4	33	1	"(889, 669)"	"(932, 673)"	1	0	1326547.14	72	36
5	w	28	r	1	4	33	2	"(261, 181)"	"(241, 192)"	1	0	1327172.92	72	36
5	w	28	r	1	4	33	3	"(884, 76)"	"(918, 78)"	1	0	1327891.08	72	36
5	w	28	r	1	4	33	4	"(922, 433)"	"(920, 440)"	1	0	1328405.82	72	36
5	w	28	r	1	4	33	5	"(572, 88)"	"(617, 89)"	1	0	1328973.53	72	36
5	w	28	r	1	4	33	6	"(261, 638)"	"(269, 654)"	1	0	1329939.09	72	36
5	w	28	r	1	4	33	7	"(103, 437)"	"(87, 434)"	1	0	1330565.85	72	36
5	w	28	r	1	4	33	8	"(570, 692)"	"(566, 688)"	1	0	1331203.73	72	36
5	w	28	r	1	4	33	8	"(570, 692)"	"(566, 688)"	1	    5.33	1331203.73	72	36
5	w	28	r	1	4	34	1	"(889, 669)"	"(888, 703)"	1	0	1336164.67	72	36
5	w	28	r	1	4	34	2	"(261, 181)"	"(256, 211)"	1	0	1336698.36	72	36
5	w	28	r	1	4	34	3	"(884, 76)"	"(899, 63)"	1	0	1337565.39	72	36
5	w	28	r	1	4	34	4	"(922, 433)"	"(902, 411)"	1	0	1338109.46	72	36
5	w	28	r	1	4	34	5	"(572, 88)"	"(555, 110)"	1	0	1338618.73	72	36
5	w	28	r	1	4	34	6	"(261, 638)"	"(253, 639)"	1	0	1339433.67	72	36
5	w	28	r	1	4	34	7	"(103, 437)"	"(105, 429)"	1	0	1340027.91	72	36
5	w	28	r	1	4	34	8	"(570, 692)"	"(591, 682)"	1	0	1340611.31	72	36
5	w	28	r	1	4	34	8	"(570, 692)"	"(591, 682)"	1	    5.30	1340611.31	72	36
5	w	28	r	1	4	35	1	"(889, 669)"	"(910, 678)"	1	0	1344707.02	72	36
5	w	28	r	1	4	35	2	"(261, 181)"	"(249, 178)"	1	0	1345683.60	72	36
5	w	28	r	1	4	35	3	"(884, 76)"	"(883, 91)"	1	0	1346205.58	72	36
5	w	28	r	1	4	35	4	"(922, 433)"	"(909, 446)"	1	0	1346683.48	72	36
5	w	28	r	1	4	35	5	"(572, 88)"	"(564, 126)"	1	0	1347339.94	72	36
5	w	28	r	1	4	35	6	"(261, 638)"	"(247, 633)"	1	0	1348123.43	72	36
5	w	28	r	1	4	35	7	"(103, 437)"	"(143, 461)"	1	0	1348485.34	72	36
5	w	28	r	1	4	35	8	"(570, 692)"	"(580, 707)"	1	0	1349171.11	72	36
5	w	28	r	1	4	35	8	"(570, 692)"	"(580, 707)"	1	    5.22	1349171.11	72	36
5	w	28	r	1	4	36	1	"(889, 669)"	"(880, 670)"	1	0	1355087.62	72	36
5	w	28	r	1	4	36	2	"(261, 181)"	"(244, 196)"	1	0	1355711.16	72	36
5	w	28	r	1	4	36	3	"(884, 76)"	"(878, 79)"	1	0	1356526.15	72	36
5	w	28	r	1	4	36	4	"(922, 433)"	"(946, 443)"	1	0	1357079.11	72	36
5	w	28	r	1	4	36	5	"(572, 88)"	"(551, 92)"	1	0	1357724.54	72	36
5	w	28	r	1	4	36	6	"(261, 638)"	"(278, 635)"	1	0	1358431.34	72	36
5	w	28	r	1	4	36	7	"(103, 437)"	"(65, 414)"	1	0	1359236.68	72	36
5	w	28	r	1	4	36	8	"(570, 692)"	"(586, 703)"	1	0	1360119.34	72	36
5	w	28	r	1	4	36	8	"(570, 692)"	"(586, 703)"	1	    5.81	1360119.34	72	36
5	w	28	r	1	4	37	1	"(889, 669)"	"(875, 682)"	1	0	1363602.42	72	36
5	w	28	r	1	4	37	2	"(261, 181)"	"(274, 164)"	1	0	1364243.78	72	36
5	w	28	r	1	4	37	3	"(884, 76)"	"(916, 89)"	1	0	1365060.33	72	36
5	w	28	r	1	4	37	4	"(922, 433)"	"(929, 422)"	1	0	1365597.59	72	36
5	w	28	r	1	4	37	5	"(572, 88)"	"(563, 99)"	1	0	1366428.67	72	36
5	w	28	r	1	4	37	6	"(261, 638)"	"(280, 650)"	1	0	1367045.31	72	36
5	w	28	r	1	4	37	7	"(103, 437)"	"(98, 433)"	1	0	1367574.37	72	36
5	w	28	r	1	4	37	8	"(570, 692)"	"(546, 687)"	1	0	1368107.80	72	36
5	w	28	r	1	4	37	8	"(570, 692)"	"(546, 687)"	1	    5.32	1368107.80	72	36
5	w	28	r	1	4	38	1	"(889, 669)"	"(882, 698)"	1	0	1372221.57	72	36
5	w	28	r	1	4	38	2	"(261, 181)"	"(244, 189)"	1	0	1372919.22	72	36
5	w	28	r	1	4	38	3	"(884, 76)"	"(881, 82)"	1	0	1373661.40	72	36
5	w	28	r	1	4	38	4	"(922, 433)"	"(910, 416)"	1	0	1374055.66	72	36
5	w	28	r	1	4	38	5	"(572, 88)"	"(591, 104)"	1	0	1374527.26	72	36
5	w	28	r	1	4	38	6	"(261, 638)"	"(275, 664)"	1	0	1375324.61	72	36
5	w	28	r	1	4	38	7	"(103, 437)"	"(103, 424)"	1	0	1375765.82	72	36
5	w	28	r	1	4	38	8	"(570, 692)"	"(608, 720)"	1	0	1376327.24	72	36
5	w	28	r	1	4	38	8	"(570, 692)"	"(608, 720)"	1	    4.72	1376327.24	72	36
5	w	28	r	1	4	39	1	"(889, 669)"	"(907, 679)"	1	0	1380917.74	72	36
5	w	28	r	1	4	39	2	"(261, 181)"	"(272, 192)"	1	0	1381484.01	72	36
5	w	28	r	1	4	39	3	"(884, 76)"	"(881, 66)"	1	0	1381918.45	72	36
5	w	28	r	1	4	39	4	"(922, 433)"	"(921, 422)"	1	0	1382374.16	72	36
5	w	28	r	1	4	39	5	"(572, 88)"	"(587, 97)"	1	0	1383054.86	72	36
5	w	28	r	1	4	39	6	"(261, 638)"	"(292, 642)"	1	0	1383758.56	72	36
5	w	28	r	1	4	39	7	"(103, 437)"	"(131, 440)"	1	0	1384397.06	72	36
5	w	28	r	1	4	39	8	"(570, 692)"	"(597, 714)"	2	0	1385495.33	72	36
5	w	28	r	1	4	39	8	"(570, 692)"	"(597, 714)"	2	    5.36	1385495.33	72	36
5	w	28	r	1	4	40	1	"(889, 669)"	"(866, 673)"	1	0	1389191.24	72	36
5	w	28	r	1	4	40	2	"(261, 181)"	"(247, 187)"	1	0	1389808.07	72	36
5	w	28	r	1	4	40	3	"(884, 76)"	"(884, 100)"	1	0	1390352.21	72	36
5	w	28	r	1	4	40	4	"(922, 433)"	"(921, 451)"	1	0	1390751.85	72	36
5	w	28	r	1	4	40	5	"(572, 88)"	"(583, 107)"	1	0	1391205.76	72	36
5	w	28	r	1	4	40	6	"(261, 638)"	"(257, 640)"	1	0	1392358.92	72	36
5	w	28	r	1	4	40	7	"(103, 437)"	"(105, 445)"	1	0	1393123.19	72	36
5	w	28	r	1	4	40	8	"(570, 692)"	"(585, 701)"	1	0	1393573.43	72	36
5	w	28	r	1	4	40	8	"(570, 692)"	"(585, 701)"	1	    5.19	1393573.43	72	36
5	w	28	r	1	5	41	1	"(889, 669)"	"(895, 689)"	2	0	1399768.15	72	36
5	w	28	r	1	5	41	2	"(261, 181)"	"(253, 181)"	1	0	1400286.70	72	36
5	w	28	r	1	5	41	3	"(884, 76)"	"(883, 78)"	1	0	1400910.48	72	36
5	w	28	r	1	5	41	4	"(922, 433)"	"(921, 428)"	1	0	1401496.66	72	36
5	w	28	r	1	5	41	5	"(572, 88)"	"(555, 101)"	1	0	1402169.10	72	36
5	w	28	r	1	5	41	6	"(261, 638)"	"(285, 648)"	1	0	1402864.91	72	36
5	w	28	r	1	5	41	7	"(103, 437)"	"(117, 439)"	1	0	1403249.60	72	36
5	w	28	r	1	5	41	8	"(570, 692)"	"(538, 665)"	1	0	1403857.17	72	36
5	w	28	r	1	5	41	8	"(570, 692)"	"(538, 665)"	1	    5.79	1403857.17	72	36
5	w	28	r	1	5	42	1	"(889, 669)"	"(890, 666)"	1	0	1409007.24	72	36
5	w	28	r	1	5	42	2	"(261, 181)"	"(281, 196)"	1	0	1409575.25	72	36
5	w	28	r	1	5	42	3	"(884, 76)"	"(899, 82)"	1	0	1410680.63	72	36
5	w	28	r	1	5	42	4	"(922, 433)"	"(927, 461)"	1	0	1411263.17	72	36
5	w	28	r	1	5	42	5	"(572, 88)"	"(586, 91)"	1	0	1411822.98	72	36
5	w	28	r	1	5	42	6	"(261, 638)"	"(273, 668)"	1	0	1412678.96	72	36
5	w	28	r	1	5	42	7	"(103, 437)"	"(76, 446)"	1	0	1413249.35	72	36
5	w	28	r	1	5	42	8	"(570, 692)"	"(574, 688)"	1	0	1413702.93	72	36
5	w	28	r	1	5	42	8	"(570, 692)"	"(574, 688)"	1	    5.91	1413702.93	72	36
5	w	28	r	1	5	43	1	"(889, 669)"	"(901, 682)"	1	0	1419096.89	72	36
5	w	28	r	1	5	43	2	"(261, 181)"	"(243, 186)"	1	0	1419570.53	72	36
5	w	28	r	1	5	43	3	"(884, 76)"	"(918, 75)"	1	0	1420274.98	72	36
5	w	28	r	1	5	43	4	"(922, 433)"	"(935, 408)"	1	0	1420688.65	72	36
5	w	28	r	1	5	43	5	"(572, 88)"	"(581, 52)"	1	0	1421321.94	72	36
5	w	28	r	1	5	43	6	"(261, 638)"	"(290, 613)"	1	0	1422122.76	72	36
5	w	28	r	1	5	43	7	"(103, 437)"	"(113, 432)"	1	0	1422847.21	72	36
5	w	28	r	1	5	43	8	"(570, 692)"	"(585, 719)"	2	0	1423755.80	72	36
5	w	28	r	1	5	43	8	"(570, 692)"	"(585, 719)"	2	    5.32	1423755.80	72	36
5	w	28	r	1	5	44	1	"(889, 669)"	"(884, 687)"	1	0	1428784.09	72	36
5	w	28	r	1	5	44	2	"(261, 181)"	"(259, 201)"	1	0	1429440.90	72	36
5	w	28	r	1	5	44	3	"(884, 76)"	"(889, 58)"	1	0	1429919.94	72	36
5	w	28	r	1	5	44	4	"(922, 433)"	"(933, 459)"	1	0	1430384.58	72	36
5	w	28	r	1	5	44	5	"(572, 88)"	"(569, 95)"	1	0	1430903.31	72	36
5	w	28	r	1	5	44	6	"(261, 638)"	"(269, 647)"	1	0	1431466.49	72	36
5	w	28	r	1	5	44	7	"(103, 437)"	"(102, 457)"	1	0	1431951.07	72	36
5	w	28	r	1	5	44	8	"(570, 692)"	"(606, 697)"	1	0	1432607.18	72	36
5	w	28	r	1	5	44	8	"(570, 692)"	"(606, 697)"	1	    4.63	1432607.18	72	36
5	w	28	r	1	5	45	1	"(889, 669)"	"(883, 696)"	1	0	1438010.30	72	36
5	w	28	r	1	5	45	2	"(261, 181)"	"(270, 196)"	1	0	1438506.43	72	36
5	w	28	r	1	5	45	3	"(884, 76)"	"(882, 67)"	1	0	1438985.87	72	36
5	w	28	r	1	5	45	4	"(922, 433)"	"(950, 429)"	1	0	1439472.77	72	36
5	w	28	r	1	5	45	5	"(572, 88)"	"(537, 91)"	1	0	1440018.42	72	36
5	w	28	r	1	5	45	6	"(261, 638)"	"(252, 656)"	1	0	1440657.01	72	36
5	w	28	r	1	5	45	7	"(103, 437)"	"(94, 454)"	1	0	1441128.42	72	36
5	w	28	r	1	5	45	8	"(570, 692)"	"(587, 673)"	1	0	1441640.69	72	36
5	w	28	r	1	5	45	8	"(570, 692)"	"(587, 673)"	1	    4.36	1441640.69	72	36
5	w	28	r	1	5	46	1	"(889, 669)"	"(870, 691)"	1	0	1445585.05	72	36
5	w	28	r	1	5	46	2	"(261, 181)"	"(291, 170)"	1	0	1446051.21	72	36
5	w	28	r	1	5	46	3	"(884, 76)"	"(847, 100)"	1	0	1446615.95	72	36
5	w	28	r	1	5	46	4	"(922, 433)"	"(959, 462)"	1	0	1447239.92	72	36
5	w	28	r	1	5	46	5	"(572, 88)"	"(574, 104)"	1	0	1447807.37	72	36
5	w	28	r	1	5	46	6	"(261, 638)"	"(251, 645)"	1	0	1448628.91	72	36
5	w	28	r	1	5	46	7	"(103, 437)"	"(116, 448)"	1	0	1449203.77	72	36
5	w	28	r	1	5	46	8	"(570, 692)"	"(520, 698)"	1	0	1449738.20	72	36
5	w	28	r	1	5	46	8	"(570, 692)"	"(520, 698)"	1	    5.02	1449738.20	72	36
5	w	28	r	1	5	47	1	"(889, 669)"	"(891, 689)"	1	0	1453625.23	72	36
5	w	28	r	1	5	47	2	"(261, 181)"	"(258, 177)"	1	0	1454491.61	72	36
5	w	28	r	1	5	47	3	"(884, 76)"	"(885, 78)"	1	0	1455059.51	72	36
5	w	28	r	1	5	47	4	"(922, 433)"	"(939, 427)"	1	0	1455529.57	72	36
5	w	28	r	1	5	47	5	"(572, 88)"	"(548, 127)"	1	0	1456075.08	72	36
5	w	28	r	1	5	47	6	"(261, 638)"	"(281, 628)"	1	0	1456739.44	72	36
5	w	28	r	1	5	47	7	"(103, 437)"	"(110, 445)"	1	0	1457545.37	72	36
5	w	28	r	1	5	47	8	"(570, 692)"	"(565, 718)"	1	0	1458290.21	72	36
5	w	28	r	1	5	47	8	"(570, 692)"	"(565, 718)"	1	    5.24	1458290.21	72	36
5	w	28	r	1	5	48	1	"(889, 669)"	"(891, 657)"	1	0	1462755.82	72	36
5	w	28	r	1	5	48	2	"(261, 181)"	"(267, 162)"	1	0	1463424.84	72	36
5	w	28	r	1	5	48	3	"(884, 76)"	"(896, 66)"	1	0	1464069.22	72	36
5	w	28	r	1	5	48	4	"(922, 433)"	"(956, 427)"	1	0	1464532.08	72	36
5	w	28	r	1	5	48	5	"(572, 88)"	"(541, 106)"	1	0	1465116.79	72	36
5	w	28	r	1	5	48	6	"(261, 638)"	"(293, 646)"	1	0	1465733.42	72	36
5	w	28	r	1	5	48	7	"(103, 437)"	"(135, 457)"	1	0	1466276.10	72	36
5	w	28	r	1	5	48	8	"(570, 692)"	"(567, 715)"	1	0	1466830.76	72	36
5	w	28	r	1	5	48	8	"(570, 692)"	"(567, 715)"	1	    4.81	1466830.76	72	36
5	w	28	r	1	5	49	1	"(889, 669)"	"(870, 674)"	1	0	1473290.58	72	36
5	w	28	r	1	5	49	2	"(261, 181)"	"(287, 181)"	1	0	1473883.05	72	36
5	w	28	r	1	5	49	3	"(884, 76)"	"(862, 82)"	1	0	1474341.19	72	36
5	w	28	r	1	5	49	4	"(922, 433)"	"(947, 423)"	1	0	1474803.33	72	36
5	w	28	r	1	5	49	5	"(572, 88)"	"(527, 77)"	1	0	1475345.95	72	36
5	w	28	r	1	5	49	6	"(261, 638)"	"(283, 653)"	1	0	1476215.72	72	36
5	w	28	r	1	5	49	7	"(103, 437)"	"(130, 434)"	1	0	1476717.25	72	36
5	w	28	r	1	5	49	8	"(570, 692)"	"(596, 689)"	1	0	1477486.42	72	36
5	w	28	r	1	5	49	8	"(570, 692)"	"(596, 689)"	1	    4.98	1477486.42	72	36
5	w	28	r	1	5	50	1	"(889, 669)"	"(925, 666)"	1	0	1481843.21	72	36
5	w	28	r	1	5	50	2	"(261, 181)"	"(255, 179)"	1	0	1482445.69	72	36
5	w	28	r	1	5	50	3	"(884, 76)"	"(916, 81)"	1	0	1483158.19	72	36
5	w	28	r	1	5	50	4	"(922, 433)"	"(933, 414)"	1	0	1483688.69	72	36
5	w	28	r	1	5	50	5	"(572, 88)"	"(573, 83)"	1	0	1484252.64	72	36
5	w	28	r	1	5	50	6	"(261, 638)"	"(256, 628)"	1	0	1485003.26	72	36
5	w	28	r	1	5	50	7	"(103, 437)"	"(106, 442)"	1	0	1485466.57	72	36
5	w	28	r	1	5	50	8	"(570, 692)"	"(574, 691)"	1	0	1485958.21	72	36
5	w	28	r	1	5	50	8	"(570, 692)"	"(574, 691)"	1	    4.78	1485958.21	72	36
5	w	28	r	1	6	51	1	"(889, 669)"	"(866, 657)"	1	0	1491764.45	72	36
5	w	28	r	1	6	51	2	"(261, 181)"	"(262, 173)"	1	0	1492485.05	72	36
5	w	28	r	1	6	51	3	"(884, 76)"	"(868, 102)"	1	0	1492949.33	72	36
5	w	28	r	1	6	51	4	"(922, 433)"	"(954, 431)"	1	0	1493418.75	72	36
5	w	28	r	1	6	51	5	"(572, 88)"	"(592, 109)"	1	0	1493893.48	72	36
5	w	28	r	1	6	51	6	"(261, 638)"	"(286, 670)"	1	0	1494629.79	72	36
5	w	28	r	1	6	51	7	"(103, 437)"	"(116, 435)"	1	0	1495181.64	72	36
5	w	28	r	1	6	51	8	"(570, 692)"	"(584, 692)"	1	0	1495734.96	72	36
5	w	28	r	1	6	51	8	"(570, 692)"	"(584, 692)"	1	    4.78	1495734.96	72	36
5	w	28	r	1	6	52	1	"(889, 669)"	"(887, 672)"	1	0	1499389.60	72	36
5	w	28	r	1	6	52	2	"(261, 181)"	"(272, 215)"	1	0	1499916.93	72	36
5	w	28	r	1	6	52	3	"(884, 76)"	"(874, 80)"	1	0	1500497.51	72	36
5	w	28	r	1	6	52	4	"(922, 433)"	"(940, 427)"	1	0	1501012.55	72	36
5	w	28	r	1	6	52	5	"(572, 88)"	"(568, 90)"	1	0	1501941.00	72	36
5	w	28	r	1	6	52	6	"(261, 638)"	"(279, 671)"	1	0	1502654.29	72	36
5	w	28	r	1	6	52	7	"(103, 437)"	"(78, 424)"	1	0	1503406.21	72	36
5	w	28	r	1	6	52	8	"(570, 692)"	"(557, 681)"	1	0	1504060.19	72	36
5	w	28	r	1	6	52	8	"(570, 692)"	"(557, 681)"	1	    5.52	1504060.19	72	36
5	w	28	r	1	6	53	1	"(889, 669)"	"(901, 678)"	1	0	1508102.22	72	36
5	w	28	r	1	6	53	2	"(261, 181)"	"(267, 190)"	1	0	1508771.49	72	36
5	w	28	r	1	6	53	3	"(884, 76)"	"(879, 74)"	1	0	1509540.30	72	36
5	w	28	r	1	6	53	4	"(922, 433)"	"(932, 440)"	1	0	1510036.30	72	36
5	w	28	r	1	6	53	5	"(572, 88)"	"(584, 92)"	1	0	1510780.19	72	36
5	w	28	r	1	6	53	6	"(261, 638)"	"(270, 626)"	1	0	1511661.35	72	36
5	w	28	r	1	6	53	7	"(103, 437)"	"(97, 440)"	1	0	1512347.93	72	36
5	w	28	r	1	6	53	8	"(570, 692)"	"(572, 720)"	1	0	1512929.01	72	36
5	w	28	r	1	6	53	8	"(570, 692)"	"(572, 720)"	1	    5.56	1512929.01	72	36
5	w	28	r	1	6	54	1	"(889, 669)"	"(863, 670)"	2	0	1518181.67	72	36
5	w	28	r	1	6	54	2	"(261, 181)"	"(294, 190)"	1	0	1518983.44	72	36
5	w	28	r	1	6	54	3	"(884, 76)"	"(930, 90)"	1	0	1519675.98	72	36
5	w	28	r	1	6	54	4	"(922, 433)"	"(941, 426)"	1	0	1520316.75	72	36
5	w	28	r	1	6	54	5	"(572, 88)"	"(522, 99)"	1	0	1521077.99	72	36
5	w	28	r	1	6	54	6	"(261, 638)"	"(285, 625)"	1	0	1521749.43	72	36
5	w	28	r	1	6	54	7	"(103, 437)"	"(135, 456)"	2	0	1523039.15	72	36
5	w	28	r	1	6	54	8	"(570, 692)"	"(597, 672)"	1	0	1523844.91	72	36
5	w	28	r	1	6	54	8	"(570, 692)"	"(597, 672)"	1	    7.44	1523844.91	72	36
5	w	28	r	1	6	55	1	"(889, 669)"	"(855, 690)"	1	0	1533590.01	72	36
5	w	28	r	1	6	55	2	"(261, 181)"	"(252, 178)"	1	0	1534215.78	72	36
5	w	28	r	1	6	55	3	"(884, 76)"	"(882, 57)"	1	0	1534733.92	72	36
5	w	28	r	1	6	55	4	"(922, 433)"	"(933, 419)"	1	0	1535312.85	72	36
5	w	28	r	1	6	55	5	"(572, 88)"	"(566, 82)"	1	0	1536047.93	72	36
5	w	28	r	1	6	55	6	"(261, 638)"	"(263, 672)"	1	0	1536599.41	72	36
5	w	28	r	1	6	55	7	"(103, 437)"	"(99, 453)"	1	0	1536968.37	72	36
5	w	28	r	1	6	55	8	"(570, 692)"	"(577, 725)"	1	0	1537495.38	72	36
5	w	28	r	1	6	55	8	"(570, 692)"	"(577, 725)"	1	    4.68	1537495.38	72	36
5	w	28	r	1	6	56	1	"(889, 669)"	"(933, 672)"	1	0	1541858.19	72	36
5	w	28	r	1	6	56	2	"(261, 181)"	"(279, 219)"	1	0	1542417.60	72	36
5	w	28	r	1	6	56	3	"(884, 76)"	"(866, 68)"	1	0	1543013.99	72	36
5	w	28	r	1	6	56	4	"(922, 433)"	"(948, 449)"	1	0	1543934.01	72	36
5	w	28	r	1	6	56	5	"(572, 88)"	"(568, 95)"	1	0	1544520.74	72	36
5	w	28	r	1	6	56	6	"(261, 638)"	"(256, 642)"	1	0	1545065.25	72	36
5	w	28	r	1	6	56	7	"(103, 437)"	"(125, 440)"	1	0	1545616.75	72	36
5	w	28	r	1	6	56	8	"(570, 692)"	"(563, 708)"	1	0	1546030.59	72	36
5	w	28	r	1	6	56	8	"(570, 692)"	"(563, 708)"	1	    5.01	1546030.59	72	36
5	w	28	r	1	6	57	1	"(889, 669)"	"(909, 688)"	1	0	1549464.13	72	36
5	w	28	r	1	6	57	2	"(261, 181)"	"(270, 196)"	1	0	1549999.75	72	36
5	w	28	r	1	6	57	3	"(884, 76)"	"(904, 106)"	1	0	1550766.67	72	36
5	w	28	r	1	6	57	4	"(922, 433)"	"(917, 422)"	1	0	1551334.41	72	36
5	w	28	r	1	6	57	5	"(572, 88)"	"(566, 100)"	1	0	1551855.45	72	36
5	w	28	r	1	6	57	6	"(261, 638)"	"(283, 660)"	1	0	1552398.60	72	36
5	w	28	r	1	6	57	7	"(103, 437)"	"(98, 442)"	1	0	1552918.39	72	36
5	w	28	r	1	6	57	8	"(570, 692)"	"(609, 726)"	1	0	1553473.10	72	36
5	w	28	r	1	6	57	8	"(570, 692)"	"(609, 726)"	1	    4.85	1553473.10	72	36
5	w	28	r	1	6	58	1	"(889, 669)"	"(889, 690)"	2	0	1558887.75	72	36
5	w	28	r	1	6	58	2	"(261, 181)"	"(289, 198)"	1	0	1559631.37	72	36
5	w	28	r	1	6	58	3	"(884, 76)"	"(871, 79)"	1	0	1561039.34	72	36
5	w	28	r	1	6	58	4	"(922, 433)"	"(918, 415)"	1	0	1561585.57	72	36
5	w	28	r	1	6	58	5	"(572, 88)"	"(597, 120)"	1	0	1562065.01	72	36
5	w	28	r	1	6	58	6	"(261, 638)"	"(278, 651)"	1	0	1562913.35	72	36
5	w	28	r	1	6	58	7	"(103, 437)"	"(112, 463)"	1	0	1563418.16	72	36
5	w	28	r	1	6	58	8	"(570, 692)"	"(572, 745)"	1	0	1563990.81	72	36
5	w	28	r	1	6	58	8	"(570, 692)"	"(572, 745)"	1	    6.83	1563990.81	72	36
5	w	28	r	1	6	59	1	"(889, 669)"	"(861, 657)"	1	0	1567769.61	72	36
5	w	28	r	1	6	59	2	"(261, 181)"	"(281, 169)"	1	0	1568417.49	72	36
5	w	28	r	1	6	59	3	"(884, 76)"	"(909, 88)"	1	0	1569056.13	72	36
5	w	28	r	1	6	59	4	"(922, 433)"	"(930, 417)"	1	0	1569585.69	72	36
5	w	28	r	1	6	59	5	"(572, 88)"	"(554, 64)"	1	0	1569984.93	72	36
5	w	28	r	1	6	59	6	"(261, 638)"	"(269, 677)"	2	0	1571121.80	72	36
5	w	28	r	1	6	59	7	"(103, 437)"	"(121, 441)"	1	0	1571714.28	72	36
5	w	28	r	1	6	59	8	"(570, 692)"	"(546, 693)"	1	0	1572208.00	72	36
5	w	28	r	1	6	59	8	"(570, 692)"	"(546, 693)"	1	    4.97	1572208.00	72	36
5	w	28	r	1	6	60	1	"(889, 669)"	"(919, 671)"	2	0	1577529.85	72	36
5	w	28	r	1	6	60	2	"(261, 181)"	"(263, 198)"	1	0	1578180.81	72	36
5	w	28	r	1	6	60	3	"(884, 76)"	"(891, 101)"	1	0	1578945.62	72	36
5	w	28	r	1	6	60	4	"(922, 433)"	"(930, 440)"	1	0	1579448.08	72	36
5	w	28	r	1	6	60	5	"(572, 88)"	"(561, 76)"	1	0	1579962.43	72	36
5	w	28	r	1	6	60	6	"(261, 638)"	"(277, 653)"	1	0	1580594.43	72	36
5	w	28	r	1	6	60	7	"(103, 437)"	"(108, 442)"	1	0	1581115.08	72	36
5	w	28	r	1	6	60	8	"(570, 692)"	"(559, 715)"	1	0	1581648.35	72	36
5	w	28	r	1	6	60	8	"(570, 692)"	"(559, 715)"	1	    5.87	1581648.35	72	36
5	w	28	r	2	7	61	1	"(889, 669)"	"(888, 677)"	1	0	1587431.84	72	36
5	w	28	r	2	7	61	2	"(261, 181)"	"(256, 181)"	1	0	1588146.94	72	36
5	w	28	r	2	7	61	3	"(884, 76)"	"(894, 100)"	1	0	1588585.91	72	36
5	w	28	r	2	7	61	4	"(922, 433)"	"(924, 408)"	1	0	1589129.96	72	36
5	w	28	r	2	7	61	5	"(572, 88)"	"(596, 98)"	1	0	1589546.34	72	36
5	w	28	r	2	7	61	6	"(261, 638)"	"(251, 656)"	1	0	1590243.61	72	36
5	w	28	r	2	7	61	7	"(103, 437)"	"(114, 439)"	1	0	1590753.85	72	36
5	w	28	r	2	7	61	8	"(570, 692)"	"(580, 694)"	1	0	1591313.41	72	36
5	w	28	r	2	7	61	8	"(570, 692)"	"(580, 694)"	1	    4.56	1591313.41	72	36
5	w	28	r	2	7	62	1	"(889, 669)"	"(891, 676)"	1	0	1595217.46	72	36
5	w	28	r	2	7	62	2	"(261, 181)"	"(236, 167)"	1	0	1596051.67	72	36
5	w	28	r	2	7	62	3	"(884, 76)"	"(914, 99)"	1	0	1596828.08	72	36
5	w	28	r	2	7	62	4	"(922, 433)"	"(910, 428)"	1	0	1597433.49	72	36
5	w	28	r	2	7	62	5	"(572, 88)"	"(589, 121)"	1	0	1597985.67	72	36
5	w	28	r	2	7	62	6	"(261, 638)"	"(278, 679)"	1	0	1598528.60	72	36
5	w	28	r	2	7	62	7	"(103, 437)"	"(128, 437)"	1	0	1599027.33	72	36
5	w	28	r	2	7	62	8	"(570, 692)"	"(612, 711)"	1	0	1599634.86	72	36
5	w	28	r	2	7	62	8	"(570, 692)"	"(612, 711)"	1	    5.12	1599634.86	72	36
5	w	28	r	2	7	63	1	"(889, 669)"	"(892, 680)"	2	0	1605067.01	72	36
5	w	28	r	2	7	63	2	"(261, 181)"	"(279, 212)"	1	0	1605722.70	72	36
5	w	28	r	2	7	63	3	"(884, 76)"	"(879, 78)"	1	0	1606620.10	72	36
5	w	28	r	2	7	63	4	"(922, 433)"	"(902, 420)"	1	0	1607060.49	72	36
5	w	28	r	2	7	63	5	"(572, 88)"	"(544, 79)"	1	0	1607665.42	72	36
5	w	28	r	2	7	63	6	"(261, 638)"	"(285, 637)"	1	0	1608474.26	72	36
5	w	28	r	2	7	63	7	"(103, 437)"	"(66, 447)"	1	0	1608946.62	72	36
5	w	28	r	2	7	63	8	"(570, 692)"	"(585, 674)"	1	0	1609608.52	72	36
5	w	28	r	2	7	63	8	"(570, 692)"	"(585, 674)"	1	    5.86	1609608.52	72	36
5	w	28	r	2	7	64	1	"(889, 669)"	"(912, 664)"	1	0	1614012.27	72	36
5	w	28	r	2	7	64	2	"(261, 181)"	"(234, 201)"	1	0	1614693.33	72	36
5	w	28	r	2	7	64	3	"(884, 76)"	"(890, 91)"	1	0	1615386.91	72	36
5	w	28	r	2	7	64	4	"(922, 433)"	"(905, 435)"	1	0	1615818.26	72	36
5	w	28	r	2	7	64	5	"(572, 88)"	"(537, 78)"	1	0	1616313.60	72	36
5	w	28	r	2	7	64	6	"(261, 638)"	"(264, 665)"	1	0	1617052.34	72	36
5	w	28	r	2	7	64	7	"(103, 437)"	"(117, 448)"	1	0	1617569.37	72	36
5	w	28	r	2	7	64	8	"(570, 692)"	"(549, 686)"	1	0	1618156.26	72	36
5	w	28	r	2	7	64	8	"(570, 692)"	"(549, 686)"	1	    4.88	1618156.26	72	36
5	w	28	r	2	7	65	1	"(889, 669)"	"(881, 676)"	1	0	1623732.94	72	36
5	w	28	r	2	7	65	2	"(261, 181)"	"(280, 196)"	1	0	1624322.92	72	36
5	w	28	r	2	7	65	3	"(884, 76)"	"(916, 59)"	1	0	1624880.87	72	36
5	w	28	r	2	7	65	4	"(922, 433)"	"(943, 450)"	1	0	1625435.86	72	36
5	w	28	r	2	7	65	5	"(572, 88)"	"(540, 84)"	1	0	1625874.22	72	36
5	w	28	r	2	7	65	6	"(261, 638)"	"(291, 628)"	1	0	1626493.92	72	36
5	w	28	r	2	7	65	7	"(103, 437)"	"(147, 436)"	1	0	1627074.84	72	36
5	w	28	r	2	7	65	8	"(570, 692)"	"(554, 685)"	1	0	1627876.21	72	36
5	w	28	r	2	7	65	8	"(570, 692)"	"(554, 685)"	1	    4.65	1627876.21	72	36
5	w	28	r	2	7	66	1	"(889, 669)"	"(884, 678)"	1	0	1633547.78	72	36
5	w	28	r	2	7	66	2	"(261, 181)"	"(308, 181)"	1	0	1634220.33	72	36
5	w	28	r	2	7	66	3	"(884, 76)"	"(856, 99)"	1	0	1634836.68	72	36
5	w	28	r	2	7	66	4	"(922, 433)"	"(906, 442)"	1	0	1635411.86	72	36
5	w	28	r	2	7	66	5	"(572, 88)"	"(580, 91)"	1	0	1635925.53	72	36
5	w	28	r	2	7	66	6	"(261, 638)"	"(271, 651)"	1	0	1636588.06	72	36
5	w	28	r	2	7	66	7	"(103, 437)"	"(67, 425)"	1	0	1637204.65	72	36
5	w	28	r	2	7	66	8	"(570, 692)"	"(591, 717)"	1	0	1637886.17	72	36
5	w	28	r	2	7	66	8	"(570, 692)"	"(591, 717)"	1	    5.34	1637886.17	72	36
5	w	28	r	2	7	67	1	"(889, 669)"	"(925, 691)"	1	0	1642502.09	72	36
5	w	28	r	2	7	67	2	"(261, 181)"	"(310, 184)"	1	0	1643101.95	72	36
5	w	28	r	2	7	67	3	"(884, 76)"	"(870, 98)"	1	0	1643590.41	72	36
5	w	28	r	2	7	67	4	"(922, 433)"	"(925, 456)"	1	0	1644020.49	72	36
5	w	28	r	2	7	67	5	"(572, 88)"	"(566, 105)"	1	0	1644541.88	72	36
5	w	28	r	2	7	67	6	"(261, 638)"	"(271, 650)"	1	0	1645173.38	72	36
5	w	28	r	2	7	67	7	"(103, 437)"	"(118, 455)"	1	0	1645765.44	72	36
5	w	28	r	2	7	67	8	"(570, 692)"	"(561, 700)"	1	0	1646316.28	72	36
5	w	28	r	2	7	67	8	"(570, 692)"	"(561, 700)"	1	    4.68	1646316.28	72	36
5	w	28	r	2	7	68	1	"(889, 669)"	"(912, 654)"	1	0	1650698.98	72	36
5	w	28	r	2	7	68	2	"(261, 181)"	"(278, 187)"	1	0	1651157.65	72	36
5	w	28	r	2	7	68	3	"(884, 76)"	"(898, 80)"	1	0	1651692.99	72	36
5	w	28	r	2	7	68	4	"(922, 433)"	"(916, 434)"	1	0	1652183.75	72	36
5	w	28	r	2	7	68	5	"(572, 88)"	"(586, 100)"	1	0	1652740.78	72	36
5	w	28	r	2	7	68	6	"(261, 638)"	"(305, 650)"	1	0	1653319.49	72	36
5	w	28	r	2	7	68	7	"(103, 437)"	"(93, 452)"	1	0	1653670.46	72	36
5	w	28	r	2	7	68	8	"(570, 692)"	"(586, 720)"	1	0	1654132.94	72	36
5	w	28	r	2	7	68	8	"(570, 692)"	"(586, 720)"	1	    4.07	1654132.94	72	36
5	w	28	r	2	7	69	1	"(889, 669)"	"(912, 695)"	1	0	1659487.67	72	36
5	w	28	r	2	7	69	2	"(261, 181)"	"(298, 181)"	1	0	1659988.72	72	36
5	w	28	r	2	7	69	3	"(884, 76)"	"(881, 99)"	1	0	1660659.91	72	36
5	w	28	r	2	7	69	4	"(922, 433)"	"(923, 467)"	1	0	1661215.51	72	36
5	w	28	r	2	7	69	5	"(572, 88)"	"(548, 113)"	1	0	1661734.05	72	36
5	w	28	r	2	7	69	6	"(261, 638)"	"(272, 667)"	1	0	1662198.45	72	36
5	w	28	r	2	7	69	7	"(103, 437)"	"(81, 444)"	2	0	1663013.48	72	36
5	w	28	r	2	7	69	8	"(570, 692)"	"(570, 713)"	1	0	1663596.91	72	36
5	w	28	r	2	7	69	8	"(570, 692)"	"(570, 713)"	1	    5.56	1663596.91	72	36
5	w	28	r	2	7	70	1	"(889, 669)"	"(855, 705)"	1	0	1667981.25	72	36
5	w	28	r	2	7	70	2	"(261, 181)"	"(265, 156)"	1	0	1668389.36	72	36
5	w	28	r	2	7	70	3	"(884, 76)"	"(859, 69)"	1	0	1669557.69	72	36
5	w	28	r	2	7	70	4	"(922, 433)"	"(922, 449)"	1	0	1670102.17	72	36
5	w	28	r	2	7	70	5	"(572, 88)"	"(559, 107)"	1	0	1670855.58	72	36
5	w	28	r	2	7	70	6	"(261, 638)"	"(230, 646)"	1	0	1672079.63	72	36
5	w	28	r	2	7	70	7	"(103, 437)"	"(101, 420)"	1	0	1672528.36	72	36
5	w	28	r	2	7	70	8	"(570, 692)"	"(569, 704)"	1	0	1673160.44	72	36
5	w	28	r	2	7	70	8	"(570, 692)"	"(569, 704)"	1	    5.84	1673160.44	72	36
5	w	28	r	2	8	71	1	"(889, 669)"	"(912, 690)"	1	0	1678045.21	72	36
5	w	28	r	2	8	71	2	"(261, 181)"	"(253, 186)"	1	0	1678762.84	72	36
5	w	28	r	2	8	71	3	"(884, 76)"	"(871, 81)"	1	0	1679503.01	72	36
5	w	28	r	2	8	71	4	"(922, 433)"	"(926, 412)"	1	0	1679914.79	72	36
5	w	28	r	2	8	71	5	"(572, 88)"	"(549, 77)"	1	0	1680420.90	72	36
5	w	28	r	2	8	71	6	"(261, 638)"	"(297, 623)"	2	0	1682117.72	72	36
5	w	28	r	2	8	71	7	"(103, 437)"	"(74, 423)"	1	0	1682671.77	72	36
5	w	28	r	2	8	71	8	"(570, 692)"	"(604, 704)"	3	0	1684086.62	72	36
5	w	28	r	2	8	71	8	"(570, 692)"	"(604, 704)"	3	    6.91	1684086.62	72	36
5	w	28	r	2	8	72	1	"(889, 669)"	"(888, 705)"	1	0	1687670.88	72	36
5	w	28	r	2	8	72	2	"(261, 181)"	"(237, 172)"	1	0	1688214.30	72	36
5	w	28	r	2	8	72	3	"(884, 76)"	"(898, 95)"	1	0	1688751.10	72	36
5	w	28	r	2	8	72	4	"(922, 433)"	"(916, 454)"	1	0	1689294.23	72	36
5	w	28	r	2	8	72	5	"(572, 88)"	"(557, 78)"	1	0	1690056.50	72	36
5	w	28	r	2	8	72	6	"(261, 638)"	"(251, 650)"	1	0	1690672.25	72	36
5	w	28	r	2	8	72	7	"(103, 437)"	"(121, 454)"	1	0	1691173.73	72	36
5	w	28	r	2	8	72	8	"(570, 692)"	"(539, 696)"	1	0	1691673.09	72	36
5	w	28	r	2	8	72	8	"(570, 692)"	"(539, 696)"	1	    4.65	1691673.09	72	36
5	w	28	r	2	8	73	1	"(889, 669)"	"(912, 687)"	1	0	1697205.79	72	36
5	w	28	r	2	8	73	2	"(261, 181)"	"(249, 210)"	1	0	1697758.75	72	36
5	w	28	r	2	8	73	3	"(884, 76)"	"(863, 73)"	1	0	1698416.77	72	36
5	w	28	r	2	8	73	4	"(922, 433)"	"(925, 428)"	1	0	1698986.17	72	36
5	w	28	r	2	8	73	5	"(572, 88)"	"(554, 105)"	1	0	1699562.04	72	36
5	w	28	r	2	8	73	6	"(261, 638)"	"(235, 650)"	1	0	1700207.07	72	36
5	w	28	r	2	8	73	7	"(103, 437)"	"(134, 452)"	1	0	1700607.04	72	36
5	w	28	r	2	8	73	8	"(570, 692)"	"(566, 724)"	1	0	1701264.43	72	36
5	w	28	r	2	8	73	8	"(570, 692)"	"(566, 724)"	1	    4.75	1701264.43	72	36
5	w	28	r	2	8	74	1	"(889, 669)"	"(916, 701)"	1	0	1704787.88	72	36
5	w	28	r	2	8	74	2	"(261, 181)"	"(249, 157)"	1	0	1705649.66	72	36
5	w	28	r	2	8	74	3	"(884, 76)"	"(885, 106)"	1	0	1706217.77	72	36
5	w	28	r	2	8	74	4	"(922, 433)"	"(935, 447)"	1	0	1706744.34	72	36
5	w	28	r	2	8	74	5	"(572, 88)"	"(560, 101)"	1	0	1707632.63	72	36
5	w	28	r	2	8	74	6	"(261, 638)"	"(292, 617)"	1	0	1708126.46	72	36
5	w	28	r	2	8	74	7	"(103, 437)"	"(123, 452)"	1	0	1708767.75	72	36
5	w	28	r	2	8	74	8	"(570, 692)"	"(542, 681)"	1	0	1709521.44	72	36
5	w	28	r	2	8	74	8	"(570, 692)"	"(542, 681)"	1	    5.47	1709521.44	72	36
5	w	28	r	2	8	75	1	"(889, 669)"	"(919, 685)"	1	0	1714338.12	72	36
5	w	28	r	2	8	75	2	"(261, 181)"	"(311, 170)"	1	0	1715975.56	72	36
5	w	28	r	2	8	75	3	"(884, 76)"	"(915, 85)"	1	0	1716967.52	72	36
5	w	28	r	2	8	75	4	"(922, 433)"	"(963, 461)"	1	0	1717521.35	72	36
5	w	28	r	2	8	75	5	"(572, 88)"	"(559, 90)"	1	0	1718154.33	72	36
5	w	28	r	2	8	75	6	"(261, 638)"	"(300, 646)"	1	0	1718831.45	72	36
5	w	28	r	2	8	75	7	"(103, 437)"	"(96, 443)"	1	0	1719403.20	72	36
5	w	28	r	2	8	75	8	"(570, 692)"	"(612, 701)"	2	0	1720447.96	72	36
5	w	28	r	2	8	75	8	"(570, 692)"	"(612, 701)"	2	    7.10	1720447.96	72	36
5	w	28	r	2	8	76	1	"(889, 669)"	"(877, 686)"	1	0	1725386.90	72	36
5	w	28	r	2	8	76	2	"(261, 181)"	"(238, 199)"	1	0	1726089.76	72	36
5	w	28	r	2	8	76	3	"(884, 76)"	"(903, 69)"	1	0	1726687.42	72	36
5	w	28	r	2	8	76	4	"(922, 433)"	"(924, 448)"	1	0	1727161.57	72	36
5	w	28	r	2	8	76	5	"(572, 88)"	"(545, 44)"	1	0	1727699.02	72	36
5	w	28	r	2	8	76	6	"(261, 638)"	"(259, 657)"	2	0	1728760.36	72	36
5	w	28	r	2	8	76	7	"(103, 437)"	"(117, 440)"	1	0	1729424.61	72	36
5	w	28	r	2	8	76	8	"(570, 692)"	"(608, 696)"	1	0	1730002.91	72	36
5	w	28	r	2	8	76	8	"(570, 692)"	"(608, 696)"	1	    5.51	1730002.91	72	36
5	w	28	r	2	8	77	1	"(889, 669)"	"(888, 696)"	1	0	1734602.50	72	36
5	w	28	r	2	8	77	2	"(261, 181)"	"(266, 190)"	1	0	1735171.82	72	36
5	w	28	r	2	8	77	3	"(884, 76)"	"(885, 91)"	1	0	1735744.98	72	36
5	w	28	r	2	8	77	4	"(922, 433)"	"(894, 414)"	1	0	1736146.90	72	36
5	w	28	r	2	8	77	5	"(572, 88)"	"(537, 74)"	1	0	1736730.13	72	36
5	w	28	r	2	8	77	6	"(261, 638)"	"(235, 657)"	1	0	1737554.09	72	36
5	w	28	r	2	8	77	7	"(103, 437)"	"(80, 421)"	1	0	1738336.23	72	36
5	w	28	r	2	8	77	8	"(570, 692)"	"(543, 676)"	1	0	1738970.33	72	36
5	w	28	r	2	8	77	8	"(570, 692)"	"(543, 676)"	1	    5.05	1738970.33	72	36
5	w	28	r	2	8	78	1	"(889, 669)"	"(924, 689)"	1	0	1743795.74	72	36
5	w	28	r	2	8	78	2	"(261, 181)"	"(290, 183)"	1	0	1744363.43	72	36
5	w	28	r	2	8	78	3	"(884, 76)"	"(863, 119)"	1	0	1745001.51	72	36
5	w	28	r	2	8	78	4	"(922, 433)"	"(934, 456)"	1	0	1745587.62	72	36
5	w	28	r	2	8	78	5	"(572, 88)"	"(594, 90)"	1	0	1746052.23	72	36
5	w	28	r	2	8	78	6	"(261, 638)"	"(298, 645)"	1	0	1746670.13	72	36
5	w	28	r	2	8	78	7	"(103, 437)"	"(100, 447)"	1	0	1747179.32	72	36
5	w	28	r	2	8	78	8	"(570, 692)"	"(541, 705)"	1	0	1747947.81	72	36
5	w	28	r	2	8	78	8	"(570, 692)"	"(541, 705)"	1	    4.90	1747947.81	72	36
5	w	28	r	2	8	79	1	"(889, 669)"	"(907, 706)"	1	0	1752529.65	72	36
5	w	28	r	2	8	79	2	"(261, 181)"	"(290, 211)"	1	0	1753089.77	72	36
5	w	28	r	2	8	79	3	"(884, 76)"	"(872, 96)"	1	0	1753753.08	72	36
5	w	28	r	2	8	79	4	"(922, 433)"	"(904, 406)"	1	0	1754139.63	72	36
5	w	28	r	2	8	79	5	"(572, 88)"	"(565, 103)"	1	0	1754643.58	72	36
5	w	28	r	2	8	79	6	"(261, 638)"	"(243, 651)"	1	0	1755553.04	72	36
5	w	28	r	2	8	79	7	"(103, 437)"	"(106, 457)"	1	0	1756074.87	72	36
5	w	28	r	2	8	79	8	"(570, 692)"	"(582, 719)"	1	0	1756619.99	72	36
5	w	28	r	2	8	79	8	"(570, 692)"	"(582, 719)"	1	    4.96	1756619.99	72	36
5	w	28	r	2	8	80	1	"(889, 669)"	"(908, 688)"	1	0	1760837.77	72	36
5	w	28	r	2	8	80	2	"(261, 181)"	"(281, 176)"	2	0	1762380.99	72	36
5	w	28	r	2	8	80	3	"(884, 76)"	"(885, 91)"	1	0	1762838.10	72	36
5	w	28	r	2	8	80	4	"(922, 433)"	"(908, 457)"	1	0	1763288.44	72	36
5	w	28	r	2	8	80	5	"(572, 88)"	"(537, 114)"	1	0	1764235.54	72	36
5	w	28	r	2	8	80	6	"(261, 638)"	"(268, 634)"	1	0	1765044.94	72	36
5	w	28	r	2	8	80	7	"(103, 437)"	"(90, 453)"	1	0	1765461.67	72	36
5	w	28	r	2	8	80	8	"(570, 692)"	"(582, 680)"	1	0	1765940.40	72	36
5	w	28	r	2	8	80	8	"(570, 692)"	"(582, 680)"	1	    5.81	1765940.40	72	36
5	w	28	r	3	9	81	1	"(889, 669)"	"(917, 691)"	1	0	1771907.33	72	36
5	w	28	r	3	9	81	2	"(261, 181)"	"(233, 189)"	1	0	1772456.42	72	36
5	w	28	r	3	9	81	3	"(884, 76)"	"(847, 89)"	1	0	1773094.90	72	36
5	w	28	r	3	9	81	4	"(922, 433)"	"(917, 469)"	1	0	1773851.74	72	36
5	w	28	r	3	9	81	5	"(572, 88)"	"(567, 102)"	1	0	1774313.61	72	36
5	w	28	r	3	9	81	6	"(261, 638)"	"(253, 647)"	1	0	1774869.08	72	36
5	w	28	r	3	9	81	7	"(103, 437)"	"(92, 429)"	1	0	1775373.02	72	36
5	w	28	r	3	9	81	8	"(570, 692)"	"(556, 678)"	1	0	1775973.09	72	36
5	w	28	r	3	9	81	8	"(570, 692)"	"(556, 678)"	1	    4.73	1775973.09	72	36
5	w	28	r	3	9	82	1	"(889, 669)"	"(937, 691)"	1	0	1781834.92	72	36
5	w	28	r	3	9	82	2	"(261, 181)"	"(251, 159)"	1	0	1782283.76	72	36
5	w	28	r	3	9	82	3	"(884, 76)"	"(854, 55)"	1	0	1782909.82	72	36
5	w	28	r	3	9	82	4	"(922, 433)"	"(926, 407)"	1	0	1783500.73	72	36
5	w	28	r	3	9	82	5	"(572, 88)"	"(530, 72)"	1	0	1784264.07	72	36
5	w	28	r	3	9	82	6	"(261, 638)"	"(238, 664)"	1	0	1785174.61	72	36
5	w	28	r	3	9	82	7	"(103, 437)"	"(120, 461)"	1	0	1785563.11	72	36
5	w	28	r	3	9	82	8	"(570, 692)"	"(586, 711)"	1	0	1786125.07	72	36
5	w	28	r	3	9	82	8	"(570, 692)"	"(586, 711)"	1	    5.55	1786125.07	72	36
5	w	28	r	3	9	83	1	"(889, 669)"	"(903, 630)"	2	0	1800181.80	72	36
5	w	28	r	3	9	83	2	"(261, 181)"	"(250, 168)"	1	0	1800724.61	72	36
5	w	28	r	3	9	83	3	"(884, 76)"	"(925, 90)"	1	0	1801317.25	72	36
5	w	28	r	3	9	83	4	"(922, 433)"	"(948, 448)"	1	0	1801765.57	72	36
5	w	28	r	3	9	83	5	"(572, 88)"	"(588, 83)"	1	0	1802268.55	72	36
5	w	28	r	3	9	83	6	"(261, 638)"	"(297, 648)"	1	0	1803085.90	72	36
5	w	28	r	3	9	83	7	"(103, 437)"	"(120, 448)"	1	0	1803548.81	72	36
5	w	28	r	3	9	83	8	"(570, 692)"	"(558, 674)"	1	0	1804037.86	72	36
5	w	28	r	3	9	83	8	"(570, 692)"	"(558, 674)"	1	    5.21	1804037.86	72	36
5	w	28	r	3	9	84	1	"(889, 669)"	"(872, 678)"	1	0	1807133.14	72	36
5	w	28	r	3	9	84	2	"(261, 181)"	"(311, 190)"	1	0	1807632.24	72	36
5	w	28	r	3	9	84	3	"(884, 76)"	"(855, 69)"	1	0	1808119.51	72	36
5	w	28	r	3	9	84	4	"(922, 433)"	"(898, 420)"	1	0	1808588.57	72	36
5	w	28	r	3	9	84	5	"(572, 88)"	"(608, 121)"	1	0	1809173.69	72	36
5	w	28	r	3	9	84	6	"(261, 638)"	"(235, 642)"	2	0	1810334.73	72	36
5	w	28	r	3	9	84	7	"(103, 437)"	"(105, 426)"	1	0	1810710.30	72	36
5	w	28	r	3	9	84	8	"(570, 692)"	"(577, 726)"	1	0	1811254.33	72	36
5	w	28	r	3	9	84	8	"(570, 692)"	"(577, 726)"	1	    4.73	1811254.33	72	36
5	w	28	r	3	9	85	1	"(889, 669)"	"(883, 684)"	1	0	1815423.03	72	36
5	w	28	r	3	9	85	2	"(261, 181)"	"(273, 178)"	1	0	1815888.42	72	36
5	w	28	r	3	9	85	3	"(884, 76)"	"(890, 103)"	1	0	1816309.04	72	36
5	w	28	r	3	9	85	4	"(922, 433)"	"(920, 426)"	1	0	1816693.98	72	36
5	w	28	r	3	9	85	5	"(572, 88)"	"(586, 108)"	1	0	1817092.64	72	36
5	w	28	r	3	9	85	6	"(261, 638)"	"(305, 644)"	1	0	1817653.15	72	36
5	w	28	r	3	9	85	7	"(103, 437)"	"(78, 402)"	1	0	1818054.23	72	36
5	w	28	r	3	9	85	8	"(570, 692)"	"(556, 643)"	1	0	1818523.12	72	36
5	w	28	r	3	9	85	8	"(570, 692)"	"(556, 643)"	1	    3.63	1818523.12	72	36
5	w	28	r	3	9	86	1	"(889, 669)"	"(916, 661)"	1	0	1823702.25	72	36
5	w	28	r	3	9	86	2	"(261, 181)"	"(288, 200)"	2	0	1824607.24	72	36
5	w	28	r	3	9	86	3	"(884, 76)"	"(893, 83)"	1	0	1825149.46	72	36
5	w	28	r	3	9	86	4	"(922, 433)"	"(916, 467)"	1	0	1825560.42	72	36
5	w	28	r	3	9	86	5	"(572, 88)"	"(589, 105)"	1	0	1825999.86	72	36
5	w	28	r	3	9	86	6	"(261, 638)"	"(260, 655)"	1	0	1826536.64	72	36
5	w	28	r	3	9	86	7	"(103, 437)"	"(111, 422)"	1	0	1827038.58	72	36
5	w	28	r	3	9	86	8	"(570, 692)"	"(551, 706)"	2	0	1827726.86	72	36
5	w	28	r	3	9	86	8	"(570, 692)"	"(551, 706)"	2	    4.57	1827726.86	72	36
5	w	28	r	3	9	87	1	"(889, 669)"	"(866, 687)"	1	0	1831542.36	72	36
5	w	28	r	3	9	87	2	"(261, 181)"	"(291, 216)"	1	0	1832175.14	72	36
5	w	28	r	3	9	87	3	"(884, 76)"	"(872, 77)"	1	0	1833025.01	72	36
5	w	28	r	3	9	87	4	"(922, 433)"	"(909, 460)"	1	0	1833504.29	72	36
5	w	28	r	3	9	87	5	"(572, 88)"	"(571, 120)"	1	0	1833968.92	72	36
5	w	28	r	3	9	87	6	"(261, 638)"	"(249, 669)"	1	0	1834399.96	72	36
5	w	28	r	3	9	87	7	"(103, 437)"	"(92, 438)"	1	0	1834902.55	72	36
5	w	28	r	3	9	87	8	"(570, 692)"	"(550, 689)"	1	0	1835461.76	72	36
5	w	28	r	3	9	87	8	"(570, 692)"	"(550, 689)"	1	    4.53	1835461.76	72	36
5	w	28	r	3	9	88	1	"(889, 669)"	"(901, 693)"	1	0	1839849.27	72	36
5	w	28	r	3	9	88	2	"(261, 181)"	"(283, 192)"	2	0	1841191.54	72	36
5	w	28	r	3	9	88	3	"(884, 76)"	"(859, 104)"	1	0	1841686.36	72	36
5	w	28	r	3	9	88	4	"(922, 433)"	"(927, 428)"	1	0	1842158.20	72	36
5	w	28	r	3	9	88	5	"(572, 88)"	"(565, 105)"	1	0	1842634.87	72	36
5	w	28	r	3	9	88	6	"(261, 638)"	"(226, 676)"	1	0	1843232.47	72	36
5	w	28	r	3	9	88	7	"(103, 437)"	"(97, 439)"	1	0	1843593.35	72	36
5	w	28	r	3	9	88	8	"(570, 692)"	"(581, 721)"	1	0	1844086.24	72	36
5	w	28	r	3	9	88	8	"(570, 692)"	"(581, 721)"	1	    4.82	1844086.24	72	36
5	w	28	r	3	9	89	1	"(889, 669)"	"(894, 678)"	1	0	1846702.75	72	36
5	w	28	r	3	9	89	2	"(261, 181)"	"(249, 175)"	1	0	1847137.00	72	36
5	w	28	r	3	9	89	3	"(884, 76)"	"(902, 76)"	1	0	1847526.96	72	36
5	w	28	r	3	9	89	4	"(922, 433)"	"(937, 436)"	1	0	1848007.80	72	36
5	w	28	r	3	9	89	5	"(572, 88)"	"(538, 84)"	1	0	1848511.34	72	36
5	w	28	r	3	9	89	6	"(261, 638)"	"(296, 640)"	1	0	1849297.32	72	36
5	w	28	r	3	9	89	7	"(103, 437)"	"(93, 466)"	1	0	1849641.69	72	36
5	w	28	r	3	9	89	8	"(570, 692)"	"(567, 691)"	1	0	1850150.51	72	36
5	w	28	r	3	9	89	8	"(570, 692)"	"(567, 691)"	1	    4.17	1850150.51	72	36
5	w	28	r	3	9	90	1	"(889, 669)"	"(903, 651)"	1	0	1854737.41	72	36
5	w	28	r	3	9	90	2	"(261, 181)"	"(277, 178)"	1	0	1855241.60	72	36
5	w	28	r	3	9	90	3	"(884, 76)"	"(901, 98)"	1	0	1855618.81	72	36
5	w	28	r	3	9	90	4	"(922, 433)"	"(932, 453)"	1	0	1856095.69	72	36
5	w	28	r	3	9	90	5	"(572, 88)"	"(562, 65)"	1	0	1856457.47	72	36
5	w	28	r	3	9	90	6	"(261, 638)"	"(296, 624)"	1	0	1856979.25	72	36
5	w	28	r	3	9	90	7	"(103, 437)"	"(74, 442)"	1	0	1857369.76	72	36
5	w	28	r	3	9	90	8	"(570, 692)"	"(534, 675)"	1	0	1857740.50	72	36
5	w	28	r	3	9	90	8	"(570, 692)"	"(534, 675)"	1	    3.57	1857740.50	72	36
5	w	28	r	3	10	91	1	"(889, 669)"	"(880, 683)"	1	0	1865759.54	72	36
5	w	28	r	3	10	91	2	"(261, 181)"	"(226, 179)"	1	0	1866286.56	72	36
5	w	28	r	3	10	91	3	"(884, 76)"	"(867, 103)"	1	0	1866743.26	72	36
5	w	28	r	3	10	91	4	"(922, 433)"	"(933, 449)"	1	0	1867144.94	72	36
5	w	28	r	3	10	91	5	"(572, 88)"	"(538, 81)"	1	0	1867609.90	72	36
5	w	28	r	3	10	91	6	"(261, 638)"	"(271, 628)"	1	0	1868215.66	72	36
5	w	28	r	3	10	91	7	"(103, 437)"	"(91, 456)"	1	0	1868703.23	72	36
5	w	28	r	3	10	91	8	"(570, 692)"	"(593, 675)"	1	0	1869204.28	72	36
5	w	28	r	3	10	91	8	"(570, 692)"	"(593, 675)"	1	    4.29	1869204.28	72	36
5	w	28	r	3	10	92	1	"(889, 669)"	"(907, 670)"	2	0	1873426.79	72	36
5	w	28	r	3	10	92	2	"(261, 181)"	"(238, 191)"	1	0	1874258.81	72	36
5	w	28	r	3	10	92	3	"(884, 76)"	"(924, 70)"	1	0	1874809.60	72	36
5	w	28	r	3	10	92	4	"(922, 433)"	"(911, 459)"	1	0	1875264.16	72	36
5	w	28	r	3	10	92	5	"(572, 88)"	"(609, 95)"	1	0	1875787.38	72	36
5	w	28	r	3	10	92	6	"(261, 638)"	"(252, 629)"	2	0	1876977.24	72	36
5	w	28	r	3	10	92	7	"(103, 437)"	"(128, 447)"	1	0	1877519.94	72	36
5	w	28	r	3	10	92	8	"(570, 692)"	"(600, 699)"	1	0	1878259.37	72	36
5	w	28	r	3	10	92	8	"(570, 692)"	"(600, 699)"	1	    6.33	1878259.37	72	36
5	w	28	r	3	10	93	1	"(889, 669)"	"(889, 710)"	1	0	1881825.11	72	36
5	w	28	r	3	10	93	2	"(261, 181)"	"(261, 188)"	1	0	1882427.03	72	36
5	w	28	r	3	10	93	3	"(884, 76)"	"(882, 66)"	1	0	1882961.00	72	36
5	w	28	r	3	10	93	4	"(922, 433)"	"(906, 424)"	1	0	1883355.47	72	36
5	w	28	r	3	10	93	5	"(572, 88)"	"(570, 77)"	1	0	1883906.36	72	36
5	w	28	r	3	10	93	6	"(261, 638)"	"(246, 652)"	1	0	1884553.63	72	36
5	w	28	r	3	10	93	7	"(103, 437)"	"(143, 446)"	1	0	1885072.07	72	36
5	w	28	r	3	10	93	8	"(570, 692)"	"(568, 693)"	1	0	1885554.25	72	36
5	w	28	r	3	10	93	8	"(570, 692)"	"(568, 693)"	1	    4.44	1885554.25	72	36
5	w	28	r	3	10	94	1	"(889, 669)"	"(866, 645)"	1	0	1889458.61	72	36
5	w	28	r	3	10	94	2	"(261, 181)"	"(233, 194)"	1	0	1890105.97	72	36
5	w	28	r	3	10	94	3	"(884, 76)"	"(880, 79)"	1	0	1890548.04	72	36
5	w	28	r	3	10	94	4	"(922, 433)"	"(902, 454)"	1	0	1890976.78	72	36
5	w	28	r	3	10	94	5	"(572, 88)"	"(592, 96)"	1	0	1891499.22	72	36
5	w	28	r	3	10	94	6	"(261, 638)"	"(270, 649)"	1	0	1892147.22	72	36
5	w	28	r	3	10	94	7	"(103, 437)"	"(122, 444)"	1	0	1892546.64	72	36
5	w	28	r	3	10	94	8	"(570, 692)"	"(581, 697)"	1	0	1893044.05	72	36
5	w	28	r	3	10	94	8	"(570, 692)"	"(581, 697)"	1	    4.25	1893044.05	72	36
5	w	28	r	3	10	95	1	"(889, 669)"	"(923, 680)"	1	0	1897161.14	72	36
5	w	28	r	3	10	95	2	"(261, 181)"	"(284, 179)"	1	0	1897754.85	72	36
5	w	28	r	3	10	95	3	"(884, 76)"	"(889, 85)"	1	0	1898420.00	72	36
5	w	28	r	3	10	95	4	"(922, 433)"	"(921, 403)"	1	0	1898809.19	72	36
5	w	28	r	3	10	95	5	"(572, 88)"	"(562, 116)"	1	0	1899345.98	72	36
5	w	28	r	3	10	95	6	"(261, 638)"	"(238, 650)"	1	0	1899930.32	72	36
5	w	28	r	3	10	95	7	"(103, 437)"	"(87, 425)"	1	0	1900505.19	72	36
5	w	28	r	3	10	95	8	"(570, 692)"	"(601, 685)"	1	0	1901258.51	72	36
5	w	28	r	3	10	95	8	"(570, 692)"	"(601, 685)"	1	    4.71	1901258.51	72	36
5	w	28	r	3	10	96	1	"(889, 669)"	"(866, 666)"	1	0	1904857.55	72	36
5	w	28	r	3	10	96	2	"(261, 181)"	"(261, 188)"	1	0	1905362.15	72	36
5	w	28	r	3	10	96	3	"(884, 76)"	"(923, 59)"	1	0	1905882.98	72	36
5	w	28	r	3	10	96	4	"(922, 433)"	"(944, 441)"	1	0	1906321.66	72	36
5	w	28	r	3	10	96	5	"(572, 88)"	"(592, 85)"	1	0	1906842.01	72	36
5	w	28	r	3	10	96	6	"(261, 638)"	"(271, 659)"	1	0	1907452.77	72	36
5	w	28	r	3	10	96	7	"(103, 437)"	"(105, 454)"	1	0	1908107.04	72	36
5	w	28	r	3	10	96	8	"(570, 692)"	"(586, 678)"	1	0	1908691.15	72	36
5	w	28	r	3	10	96	8	"(570, 692)"	"(586, 678)"	1	    4.44	1908691.15	72	36
5	w	28	r	3	10	97	1	"(889, 669)"	"(903, 687)"	1	0	1912116.47	72	36
5	w	28	r	3	10	97	2	"(261, 181)"	"(251, 199)"	1	0	1912801.97	72	36
5	w	28	r	3	10	97	3	"(884, 76)"	"(890, 71)"	1	0	1913219.44	72	36
5	w	28	r	3	10	97	4	"(922, 433)"	"(913, 444)"	1	0	1913726.37	72	36
5	w	28	r	3	10	97	5	"(572, 88)"	"(566, 77)"	1	0	1914171.47	72	36
5	w	28	r	3	10	97	6	"(261, 638)"	"(240, 654)"	1	0	1914636.52	72	36
5	w	28	r	3	10	97	7	"(103, 437)"	"(101, 442)"	1	0	1915201.49	72	36
5	w	28	r	3	10	97	8	"(570, 692)"	"(563, 688)"	1	0	1915740.36	72	36
5	w	28	r	3	10	97	8	"(570, 692)"	"(563, 688)"	1	    4.19	1915740.36	72	36
5	w	28	r	3	10	98	1	"(889, 669)"	"(902, 682)"	1	0	1919146.75	72	36
5	w	28	r	3	10	98	2	"(261, 181)"	"(252, 167)"	1	0	1919630.32	72	36
5	w	28	r	3	10	98	3	"(884, 76)"	"(908, 85)"	1	0	1920067.46	72	36
5	w	28	r	3	10	98	4	"(922, 433)"	"(915, 463)"	1	0	1920461.48	72	36
5	w	28	r	3	10	98	5	"(572, 88)"	"(560, 89)"	1	0	1921203.26	72	36
5	w	28	r	3	10	98	6	"(261, 638)"	"(286, 658)"	1	0	1921811.41	72	36
5	w	28	r	3	10	98	7	"(103, 437)"	"(122, 461)"	1	0	1922348.48	72	36
5	w	28	r	3	10	98	8	"(570, 692)"	"(534, 712)"	1	0	1922853.90	72	36
5	w	28	r	3	10	98	8	"(570, 692)"	"(534, 712)"	1	    4.48	1922853.90	72	36
5	w	28	r	3	10	99	1	"(889, 669)"	"(914, 674)"	1	0	1925603.42	72	36
5	w	28	r	3	10	99	2	"(261, 181)"	"(281, 208)"	1	0	1926066.90	72	36
5	w	28	r	3	10	99	3	"(884, 76)"	"(899, 110)"	1	0	1927213.16	72	36
5	w	28	r	3	10	99	4	"(922, 433)"	"(911, 459)"	1	0	1927760.10	72	36
5	w	28	r	3	10	99	5	"(572, 88)"	"(559, 91)"	1	0	1928245.59	72	36
5	w	28	r	3	10	99	6	"(261, 638)"	"(267, 636)"	1	0	1928715.71	72	36
5	w	28	r	3	10	99	7	"(103, 437)"	"(118, 442)"	1	0	1929053.19	72	36
5	w	28	r	3	10	99	8	"(570, 692)"	"(597, 691)"	1	0	1929426.78	72	36
5	w	28	r	3	10	99	8	"(570, 692)"	"(597, 691)"	1	    4.37	1929426.78	72	36
5	w	28	r	3	10	100	1	"(889, 669)"	"(909, 653)"	1	0	1933403.98	72	36
5	w	28	r	3	10	100	2	"(261, 181)"	"(291, 169)"	1	0	1933963.72	72	36
5	w	28	r	3	10	100	3	"(884, 76)"	"(909, 100)"	1	0	1934462.28	72	36
5	w	28	r	3	10	100	4	"(922, 433)"	"(918, 437)"	1	0	1934827.35	72	36
5	w	28	r	3	10	100	5	"(572, 88)"	"(582, 117)"	1	0	1935516.22	72	36
5	w	28	r	3	10	100	6	"(261, 638)"	"(307, 663)"	1	0	1936469.50	72	36
5	w	28	r	3	10	100	7	"(103, 437)"	"(123, 449)"	1	0	1937222.59	72	36
5	w	28	r	3	10	100	8	"(570, 692)"	"(569, 693)"	1	0	1937901.51	72	36
5	w	28	r	3	10	100	8	"(570, 692)"	"(569, 693)"	1	    5.32	1937901.51	72	36
