VPnr	VPgender	VPage	VPeyeDominance	Condition	Block	Trial	Number	LocNumberCurrent	LocClickCorrect	NrClicksPerCircle	TimeTrial	TimeClickCorrect	SizeCircles	ClickTolerance
19	w	24	r	1	1	0	1	"(889, 669)"	"(908, 667)"	1	0	8432270.77	72	36
19	w	24	r	1	1	0	2	"(261, 181)"	"(266, 191)"	1	0	8433927.03	72	36
19	w	24	r	1	1	0	3	"(884, 76)"	"(910, 78)"	1	0	8434799.04	72	36
19	w	24	r	1	1	0	4	"(922, 433)"	"(921, 443)"	1	0	8435534.68	72	36
19	w	24	r	1	1	0	5	"(572, 88)"	"(557, 90)"	1	0	8436359.63	72	36
19	w	24	r	1	1	0	6	"(261, 638)"	"(289, 646)"	1	0	8437200.50	72	36
19	w	24	r	1	1	0	7	"(103, 437)"	"(95, 422)"	1	0	8438002.24	72	36
19	w	24	r	1	1	0	8	"(570, 692)"	"(565, 690)"	1	0	8438882.14	72	36
19	w	24	r	1	1	0	8	"(570, 692)"	"(565, 690)"	1	   13.81	8438882.14	72	36
19	w	24	r	1	1	1	1	"(889, 669)"	"(897, 683)"	1	0	8580265.88	72	36
19	w	24	r	1	1	1	2	"(261, 181)"	"(276, 179)"	1	0	8581798.89	72	36
19	w	24	r	1	1	1	3	"(884, 76)"	"(897, 87)"	1	0	8582398.42	72	36
19	w	24	r	1	1	1	4	"(922, 433)"	"(937, 484)"	1	0	8582918.59	72	36
19	w	24	r	1	1	1	5	"(572, 88)"	"(587, 92)"	1	0	8583607.89	72	36
19	w	24	r	1	1	1	6	"(261, 638)"	"(269, 644)"	1	0	8584182.77	72	36
19	w	24	r	1	1	1	7	"(103, 437)"	"(89, 454)"	1	0	8584680.73	72	36
19	w	24	r	1	1	1	8	"(570, 692)"	"(580, 702)"	1	0	8585272.22	72	36
19	w	24	r	1	1	1	8	"(570, 692)"	"(580, 702)"	1	    7.29	8585272.22	72	36
19	w	24	r	1	1	2	1	"(889, 669)"	"(870, 677)"	1	0	8707213.76	72	36
19	w	24	r	1	1	2	2	"(261, 181)"	"(276, 201)"	1	0	8708029.96	72	36
19	w	24	r	1	1	2	3	"(884, 76)"	"(898, 73)"	1	0	8708761.12	72	36
19	w	24	r	1	1	2	4	"(922, 433)"	"(928, 452)"	1	0	8709294.20	72	36
19	w	24	r	1	1	2	5	"(572, 88)"	"(550, 88)"	1	0	8709903.85	72	36
19	w	24	r	1	1	2	6	"(261, 638)"	"(263, 665)"	1	0	8710848.41	72	36
19	w	24	r	1	1	2	7	"(103, 437)"	"(78, 439)"	1	0	8711313.07	72	36
19	w	24	r	1	1	2	8	"(570, 692)"	"(551, 678)"	1	0	8711853.97	72	36
19	w	24	r	1	1	2	8	"(570, 692)"	"(551, 678)"	1	    6.63	8711853.97	72	36
19	w	24	r	1	1	3	1	"(889, 669)"	"(903, 692)"	1	0	8720488.06	72	36
19	w	24	r	1	1	3	2	"(261, 181)"	"(279, 203)"	1	0	8721224.81	72	36
19	w	24	r	1	1	3	3	"(884, 76)"	"(872, 70)"	1	0	8721982.94	72	36
19	w	24	r	1	1	3	4	"(922, 433)"	"(943, 421)"	1	0	8722446.85	72	36
19	w	24	r	1	1	3	5	"(572, 88)"	"(580, 110)"	1	0	8722846.37	72	36
19	w	24	r	1	1	3	6	"(261, 638)"	"(299, 669)"	1	0	8723608.42	72	36
19	w	24	r	1	1	3	7	"(103, 437)"	"(105, 454)"	1	0	8724073.03	72	36
19	w	24	r	1	1	3	8	"(570, 692)"	"(592, 715)"	1	0	8724649.89	72	36
19	w	24	r	1	1	3	8	"(570, 692)"	"(592, 715)"	1	    6.19	8724649.89	72	36
19	w	24	r	1	1	4	1	"(889, 669)"	"(907, 672)"	1	0	8732378.00	72	36
19	w	24	r	1	1	4	2	"(261, 181)"	"(262, 174)"	1	0	8733206.69	72	36
19	w	24	r	1	1	4	3	"(884, 76)"	"(844, 98)"	1	0	8733848.07	72	36
19	w	24	r	1	1	4	4	"(922, 433)"	"(940, 443)"	1	0	8734311.23	72	36
19	w	24	r	1	1	4	5	"(572, 88)"	"(565, 95)"	1	0	8735495.32	72	36
19	w	24	r	1	1	4	6	"(261, 638)"	"(276, 653)"	1	0	8736255.52	72	36
19	w	24	r	1	1	4	7	"(103, 437)"	"(128, 447)"	1	0	8736759.37	72	36
19	w	24	r	1	1	4	8	"(570, 692)"	"(564, 712)"	1	0	8737304.46	72	36
19	w	24	r	1	1	4	8	"(570, 692)"	"(564, 712)"	1	    6.56	8737304.46	72	36
19	w	24	r	1	1	5	1	"(889, 669)"	"(891, 669)"	1	0	8744476.28	72	36
19	w	24	r	1	1	5	2	"(261, 181)"	"(308, 163)"	1	0	8745215.36	72	36
19	w	24	r	1	1	5	3	"(884, 76)"	"(909, 83)"	1	0	8745791.40	72	36
19	w	24	r	1	1	5	4	"(922, 433)"	"(945, 421)"	1	0	8746319.36	72	36
19	w	24	r	1	1	5	5	"(572, 88)"	"(558, 102)"	1	0	8746831.60	72	36
19	w	24	r	1	1	5	6	"(261, 638)"	"(240, 668)"	1	0	8747767.08	72	36
19	w	24	r	1	1	5	7	"(103, 437)"	"(128, 437)"	1	0	8748346.16	72	36
19	w	24	r	1	1	5	8	"(570, 692)"	"(581, 718)"	1	0	8749025.54	72	36
19	w	24	r	1	1	5	8	"(570, 692)"	"(581, 718)"	1	    6.00	8749025.54	72	36
19	w	24	r	1	1	6	1	"(889, 669)"	"(928, 668)"	1	0	8757075.43	72	36
19	w	24	r	1	1	6	2	"(261, 181)"	"(251, 177)"	1	0	8757617.82	72	36
19	w	24	r	1	1	6	3	"(884, 76)"	"(860, 83)"	1	0	8758137.74	72	36
19	w	24	r	1	1	6	4	"(922, 433)"	"(927, 438)"	1	0	8758674.59	72	36
19	w	24	r	1	1	6	5	"(572, 88)"	"(599, 83)"	1	0	8759145.39	72	36
19	w	24	r	1	1	6	6	"(261, 638)"	"(263, 620)"	1	0	8759728.21	72	36
19	w	24	r	1	1	6	7	"(103, 437)"	"(140, 439)"	1	0	8760184.93	72	36
19	w	24	r	1	1	6	8	"(570, 692)"	"(597, 703)"	1	0	8760903.90	72	36
19	w	24	r	1	1	6	8	"(570, 692)"	"(597, 703)"	1	    5.00	8760903.90	72	36
19	w	24	r	1	1	7	1	"(889, 669)"	"(886, 654)"	1	0	8765843.01	72	36
19	w	24	r	1	1	7	2	"(261, 181)"	"(281, 191)"	1	0	8766523.53	72	36
19	w	24	r	1	1	7	3	"(884, 76)"	"(875, 103)"	1	0	8767241.47	72	36
19	w	24	r	1	1	7	4	"(922, 433)"	"(914, 423)"	1	0	8767739.87	72	36
19	w	24	r	1	1	7	5	"(572, 88)"	"(593, 94)"	1	0	8768274.84	72	36
19	w	24	r	1	1	7	6	"(261, 638)"	"(278, 651)"	1	0	8768849.78	72	36
19	w	24	r	1	1	7	7	"(103, 437)"	"(112, 439)"	1	0	8769281.40	72	36
19	w	24	r	1	1	7	8	"(570, 692)"	"(524, 673)"	1	0	8769802.61	72	36
19	w	24	r	1	1	7	8	"(570, 692)"	"(524, 673)"	1	    4.88	8769802.61	72	36
19	w	24	r	1	1	8	1	"(889, 669)"	"(931, 667)"	1	0	8775657.19	72	36
19	w	24	r	1	1	8	2	"(261, 181)"	"(274, 182)"	1	0	8776202.21	72	36
19	w	24	r	1	1	8	3	"(884, 76)"	"(882, 83)"	1	0	8776872.67	72	36
19	w	24	r	1	1	8	4	"(922, 433)"	"(913, 420)"	1	0	8777371.64	72	36
19	w	24	r	1	1	8	5	"(572, 88)"	"(576, 71)"	1	0	8777898.55	72	36
19	w	24	r	1	1	8	6	"(261, 638)"	"(272, 645)"	1	0	8778636.46	72	36
19	w	24	r	1	1	8	7	"(103, 437)"	"(74, 438)"	1	0	8779170.42	72	36
19	w	24	r	1	1	8	8	"(570, 692)"	"(556, 686)"	1	0	8779922.95	72	36
19	w	24	r	1	1	8	8	"(570, 692)"	"(556, 686)"	1	    5.36	8779922.95	72	36
19	w	24	r	1	1	9	1	"(889, 669)"	"(900, 659)"	1	0	8786625.95	72	36
19	w	24	r	1	1	9	2	"(261, 181)"	"(275, 189)"	1	0	8787202.75	72	36
19	w	24	r	1	1	9	3	"(884, 76)"	"(896, 78)"	1	0	8787675.67	72	36
19	w	24	r	1	1	9	4	"(922, 433)"	"(934, 454)"	1	0	8788140.92	72	36
19	w	24	r	1	1	9	5	"(572, 88)"	"(547, 91)"	1	0	8788636.99	72	36
19	w	24	r	1	1	9	6	"(261, 638)"	"(269, 634)"	1	0	8789267.48	72	36
19	w	24	r	1	1	9	7	"(103, 437)"	"(132, 449)"	1	0	8789723.79	72	36
19	w	24	r	1	1	9	8	"(570, 692)"	"(560, 705)"	1	0	8790220.34	72	36
19	w	24	r	1	1	9	8	"(570, 692)"	"(560, 705)"	1	    4.36	8790220.34	72	36
19	w	24	r	1	1	10	1	"(889, 669)"	"(899, 676)"	1	0	8796389.35	72	36
19	w	24	r	1	1	10	2	"(261, 181)"	"(272, 182)"	1	0	8796956.30	72	36
19	w	24	r	1	1	10	3	"(884, 76)"	"(871, 78)"	13	0	8833228.85	72	36
19	w	24	r	1	1	10	4	"(922, 433)"	"(943, 428)"	1	0	8833807.58	72	36
19	w	24	r	1	1	10	5	"(572, 88)"	"(582, 75)"	1	0	8834317.71	72	36
19	w	24	r	1	1	10	6	"(261, 638)"	"(252, 637)"	1	0	8834917.96	72	36
19	w	24	r	1	1	10	7	"(103, 437)"	"(113, 442)"	1	0	8835396.87	72	36
19	w	24	r	1	1	10	8	"(570, 692)"	"(539, 684)"	1	0	8836113.26	72	36
19	w	24	r	1	1	10	8	"(570, 692)"	"(539, 684)"	1	   40.58	8836113.26	72	36
19	w	24	r	1	2	11	1	"(889, 669)"	"(915, 682)"	1	0	8856984.92	72	36
19	w	24	r	1	2	11	2	"(261, 181)"	"(275, 221)"	1	0	8857622.22	72	36
19	w	24	r	1	2	11	3	"(884, 76)"	"(869, 87)"	1	0	8858295.32	72	36
19	w	24	r	1	2	11	4	"(922, 433)"	"(918, 427)"	1	0	8858784.10	72	36
19	w	24	r	1	2	11	5	"(572, 88)"	"(583, 69)"	1	0	8859343.27	72	36
19	w	24	r	1	2	11	6	"(261, 638)"	"(275, 640)"	1	0	8860088.72	72	36
19	w	24	r	1	2	11	7	"(103, 437)"	"(77, 438)"	1	0	8860537.27	72	36
19	w	24	r	1	2	11	8	"(570, 692)"	"(576, 691)"	1	0	8861110.71	72	36
19	w	24	r	1	2	11	8	"(570, 692)"	"(576, 691)"	1	    5.29	8861110.71	72	36
19	w	24	r	1	2	12	1	"(889, 669)"	"(884, 673)"	1	0	8864332.04	72	36
19	w	24	r	1	2	12	2	"(261, 181)"	"(256, 201)"	1	0	8864742.75	72	36
19	w	24	r	1	2	12	3	"(884, 76)"	"(849, 87)"	1	0	8865303.37	72	36
19	w	24	r	1	2	12	4	"(922, 433)"	"(924, 435)"	2	0	8866909.96	72	36
19	w	24	r	1	2	12	5	"(572, 88)"	"(557, 79)"	1	0	8867777.98	72	36
19	w	24	r	1	2	12	6	"(261, 638)"	"(274, 651)"	1	0	8868601.56	72	36
19	w	24	r	1	2	12	7	"(103, 437)"	"(113, 443)"	1	0	8869024.46	72	36
19	w	24	r	1	2	12	8	"(570, 692)"	"(555, 687)"	1	0	8869653.52	72	36
19	w	24	r	1	2	12	8	"(570, 692)"	"(555, 687)"	1	    6.15	8869653.52	72	36
19	w	24	r	1	2	13	1	"(889, 669)"	"(907, 661)"	1	0	8873487.12	72	36
19	w	24	r	1	2	13	2	"(261, 181)"	"(279, 172)"	1	0	8874174.82	72	36
19	w	24	r	1	2	13	3	"(884, 76)"	"(873, 84)"	1	0	8874767.78	72	36
19	w	24	r	1	2	13	4	"(922, 433)"	"(928, 429)"	1	0	8875266.13	72	36
19	w	24	r	1	2	13	5	"(572, 88)"	"(601, 88)"	1	0	8875888.33	72	36
19	w	24	r	1	2	13	6	"(261, 638)"	"(285, 651)"	1	0	8876678.89	72	36
19	w	24	r	1	2	13	7	"(103, 437)"	"(84, 442)"	1	0	8877136.22	72	36
19	w	24	r	1	2	13	8	"(570, 692)"	"(559, 690)"	1	0	8877553.32	72	36
19	w	24	r	1	2	13	8	"(570, 692)"	"(559, 690)"	1	    4.92	8877553.32	72	36
19	w	24	r	1	2	14	1	"(889, 669)"	"(887, 674)"	1	0	8882724.10	72	36
19	w	24	r	1	2	14	2	"(261, 181)"	"(286, 162)"	1	0	8883522.07	72	36
19	w	24	r	1	2	14	3	"(884, 76)"	"(894, 78)"	1	0	8884087.48	72	36
19	w	24	r	1	2	14	4	"(922, 433)"	"(921, 415)"	1	0	8884527.39	72	36
19	w	24	r	1	2	14	5	"(572, 88)"	"(610, 101)"	1	0	8885071.62	72	36
19	w	24	r	1	2	14	6	"(261, 638)"	"(264, 658)"	1	0	8885864.52	72	36
19	w	24	r	1	2	14	7	"(103, 437)"	"(129, 447)"	1	0	8886343.53	72	36
19	w	24	r	1	2	14	8	"(570, 692)"	"(589, 697)"	1	0	8886903.82	72	36
19	w	24	r	1	2	14	8	"(570, 692)"	"(589, 697)"	1	    5.07	8886903.82	72	36
19	w	24	r	1	2	15	1	"(889, 669)"	"(893, 671)"	1	0	8891511.72	72	36
19	w	24	r	1	2	15	2	"(261, 181)"	"(280, 169)"	1	0	8892154.34	72	36
19	w	24	r	1	2	15	3	"(884, 76)"	"(899, 71)"	1	0	8892922.64	72	36
19	w	24	r	1	2	15	4	"(922, 433)"	"(914, 431)"	1	0	8893399.57	72	36
19	w	24	r	1	2	15	5	"(572, 88)"	"(570, 79)"	1	0	8893840.14	72	36
19	w	24	r	1	2	15	6	"(261, 638)"	"(256, 643)"	1	0	8894531.11	72	36
19	w	24	r	1	2	15	7	"(103, 437)"	"(109, 420)"	1	0	8895137.47	72	36
19	w	24	r	1	2	15	8	"(570, 692)"	"(572, 705)"	1	0	8895666.78	72	36
19	w	24	r	1	2	15	8	"(570, 692)"	"(572, 705)"	1	    4.84	8895666.78	72	36
19	w	24	r	1	2	16	1	"(889, 669)"	"(897, 675)"	1	0	8899481.96	72	36
19	w	24	r	1	2	16	2	"(261, 181)"	"(283, 169)"	1	0	8900281.61	72	36
19	w	24	r	1	2	16	3	"(884, 76)"	"(890, 83)"	1	0	8900914.71	72	36
19	w	24	r	1	2	16	4	"(922, 433)"	"(914, 428)"	1	0	8901433.49	72	36
19	w	24	r	1	2	16	5	"(572, 88)"	"(601, 97)"	1	0	8902160.80	72	36
19	w	24	r	1	2	16	6	"(261, 638)"	"(284, 644)"	1	0	8902659.17	72	36
19	w	24	r	1	2	16	7	"(103, 437)"	"(102, 450)"	1	0	8903057.50	72	36
19	w	24	r	1	2	16	8	"(570, 692)"	"(603, 698)"	1	0	8903712.71	72	36
19	w	24	r	1	2	16	8	"(570, 692)"	"(603, 698)"	1	    5.07	8903712.71	72	36
19	w	24	r	1	2	17	1	"(889, 669)"	"(902, 677)"	1	0	8909426.03	72	36
19	w	24	r	1	2	17	2	"(261, 181)"	"(304, 185)"	1	0	8910035.43	72	36
19	w	24	r	1	2	17	3	"(884, 76)"	"(908, 77)"	1	0	8910587.18	72	36
19	w	24	r	1	2	17	4	"(922, 433)"	"(924, 421)"	1	0	8911123.15	72	36
19	w	24	r	1	2	17	5	"(572, 88)"	"(561, 88)"	1	0	8911586.12	72	36
19	w	24	r	1	2	17	6	"(261, 638)"	"(275, 646)"	1	0	8912276.63	72	36
19	w	24	r	1	2	17	7	"(103, 437)"	"(126, 444)"	1	0	8912642.10	72	36
19	w	24	r	1	2	17	8	"(570, 692)"	"(565, 683)"	1	0	8913210.25	72	36
19	w	24	r	1	2	17	8	"(570, 692)"	"(565, 683)"	1	    4.40	8913210.25	72	36
19	w	24	r	1	2	18	1	"(889, 669)"	"(908, 687)"	1	0	8921881.52	72	36
19	w	24	r	1	2	18	2	"(261, 181)"	"(286, 182)"	1	0	8922388.65	72	36
19	w	24	r	1	2	18	3	"(884, 76)"	"(899, 70)"	1	0	8922860.15	72	36
19	w	24	r	1	2	18	4	"(922, 433)"	"(913, 422)"	1	0	8923297.34	72	36
19	w	24	r	1	2	18	5	"(572, 88)"	"(599, 101)"	1	0	8923761.62	72	36
19	w	24	r	1	2	18	6	"(261, 638)"	"(252, 632)"	1	0	8924921.33	72	36
19	w	24	r	1	2	18	7	"(103, 437)"	"(120, 432)"	1	0	8925353.13	72	36
19	w	24	r	1	2	18	8	"(570, 692)"	"(596, 713)"	1	0	8925946.90	72	36
19	w	24	r	1	2	18	8	"(570, 692)"	"(596, 713)"	1	    4.85	8925946.90	72	36
19	w	24	r	1	2	19	1	"(889, 669)"	"(922, 698)"	1	0	8929451.97	72	36
19	w	24	r	1	2	19	2	"(261, 181)"	"(280, 175)"	1	0	8930363.39	72	36
19	w	24	r	1	2	19	3	"(884, 76)"	"(884, 79)"	1	0	8931266.36	72	36
19	w	24	r	1	2	19	4	"(922, 433)"	"(942, 455)"	1	0	8931667.36	72	36
19	w	24	r	1	2	19	5	"(572, 88)"	"(562, 90)"	1	0	8932029.32	72	36
19	w	24	r	1	2	19	6	"(261, 638)"	"(247, 640)"	1	0	8932706.92	72	36
19	w	24	r	1	2	19	7	"(103, 437)"	"(94, 439)"	1	0	8933324.02	72	36
19	w	24	r	1	2	19	8	"(570, 692)"	"(537, 684)"	1	0	8933945.72	72	36
19	w	24	r	1	2	19	8	"(570, 692)"	"(537, 684)"	1	    5.25	8933945.72	72	36
19	w	24	r	1	2	20	1	"(889, 669)"	"(911, 664)"	1	0	8938274.37	72	36
19	w	24	r	1	2	20	2	"(261, 181)"	"(251, 185)"	1	0	8938954.09	72	36
19	w	24	r	1	2	20	3	"(884, 76)"	"(873, 98)"	1	0	8939426.45	72	36
19	w	24	r	1	2	20	4	"(922, 433)"	"(937, 454)"	1	0	8939875.20	72	36
19	w	24	r	1	2	20	5	"(572, 88)"	"(565, 75)"	1	0	8940466.65	72	36
19	w	24	r	1	2	20	6	"(261, 638)"	"(257, 651)"	1	0	8941139.17	72	36
19	w	24	r	1	2	20	7	"(103, 437)"	"(62, 410)"	1	0	8941499.12	72	36
19	w	24	r	1	2	20	8	"(570, 692)"	"(587, 705)"	2	0	8942372.43	72	36
19	w	24	r	1	2	20	8	"(570, 692)"	"(587, 705)"	2	    4.87	8942372.43	72	36
19	w	24	r	1	3	21	1	"(889, 669)"	"(912, 673)"	1	0	8948363.69	72	36
19	w	24	r	1	3	21	2	"(261, 181)"	"(303, 192)"	1	0	8948955.00	72	36
19	w	24	r	1	3	21	3	"(884, 76)"	"(864, 78)"	1	0	8949859.44	72	36
19	w	24	r	1	3	21	4	"(922, 433)"	"(934, 426)"	1	0	8950359.59	72	36
19	w	24	r	1	3	21	5	"(572, 88)"	"(577, 97)"	1	0	8950789.91	72	36
19	w	24	r	1	3	21	6	"(261, 638)"	"(281, 645)"	1	0	8951442.67	72	36
19	w	24	r	1	3	21	7	"(103, 437)"	"(116, 444)"	1	0	8951931.45	72	36
19	w	24	r	1	3	21	8	"(570, 692)"	"(582, 705)"	1	0	8952492.18	72	36
19	w	24	r	1	3	21	8	"(570, 692)"	"(582, 705)"	1	    5.02	8952492.18	72	36
19	w	24	r	1	3	22	1	"(889, 669)"	"(882, 654)"	1	0	8955541.29	72	36
19	w	24	r	1	3	22	2	"(261, 181)"	"(268, 186)"	1	0	8956181.26	72	36
19	w	24	r	1	3	22	3	"(884, 76)"	"(897, 90)"	1	0	8956782.90	72	36
19	w	24	r	1	3	22	4	"(922, 433)"	"(931, 447)"	1	0	8957307.70	72	36
19	w	24	r	1	3	22	5	"(572, 88)"	"(561, 87)"	1	0	8957789.79	72	36
19	w	24	r	1	3	22	6	"(261, 638)"	"(232, 638)"	1	0	8958388.86	72	36
19	w	24	r	1	3	22	7	"(103, 437)"	"(117, 422)"	1	0	8958894.26	72	36
19	w	24	r	1	3	22	8	"(570, 692)"	"(552, 681)"	1	0	8959453.38	72	36
19	w	24	r	1	3	22	8	"(570, 692)"	"(552, 681)"	1	    4.59	8959453.38	72	36
19	w	24	r	1	3	23	1	"(889, 669)"	"(915, 675)"	1	0	8963459.35	72	36
19	w	24	r	1	3	23	2	"(261, 181)"	"(287, 169)"	1	0	8964077.71	72	36
19	w	24	r	1	3	23	3	"(884, 76)"	"(870, 91)"	1	0	8964604.82	72	36
19	w	24	r	1	3	23	4	"(922, 433)"	"(934, 458)"	1	0	8965132.38	72	36
19	w	24	r	1	3	23	5	"(572, 88)"	"(572, 108)"	1	0	8965789.52	72	36
19	w	24	r	1	3	23	6	"(261, 638)"	"(275, 666)"	1	0	8966452.83	72	36
19	w	24	r	1	3	23	7	"(103, 437)"	"(121, 441)"	1	0	8966957.53	72	36
19	w	24	r	1	3	23	8	"(570, 692)"	"(603, 697)"	1	0	8967557.64	72	36
19	w	24	r	1	3	23	8	"(570, 692)"	"(603, 697)"	1	    4.77	8967557.64	72	36
19	w	24	r	1	3	24	1	"(889, 669)"	"(880, 667)"	1	0	8971022.48	72	36
19	w	24	r	1	3	24	2	"(261, 181)"	"(229, 183)"	1	0	8971567.79	72	36
19	w	24	r	1	3	24	3	"(884, 76)"	"(880, 81)"	1	0	8972132.45	72	36
19	w	24	r	1	3	24	4	"(922, 433)"	"(920, 440)"	1	0	8972627.27	72	36
19	w	24	r	1	3	24	5	"(572, 88)"	"(599, 95)"	1	0	8973132.41	72	36
19	w	24	r	1	3	24	6	"(261, 638)"	"(280, 634)"	1	0	8973693.71	72	36
19	w	24	r	1	3	24	7	"(103, 437)"	"(123, 445)"	1	0	8974198.32	72	36
19	w	24	r	1	3	24	8	"(570, 692)"	"(562, 702)"	1	0	8974815.73	72	36
19	w	24	r	1	3	24	8	"(570, 692)"	"(562, 702)"	1	    4.45	8974815.73	72	36
19	w	24	r	1	3	25	1	"(889, 669)"	"(902, 673)"	2	0	8981542.01	72	36
19	w	24	r	1	3	25	2	"(261, 181)"	"(286, 176)"	1	0	8982182.60	72	36
19	w	24	r	1	3	25	3	"(884, 76)"	"(880, 74)"	1	0	8983007.82	72	36
19	w	24	r	1	3	25	4	"(922, 433)"	"(921, 427)"	1	0	8983532.06	72	36
19	w	24	r	1	3	25	5	"(572, 88)"	"(606, 99)"	1	0	8984060.79	72	36
19	w	24	r	1	3	25	6	"(261, 638)"	"(268, 638)"	1	0	8985365.67	72	36
19	w	24	r	1	3	25	7	"(103, 437)"	"(123, 436)"	1	0	8985775.31	72	36
19	w	24	r	1	3	25	8	"(570, 692)"	"(570, 691)"	1	0	8986309.68	72	36
19	w	24	r	1	3	25	8	"(570, 692)"	"(570, 691)"	1	    6.43	8986309.68	72	36
19	w	24	r	1	3	26	1	"(889, 669)"	"(881, 662)"	1	0	8990007.95	72	36
19	w	24	r	1	3	26	2	"(261, 181)"	"(259, 178)"	1	0	8990638.91	72	36
19	w	24	r	1	3	26	3	"(884, 76)"	"(867, 82)"	1	0	8991281.82	72	36
19	w	24	r	1	3	26	4	"(922, 433)"	"(911, 433)"	1	0	8991679.24	72	36
19	w	24	r	1	3	26	5	"(572, 88)"	"(579, 103)"	1	0	8992191.50	72	36
19	w	24	r	1	3	26	6	"(261, 638)"	"(245, 628)"	1	0	8992880.52	72	36
19	w	24	r	1	3	26	7	"(103, 437)"	"(131, 452)"	1	0	8993333.77	72	36
19	w	24	r	1	3	26	8	"(570, 692)"	"(555, 680)"	1	0	8994120.33	72	36
19	w	24	r	1	3	26	8	"(570, 692)"	"(555, 680)"	1	    4.79	8994120.33	72	36
19	w	24	r	1	3	27	1	"(889, 669)"	"(900, 707)"	1	0	8997701.28	72	36
19	w	24	r	1	3	27	2	"(261, 181)"	"(294, 190)"	1	0	8998201.37	72	36
19	w	24	r	1	3	27	3	"(884, 76)"	"(856, 80)"	1	0	8998837.69	72	36
19	w	24	r	1	3	27	4	"(922, 433)"	"(916, 442)"	1	0	8999510.47	72	36
19	w	24	r	1	3	27	5	"(572, 88)"	"(581, 86)"	1	0	8999957.29	72	36
19	w	24	r	1	3	27	6	"(261, 638)"	"(285, 656)"	1	0	9000496.61	72	36
19	w	24	r	1	3	27	7	"(103, 437)"	"(99, 433)"	1	0	9001190.57	72	36
19	w	24	r	1	3	27	8	"(570, 692)"	"(579, 723)"	1	0	9001645.91	72	36
19	w	24	r	1	3	27	8	"(570, 692)"	"(579, 723)"	1	    4.50	9001645.91	72	36
19	w	24	r	1	3	28	1	"(889, 669)"	"(911, 679)"	1	0	9005653.89	72	36
19	w	24	r	1	3	28	2	"(261, 181)"	"(245, 210)"	1	0	9006145.25	72	36
19	w	24	r	1	3	28	3	"(884, 76)"	"(890, 70)"	1	0	9006751.66	72	36
19	w	24	r	1	3	28	4	"(922, 433)"	"(927, 410)"	1	0	9007062.68	72	36
19	w	24	r	1	3	28	5	"(572, 88)"	"(584, 95)"	1	0	9007535.29	72	36
19	w	24	r	1	3	28	6	"(261, 638)"	"(265, 636)"	1	0	9007912.95	72	36
19	w	24	r	1	3	28	7	"(103, 437)"	"(98, 459)"	1	0	9008379.13	72	36
19	w	24	r	1	3	28	8	"(570, 692)"	"(561, 689)"	1	0	9008823.81	72	36
19	w	24	r	1	3	28	8	"(570, 692)"	"(561, 689)"	1	    3.80	9008823.81	72	36
19	w	24	r	1	3	29	1	"(889, 669)"	"(904, 672)"	1	0	9013559.77	72	36
19	w	24	r	1	3	29	2	"(261, 181)"	"(256, 190)"	1	0	9014022.72	72	36
19	w	24	r	1	3	29	3	"(884, 76)"	"(903, 94)"	1	0	9014473.20	72	36
19	w	24	r	1	3	29	4	"(922, 433)"	"(925, 437)"	1	0	9014967.89	72	36
19	w	24	r	1	3	29	5	"(572, 88)"	"(554, 56)"	1	0	9015440.82	72	36
19	w	24	r	1	3	29	6	"(261, 638)"	"(249, 642)"	1	0	9016183.32	72	36
19	w	24	r	1	3	29	7	"(103, 437)"	"(129, 427)"	1	0	9016447.90	72	36
19	w	24	r	1	3	29	8	"(570, 692)"	"(561, 663)"	1	0	9017001.82	72	36
19	w	24	r	1	3	29	8	"(570, 692)"	"(561, 663)"	1	    3.79	9017001.82	72	36
19	w	24	r	1	3	30	1	"(889, 669)"	"(873, 670)"	1	0	9022609.12	72	36
19	w	24	r	1	3	30	2	"(261, 181)"	"(289, 181)"	1	0	9023078.75	72	36
19	w	24	r	1	3	30	3	"(884, 76)"	"(906, 61)"	1	0	9023441.93	72	36
19	w	24	r	1	3	30	4	"(922, 433)"	"(916, 444)"	1	0	9023769.09	72	36
19	w	24	r	1	3	30	5	"(572, 88)"	"(597, 83)"	1	0	9024111.22	72	36
19	w	24	r	1	3	30	6	"(261, 638)"	"(246, 611)"	1	0	9024537.08	72	36
19	w	24	r	1	3	30	7	"(103, 437)"	"(115, 442)"	1	0	9024987.59	72	36
19	w	24	r	1	3	30	8	"(570, 692)"	"(571, 697)"	2	0	9025898.34	72	36
19	w	24	r	1	3	30	8	"(570, 692)"	"(571, 697)"	2	    3.88	9025898.34	72	36
19	w	24	r	1	4	31	1	"(889, 669)"	"(919, 650)"	1	0	9033122.64	72	36
19	w	24	r	1	4	31	2	"(261, 181)"	"(280, 189)"	1	0	9033577.50	72	36
19	w	24	r	1	4	31	3	"(884, 76)"	"(935, 79)"	1	0	9034082.23	72	36
19	w	24	r	1	4	31	4	"(922, 433)"	"(913, 459)"	1	0	9034475.05	72	36
19	w	24	r	1	4	31	5	"(572, 88)"	"(604, 98)"	1	0	9034897.21	72	36
19	w	24	r	1	4	31	6	"(261, 638)"	"(266, 653)"	1	0	9035394.42	72	36
19	w	24	r	1	4	31	7	"(103, 437)"	"(134, 449)"	1	0	9035826.66	72	36
19	w	24	r	1	4	31	8	"(570, 692)"	"(606, 712)"	1	0	9036256.83	72	36
19	w	24	r	1	4	31	8	"(570, 692)"	"(606, 712)"	1	    3.67	9036256.83	72	36
19	w	24	r	1	4	32	1	"(889, 669)"	"(891, 675)"	1	0	9040235.04	72	36
19	w	24	r	1	4	32	2	"(261, 181)"	"(274, 187)"	1	0	9040779.68	72	36
19	w	24	r	1	4	32	3	"(884, 76)"	"(871, 75)"	2	0	9042191.81	72	36
19	w	24	r	1	4	32	4	"(922, 433)"	"(921, 416)"	1	0	9042735.89	72	36
19	w	24	r	1	4	32	5	"(572, 88)"	"(597, 90)"	1	0	9043152.72	72	36
19	w	24	r	1	4	32	6	"(261, 638)"	"(279, 648)"	1	0	9043617.11	72	36
19	w	24	r	1	4	32	7	"(103, 437)"	"(119, 462)"	1	0	9044079.73	72	36
19	w	24	r	1	4	32	8	"(570, 692)"	"(585, 681)"	1	0	9044641.79	72	36
19	w	24	r	1	4	32	8	"(570, 692)"	"(585, 681)"	1	    5.05	9044641.79	72	36
19	w	24	r	1	4	33	1	"(889, 669)"	"(899, 665)"	1	0	9047482.98	72	36
19	w	24	r	1	4	33	2	"(261, 181)"	"(238, 193)"	1	0	9047954.56	72	36
19	w	24	r	1	4	33	3	"(884, 76)"	"(855, 84)"	1	0	9048468.21	72	36
19	w	24	r	1	4	33	4	"(922, 433)"	"(939, 446)"	1	0	9048939.29	72	36
19	w	24	r	1	4	33	5	"(572, 88)"	"(599, 90)"	1	0	9049419.55	72	36
19	w	24	r	1	4	33	6	"(261, 638)"	"(263, 657)"	1	0	9050112.88	72	36
19	w	24	r	1	4	33	7	"(103, 437)"	"(83, 436)"	1	0	9050434.51	72	36
19	w	24	r	1	4	33	8	"(570, 692)"	"(586, 710)"	1	0	9050921.95	72	36
19	w	24	r	1	4	33	8	"(570, 692)"	"(586, 710)"	1	    3.96	9050921.95	72	36
19	w	24	r	1	4	34	1	"(889, 669)"	"(877, 674)"	1	0	9053994.40	72	36
19	w	24	r	1	4	34	2	"(261, 181)"	"(264, 176)"	1	0	9054464.92	72	36
19	w	24	r	1	4	34	3	"(884, 76)"	"(865, 71)"	1	0	9054922.83	72	36
19	w	24	r	1	4	34	4	"(922, 433)"	"(906, 425)"	1	0	9055289.85	72	36
19	w	24	r	1	4	34	5	"(572, 88)"	"(581, 111)"	1	0	9055737.04	72	36
19	w	24	r	1	4	34	6	"(261, 638)"	"(274, 649)"	1	0	9056161.98	72	36
19	w	24	r	1	4	34	7	"(103, 437)"	"(92, 433)"	1	0	9056600.91	72	36
19	w	24	r	1	4	34	8	"(570, 692)"	"(590, 715)"	1	0	9056963.77	72	36
19	w	24	r	1	4	34	8	"(570, 692)"	"(590, 715)"	1	    3.47	9056963.77	72	36
19	w	24	r	1	4	35	1	"(889, 669)"	"(886, 663)"	1	0	9061801.23	72	36
19	w	24	r	1	4	35	2	"(261, 181)"	"(265, 189)"	1	0	9062522.78	72	36
19	w	24	r	1	4	35	3	"(884, 76)"	"(918, 60)"	1	0	9063043.50	72	36
19	w	24	r	1	4	35	4	"(922, 433)"	"(904, 411)"	1	0	9063593.76	72	36
19	w	24	r	1	4	35	5	"(572, 88)"	"(622, 94)"	1	0	9064034.90	72	36
19	w	24	r	1	4	35	6	"(261, 638)"	"(253, 615)"	1	0	9064545.89	72	36
19	w	24	r	1	4	35	7	"(103, 437)"	"(112, 458)"	1	0	9064956.12	72	36
19	w	24	r	1	4	35	8	"(570, 692)"	"(589, 729)"	1	0	9065361.50	72	36
19	w	24	r	1	4	35	8	"(570, 692)"	"(589, 729)"	1	    4.35	9065361.50	72	36
19	w	24	r	1	4	36	1	"(889, 669)"	"(896, 678)"	1	0	9068833.75	72	36
19	w	24	r	1	4	36	2	"(261, 181)"	"(294, 160)"	2	0	9070258.76	72	36
19	w	24	r	1	4	36	3	"(884, 76)"	"(873, 81)"	1	0	9070841.50	72	36
19	w	24	r	1	4	36	4	"(922, 433)"	"(907, 435)"	1	0	9071308.63	72	36
19	w	24	r	1	4	36	5	"(572, 88)"	"(593, 117)"	1	0	9071777.75	72	36
19	w	24	r	1	4	36	6	"(261, 638)"	"(288, 636)"	1	0	9072434.89	72	36
19	w	24	r	1	4	36	7	"(103, 437)"	"(134, 434)"	1	0	9072955.21	72	36
19	w	24	r	1	4	36	8	"(570, 692)"	"(574, 707)"	1	0	9073571.27	72	36
19	w	24	r	1	4	36	8	"(570, 692)"	"(574, 707)"	1	    5.41	9073571.27	72	36
19	w	24	r	1	4	37	1	"(889, 669)"	"(893, 666)"	1	0	9078770.28	72	36
19	w	24	r	1	4	37	2	"(261, 181)"	"(247, 190)"	1	0	9079381.19	72	36
19	w	24	r	1	4	37	3	"(884, 76)"	"(883, 77)"	1	0	9080492.23	72	36
19	w	24	r	1	4	37	4	"(922, 433)"	"(917, 407)"	1	0	9080986.97	72	36
19	w	24	r	1	4	37	5	"(572, 88)"	"(566, 80)"	1	0	9081373.39	72	36
19	w	24	r	1	4	37	6	"(261, 638)"	"(258, 652)"	1	0	9081826.54	72	36
19	w	24	r	1	4	37	7	"(103, 437)"	"(58, 415)"	1	0	9082131.43	72	36
19	w	24	r	1	4	37	8	"(570, 692)"	"(578, 699)"	2	0	9082882.78	72	36
19	w	24	r	1	4	37	8	"(570, 692)"	"(578, 699)"	2	    4.79	9082882.78	72	36
19	w	24	r	1	4	38	1	"(889, 669)"	"(904, 688)"	1	0	9086740.06	72	36
19	w	24	r	1	4	38	2	"(261, 181)"	"(255, 170)"	1	0	9087205.36	72	36
19	w	24	r	1	4	38	3	"(884, 76)"	"(905, 87)"	1	0	9087698.18	72	36
19	w	24	r	1	4	38	4	"(922, 433)"	"(952, 440)"	1	0	9087973.38	72	36
19	w	24	r	1	4	38	5	"(572, 88)"	"(571, 113)"	1	0	9088401.74	72	36
19	w	24	r	1	4	38	6	"(261, 638)"	"(288, 640)"	1	0	9088907.08	72	36
19	w	24	r	1	4	38	7	"(103, 437)"	"(133, 474)"	1	0	9089345.79	72	36
19	w	24	r	1	4	38	8	"(570, 692)"	"(583, 693)"	1	0	9090180.84	72	36
19	w	24	r	1	4	38	8	"(570, 692)"	"(583, 693)"	1	    4.03	9090180.84	72	36
19	w	24	r	1	4	39	1	"(889, 669)"	"(887, 662)"	1	0	9093940.18	72	36
19	w	24	r	1	4	39	2	"(261, 181)"	"(225, 187)"	1	0	9094419.91	72	36
19	w	24	r	1	4	39	3	"(884, 76)"	"(877, 91)"	1	0	9094957.29	72	36
19	w	24	r	1	4	39	4	"(922, 433)"	"(923, 469)"	1	0	9095221.85	72	36
19	w	24	r	1	4	39	5	"(572, 88)"	"(559, 54)"	1	0	9095852.49	72	36
19	w	24	r	1	4	39	6	"(261, 638)"	"(250, 631)"	1	0	9096554.89	72	36
19	w	24	r	1	4	39	7	"(103, 437)"	"(110, 453)"	2	0	9097661.22	72	36
19	w	24	r	1	4	39	8	"(570, 692)"	"(615, 701)"	1	0	9098230.44	72	36
19	w	24	r	1	4	39	8	"(570, 692)"	"(615, 701)"	1	    4.81	9098230.44	72	36
19	w	24	r	1	4	40	1	"(889, 669)"	"(890, 704)"	1	0	9102862.00	72	36
19	w	24	r	1	4	40	2	"(261, 181)"	"(288, 203)"	1	0	9103235.48	72	36
19	w	24	r	1	4	40	3	"(884, 76)"	"(878, 72)"	1	0	9104005.18	72	36
19	w	24	r	1	4	40	4	"(922, 433)"	"(923, 398)"	1	0	9104349.14	72	36
19	w	24	r	1	4	40	5	"(572, 88)"	"(537, 71)"	1	0	9104854.94	72	36
19	w	24	r	1	4	40	6	"(261, 638)"	"(257, 648)"	1	0	9105435.46	72	36
19	w	24	r	1	4	40	7	"(103, 437)"	"(129, 450)"	1	0	9105749.40	72	36
19	w	24	r	1	4	40	8	"(570, 692)"	"(533, 713)"	1	0	9106270.24	72	36
19	w	24	r	1	4	40	8	"(570, 692)"	"(533, 713)"	1	    4.05	9106270.24	72	36
19	w	24	r	1	5	41	1	"(889, 669)"	"(903, 695)"	1	0	9110920.67	72	36
19	w	24	r	1	5	41	2	"(261, 181)"	"(237, 155)"	1	0	9111461.30	72	36
19	w	24	r	1	5	41	3	"(884, 76)"	"(876, 65)"	2	0	9112915.33	72	36
19	w	24	r	1	5	41	4	"(922, 433)"	"(927, 452)"	1	0	9113404.44	72	36
19	w	24	r	1	5	41	5	"(572, 88)"	"(589, 91)"	1	0	9113972.64	72	36
19	w	24	r	1	5	41	6	"(261, 638)"	"(245, 636)"	1	0	9114614.34	72	36
19	w	24	r	1	5	41	7	"(103, 437)"	"(116, 432)"	1	0	9115117.08	72	36
19	w	24	r	1	5	41	8	"(570, 692)"	"(595, 685)"	1	0	9115564.57	72	36
19	w	24	r	1	5	41	8	"(570, 692)"	"(595, 685)"	1	    5.04	9115564.57	72	36
19	w	24	r	1	5	42	1	"(889, 669)"	"(915, 671)"	1	0	9118190.40	72	36
19	w	24	r	1	5	42	2	"(261, 181)"	"(260, 184)"	1	0	9118771.62	72	36
19	w	24	r	1	5	42	3	"(884, 76)"	"(859, 81)"	1	0	9119516.15	72	36
19	w	24	r	1	5	42	4	"(922, 433)"	"(931, 455)"	1	0	9119974.14	72	36
19	w	24	r	1	5	42	5	"(572, 88)"	"(576, 98)"	1	0	9120486.48	72	36
19	w	24	r	1	5	42	6	"(261, 638)"	"(280, 646)"	1	0	9120972.84	72	36
19	w	24	r	1	5	42	7	"(103, 437)"	"(108, 431)"	1	0	9121364.29	72	36
19	w	24	r	1	5	42	8	"(570, 692)"	"(601, 719)"	1	0	9121727.91	72	36
19	w	24	r	1	5	42	8	"(570, 692)"	"(601, 719)"	1	    3.93	9121727.91	72	36
19	w	24	r	1	5	43	1	"(889, 669)"	"(910, 670)"	1	0	9126012.96	72	36
19	w	24	r	1	5	43	2	"(261, 181)"	"(245, 140)"	1	0	9126550.72	72	36
19	w	24	r	1	5	43	3	"(884, 76)"	"(888, 96)"	1	0	9127231.56	72	36
19	w	24	r	1	5	43	4	"(922, 433)"	"(919, 447)"	1	0	9127508.57	72	36
19	w	24	r	1	5	43	5	"(572, 88)"	"(561, 106)"	1	0	9127997.84	72	36
19	w	24	r	1	5	43	6	"(261, 638)"	"(257, 648)"	2	0	9129628.84	72	36
19	w	24	r	1	5	43	7	"(103, 437)"	"(93, 425)"	2	0	9130208.01	72	36
19	w	24	r	1	5	43	8	"(570, 692)"	"(570, 693)"	1	0	9130839.25	72	36
19	w	24	r	1	5	43	8	"(570, 692)"	"(570, 693)"	1	    5.61	9130839.25	72	36
19	w	24	r	1	5	44	1	"(889, 669)"	"(874, 670)"	1	0	9137150.01	72	36
19	w	24	r	1	5	44	2	"(261, 181)"	"(298, 171)"	1	0	9137701.38	72	36
19	w	24	r	1	5	44	3	"(884, 76)"	"(923, 87)"	1	0	9138207.81	72	36
19	w	24	r	1	5	44	4	"(922, 433)"	"(932, 425)"	1	0	9138616.06	72	36
19	w	24	r	1	5	44	5	"(572, 88)"	"(580, 94)"	1	0	9139077.13	72	36
19	w	24	r	1	5	44	6	"(261, 638)"	"(238, 650)"	1	0	9139527.97	72	36
19	w	24	r	1	5	44	7	"(103, 437)"	"(124, 454)"	1	0	9139959.02	72	36
19	w	24	r	1	5	44	8	"(570, 692)"	"(555, 707)"	1	0	9140455.53	72	36
19	w	24	r	1	5	44	8	"(570, 692)"	"(555, 707)"	1	    3.96	9140455.53	72	36
19	w	24	r	1	5	45	1	"(889, 669)"	"(884, 672)"	1	0	9143351.86	72	36
19	w	24	r	1	5	45	2	"(261, 181)"	"(252, 147)"	1	0	9143936.71	72	36
19	w	24	r	1	5	45	3	"(884, 76)"	"(887, 82)"	1	0	9144502.54	72	36
19	w	24	r	1	5	45	4	"(922, 433)"	"(928, 425)"	1	0	9144918.02	72	36
19	w	24	r	1	5	45	5	"(572, 88)"	"(603, 80)"	1	0	9145396.46	72	36
19	w	24	r	1	5	45	6	"(261, 638)"	"(246, 637)"	1	0	9145854.39	72	36
19	w	24	r	1	5	45	7	"(103, 437)"	"(96, 440)"	1	0	9146156.96	72	36
19	w	24	r	1	5	45	8	"(570, 692)"	"(589, 723)"	1	0	9146647.43	72	36
19	w	24	r	1	5	45	8	"(570, 692)"	"(589, 723)"	1	    3.72	9146647.43	72	36
19	w	24	r	1	5	46	1	"(889, 669)"	"(885, 699)"	1	0	9150277.86	72	36
19	w	24	r	1	5	46	2	"(261, 181)"	"(294, 198)"	1	0	9150952.76	72	36
19	w	24	r	1	5	46	3	"(884, 76)"	"(876, 75)"	1	0	9151680.64	72	36
19	w	24	r	1	5	46	4	"(922, 433)"	"(946, 437)"	1	0	9152141.95	72	36
19	w	24	r	1	5	46	5	"(572, 88)"	"(595, 102)"	1	0	9152768.65	72	36
19	w	24	r	1	5	46	6	"(261, 638)"	"(271, 631)"	1	0	9153792.34	72	36
19	w	24	r	1	5	46	7	"(103, 437)"	"(107, 437)"	1	0	9154207.36	72	36
19	w	24	r	1	5	46	8	"(570, 692)"	"(587, 685)"	1	0	9154663.30	72	36
19	w	24	r	1	5	46	8	"(570, 692)"	"(587, 685)"	1	    4.81	9154663.30	72	36
19	w	24	r	1	5	47	1	"(889, 669)"	"(891, 668)"	1	0	9157808.43	72	36
19	w	24	r	1	5	47	2	"(261, 181)"	"(270, 219)"	1	0	9158321.44	72	36
19	w	24	r	1	5	47	3	"(884, 76)"	"(853, 70)"	1	0	9158929.06	72	36
19	w	24	r	1	5	47	4	"(922, 433)"	"(923, 445)"	1	0	9159471.93	72	36
19	w	24	r	1	5	47	5	"(572, 88)"	"(581, 96)"	1	0	9159992.61	72	36
19	w	24	r	1	5	47	6	"(261, 638)"	"(267, 645)"	1	0	9160504.91	72	36
19	w	24	r	1	5	47	7	"(103, 437)"	"(154, 450)"	1	0	9160823.62	72	36
19	w	24	r	1	5	47	8	"(570, 692)"	"(557, 719)"	1	0	9161470.61	72	36
19	w	24	r	1	5	47	8	"(570, 692)"	"(557, 719)"	1	    4.38	9161470.61	72	36
19	w	24	r	1	5	48	1	"(889, 669)"	"(880, 664)"	1	0	9164207.28	72	36
19	w	24	r	1	5	48	2	"(261, 181)"	"(268, 194)"	1	0	9164778.46	72	36
19	w	24	r	1	5	48	3	"(884, 76)"	"(886, 103)"	1	0	9165256.55	72	36
19	w	24	r	1	5	48	4	"(922, 433)"	"(922, 406)"	1	0	9165607.29	72	36
19	w	24	r	1	5	48	5	"(572, 88)"	"(590, 77)"	1	0	9166047.08	72	36
19	w	24	r	1	5	48	6	"(261, 638)"	"(282, 646)"	1	0	9166640.24	72	36
19	w	24	r	1	5	48	7	"(103, 437)"	"(105, 449)"	1	0	9166930.30	72	36
19	w	24	r	1	5	48	8	"(570, 692)"	"(588, 704)"	1	0	9167415.92	72	36
19	w	24	r	1	5	48	8	"(570, 692)"	"(588, 704)"	1	    3.67	9167415.92	72	36
19	w	24	r	1	5	49	1	"(889, 669)"	"(874, 681)"	1	0	9170415.03	72	36
19	w	24	r	1	5	49	2	"(261, 181)"	"(275, 188)"	1	0	9170898.02	72	36
19	w	24	r	1	5	49	3	"(884, 76)"	"(893, 96)"	1	0	9171409.96	72	36
19	w	24	r	1	5	49	4	"(922, 433)"	"(959, 437)"	1	0	9171880.81	72	36
19	w	24	r	1	5	49	5	"(572, 88)"	"(589, 74)"	1	0	9172338.29	72	36
19	w	24	r	1	5	49	6	"(261, 638)"	"(268, 643)"	1	0	9172771.50	72	36
19	w	24	r	1	5	49	7	"(103, 437)"	"(132, 442)"	1	0	9173202.09	72	36
19	w	24	r	1	5	49	8	"(570, 692)"	"(578, 722)"	1	0	9173727.02	72	36
19	w	24	r	1	5	49	8	"(570, 692)"	"(578, 722)"	1	    3.84	9173727.02	72	36
19	w	24	r	1	5	50	1	"(889, 669)"	"(891, 674)"	1	0	9177055.05	72	36
19	w	24	r	1	5	50	2	"(261, 181)"	"(292, 207)"	1	0	9177518.52	72	36
19	w	24	r	1	5	50	3	"(884, 76)"	"(860, 49)"	1	0	9177888.77	72	36
19	w	24	r	1	5	50	4	"(922, 433)"	"(943, 463)"	1	0	9178294.55	72	36
19	w	24	r	1	5	50	5	"(572, 88)"	"(569, 124)"	1	0	9178832.38	72	36
19	w	24	r	1	5	50	6	"(261, 638)"	"(284, 658)"	2	0	9180288.06	72	36
19	w	24	r	1	5	50	7	"(103, 437)"	"(108, 419)"	1	0	9180747.04	72	36
19	w	24	r	1	5	50	8	"(570, 692)"	"(574, 718)"	1	0	9181209.96	72	36
19	w	24	r	1	5	50	8	"(570, 692)"	"(574, 718)"	1	    4.90	9181209.96	72	36
19	w	24	r	1	6	51	1	"(889, 669)"	"(867, 671)"	1	0	9191632.86	72	36
19	w	24	r	1	6	51	2	"(261, 181)"	"(253, 186)"	1	0	9192119.81	72	36
19	w	24	r	1	6	51	3	"(884, 76)"	"(914, 88)"	1	0	9192600.03	72	36
19	w	24	r	1	6	51	4	"(922, 433)"	"(919, 436)"	1	0	9192993.25	72	36
19	w	24	r	1	6	51	5	"(572, 88)"	"(572, 86)"	1	0	9193336.89	72	36
19	w	24	r	1	6	51	6	"(261, 638)"	"(302, 664)"	1	0	9193736.33	72	36
19	w	24	r	1	6	51	7	"(103, 437)"	"(149, 463)"	1	0	9194019.91	72	36
19	w	24	r	1	6	51	8	"(570, 692)"	"(542, 670)"	1	0	9194522.61	72	36
19	w	24	r	1	6	51	8	"(570, 692)"	"(542, 670)"	1	    3.57	9194522.61	72	36
19	w	24	r	1	6	52	1	"(889, 669)"	"(873, 678)"	1	0	9197832.85	72	36
19	w	24	r	1	6	52	2	"(261, 181)"	"(249, 141)"	1	0	9198210.07	72	36
19	w	24	r	1	6	52	3	"(884, 76)"	"(890, 73)"	1	0	9198769.49	72	36
19	w	24	r	1	6	52	4	"(922, 433)"	"(922, 427)"	2	0	9199960.98	72	36
19	w	24	r	1	6	52	5	"(572, 88)"	"(564, 94)"	1	0	9200498.38	72	36
19	w	24	r	1	6	52	6	"(261, 638)"	"(255, 616)"	1	0	9201242.11	72	36
19	w	24	r	1	6	52	7	"(103, 437)"	"(88, 451)"	1	0	9201657.53	72	36
19	w	24	r	1	6	52	8	"(570, 692)"	"(572, 693)"	1	0	9202146.95	72	36
19	w	24	r	1	6	52	8	"(570, 692)"	"(572, 693)"	1	    4.77	9202146.95	72	36
19	w	24	r	1	6	53	1	"(889, 669)"	"(889, 666)"	1	0	9204905.72	72	36
19	w	24	r	1	6	53	2	"(261, 181)"	"(271, 197)"	1	0	9205360.79	72	36
19	w	24	r	1	6	53	3	"(884, 76)"	"(885, 70)"	1	0	9205835.47	72	36
19	w	24	r	1	6	53	4	"(922, 433)"	"(919, 443)"	1	0	9206195.67	72	36
19	w	24	r	1	6	53	5	"(572, 88)"	"(597, 116)"	1	0	9206649.00	72	36
19	w	24	r	1	6	53	6	"(261, 638)"	"(294, 665)"	1	0	9207051.46	72	36
19	w	24	r	1	6	53	7	"(103, 437)"	"(79, 438)"	1	0	9207361.82	72	36
19	w	24	r	1	6	53	8	"(570, 692)"	"(574, 707)"	1	0	9207763.74	72	36
19	w	24	r	1	6	53	8	"(570, 692)"	"(574, 707)"	1	    3.43	9207763.74	72	36
19	w	24	r	1	6	54	1	"(889, 669)"	"(877, 674)"	1	0	9211202.24	72	36
19	w	24	r	1	6	54	2	"(261, 181)"	"(270, 193)"	1	0	9211538.30	72	36
19	w	24	r	1	6	54	3	"(884, 76)"	"(885, 84)"	1	0	9212084.38	72	36
19	w	24	r	1	6	54	4	"(922, 433)"	"(890, 445)"	1	0	9212532.73	72	36
19	w	24	r	1	6	54	5	"(572, 88)"	"(553, 97)"	1	0	9213435.07	72	36
19	w	24	r	1	6	54	6	"(261, 638)"	"(250, 668)"	1	0	9213882.16	72	36
19	w	24	r	1	6	54	7	"(103, 437)"	"(122, 462)"	1	0	9214259.92	72	36
19	w	24	r	1	6	54	8	"(570, 692)"	"(577, 686)"	1	0	9214795.20	72	36
19	w	24	r	1	6	54	8	"(570, 692)"	"(577, 686)"	1	    4.20	9214795.20	72	36
19	w	24	r	1	6	55	1	"(889, 669)"	"(887, 665)"	1	0	9217609.51	72	36
19	w	24	r	1	6	55	2	"(261, 181)"	"(267, 201)"	1	0	9217986.48	72	36
19	w	24	r	1	6	55	3	"(884, 76)"	"(924, 63)"	1	0	9218500.85	72	36
19	w	24	r	1	6	55	4	"(922, 433)"	"(913, 455)"	1	0	9218787.74	72	36
19	w	24	r	1	6	55	5	"(572, 88)"	"(559, 63)"	1	0	9219329.99	72	36
19	w	24	r	1	6	55	6	"(261, 638)"	"(263, 638)"	1	0	9219844.19	72	36
19	w	24	r	1	6	55	7	"(103, 437)"	"(128, 435)"	1	0	9220274.74	72	36
19	w	24	r	1	6	55	8	"(570, 692)"	"(588, 716)"	1	0	9220665.10	72	36
19	w	24	r	1	6	55	8	"(570, 692)"	"(588, 716)"	1	    3.40	9220665.10	72	36
19	w	24	r	1	6	56	1	"(889, 669)"	"(870, 664)"	1	0	9223459.14	72	36
19	w	24	r	1	6	56	2	"(261, 181)"	"(296, 176)"	1	0	9223869.33	72	36
19	w	24	r	1	6	56	3	"(884, 76)"	"(864, 81)"	1	0	9224348.03	72	36
19	w	24	r	1	6	56	4	"(922, 433)"	"(924, 424)"	1	0	9224635.13	72	36
19	w	24	r	1	6	56	5	"(572, 88)"	"(547, 97)"	1	0	9225003.04	72	36
19	w	24	r	1	6	56	6	"(261, 638)"	"(257, 659)"	1	0	9225597.59	72	36
19	w	24	r	1	6	56	7	"(103, 437)"	"(140, 449)"	1	0	9225980.73	72	36
19	w	24	r	1	6	56	8	"(570, 692)"	"(617, 707)"	1	0	9226517.16	72	36
19	w	24	r	1	6	56	8	"(570, 692)"	"(617, 707)"	1	    3.54	9226517.16	72	36
19	w	24	r	1	6	57	1	"(889, 669)"	"(888, 668)"	1	0	9230459.71	72	36
19	w	24	r	1	6	57	2	"(261, 181)"	"(257, 165)"	1	0	9230891.21	72	36
19	w	24	r	1	6	57	3	"(884, 76)"	"(916, 81)"	1	0	9231395.63	72	36
19	w	24	r	1	6	57	4	"(922, 433)"	"(931, 416)"	1	0	9231802.78	72	36
19	w	24	r	1	6	57	5	"(572, 88)"	"(569, 81)"	1	0	9232348.06	72	36
19	w	24	r	1	6	57	6	"(261, 638)"	"(259, 638)"	1	0	9232787.15	72	36
19	w	24	r	1	6	57	7	"(103, 437)"	"(63, 402)"	1	0	9233226.53	72	36
19	w	24	r	1	6	57	8	"(570, 692)"	"(572, 715)"	1	0	9233707.97	72	36
19	w	24	r	1	6	57	8	"(570, 692)"	"(572, 715)"	1	    3.67	9233707.97	72	36
19	w	24	r	1	6	58	1	"(889, 669)"	"(935, 697)"	1	0	9240492.88	72	36
19	w	24	r	1	6	58	2	"(261, 181)"	"(251, 198)"	6	0	9245051.01	72	36
19	w	24	r	1	6	58	3	"(884, 76)"	"(871, 96)"	1	0	9245563.13	72	36
19	w	24	r	1	6	58	4	"(922, 433)"	"(910, 451)"	1	0	9246013.45	72	36
19	w	24	r	1	6	58	5	"(572, 88)"	"(563, 104)"	1	0	9246364.19	72	36
19	w	24	r	1	6	58	6	"(261, 638)"	"(229, 626)"	1	0	9246845.24	72	36
19	w	24	r	1	6	58	7	"(103, 437)"	"(86, 449)"	1	0	9247452.38	72	36
19	w	24	r	1	6	58	8	"(570, 692)"	"(568, 693)"	1	0	9247988.64	72	36
19	w	24	r	1	6	58	8	"(570, 692)"	"(568, 693)"	1	    8.21	9247988.64	72	36
19	w	24	r	1	6	59	1	"(889, 669)"	"(866, 694)"	1	0	9251483.67	72	36
19	w	24	r	1	6	59	2	"(261, 181)"	"(254, 195)"	1	0	9251899.89	72	36
19	w	24	r	1	6	59	3	"(884, 76)"	"(871, 83)"	1	0	9252395.45	72	36
19	w	24	r	1	6	59	4	"(922, 433)"	"(883, 439)"	1	0	9252845.56	72	36
19	w	24	r	1	6	59	5	"(572, 88)"	"(550, 105)"	1	0	9253357.25	72	36
19	w	24	r	1	6	59	6	"(261, 638)"	"(287, 630)"	1	0	9254262.36	72	36
19	w	24	r	1	6	59	7	"(103, 437)"	"(130, 433)"	1	0	9254590.63	72	36
19	w	24	r	1	6	59	8	"(570, 692)"	"(543, 699)"	1	0	9254934.10	72	36
19	w	24	r	1	6	59	8	"(570, 692)"	"(543, 699)"	1	    4.00	9254934.10	72	36
19	w	24	r	1	6	60	1	"(889, 669)"	"(901, 682)"	1	0	9258565.36	72	36
19	w	24	r	1	6	60	2	"(261, 181)"	"(288, 188)"	1	0	9259007.12	72	36
19	w	24	r	1	6	60	3	"(884, 76)"	"(880, 86)"	1	0	9259391.25	72	36
19	w	24	r	1	6	60	4	"(922, 433)"	"(924, 409)"	1	0	9259766.28	72	36
19	w	24	r	1	6	60	5	"(572, 88)"	"(562, 109)"	1	0	9260335.34	72	36
19	w	24	r	1	6	60	6	"(261, 638)"	"(286, 633)"	1	0	9260845.36	72	36
19	w	24	r	1	6	60	7	"(103, 437)"	"(134, 453)"	1	0	9261315.53	72	36
19	w	24	r	1	6	60	8	"(570, 692)"	"(561, 719)"	1	0	9261743.11	72	36
19	w	24	r	1	6	60	8	"(570, 692)"	"(561, 719)"	1	    3.82	9261743.11	72	36
19	w	24	r	2	7	61	1	"(889, 669)"	"(890, 679)"	1	0	9270848.05	72	36
19	w	24	r	2	7	61	2	"(261, 181)"	"(291, 192)"	1	0	9271349.65	72	36
19	w	24	r	2	7	61	3	"(261, 638)"	"(295, 642)"	1	0	9272654.51	72	36
19	w	24	r	2	7	61	4	"(922, 433)"	"(969, 420)"	1	0	9273126.60	72	36
19	w	24	r	2	7	61	5	"(572, 88)"	"(529, 82)"	1	0	9273597.58	72	36
19	w	24	r	2	7	61	6	"(884, 76)"	"(876, 63)"	1	0	9274119.01	72	36
19	w	24	r	2	7	61	7	"(103, 437)"	"(148, 448)"	1	0	9274543.73	72	36
19	w	24	r	2	7	61	8	"(570, 692)"	"(555, 684)"	1	0	9275167.17	72	36
19	w	24	r	2	7	61	8	"(570, 692)"	"(555, 684)"	1	    4.92	9275167.17	72	36
19	w	24	r	2	7	62	1	"(889, 669)"	"(902, 673)"	1	0	9277852.30	72	36
19	w	24	r	2	7	62	2	"(261, 181)"	"(263, 194)"	1	0	9278365.11	72	36
19	w	24	r	2	7	62	3	"(261, 638)"	"(256, 645)"	1	0	9279414.20	72	36
19	w	24	r	2	7	62	4	"(922, 433)"	"(891, 410)"	1	0	9280094.65	72	36
19	w	24	r	2	7	62	5	"(572, 88)"	"(574, 83)"	2	0	9281662.58	72	36
19	w	24	r	2	7	62	6	"(884, 76)"	"(857, 72)"	1	0	9282236.48	72	36
19	w	24	r	2	7	62	7	"(103, 437)"	"(114, 450)"	2	0	9283765.20	72	36
19	w	24	r	2	7	62	8	"(570, 692)"	"(605, 713)"	1	0	9284368.02	72	36
19	w	24	r	2	7	62	8	"(570, 692)"	"(605, 713)"	1	    6.90	9284368.02	72	36
19	w	24	r	2	7	63	1	"(889, 669)"	"(892, 667)"	1	0	9287206.59	72	36
19	w	24	r	2	7	63	2	"(261, 181)"	"(282, 187)"	1	0	9287920.52	72	36
19	w	24	r	2	7	63	3	"(261, 638)"	"(249, 655)"	1	0	9288597.79	72	36
19	w	24	r	2	7	63	4	"(922, 433)"	"(925, 445)"	1	0	9289575.93	72	36
19	w	24	r	2	7	63	5	"(572, 88)"	"(557, 88)"	1	0	9290509.91	72	36
19	w	24	r	2	7	63	6	"(884, 76)"	"(870, 73)"	1	0	9291128.20	72	36
19	w	24	r	2	7	63	7	"(103, 437)"	"(116, 450)"	1	0	9291614.96	72	36
19	w	24	r	2	7	63	8	"(570, 692)"	"(564, 713)"	1	0	9292118.91	72	36
19	w	24	r	2	7	63	8	"(570, 692)"	"(564, 713)"	1	    5.40	9292118.91	72	36
19	w	24	r	2	7	64	1	"(889, 669)"	"(896, 674)"	1	0	9294671.83	72	36
19	w	24	r	2	7	64	2	"(261, 181)"	"(275, 181)"	1	0	9295247.96	72	36
19	w	24	r	2	7	64	3	"(261, 638)"	"(258, 631)"	1	0	9295751.51	72	36
19	w	24	r	2	7	64	4	"(922, 433)"	"(902, 443)"	1	0	9296780.31	72	36
19	w	24	r	2	7	64	5	"(572, 88)"	"(607, 113)"	1	0	9297287.49	72	36
19	w	24	r	2	7	64	6	"(884, 76)"	"(873, 80)"	1	0	9297745.11	72	36
19	w	24	r	2	7	64	7	"(103, 437)"	"(103, 438)"	1	0	9298785.36	72	36
19	w	24	r	2	7	64	8	"(570, 692)"	"(551, 677)"	1	0	9299296.48	72	36
19	w	24	r	2	7	64	8	"(570, 692)"	"(551, 677)"	1	    5.25	9299296.48	72	36
19	w	24	r	2	7	65	1	"(889, 669)"	"(880, 688)"	1	0	9303647.55	72	36
19	w	24	r	2	7	65	2	"(261, 181)"	"(289, 189)"	1	0	9304117.91	72	36
19	w	24	r	2	7	65	3	"(261, 638)"	"(274, 637)"	1	0	9304630.98	72	36
19	w	24	r	2	7	65	4	"(922, 433)"	"(928, 460)"	1	0	9306086.67	72	36
19	w	24	r	2	7	65	5	"(572, 88)"	"(559, 80)"	1	0	9306718.25	72	36
19	w	24	r	2	7	65	6	"(884, 76)"	"(898, 83)"	1	0	9307238.96	72	36
19	w	24	r	2	7	65	7	"(103, 437)"	"(119, 439)"	1	0	9307753.98	72	36
19	w	24	r	2	7	65	8	"(570, 692)"	"(557, 712)"	1	0	9308184.74	72	36
19	w	24	r	2	7	65	8	"(570, 692)"	"(557, 712)"	1	    5.47	9308184.74	72	36
19	w	24	r	2	7	66	1	"(889, 669)"	"(879, 681)"	1	0	9311209.08	72	36
19	w	24	r	2	7	66	2	"(261, 181)"	"(287, 173)"	1	0	9311697.65	72	36
19	w	24	r	2	7	66	3	"(261, 638)"	"(271, 683)"	1	0	9312201.53	72	36
19	w	24	r	2	7	66	4	"(922, 433)"	"(923, 425)"	1	0	9312735.78	72	36
19	w	24	r	2	7	66	5	"(572, 88)"	"(570, 80)"	1	0	9313246.79	72	36
19	w	24	r	2	7	66	6	"(884, 76)"	"(877, 72)"	1	0	9313929.52	72	36
19	w	24	r	2	7	66	7	"(103, 437)"	"(117, 456)"	1	0	9314656.86	72	36
19	w	24	r	2	7	66	8	"(570, 692)"	"(533, 694)"	1	0	9315169.49	72	36
19	w	24	r	2	7	66	8	"(570, 692)"	"(533, 694)"	1	    4.49	9315169.49	72	36
19	w	24	r	2	7	67	1	"(889, 669)"	"(904, 671)"	1	0	9319497.85	72	36
19	w	24	r	2	7	67	2	"(261, 181)"	"(265, 163)"	1	0	9319903.05	72	36
19	w	24	r	2	7	67	3	"(261, 638)"	"(231, 623)"	1	0	9320978.19	72	36
19	w	24	r	2	7	67	4	"(922, 433)"	"(930, 415)"	1	0	9321712.36	72	36
19	w	24	r	2	7	67	5	"(572, 88)"	"(605, 115)"	1	0	9322079.56	72	36
19	w	24	r	2	7	67	6	"(884, 76)"	"(855, 78)"	1	0	9322560.83	72	36
19	w	24	r	2	7	67	7	"(103, 437)"	"(109, 457)"	1	0	9323231.38	72	36
19	w	24	r	2	7	67	8	"(570, 692)"	"(592, 723)"	1	0	9323713.60	72	36
19	w	24	r	2	7	67	8	"(570, 692)"	"(592, 723)"	1	    5.11	9323713.60	72	36
19	w	24	r	2	7	68	1	"(889, 669)"	"(888, 679)"	1	0	9328938.73	72	36
19	w	24	r	2	7	68	2	"(261, 181)"	"(274, 174)"	1	0	9329489.08	72	36
19	w	24	r	2	7	68	3	"(261, 638)"	"(269, 632)"	1	0	9330401.65	72	36
19	w	24	r	2	7	68	4	"(922, 433)"	"(941, 437)"	1	0	9331449.04	72	36
19	w	24	r	2	7	68	5	"(572, 88)"	"(599, 90)"	1	0	9331937.51	72	36
19	w	24	r	2	7	68	6	"(884, 76)"	"(902, 92)"	1	0	9332922.61	72	36
19	w	24	r	2	7	68	7	"(103, 437)"	"(131, 435)"	1	0	9333466.65	72	36
19	w	24	r	2	7	68	8	"(570, 692)"	"(532, 700)"	1	0	9333999.55	72	36
19	w	24	r	2	7	68	8	"(570, 692)"	"(532, 700)"	1	    5.76	9333999.55	72	36
19	w	24	r	2	7	69	1	"(889, 669)"	"(899, 706)"	1	0	9337595.21	72	36
19	w	24	r	2	7	69	2	"(261, 181)"	"(281, 189)"	1	0	9338491.12	72	36
19	w	24	r	2	7	69	3	"(261, 638)"	"(278, 651)"	1	0	9338956.09	72	36
19	w	24	r	2	7	69	4	"(922, 433)"	"(879, 430)"	1	0	9339904.44	72	36
19	w	24	r	2	7	69	5	"(572, 88)"	"(603, 84)"	2	0	9341825.81	72	36
19	w	24	r	2	7	69	6	"(884, 76)"	"(866, 83)"	1	0	9342235.90	72	36
19	w	24	r	2	7	69	7	"(103, 437)"	"(94, 441)"	1	0	9343088.41	72	36
19	w	24	r	2	7	69	8	"(570, 692)"	"(557, 696)"	1	0	9343577.60	72	36
19	w	24	r	2	7	69	8	"(570, 692)"	"(557, 696)"	1	    6.44	9343577.60	72	36
19	w	24	r	2	7	70	1	"(889, 669)"	"(919, 670)"	1	0	9346786.16	72	36
19	w	24	r	2	7	70	2	"(261, 181)"	"(260, 178)"	1	0	9347667.86	72	36
19	w	24	r	2	7	70	3	"(261, 638)"	"(273, 650)"	1	0	9348129.32	72	36
19	w	24	r	2	7	70	4	"(922, 433)"	"(947, 425)"	1	0	9349657.76	72	36
19	w	24	r	2	7	70	5	"(572, 88)"	"(577, 115)"	1	0	9350257.96	72	36
19	w	24	r	2	7	70	6	"(884, 76)"	"(893, 91)"	1	0	9350656.99	72	36
19	w	24	r	2	7	70	7	"(103, 437)"	"(132, 458)"	1	0	9351339.23	72	36
19	w	24	r	2	7	70	8	"(570, 692)"	"(590, 716)"	1	0	9351905.35	72	36
19	w	24	r	2	7	70	8	"(570, 692)"	"(590, 716)"	1	    5.73	9351905.35	72	36
19	w	24	r	2	8	71	1	"(889, 669)"	"(895, 681)"	1	0	9357176.24	72	36
19	w	24	r	2	8	71	2	"(261, 181)"	"(277, 186)"	1	0	9357660.00	72	36
19	w	24	r	2	8	71	3	"(261, 638)"	"(283, 647)"	1	0	9358131.58	72	36
19	w	24	r	2	8	71	4	"(922, 433)"	"(954, 424)"	1	0	9359418.52	72	36
19	w	24	r	2	8	71	5	"(572, 88)"	"(614, 113)"	1	0	9360084.30	72	36
19	w	24	r	2	8	71	6	"(884, 76)"	"(861, 79)"	1	0	9360569.30	72	36
19	w	24	r	2	8	71	7	"(103, 437)"	"(80, 457)"	1	0	9361004.04	72	36
19	w	24	r	2	8	71	8	"(570, 692)"	"(578, 719)"	1	0	9361476.39	72	36
19	w	24	r	2	8	71	8	"(570, 692)"	"(578, 719)"	1	    5.00	9361476.39	72	36
19	w	24	r	2	8	72	1	"(889, 669)"	"(881, 672)"	1	0	9364724.04	72	36
19	w	24	r	2	8	72	2	"(261, 181)"	"(258, 170)"	1	0	9365588.48	72	36
19	w	24	r	2	8	72	3	"(261, 638)"	"(258, 642)"	1	0	9366090.22	72	36
19	w	24	r	2	8	72	4	"(922, 433)"	"(912, 457)"	1	0	9366897.44	72	36
19	w	24	r	2	8	72	5	"(572, 88)"	"(569, 97)"	1	0	9367405.01	72	36
19	w	24	r	2	8	72	6	"(884, 76)"	"(870, 77)"	1	0	9367865.75	72	36
19	w	24	r	2	8	72	7	"(103, 437)"	"(97, 433)"	1	0	9368370.51	72	36
19	w	24	r	2	8	72	8	"(570, 692)"	"(551, 709)"	1	0	9368889.65	72	36
19	w	24	r	2	8	72	8	"(570, 692)"	"(551, 709)"	1	    4.86	9368889.65	72	36
19	w	24	r	2	8	73	1	"(889, 669)"	"(886, 669)"	1	0	9371922.72	72	36
19	w	24	r	2	8	73	2	"(261, 181)"	"(256, 168)"	1	0	9372654.50	72	36
19	w	24	r	2	8	73	3	"(261, 638)"	"(261, 656)"	1	0	9373092.06	72	36
19	w	24	r	2	8	73	4	"(922, 433)"	"(903, 449)"	1	0	9373610.70	72	36
19	w	24	r	2	8	73	5	"(572, 88)"	"(566, 91)"	1	0	9374306.45	72	36
19	w	24	r	2	8	73	6	"(884, 76)"	"(896, 82)"	1	0	9374869.07	72	36
19	w	24	r	2	8	73	7	"(103, 437)"	"(88, 439)"	1	0	9375715.41	72	36
19	w	24	r	2	8	73	8	"(570, 692)"	"(563, 702)"	1	0	9376237.55	72	36
19	w	24	r	2	8	73	8	"(570, 692)"	"(563, 702)"	1	    4.84	9376237.55	72	36
19	w	24	r	2	8	74	1	"(889, 669)"	"(916, 687)"	1	0	9378738.24	72	36
19	w	24	r	2	8	74	2	"(261, 181)"	"(284, 178)"	1	0	9379141.21	72	36
19	w	24	r	2	8	74	3	"(261, 638)"	"(269, 630)"	1	0	9380541.11	72	36
19	w	24	r	2	8	74	4	"(922, 433)"	"(949, 430)"	1	0	9381010.69	72	36
19	w	24	r	2	8	74	5	"(572, 88)"	"(573, 61)"	1	0	9381817.90	72	36
19	w	24	r	2	8	74	6	"(884, 76)"	"(886, 58)"	1	0	9382129.98	72	36
19	w	24	r	2	8	74	7	"(103, 437)"	"(122, 429)"	1	0	9382611.01	72	36
19	w	24	r	2	8	74	8	"(570, 692)"	"(577, 718)"	1	0	9383011.26	72	36
19	w	24	r	2	8	74	8	"(570, 692)"	"(577, 718)"	1	    4.86	9383011.26	72	36
19	w	24	r	2	8	75	1	"(889, 669)"	"(871, 679)"	1	0	9386043.80	72	36
19	w	24	r	2	8	75	2	"(261, 181)"	"(285, 199)"	1	0	9386459.08	72	36
19	w	24	r	2	8	75	3	"(261, 638)"	"(284, 653)"	1	0	9386939.03	72	36
19	w	24	r	2	8	75	4	"(922, 433)"	"(939, 438)"	1	0	9387982.39	72	36
19	w	24	r	2	8	75	5	"(572, 88)"	"(609, 71)"	1	0	9388404.51	72	36
19	w	24	r	2	8	75	6	"(884, 76)"	"(862, 71)"	1	0	9388918.07	72	36
19	w	24	r	2	8	75	7	"(103, 437)"	"(121, 462)"	2	0	9390395.62	72	36
19	w	24	r	2	8	75	8	"(570, 692)"	"(574, 674)"	1	0	9390939.03	72	36
19	w	24	r	2	8	75	8	"(570, 692)"	"(574, 674)"	1	    5.57	9390939.03	72	36
19	w	24	r	2	8	76	1	"(889, 669)"	"(890, 678)"	1	0	9396766.11	72	36
19	w	24	r	2	8	76	2	"(261, 181)"	"(281, 205)"	1	0	9397310.21	72	36
19	w	24	r	2	8	76	3	"(261, 638)"	"(299, 645)"	1	0	9397694.43	72	36
19	w	24	r	2	8	76	4	"(922, 433)"	"(935, 435)"	1	0	9398196.75	72	36
19	w	24	r	2	8	76	5	"(572, 88)"	"(562, 97)"	1	0	9398635.84	72	36
19	w	24	r	2	8	76	6	"(884, 76)"	"(915, 85)"	1	0	9399086.22	72	36
19	w	24	r	2	8	76	7	"(103, 437)"	"(102, 448)"	1	0	9399740.81	72	36
19	w	24	r	2	8	76	8	"(570, 692)"	"(582, 729)"	1	0	9400242.87	72	36
19	w	24	r	2	8	76	8	"(570, 692)"	"(582, 729)"	1	    4.22	9400242.87	72	36
19	w	24	r	2	8	77	1	"(889, 669)"	"(912, 688)"	1	0	9404252.29	72	36
19	w	24	r	2	8	77	2	"(261, 181)"	"(286, 197)"	1	0	9404851.09	72	36
19	w	24	r	2	8	77	3	"(261, 638)"	"(269, 652)"	2	0	9406803.76	72	36
19	w	24	r	2	8	77	4	"(922, 433)"	"(932, 425)"	1	0	9407405.15	72	36
19	w	24	r	2	8	77	5	"(572, 88)"	"(579, 94)"	1	0	9407939.54	72	36
19	w	24	r	2	8	77	6	"(884, 76)"	"(877, 79)"	1	0	9408365.71	72	36
19	w	24	r	2	8	77	7	"(103, 437)"	"(108, 469)"	1	0	9408806.38	72	36
19	w	24	r	2	8	77	8	"(570, 692)"	"(590, 703)"	1	0	9409621.02	72	36
19	w	24	r	2	8	77	8	"(570, 692)"	"(590, 703)"	1	    6.91	9409621.02	72	36
19	w	24	r	2	8	78	1	"(889, 669)"	"(887, 659)"	1	0	9415093.74	72	36
19	w	24	r	2	8	78	2	"(261, 181)"	"(282, 163)"	1	0	9415517.47	72	36
19	w	24	r	2	8	78	3	"(261, 638)"	"(308, 626)"	1	0	9416157.15	72	36
19	w	24	r	2	8	78	4	"(922, 433)"	"(884, 441)"	1	0	9416559.90	72	36
19	w	24	r	2	8	78	5	"(572, 88)"	"(623, 102)"	1	0	9417038.20	72	36
19	w	24	r	2	8	78	6	"(884, 76)"	"(882, 72)"	1	0	9417421.89	72	36
19	w	24	r	2	8	78	7	"(103, 437)"	"(83, 433)"	1	0	9417972.82	72	36
19	w	24	r	2	8	78	8	"(570, 692)"	"(559, 704)"	1	0	9418513.10	72	36
19	w	24	r	2	8	78	8	"(570, 692)"	"(559, 704)"	1	    4.12	9418513.10	72	36
19	w	24	r	2	8	79	1	"(889, 669)"	"(876, 674)"	1	0	9421631.94	72	36
19	w	24	r	2	8	79	2	"(261, 181)"	"(289, 178)"	1	0	9422111.43	72	36
19	w	24	r	2	8	79	3	"(261, 638)"	"(257, 655)"	1	0	9422623.63	72	36
19	w	24	r	2	8	79	4	"(922, 433)"	"(913, 446)"	1	0	9423111.85	72	36
19	w	24	r	2	8	79	5	"(572, 88)"	"(565, 82)"	1	0	9423496.23	72	36
19	w	24	r	2	8	79	6	"(884, 76)"	"(872, 75)"	1	0	9423917.76	72	36
19	w	24	r	2	8	79	7	"(103, 437)"	"(129, 441)"	1	0	9424404.39	72	36
19	w	24	r	2	8	79	8	"(570, 692)"	"(558, 716)"	1	0	9424893.69	72	36
19	w	24	r	2	8	79	8	"(570, 692)"	"(558, 716)"	1	    3.95	9424893.69	72	36
19	w	24	r	2	8	80	1	"(889, 669)"	"(876, 684)"	1	0	9428372.96	72	36
19	w	24	r	2	8	80	2	"(261, 181)"	"(272, 188)"	1	0	9428767.26	72	36
19	w	24	r	2	8	80	3	"(261, 638)"	"(269, 657)"	1	0	9429324.47	72	36
19	w	24	r	2	8	80	4	"(922, 433)"	"(926, 439)"	1	0	9429813.14	72	36
19	w	24	r	2	8	80	5	"(572, 88)"	"(576, 123)"	1	0	9430223.69	72	36
19	w	24	r	2	8	80	6	"(884, 76)"	"(935, 73)"	1	0	9430558.13	72	36
19	w	24	r	2	8	80	7	"(103, 437)"	"(74, 457)"	1	0	9431076.76	72	36
19	w	24	r	2	8	80	8	"(570, 692)"	"(531, 673)"	1	0	9431581.50	72	36
19	w	24	r	2	8	80	8	"(570, 692)"	"(531, 673)"	1	    3.78	9431581.50	72	36
19	w	24	r	3	9	81	1	"(889, 669)"	"(897, 670)"	1	0	9436213.36	72	36
19	w	24	r	3	9	81	2	"(261, 181)"	"(267, 189)"	1	0	9436718.60	72	36
19	w	24	r	3	9	81	3	"(884, 76)"	"(871, 82)"	1	0	9438106.40	72	36
19	w	24	r	3	9	81	4	"(922, 433)"	"(919, 420)"	1	0	9438654.14	72	36
19	w	24	r	3	9	81	5	"(572, 88)"	"(550, 100)"	1	0	9439117.37	72	36
19	w	24	r	3	9	81	6	"(261, 638)"	"(313, 628)"	1	0	9439685.89	72	36
19	w	24	r	3	9	81	7	"(103, 437)"	"(129, 445)"	1	0	9440655.35	72	36
19	w	24	r	3	9	81	8	"(570, 692)"	"(533, 695)"	1	0	9441190.59	72	36
19	w	24	r	3	9	81	8	"(570, 692)"	"(533, 695)"	1	    5.80	9441190.59	72	36
19	w	24	r	3	9	82	1	"(889, 669)"	"(892, 678)"	1	0	9443965.82	72	36
19	w	24	r	3	9	82	2	"(261, 181)"	"(262, 175)"	1	0	9444463.98	72	36
19	w	24	r	3	9	82	3	"(884, 76)"	"(894, 72)"	1	0	9445128.75	72	36
19	w	24	r	3	9	82	4	"(922, 433)"	"(909, 430)"	1	0	9445944.94	72	36
19	w	24	r	3	9	82	5	"(572, 88)"	"(567, 94)"	1	0	9446993.95	72	36
19	w	24	r	3	9	82	6	"(261, 638)"	"(284, 645)"	1	0	9447440.24	72	36
19	w	24	r	3	9	82	7	"(103, 437)"	"(96, 438)"	1	0	9447832.77	72	36
19	w	24	r	3	9	82	8	"(570, 692)"	"(564, 706)"	1	0	9448278.29	72	36
19	w	24	r	3	9	82	8	"(570, 692)"	"(564, 706)"	1	    4.89	9448278.29	72	36
19	w	24	r	3	9	83	1	"(889, 669)"	"(907, 690)"	1	0	9451088.81	72	36
19	w	24	r	3	9	83	2	"(261, 181)"	"(275, 194)"	1	0	9451553.04	72	36
19	w	24	r	3	9	83	3	"(884, 76)"	"(879, 87)"	1	0	9452055.77	72	36
19	w	24	r	3	9	83	4	"(922, 433)"	"(912, 451)"	1	0	9452775.33	72	36
19	w	24	r	3	9	83	5	"(572, 88)"	"(556, 104)"	1	0	9453960.38	72	36
19	w	24	r	3	9	83	6	"(261, 638)"	"(304, 653)"	1	0	9454824.29	72	36
19	w	24	r	3	9	83	7	"(103, 437)"	"(108, 446)"	1	0	9455385.26	72	36
19	w	24	r	3	9	83	8	"(570, 692)"	"(575, 698)"	1	0	9455837.55	72	36
19	w	24	r	3	9	83	8	"(570, 692)"	"(575, 698)"	1	    5.52	9455837.55	72	36
19	w	24	r	3	9	84	1	"(889, 669)"	"(887, 667)"	1	0	9459998.39	72	36
19	w	24	r	3	9	84	2	"(261, 181)"	"(278, 182)"	1	0	9460487.85	72	36
19	w	24	r	3	9	84	3	"(884, 76)"	"(892, 86)"	1	0	9461010.21	72	36
19	w	24	r	3	9	84	4	"(922, 433)"	"(942, 456)"	1	0	9461401.58	72	36
19	w	24	r	3	9	84	5	"(572, 88)"	"(594, 98)"	1	0	9461751.11	72	36
19	w	24	r	3	9	84	6	"(261, 638)"	"(260, 627)"	1	0	9462225.66	72	36
19	w	24	r	3	9	84	7	"(103, 437)"	"(96, 452)"	1	0	9462680.77	72	36
19	w	24	r	3	9	84	8	"(570, 692)"	"(565, 697)"	1	0	9463160.64	72	36
19	w	24	r	3	9	84	8	"(570, 692)"	"(565, 697)"	1	    4.10	9463160.64	72	36
19	w	24	r	3	9	85	1	"(889, 669)"	"(909, 673)"	1	0	9466674.49	72	36
19	w	24	r	3	9	85	2	"(261, 181)"	"(259, 182)"	1	0	9467241.56	72	36
19	w	24	r	3	9	85	3	"(884, 76)"	"(870, 53)"	1	0	9467816.09	72	36
19	w	24	r	3	9	85	4	"(922, 433)"	"(934, 414)"	2	0	9469113.40	72	36
19	w	24	r	3	9	85	5	"(572, 88)"	"(587, 62)"	1	0	9469591.13	72	36
19	w	24	r	3	9	85	6	"(261, 638)"	"(287, 642)"	1	0	9470415.18	72	36
19	w	24	r	3	9	85	7	"(103, 437)"	"(134, 444)"	1	0	9470833.43	72	36
19	w	24	r	3	9	85	8	"(570, 692)"	"(568, 690)"	1	0	9471322.27	72	36
19	w	24	r	3	9	85	8	"(570, 692)"	"(568, 690)"	1	    5.26	9471322.27	72	36
19	w	24	r	3	9	86	1	"(889, 669)"	"(874, 693)"	1	0	9474192.88	72	36
19	w	24	r	3	9	86	2	"(261, 181)"	"(263, 205)"	1	0	9474776.31	72	36
19	w	24	r	3	9	86	3	"(884, 76)"	"(854, 95)"	1	0	9475319.31	72	36
19	w	24	r	3	9	86	4	"(922, 433)"	"(927, 412)"	1	0	9475791.71	72	36
19	w	24	r	3	9	86	5	"(572, 88)"	"(600, 131)"	1	0	9476249.11	72	36
19	w	24	r	3	9	86	6	"(261, 638)"	"(296, 640)"	1	0	9476737.47	72	36
19	w	24	r	3	9	86	7	"(103, 437)"	"(134, 450)"	1	0	9477128.55	72	36
19	w	24	r	3	9	86	8	"(570, 692)"	"(554, 697)"	1	0	9477617.19	72	36
19	w	24	r	3	9	86	8	"(570, 692)"	"(554, 697)"	1	    3.90	9477617.19	72	36
19	w	24	r	3	9	87	1	"(889, 669)"	"(908, 691)"	1	0	9482240.28	72	36
19	w	24	r	3	9	87	2	"(261, 181)"	"(265, 183)"	1	0	9482912.94	72	36
19	w	24	r	3	9	87	3	"(884, 76)"	"(860, 91)"	1	0	9483384.08	72	36
19	w	24	r	3	9	87	4	"(922, 433)"	"(927, 460)"	1	0	9483954.24	72	36
19	w	24	r	3	9	87	5	"(572, 88)"	"(569, 80)"	1	0	9484443.11	72	36
19	w	24	r	3	9	87	6	"(261, 638)"	"(289, 619)"	1	0	9485035.13	72	36
19	w	24	r	3	9	87	7	"(103, 437)"	"(110, 444)"	1	0	9485537.35	72	36
19	w	24	r	3	9	87	8	"(570, 692)"	"(586, 719)"	1	0	9486002.41	72	36
19	w	24	r	3	9	87	8	"(570, 692)"	"(586, 719)"	1	    4.57	9486002.41	72	36
19	w	24	r	3	9	88	1	"(889, 669)"	"(888, 681)"	1	0	9490049.06	72	36
19	w	24	r	3	9	88	2	"(261, 181)"	"(281, 201)"	1	0	9490506.80	72	36
19	w	24	r	3	9	88	3	"(884, 76)"	"(915, 111)"	1	0	9490897.21	72	36
19	w	24	r	3	9	88	4	"(922, 433)"	"(971, 450)"	2	0	9492049.32	72	36
19	w	24	r	3	9	88	5	"(572, 88)"	"(597, 120)"	1	0	9492620.29	72	36
19	w	24	r	3	9	88	6	"(261, 638)"	"(281, 635)"	1	0	9493208.96	72	36
19	w	24	r	3	9	88	7	"(103, 437)"	"(88, 463)"	1	0	9493681.93	72	36
19	w	24	r	3	9	88	8	"(570, 692)"	"(574, 695)"	1	0	9494035.12	72	36
19	w	24	r	3	9	88	8	"(570, 692)"	"(574, 695)"	1	    4.92	9494035.12	72	36
19	w	24	r	3	9	89	1	"(889, 669)"	"(893, 677)"	1	0	9497442.85	72	36
19	w	24	r	3	9	89	2	"(261, 181)"	"(249, 173)"	1	0	9498036.03	72	36
19	w	24	r	3	9	89	3	"(884, 76)"	"(909, 85)"	1	0	9498538.75	72	36
19	w	24	r	3	9	89	4	"(922, 433)"	"(927, 407)"	1	0	9498905.05	72	36
19	w	24	r	3	9	89	5	"(572, 88)"	"(577, 73)"	1	0	9499473.34	72	36
19	w	24	r	3	9	89	6	"(261, 638)"	"(233, 615)"	1	0	9499969.48	72	36
19	w	24	r	3	9	89	7	"(103, 437)"	"(111, 455)"	1	0	9500432.48	72	36
19	w	24	r	3	9	89	8	"(570, 692)"	"(564, 702)"	1	0	9500899.78	72	36
19	w	24	r	3	9	89	8	"(570, 692)"	"(564, 702)"	1	    3.89	9500899.78	72	36
19	w	24	r	3	9	90	1	"(889, 669)"	"(872, 688)"	1	0	9504689.76	72	36
19	w	24	r	3	9	90	2	"(261, 181)"	"(296, 181)"	1	0	9505179.47	72	36
19	w	24	r	3	9	90	3	"(884, 76)"	"(865, 81)"	1	0	9505682.85	72	36
19	w	24	r	3	9	90	4	"(922, 433)"	"(939, 452)"	2	0	9507130.30	72	36
19	w	24	r	3	9	90	5	"(572, 88)"	"(539, 81)"	1	0	9507579.94	72	36
19	w	24	r	3	9	90	6	"(261, 638)"	"(264, 638)"	1	0	9508283.67	72	36
19	w	24	r	3	9	90	7	"(103, 437)"	"(115, 455)"	1	0	9508737.17	72	36
19	w	24	r	3	9	90	8	"(570, 692)"	"(576, 712)"	1	0	9509313.58	72	36
19	w	24	r	3	9	90	8	"(570, 692)"	"(576, 712)"	1	    5.19	9509313.58	72	36
19	w	24	r	3	10	91	1	"(889, 669)"	"(899, 667)"	1	0	9517251.89	72	36
19	w	24	r	3	10	91	2	"(261, 181)"	"(222, 187)"	1	0	9517722.56	72	36
19	w	24	r	3	10	91	3	"(884, 76)"	"(863, 86)"	1	0	9518289.36	72	36
19	w	24	r	3	10	91	4	"(922, 433)"	"(921, 436)"	1	0	9518769.20	72	36
19	w	24	r	3	10	91	5	"(572, 88)"	"(612, 118)"	1	0	9519292.70	72	36
19	w	24	r	3	10	91	6	"(261, 638)"	"(275, 642)"	1	0	9519763.56	72	36
19	w	24	r	3	10	91	7	"(103, 437)"	"(91, 424)"	1	0	9520082.32	72	36
19	w	24	r	3	10	91	8	"(570, 692)"	"(535, 652)"	1	0	9520537.65	72	36
19	w	24	r	3	10	91	8	"(570, 692)"	"(535, 652)"	1	    3.94	9520537.65	72	36
19	w	24	r	3	10	92	1	"(889, 669)"	"(877, 690)"	1	0	9523804.89	72	36
19	w	24	r	3	10	92	2	"(261, 181)"	"(283, 200)"	1	0	9524413.32	72	36
19	w	24	r	3	10	92	3	"(884, 76)"	"(904, 109)"	1	0	9524932.68	72	36
19	w	24	r	3	10	92	4	"(922, 433)"	"(922, 430)"	1	0	9525347.41	72	36
19	w	24	r	3	10	92	5	"(572, 88)"	"(568, 90)"	1	0	9525818.45	72	36
19	w	24	r	3	10	92	6	"(261, 638)"	"(277, 636)"	1	0	9526358.23	72	36
19	w	24	r	3	10	92	7	"(103, 437)"	"(96, 432)"	1	0	9526924.35	72	36
19	w	24	r	3	10	92	8	"(570, 692)"	"(559, 684)"	1	0	9527373.48	72	36
19	w	24	r	3	10	92	8	"(570, 692)"	"(559, 684)"	1	    4.10	9527373.48	72	36
19	w	24	r	3	10	93	1	"(889, 669)"	"(880, 648)"	1	0	9531277.11	72	36
19	w	24	r	3	10	93	2	"(261, 181)"	"(289, 187)"	1	0	9531772.49	72	36
19	w	24	r	3	10	93	3	"(884, 76)"	"(874, 91)"	1	0	9532194.30	72	36
19	w	24	r	3	10	93	4	"(922, 433)"	"(925, 436)"	1	0	9532693.63	72	36
19	w	24	r	3	10	93	5	"(572, 88)"	"(571, 100)"	1	0	9533316.39	72	36
19	w	24	r	3	10	93	6	"(261, 638)"	"(263, 632)"	1	0	9534242.89	72	36
19	w	24	r	3	10	93	7	"(103, 437)"	"(127, 452)"	1	0	9534755.70	72	36
19	w	24	r	3	10	93	8	"(570, 692)"	"(555, 683)"	1	0	9535349.05	72	36
19	w	24	r	3	10	93	8	"(570, 692)"	"(555, 683)"	1	    4.68	9535349.05	72	36
19	w	24	r	3	10	94	1	"(889, 669)"	"(906, 677)"	1	0	9538916.18	72	36
19	w	24	r	3	10	94	2	"(261, 181)"	"(305, 186)"	1	0	9539394.91	72	36
19	w	24	r	3	10	94	3	"(884, 76)"	"(886, 84)"	1	0	9539886.47	72	36
19	w	24	r	3	10	94	4	"(922, 433)"	"(926, 413)"	1	0	9540342.25	72	36
19	w	24	r	3	10	94	5	"(572, 88)"	"(585, 89)"	1	0	9540877.77	72	36
19	w	24	r	3	10	94	6	"(261, 638)"	"(257, 652)"	1	0	9541859.77	72	36
19	w	24	r	3	10	94	7	"(103, 437)"	"(125, 455)"	1	0	9542262.64	72	36
19	w	24	r	3	10	94	8	"(570, 692)"	"(567, 700)"	1	0	9542788.34	72	36
19	w	24	r	3	10	94	8	"(570, 692)"	"(567, 700)"	1	    4.30	9542788.34	72	36
19	w	24	r	3	10	95	1	"(889, 669)"	"(898, 677)"	1	0	9546931.76	72	36
19	w	24	r	3	10	95	2	"(261, 181)"	"(250, 176)"	1	0	9547597.43	72	36
19	w	24	r	3	10	95	3	"(884, 76)"	"(882, 65)"	1	0	9548124.85	72	36
19	w	24	r	3	10	95	4	"(922, 433)"	"(918, 477)"	1	0	9548620.41	72	36
19	w	24	r	3	10	95	5	"(572, 88)"	"(587, 98)"	1	0	9549138.99	72	36
19	w	24	r	3	10	95	6	"(261, 638)"	"(282, 627)"	1	0	9549676.36	72	36
19	w	24	r	3	10	95	7	"(103, 437)"	"(91, 431)"	2	0	9551372.01	72	36
19	w	24	r	3	10	95	8	"(570, 692)"	"(574, 715)"	1	0	9551964.91	72	36
19	w	24	r	3	10	95	8	"(570, 692)"	"(574, 715)"	1	    5.72	9551964.91	72	36
19	w	24	r	3	10	96	1	"(889, 669)"	"(875, 663)"	1	0	9557256.49	72	36
19	w	24	r	3	10	96	2	"(261, 181)"	"(246, 161)"	1	0	9557749.52	72	36
19	w	24	r	3	10	96	3	"(884, 76)"	"(867, 100)"	1	0	9558143.16	72	36
19	w	24	r	3	10	96	4	"(922, 433)"	"(906, 472)"	1	0	9558492.29	72	36
19	w	24	r	3	10	96	5	"(572, 88)"	"(588, 102)"	1	0	9558870.70	72	36
19	w	24	r	3	10	96	6	"(261, 638)"	"(295, 648)"	1	0	9559268.49	72	36
19	w	24	r	3	10	96	7	"(103, 437)"	"(134, 427)"	1	0	9559667.87	72	36
19	w	24	r	3	10	96	8	"(570, 692)"	"(574, 655)"	1	0	9560013.03	72	36
19	w	24	r	3	10	96	8	"(570, 692)"	"(574, 655)"	1	    3.42	9560013.03	72	36
19	w	24	r	3	10	97	1	"(889, 669)"	"(908, 655)"	1	0	9563949.73	72	36
19	w	24	r	3	10	97	2	"(261, 181)"	"(278, 180)"	1	0	9564444.04	72	36
19	w	24	r	3	10	97	3	"(884, 76)"	"(884, 97)"	1	0	9564957.44	72	36
19	w	24	r	3	10	97	4	"(922, 433)"	"(928, 437)"	1	0	9565220.75	72	36
19	w	24	r	3	10	97	5	"(572, 88)"	"(574, 81)"	1	0	9565565.29	72	36
19	w	24	r	3	10	97	6	"(261, 638)"	"(274, 643)"	1	0	9566069.96	72	36
19	w	24	r	3	10	97	7	"(103, 437)"	"(131, 431)"	2	0	9566741.40	72	36
19	w	24	r	3	10	97	8	"(570, 692)"	"(537, 675)"	1	0	9567198.58	72	36
19	w	24	r	3	10	97	8	"(570, 692)"	"(537, 675)"	1	    3.78	9567198.58	72	36
19	w	24	r	3	10	98	1	"(889, 669)"	"(866, 659)"	1	0	9571228.90	72	36
19	w	24	r	3	10	98	2	"(261, 181)"	"(259, 156)"	1	0	9571669.14	72	36
19	w	24	r	3	10	98	3	"(884, 76)"	"(876, 81)"	1	0	9572191.34	72	36
19	w	24	r	3	10	98	4	"(922, 433)"	"(908, 384)"	1	0	9572504.25	72	36
19	w	24	r	3	10	98	5	"(572, 88)"	"(548, 93)"	1	0	9573079.12	72	36
19	w	24	r	3	10	98	6	"(261, 638)"	"(246, 624)"	1	0	9573832.09	72	36
19	w	24	r	3	10	98	7	"(103, 437)"	"(94, 433)"	1	0	9574303.07	72	36
19	w	24	r	3	10	98	8	"(570, 692)"	"(587, 694)"	1	0	9574796.45	72	36
19	w	24	r	3	10	98	8	"(570, 692)"	"(587, 694)"	1	    4.31	9574796.45	72	36
19	w	24	r	3	10	99	1	"(889, 669)"	"(909, 685)"	1	0	9577670.83	72	36
19	w	24	r	3	10	99	2	"(261, 181)"	"(277, 167)"	2	0	9579198.14	72	36
19	w	24	r	3	10	99	3	"(884, 76)"	"(859, 82)"	1	0	9579670.72	72	36
19	w	24	r	3	10	99	4	"(922, 433)"	"(926, 447)"	1	0	9580255.25	72	36
19	w	24	r	3	10	99	5	"(572, 88)"	"(583, 93)"	1	0	9580790.84	72	36
19	w	24	r	3	10	99	6	"(261, 638)"	"(289, 633)"	1	0	9581309.88	72	36
19	w	24	r	3	10	99	7	"(103, 437)"	"(106, 445)"	1	0	9581825.04	72	36
19	w	24	r	3	10	99	8	"(570, 692)"	"(564, 698)"	1	0	9582360.63	72	36
19	w	24	r	3	10	99	8	"(570, 692)"	"(564, 698)"	1	    5.18	9582360.63	72	36
19	w	24	r	3	10	100	1	"(889, 669)"	"(922, 681)"	1	0	9585717.52	72	36
19	w	24	r	3	10	100	2	"(261, 181)"	"(272, 187)"	1	0	9586160.13	72	36
19	w	24	r	3	10	100	3	"(884, 76)"	"(900, 79)"	1	0	9586583.67	72	36
19	w	24	r	3	10	100	4	"(922, 433)"	"(919, 427)"	1	0	9587093.77	72	36
19	w	24	r	3	10	100	5	"(572, 88)"	"(610, 101)"	1	0	9587574.52	72	36
19	w	24	r	3	10	100	6	"(261, 638)"	"(247, 659)"	1	0	9588080.84	72	36
19	w	24	r	3	10	100	7	"(103, 437)"	"(113, 441)"	1	0	9588415.89	72	36
19	w	24	r	3	10	100	8	"(570, 692)"	"(591, 697)"	1	0	9588864.23	72	36
19	w	24	r	3	10	100	8	"(570, 692)"	"(591, 697)"	1	    3.48	9588864.23	72	36
