VPnr	VPgender	VPage	VPeyeDominance	Condition	Block	Trial	Number	LocNumberCurrent	LocClickCorrect	NrClicksPerCircle	TimeTrial	TimeClickCorrect	SizeCircles	ClickTolerance
8	w	24	r	1	1	0	1	"(889, 669)"	"(909, 677)"	1	0	8371155.15	72	36
8	w	24	r	1	1	0	2	"(261, 181)"	"(254, 177)"	1	0	8372497.71	72	36
8	w	24	r	1	1	0	3	"(261, 638)"	"(261, 637)"	1	0	8373666.65	72	36
8	w	24	r	1	1	0	4	"(922, 433)"	"(913, 429)"	1	0	8374755.83	72	36
8	w	24	r	1	1	0	5	"(572, 88)"	"(559, 90)"	1	0	8375587.49	72	36
8	w	24	r	1	1	0	6	"(884, 76)"	"(889, 85)"	1	0	8376203.55	72	36
8	w	24	r	1	1	0	7	"(103, 437)"	"(109, 446)"	1	0	8377587.18	72	36
8	w	24	r	1	1	0	8	"(570, 692)"	"(575, 698)"	1	0	8378761.12	72	36
8	w	24	r	1	1	0	8	"(570, 692)"	"(575, 698)"	1	   11.73	8378761.12	72	36
8	w	24	r	1	1	1	1	"(889, 669)"	"(882, 661)"	1	0	8444632.03	72	36
8	w	24	r	1	1	1	2	"(261, 181)"	"(266, 193)"	1	0	8445639.34	72	36
8	w	24	r	1	1	1	3	"(261, 638)"	"(256, 651)"	1	0	8446765.63	72	36
8	w	24	r	1	1	1	4	"(922, 433)"	"(938, 445)"	1	0	8447728.62	72	36
8	w	24	r	1	1	1	5	"(572, 88)"	"(554, 94)"	1	0	8448606.53	72	36
8	w	24	r	1	1	1	6	"(884, 76)"	"(899, 84)"	1	0	8449413.14	72	36
8	w	24	r	1	1	1	7	"(103, 437)"	"(100, 439)"	1	0	8450350.11	72	36
8	w	24	r	1	1	1	8	"(570, 692)"	"(578, 699)"	1	0	8451372.74	72	36
8	w	24	r	1	1	1	8	"(570, 692)"	"(578, 699)"	1	    8.67	8451372.74	72	36
8	w	24	r	1	1	2	1	"(889, 669)"	"(891, 661)"	1	0	8456937.06	72	36
8	w	24	r	1	1	2	2	"(261, 181)"	"(263, 200)"	1	0	8457758.62	72	36
8	w	24	r	1	1	2	3	"(261, 638)"	"(269, 631)"	1	0	8458569.26	72	36
8	w	24	r	1	1	2	4	"(922, 433)"	"(931, 432)"	1	0	8459738.87	72	36
8	w	24	r	1	1	2	5	"(572, 88)"	"(583, 99)"	1	0	8460929.12	72	36
8	w	24	r	1	1	2	6	"(884, 76)"	"(886, 86)"	1	0	8461478.82	72	36
8	w	24	r	1	1	2	7	"(103, 437)"	"(88, 448)"	1	0	8462328.84	72	36
8	w	24	r	1	1	2	8	"(570, 692)"	"(558, 685)"	1	0	8463087.87	72	36
8	w	24	r	1	1	2	8	"(570, 692)"	"(558, 685)"	1	    7.54	8463087.87	72	36
8	w	24	r	1	1	3	1	"(889, 669)"	"(879, 668)"	1	0	8469063.85	72	36
8	w	24	r	1	1	3	2	"(261, 181)"	"(267, 189)"	1	0	8470241.00	72	36
8	w	24	r	1	1	3	3	"(261, 638)"	"(260, 644)"	1	0	8471024.94	72	36
8	w	24	r	1	1	3	4	"(922, 433)"	"(909, 436)"	1	0	8472034.05	72	36
8	w	24	r	1	1	3	5	"(572, 88)"	"(566, 90)"	1	0	8473046.49	72	36
8	w	24	r	1	1	3	6	"(884, 76)"	"(897, 79)"	1	0	8473577.49	72	36
8	w	24	r	1	1	3	7	"(103, 437)"	"(93, 439)"	1	0	8474546.06	72	36
8	w	24	r	1	1	3	8	"(570, 692)"	"(574, 708)"	1	0	8475183.11	72	36
8	w	24	r	1	1	3	8	"(570, 692)"	"(574, 708)"	1	    7.48	8475183.11	72	36
8	w	24	r	1	1	4	1	"(889, 669)"	"(904, 675)"	1	0	8482887.50	72	36
8	w	24	r	1	1	4	2	"(261, 181)"	"(260, 193)"	1	0	8483960.53	72	36
8	w	24	r	1	1	4	3	"(261, 638)"	"(257, 637)"	1	0	8484934.56	72	36
8	w	24	r	1	1	4	4	"(922, 433)"	"(943, 437)"	1	0	8486394.45	72	36
8	w	24	r	1	1	4	5	"(572, 88)"	"(561, 97)"	1	0	8487185.63	72	36
8	w	24	r	1	1	4	6	"(884, 76)"	"(851, 82)"	1	0	8487962.63	72	36
8	w	24	r	1	1	4	7	"(103, 437)"	"(91, 440)"	1	0	8489066.23	72	36
8	w	24	r	1	1	4	8	"(570, 692)"	"(562, 701)"	1	0	8489688.23	72	36
8	w	24	r	1	1	4	8	"(570, 692)"	"(562, 701)"	1	    8.12	8489688.23	72	36
8	w	24	r	1	1	5	1	"(889, 669)"	"(901, 673)"	1	0	8496080.65	72	36
8	w	24	r	1	1	5	2	"(261, 181)"	"(260, 176)"	1	0	8497135.94	72	36
8	w	24	r	1	1	5	3	"(261, 638)"	"(267, 632)"	1	0	8497968.28	72	36
8	w	24	r	1	1	5	4	"(922, 433)"	"(930, 432)"	1	0	8498769.95	72	36
8	w	24	r	1	1	5	5	"(572, 88)"	"(592, 93)"	1	0	8499906.02	72	36
8	w	24	r	1	1	5	6	"(884, 76)"	"(891, 83)"	1	0	8500603.29	72	36
8	w	24	r	1	1	5	7	"(103, 437)"	"(95, 442)"	1	0	8501425.77	72	36
8	w	24	r	1	1	5	8	"(570, 692)"	"(560, 702)"	1	0	8502048.63	72	36
8	w	24	r	1	1	5	8	"(570, 692)"	"(560, 702)"	1	    7.41	8502048.63	72	36
8	w	24	r	1	1	6	1	"(889, 669)"	"(904, 669)"	1	0	8507610.35	72	36
8	w	24	r	1	1	6	2	"(261, 181)"	"(266, 184)"	1	0	8508384.26	72	36
8	w	24	r	1	1	6	3	"(261, 638)"	"(271, 629)"	1	0	8509144.32	72	36
8	w	24	r	1	1	6	4	"(922, 433)"	"(930, 428)"	1	0	8509969.99	72	36
8	w	24	r	1	1	6	5	"(572, 88)"	"(577, 80)"	1	0	8510682.88	72	36
8	w	24	r	1	1	6	6	"(884, 76)"	"(869, 87)"	1	0	8511232.47	72	36
8	w	24	r	1	1	6	7	"(103, 437)"	"(108, 448)"	1	0	8512417.60	72	36
8	w	24	r	1	1	6	8	"(570, 692)"	"(563, 707)"	1	0	8513329.79	72	36
8	w	24	r	1	1	6	8	"(570, 692)"	"(563, 707)"	1	    7.05	8513329.79	72	36
8	w	24	r	1	1	7	1	"(889, 669)"	"(879, 663)"	1	0	8518300.62	72	36
8	w	24	r	1	1	7	2	"(261, 181)"	"(252, 194)"	1	0	8519304.86	72	36
8	w	24	r	1	1	7	3	"(261, 638)"	"(267, 650)"	1	0	8520129.41	72	36
8	w	24	r	1	1	7	4	"(922, 433)"	"(942, 428)"	1	0	8520834.07	72	36
8	w	24	r	1	1	7	5	"(572, 88)"	"(568, 77)"	1	0	8521490.29	72	36
8	w	24	r	1	1	7	6	"(884, 76)"	"(903, 78)"	1	0	8522050.83	72	36
8	w	24	r	1	1	7	7	"(103, 437)"	"(111, 459)"	1	0	8522876.49	72	36
8	w	24	r	1	1	7	8	"(570, 692)"	"(562, 707)"	1	0	8523476.53	72	36
8	w	24	r	1	1	7	8	"(570, 692)"	"(562, 707)"	1	    6.37	8523476.53	72	36
8	w	24	r	1	1	8	1	"(889, 669)"	"(907, 688)"	1	0	8528161.30	72	36
8	w	24	r	1	1	8	2	"(261, 181)"	"(269, 189)"	1	0	8529052.05	72	36
8	w	24	r	1	1	8	3	"(261, 638)"	"(267, 663)"	1	0	8529778.91	72	36
8	w	24	r	1	1	8	4	"(922, 433)"	"(942, 453)"	1	0	8530666.35	72	36
8	w	24	r	1	1	8	5	"(572, 88)"	"(589, 92)"	1	0	8531268.83	72	36
8	w	24	r	1	1	8	6	"(884, 76)"	"(897, 77)"	1	0	8531811.42	72	36
8	w	24	r	1	1	8	7	"(103, 437)"	"(119, 441)"	1	0	8532645.36	72	36
8	w	24	r	1	1	8	8	"(570, 692)"	"(584, 716)"	1	0	8533354.75	72	36
8	w	24	r	1	1	8	8	"(570, 692)"	"(584, 716)"	1	    6.22	8533354.75	72	36
8	w	24	r	1	1	9	1	"(889, 669)"	"(899, 665)"	1	0	8540241.94	72	36
8	w	24	r	1	1	9	2	"(261, 181)"	"(259, 198)"	1	0	8541276.85	72	36
8	w	24	r	1	1	9	3	"(261, 638)"	"(263, 627)"	1	0	8541899.74	72	36
8	w	24	r	1	1	9	4	"(922, 433)"	"(926, 447)"	1	0	8542749.42	72	36
8	w	24	r	1	1	9	5	"(572, 88)"	"(566, 92)"	1	0	8543364.72	72	36
8	w	24	r	1	1	9	6	"(884, 76)"	"(901, 85)"	1	0	8543779.58	72	36
8	w	24	r	1	1	9	7	"(103, 437)"	"(105, 444)"	1	0	8544290.16	72	36
8	w	24	r	1	1	9	8	"(570, 692)"	"(567, 706)"	1	0	8544891.89	72	36
8	w	24	r	1	1	9	8	"(570, 692)"	"(567, 706)"	1	    5.77	8544891.89	72	36
8	w	24	r	1	1	10	1	"(889, 669)"	"(904, 678)"	1	0	8549557.66	72	36
8	w	24	r	1	1	10	2	"(261, 181)"	"(267, 169)"	1	0	8550525.71	72	36
8	w	24	r	1	1	10	3	"(261, 638)"	"(265, 659)"	1	0	8551093.09	72	36
8	w	24	r	1	1	10	4	"(922, 433)"	"(892, 434)"	1	0	8551755.76	72	36
8	w	24	r	1	1	10	5	"(572, 88)"	"(571, 122)"	1	0	8552451.58	72	36
8	w	24	r	1	1	10	6	"(884, 76)"	"(886, 87)"	1	0	8552972.01	72	36
8	w	24	r	1	1	10	7	"(103, 437)"	"(96, 445)"	1	0	8553459.57	72	36
8	w	24	r	1	1	10	8	"(570, 692)"	"(585, 700)"	1	0	8554268.52	72	36
8	w	24	r	1	1	10	8	"(570, 692)"	"(585, 700)"	1	    5.66	8554268.52	72	36
8	w	24	r	1	2	11	1	"(889, 669)"	"(887, 691)"	1	0	8561107.64	72	36
8	w	24	r	1	2	11	2	"(261, 181)"	"(269, 201)"	1	0	8562046.13	72	36
8	w	24	r	1	2	11	3	"(261, 638)"	"(263, 650)"	1	0	8562582.06	72	36
8	w	24	r	1	2	11	4	"(922, 433)"	"(911, 432)"	1	0	8563244.97	72	36
8	w	24	r	1	2	11	5	"(572, 88)"	"(597, 95)"	1	0	8563907.31	72	36
8	w	24	r	1	2	11	6	"(884, 76)"	"(880, 78)"	1	0	8564331.84	72	36
8	w	24	r	1	2	11	7	"(103, 437)"	"(102, 440)"	1	0	8565117.38	72	36
8	w	24	r	1	2	11	8	"(570, 692)"	"(589, 706)"	1	0	8565612.11	72	36
8	w	24	r	1	2	11	8	"(570, 692)"	"(589, 706)"	1	    5.48	8565612.11	72	36
8	w	24	r	1	2	12	1	"(889, 669)"	"(887, 673)"	1	0	8569117.45	72	36
8	w	24	r	1	2	12	2	"(261, 181)"	"(262, 195)"	1	0	8570102.47	72	36
8	w	24	r	1	2	12	3	"(261, 638)"	"(254, 649)"	1	0	8570782.32	72	36
8	w	24	r	1	2	12	4	"(922, 433)"	"(920, 438)"	1	0	8571534.97	72	36
8	w	24	r	1	2	12	5	"(572, 88)"	"(568, 105)"	1	0	8572156.00	72	36
8	w	24	r	1	2	12	6	"(884, 76)"	"(891, 79)"	1	0	8572775.04	72	36
8	w	24	r	1	2	12	7	"(103, 437)"	"(111, 441)"	1	0	8573500.39	72	36
8	w	24	r	1	2	12	8	"(570, 692)"	"(559, 697)"	1	0	8574101.77	72	36
8	w	24	r	1	2	12	8	"(570, 692)"	"(559, 697)"	1	    5.76	8574101.77	72	36
8	w	24	r	1	2	13	1	"(889, 669)"	"(892, 662)"	1	0	8577862.04	72	36
8	w	24	r	1	2	13	2	"(261, 181)"	"(243, 175)"	1	0	8578917.50	72	36
8	w	24	r	1	2	13	3	"(261, 638)"	"(270, 640)"	1	0	8579461.05	72	36
8	w	24	r	1	2	13	4	"(922, 433)"	"(925, 448)"	1	0	8580046.53	72	36
8	w	24	r	1	2	13	5	"(572, 88)"	"(590, 76)"	1	0	8580663.61	72	36
8	w	24	r	1	2	13	6	"(884, 76)"	"(874, 67)"	1	0	8581137.19	72	36
8	w	24	r	1	2	13	7	"(103, 437)"	"(95, 439)"	1	0	8582015.44	72	36
8	w	24	r	1	2	13	8	"(570, 692)"	"(556, 690)"	1	0	8582533.99	72	36
8	w	24	r	1	2	13	8	"(570, 692)"	"(556, 690)"	1	    5.57	8582533.99	72	36
8	w	24	r	1	2	14	1	"(889, 669)"	"(896, 666)"	1	0	8587095.58	72	36
8	w	24	r	1	2	14	2	"(261, 181)"	"(274, 182)"	1	0	8587788.14	72	36
8	w	24	r	1	2	14	3	"(261, 638)"	"(272, 623)"	1	0	8589013.03	72	36
8	w	24	r	1	2	14	4	"(922, 433)"	"(926, 431)"	1	0	8589741.10	72	36
8	w	24	r	1	2	14	5	"(572, 88)"	"(582, 97)"	1	0	8590408.64	72	36
8	w	24	r	1	2	14	6	"(884, 76)"	"(900, 80)"	1	0	8591023.89	72	36
8	w	24	r	1	2	14	7	"(103, 437)"	"(96, 440)"	1	0	8591654.38	72	36
8	w	24	r	1	2	14	8	"(570, 692)"	"(559, 697)"	1	0	8592525.86	72	36
8	w	24	r	1	2	14	8	"(570, 692)"	"(559, 697)"	1	    6.75	8592525.86	72	36
8	w	24	r	1	2	15	1	"(889, 669)"	"(885, 681)"	1	0	8597006.38	72	36
8	w	24	r	1	2	15	2	"(261, 181)"	"(251, 190)"	1	0	8597885.73	72	36
8	w	24	r	1	2	15	3	"(261, 638)"	"(266, 649)"	1	0	8598549.45	72	36
8	w	24	r	1	2	15	4	"(922, 433)"	"(936, 441)"	1	0	8599128.57	72	36
8	w	24	r	1	2	15	5	"(572, 88)"	"(588, 112)"	1	0	8599751.89	72	36
8	w	24	r	1	2	15	6	"(884, 76)"	"(894, 85)"	1	0	8600359.13	72	36
8	w	24	r	1	2	15	7	"(103, 437)"	"(120, 409)"	1	0	8601213.31	72	36
8	w	24	r	1	2	15	8	"(570, 692)"	"(556, 706)"	2	0	8602208.08	72	36
8	w	24	r	1	2	15	8	"(570, 692)"	"(556, 706)"	2	    6.35	8602208.08	72	36
8	w	24	r	1	2	16	1	"(889, 669)"	"(892, 677)"	1	0	8607152.06	72	36
8	w	24	r	1	2	16	2	"(261, 181)"	"(277, 182)"	1	0	8608208.30	72	36
8	w	24	r	1	2	16	3	"(261, 638)"	"(256, 643)"	1	0	8608758.05	72	36
8	w	24	r	1	2	16	4	"(922, 433)"	"(933, 427)"	1	0	8609607.69	72	36
8	w	24	r	1	2	16	5	"(572, 88)"	"(567, 92)"	1	0	8610144.08	72	36
8	w	24	r	1	2	16	6	"(884, 76)"	"(882, 73)"	1	0	8610641.07	72	36
8	w	24	r	1	2	16	7	"(103, 437)"	"(106, 450)"	1	0	8611165.75	72	36
8	w	24	r	1	2	16	8	"(570, 692)"	"(557, 690)"	1	0	8611766.38	72	36
8	w	24	r	1	2	16	8	"(570, 692)"	"(557, 690)"	1	    5.88	8611766.38	72	36
8	w	24	r	1	2	17	1	"(889, 669)"	"(904, 677)"	1	0	8615510.80	72	36
8	w	24	r	1	2	17	2	"(261, 181)"	"(284, 199)"	1	0	8616269.71	72	36
8	w	24	r	1	2	17	3	"(261, 638)"	"(255, 645)"	1	0	8616849.22	72	36
8	w	24	r	1	2	17	4	"(922, 433)"	"(931, 453)"	1	0	8617552.83	72	36
8	w	24	r	1	2	17	5	"(572, 88)"	"(570, 93)"	1	0	8618711.08	72	36
8	w	24	r	1	2	17	6	"(884, 76)"	"(887, 75)"	1	0	8619262.52	72	36
8	w	24	r	1	2	17	7	"(103, 437)"	"(117, 444)"	1	0	8619918.64	72	36
8	w	24	r	1	2	17	8	"(570, 692)"	"(595, 700)"	1	0	8620870.66	72	36
8	w	24	r	1	2	17	8	"(570, 692)"	"(595, 700)"	1	    6.43	8620870.66	72	36
8	w	24	r	1	2	18	1	"(889, 669)"	"(935, 672)"	1	0	8624231.60	72	36
8	w	24	r	1	2	18	2	"(261, 181)"	"(275, 174)"	1	0	8625304.37	72	36
8	w	24	r	1	2	18	3	"(261, 638)"	"(286, 644)"	1	0	8626345.22	72	36
8	w	24	r	1	2	18	4	"(922, 433)"	"(912, 445)"	1	0	8627014.84	72	36
8	w	24	r	1	2	18	5	"(572, 88)"	"(576, 91)"	1	0	8627606.64	72	36
8	w	24	r	1	2	18	6	"(884, 76)"	"(873, 85)"	1	0	8628104.41	72	36
8	w	24	r	1	2	18	7	"(103, 437)"	"(87, 454)"	1	0	8628793.08	72	36
8	w	24	r	1	2	18	8	"(570, 692)"	"(575, 714)"	1	0	8629473.48	72	36
8	w	24	r	1	2	18	8	"(570, 692)"	"(575, 714)"	1	    6.10	8629473.48	72	36
8	w	24	r	1	2	19	1	"(889, 669)"	"(888, 676)"	1	0	8634432.33	72	36
8	w	24	r	1	2	19	2	"(261, 181)"	"(260, 187)"	1	0	8635209.46	72	36
8	w	24	r	1	2	19	3	"(261, 638)"	"(234, 641)"	1	0	8636458.95	72	36
8	w	24	r	1	2	19	4	"(922, 433)"	"(931, 426)"	1	0	8637073.36	72	36
8	w	24	r	1	2	19	5	"(572, 88)"	"(557, 98)"	1	0	8637665.79	72	36
8	w	24	r	1	2	19	6	"(884, 76)"	"(912, 82)"	1	0	8638079.77	72	36
8	w	24	r	1	2	19	7	"(103, 437)"	"(94, 433)"	1	0	8638985.42	72	36
8	w	24	r	1	2	19	8	"(570, 692)"	"(557, 711)"	1	0	8639578.35	72	36
8	w	24	r	1	2	19	8	"(570, 692)"	"(557, 711)"	1	    6.17	8639578.35	72	36
8	w	24	r	1	2	20	1	"(889, 669)"	"(908, 664)"	1	0	8644635.55	72	36
8	w	24	r	1	2	20	2	"(261, 181)"	"(273, 192)"	1	0	8645474.45	72	36
8	w	24	r	1	2	20	3	"(261, 638)"	"(263, 664)"	1	0	8645967.73	72	36
8	w	24	r	1	2	20	4	"(922, 433)"	"(900, 450)"	1	0	8646456.11	72	36
8	w	24	r	1	2	20	5	"(572, 88)"	"(559, 81)"	1	0	8646952.89	72	36
8	w	24	r	1	2	20	6	"(884, 76)"	"(885, 85)"	1	0	8647355.04	72	36
8	w	24	r	1	2	20	7	"(103, 437)"	"(99, 438)"	1	0	8647816.46	72	36
8	w	24	r	1	2	20	8	"(570, 692)"	"(607, 696)"	2	0	8648689.28	72	36
8	w	24	r	1	2	20	8	"(570, 692)"	"(607, 696)"	2	    4.87	8648689.28	72	36
8	w	24	r	1	3	21	1	"(889, 669)"	"(867, 678)"	1	0	8654922.77	72	36
8	w	24	r	1	3	21	2	"(261, 181)"	"(237, 188)"	1	0	8655538.15	72	36
8	w	24	r	1	3	21	3	"(261, 638)"	"(246, 642)"	1	0	8656115.14	72	36
8	w	24	r	1	3	21	4	"(922, 433)"	"(952, 440)"	1	0	8656833.44	72	36
8	w	24	r	1	3	21	5	"(572, 88)"	"(569, 90)"	1	0	8657448.32	72	36
8	w	24	r	1	3	21	6	"(884, 76)"	"(865, 85)"	1	0	8658010.37	72	36
8	w	24	r	1	3	21	7	"(103, 437)"	"(83, 443)"	1	0	8658619.59	72	36
8	w	24	r	1	3	21	8	"(570, 692)"	"(532, 688)"	1	0	8659402.41	72	36
8	w	24	r	1	3	21	8	"(570, 692)"	"(532, 688)"	1	    5.71	8659402.41	72	36
8	w	24	r	1	3	22	1	"(889, 669)"	"(900, 668)"	1	0	8664723.57	72	36
8	w	24	r	1	3	22	2	"(261, 181)"	"(249, 185)"	1	0	8665417.45	72	36
8	w	24	r	1	3	22	3	"(261, 638)"	"(265, 644)"	1	0	8665865.38	72	36
8	w	24	r	1	3	22	4	"(922, 433)"	"(937, 454)"	6	0	8671138.29	72	36
8	w	24	r	1	3	22	5	"(572, 88)"	"(566, 73)"	1	0	8671922.98	72	36
8	w	24	r	1	3	22	6	"(884, 76)"	"(869, 88)"	1	0	8672428.36	72	36
8	w	24	r	1	3	22	7	"(103, 437)"	"(99, 449)"	1	0	8673170.03	72	36
8	w	24	r	1	3	22	8	"(570, 692)"	"(568, 715)"	1	0	8673812.75	72	36
8	w	24	r	1	3	22	8	"(570, 692)"	"(568, 715)"	1	    9.78	8673812.75	72	36
8	w	24	r	1	3	23	1	"(889, 669)"	"(875, 669)"	1	0	8678579.15	72	36
8	w	24	r	1	3	23	2	"(261, 181)"	"(274, 199)"	1	0	8679690.35	72	36
8	w	24	r	1	3	23	3	"(261, 638)"	"(269, 648)"	1	0	8680251.96	72	36
8	w	24	r	1	3	23	4	"(922, 433)"	"(915, 429)"	1	0	8680939.55	72	36
8	w	24	r	1	3	23	5	"(572, 88)"	"(583, 91)"	1	0	8682204.35	72	36
8	w	24	r	1	3	23	6	"(884, 76)"	"(892, 82)"	1	0	8683076.50	72	36
8	w	24	r	1	3	23	7	"(103, 437)"	"(103, 435)"	1	0	8683682.38	72	36
8	w	24	r	1	3	23	8	"(570, 692)"	"(559, 697)"	1	0	8684378.48	72	36
8	w	24	r	1	3	23	8	"(570, 692)"	"(559, 697)"	1	    6.75	8684378.48	72	36
8	w	24	r	1	3	24	1	"(889, 669)"	"(893, 673)"	1	0	8688626.87	72	36
8	w	24	r	1	3	24	2	"(261, 181)"	"(250, 185)"	1	0	8689442.40	72	36
8	w	24	r	1	3	24	3	"(261, 638)"	"(265, 650)"	1	0	8690036.62	72	36
8	w	24	r	1	3	24	4	"(922, 433)"	"(926, 436)"	1	0	8690660.76	72	36
8	w	24	r	1	3	24	5	"(572, 88)"	"(566, 83)"	1	0	8691348.73	72	36
8	w	24	r	1	3	24	6	"(884, 76)"	"(895, 89)"	1	0	8691828.14	72	36
8	w	24	r	1	3	24	7	"(103, 437)"	"(86, 444)"	1	0	8692613.00	72	36
8	w	24	r	1	3	24	8	"(570, 692)"	"(598, 702)"	1	0	8693253.21	72	36
8	w	24	r	1	3	24	8	"(570, 692)"	"(598, 702)"	1	    5.63	8693253.21	72	36
8	w	24	r	1	3	25	1	"(889, 669)"	"(892, 681)"	1	0	8697266.96	72	36
8	w	24	r	1	3	25	2	"(261, 181)"	"(277, 180)"	1	0	8697939.68	72	36
8	w	24	r	1	3	25	3	"(261, 638)"	"(276, 650)"	1	0	8698555.96	72	36
8	w	24	r	1	3	25	4	"(922, 433)"	"(918, 432)"	1	0	8699093.26	72	36
8	w	24	r	1	3	25	5	"(572, 88)"	"(569, 86)"	1	0	8699667.53	72	36
8	w	24	r	1	3	25	6	"(884, 76)"	"(918, 81)"	1	0	8700227.46	72	36
8	w	24	r	1	3	25	7	"(103, 437)"	"(92, 421)"	1	0	8701165.65	72	36
8	w	24	r	1	3	25	8	"(570, 692)"	"(526, 695)"	1	0	8701739.14	72	36
8	w	24	r	1	3	25	8	"(570, 692)"	"(526, 695)"	1	    5.48	8701739.14	72	36
8	w	24	r	1	3	26	1	"(889, 669)"	"(866, 668)"	1	0	8706083.53	72	36
8	w	24	r	1	3	26	2	"(261, 181)"	"(261, 176)"	1	0	8706971.93	72	36
8	w	24	r	1	3	26	3	"(261, 638)"	"(256, 647)"	1	0	8707701.33	72	36
8	w	24	r	1	3	26	4	"(922, 433)"	"(933, 467)"	1	0	8708234.44	72	36
8	w	24	r	1	3	26	5	"(572, 88)"	"(582, 96)"	1	0	8708908.05	72	36
8	w	24	r	1	3	26	6	"(884, 76)"	"(895, 83)"	1	0	8709532.89	72	36
8	w	24	r	1	3	26	7	"(103, 437)"	"(108, 456)"	1	0	8710196.40	72	36
8	w	24	r	1	3	26	8	"(570, 692)"	"(541, 700)"	2	0	8711200.27	72	36
8	w	24	r	1	3	26	8	"(570, 692)"	"(541, 700)"	2	    5.82	8711200.27	72	36
8	w	24	r	1	3	27	1	"(889, 669)"	"(886, 672)"	1	0	8715636.60	72	36
8	w	24	r	1	3	27	2	"(261, 181)"	"(263, 180)"	1	0	8716542.93	72	36
8	w	24	r	1	3	27	3	"(261, 638)"	"(273, 664)"	1	0	8717163.57	72	36
8	w	24	r	1	3	27	4	"(922, 433)"	"(921, 424)"	1	0	8717883.84	72	36
8	w	24	r	1	3	27	5	"(572, 88)"	"(587, 114)"	1	0	8718502.26	72	36
8	w	24	r	1	3	27	6	"(884, 76)"	"(899, 78)"	1	0	8718941.20	72	36
8	w	24	r	1	3	27	7	"(103, 437)"	"(125, 457)"	1	0	8719907.95	72	36
8	w	24	r	1	3	27	8	"(570, 692)"	"(558, 703)"	1	0	8720498.55	72	36
8	w	24	r	1	3	27	8	"(570, 692)"	"(558, 703)"	1	    5.76	8720498.55	72	36
8	w	24	r	1	3	28	1	"(889, 669)"	"(887, 667)"	1	0	8724159.75	72	36
8	w	24	r	1	3	28	2	"(261, 181)"	"(270, 200)"	1	0	8725014.96	72	36
8	w	24	r	1	3	28	3	"(261, 638)"	"(262, 661)"	1	0	8725700.95	72	36
8	w	24	r	1	3	28	4	"(922, 433)"	"(950, 435)"	1	0	8726486.19	72	36
8	w	24	r	1	3	28	5	"(572, 88)"	"(566, 82)"	1	0	8727005.12	72	36
8	w	24	r	1	3	28	6	"(884, 76)"	"(870, 70)"	1	0	8727591.84	72	36
8	w	24	r	1	3	28	7	"(103, 437)"	"(108, 435)"	1	0	8728231.12	72	36
8	w	24	r	1	3	28	8	"(570, 692)"	"(589, 694)"	1	0	8729198.38	72	36
8	w	24	r	1	3	28	8	"(570, 692)"	"(589, 694)"	1	    5.69	8729198.38	72	36
8	w	24	r	1	3	29	1	"(889, 669)"	"(876, 687)"	1	0	8732894.89	72	36
8	w	24	r	1	3	29	2	"(261, 181)"	"(243, 170)"	1	0	8733765.19	72	36
8	w	24	r	1	3	29	3	"(261, 638)"	"(248, 617)"	1	0	8734364.71	72	36
8	w	24	r	1	3	29	4	"(922, 433)"	"(912, 417)"	1	0	8735415.50	72	36
8	w	24	r	1	3	29	5	"(572, 88)"	"(564, 87)"	1	0	8736159.54	72	36
8	w	24	r	1	3	29	6	"(884, 76)"	"(901, 73)"	1	0	8736708.95	72	36
8	w	24	r	1	3	29	7	"(103, 437)"	"(107, 445)"	1	0	8737326.81	72	36
8	w	24	r	1	3	29	8	"(570, 692)"	"(578, 686)"	1	0	8737863.04	72	36
8	w	24	r	1	3	29	8	"(570, 692)"	"(578, 686)"	1	    5.92	8737863.04	72	36
8	w	24	r	1	3	30	1	"(889, 669)"	"(896, 688)"	1	0	8742166.01	72	36
8	w	24	r	1	3	30	2	"(261, 181)"	"(252, 205)"	1	0	8742888.44	72	36
8	w	24	r	1	3	30	3	"(261, 638)"	"(270, 627)"	1	0	8743568.46	72	36
8	w	24	r	1	3	30	4	"(922, 433)"	"(895, 437)"	1	0	8744493.93	72	36
8	w	24	r	1	3	30	5	"(572, 88)"	"(566, 105)"	1	0	8744942.92	72	36
8	w	24	r	1	3	30	6	"(884, 76)"	"(916, 85)"	1	0	8745760.34	72	36
8	w	24	r	1	3	30	7	"(103, 437)"	"(70, 445)"	1	0	8746421.67	72	36
8	w	24	r	1	3	30	8	"(570, 692)"	"(620, 706)"	1	0	8747239.14	72	36
8	w	24	r	1	3	30	8	"(570, 692)"	"(620, 706)"	1	    5.81	8747239.14	72	36
8	w	24	r	1	4	31	1	"(889, 669)"	"(903, 687)"	1	0	8756431.35	72	36
8	w	24	r	1	4	31	2	"(261, 181)"	"(260, 176)"	1	0	8757461.84	72	36
8	w	24	r	1	4	31	3	"(261, 638)"	"(259, 646)"	1	0	8758009.44	72	36
8	w	24	r	1	4	31	4	"(922, 433)"	"(939, 457)"	1	0	8758785.64	72	36
8	w	24	r	1	4	31	5	"(572, 88)"	"(577, 91)"	1	0	8759337.26	72	36
8	w	24	r	1	4	31	6	"(884, 76)"	"(872, 79)"	1	0	8759928.92	72	36
8	w	24	r	1	4	31	7	"(103, 437)"	"(104, 467)"	1	0	8760664.20	72	36
8	w	24	r	1	4	31	8	"(570, 692)"	"(547, 714)"	1	0	8761232.46	72	36
8	w	24	r	1	4	31	8	"(570, 692)"	"(547, 714)"	1	    5.92	8761232.46	72	36
8	w	24	r	1	4	32	1	"(889, 669)"	"(884, 676)"	1	0	8767678.15	72	36
8	w	24	r	1	4	32	2	"(261, 181)"	"(250, 178)"	1	0	8768593.99	72	36
8	w	24	r	1	4	32	3	"(261, 638)"	"(269, 652)"	1	0	8769094.69	72	36
8	w	24	r	1	4	32	4	"(922, 433)"	"(924, 444)"	1	0	8769673.44	72	36
8	w	24	r	1	4	32	5	"(572, 88)"	"(588, 86)"	1	0	8770303.49	72	36
8	w	24	r	1	4	32	6	"(884, 76)"	"(882, 76)"	1	0	8770767.21	72	36
8	w	24	r	1	4	32	7	"(103, 437)"	"(90, 461)"	1	0	8771527.77	72	36
8	w	24	r	1	4	32	8	"(570, 692)"	"(569, 707)"	1	0	8772435.24	72	36
8	w	24	r	1	4	32	8	"(570, 692)"	"(569, 707)"	1	    5.89	8772435.24	72	36
8	w	24	r	1	4	33	1	"(889, 669)"	"(881, 667)"	1	0	8775953.08	72	36
8	w	24	r	1	4	33	2	"(261, 181)"	"(273, 188)"	1	0	8776790.56	72	36
8	w	24	r	1	4	33	3	"(261, 638)"	"(269, 639)"	1	0	8777615.16	72	36
8	w	24	r	1	4	33	4	"(922, 433)"	"(942, 430)"	1	0	8778446.52	72	36
8	w	24	r	1	4	33	5	"(572, 88)"	"(574, 90)"	1	0	8778991.75	72	36
8	w	24	r	1	4	33	6	"(884, 76)"	"(884, 77)"	1	0	8779496.90	72	36
8	w	24	r	1	4	33	7	"(103, 437)"	"(120, 447)"	1	0	8780320.53	72	36
8	w	24	r	1	4	33	8	"(570, 692)"	"(567, 698)"	1	0	8780848.46	72	36
8	w	24	r	1	4	33	8	"(570, 692)"	"(567, 698)"	1	    5.90	8780848.46	72	36
8	w	24	r	1	4	34	1	"(889, 669)"	"(870, 677)"	1	0	8784735.73	72	36
8	w	24	r	1	4	34	2	"(261, 181)"	"(258, 193)"	1	0	8785722.26	72	36
8	w	24	r	1	4	34	3	"(261, 638)"	"(256, 657)"	1	0	8786258.04	72	36
8	w	24	r	1	4	34	4	"(922, 433)"	"(913, 453)"	1	0	8786841.42	72	36
8	w	24	r	1	4	34	5	"(572, 88)"	"(584, 81)"	1	0	8787345.22	72	36
8	w	24	r	1	4	34	6	"(884, 76)"	"(853, 82)"	1	0	8787912.06	72	36
8	w	24	r	1	4	34	7	"(103, 437)"	"(82, 447)"	1	0	8788648.64	72	36
8	w	24	r	1	4	34	8	"(570, 692)"	"(574, 708)"	1	0	8789247.52	72	36
8	w	24	r	1	4	34	8	"(570, 692)"	"(574, 708)"	1	    5.33	8789247.52	72	36
8	w	24	r	1	4	35	1	"(889, 669)"	"(917, 661)"	1	0	8793178.21	72	36
8	w	24	r	1	4	35	2	"(261, 181)"	"(250, 190)"	1	0	8793896.19	72	36
8	w	24	r	1	4	35	3	"(261, 638)"	"(265, 654)"	1	0	8794610.57	72	36
8	w	24	r	1	4	35	4	"(922, 433)"	"(898, 438)"	1	0	8795127.56	72	36
8	w	24	r	1	4	35	5	"(572, 88)"	"(549, 75)"	1	0	8795600.07	72	36
8	w	24	r	1	4	35	6	"(884, 76)"	"(895, 84)"	1	0	8796249.12	72	36
8	w	24	r	1	4	35	7	"(103, 437)"	"(88, 415)"	1	0	8796899.03	72	36
8	w	24	r	1	4	35	8	"(570, 692)"	"(545, 681)"	1	0	8797548.70	72	36
8	w	24	r	1	4	35	8	"(570, 692)"	"(545, 681)"	1	    5.25	8797548.70	72	36
8	w	24	r	1	4	36	1	"(889, 669)"	"(904, 674)"	1	0	8801435.91	72	36
8	w	24	r	1	4	36	2	"(261, 181)"	"(264, 199)"	1	0	8802059.10	72	36
8	w	24	r	1	4	36	3	"(261, 638)"	"(269, 648)"	1	0	8802576.83	72	36
8	w	24	r	1	4	36	4	"(922, 433)"	"(940, 444)"	1	0	8803178.13	72	36
8	w	24	r	1	4	36	5	"(572, 88)"	"(575, 94)"	1	0	8803969.45	72	36
8	w	24	r	1	4	36	6	"(884, 76)"	"(905, 84)"	1	0	8804620.36	72	36
8	w	24	r	1	4	36	7	"(103, 437)"	"(114, 438)"	1	0	8805328.49	72	36
8	w	24	r	1	4	36	8	"(570, 692)"	"(565, 710)"	2	0	8806347.41	72	36
8	w	24	r	1	4	36	8	"(570, 692)"	"(565, 710)"	2	    5.80	8806347.41	72	36
8	w	24	r	1	4	37	1	"(889, 669)"	"(902, 682)"	1	0	8809816.21	72	36
8	w	24	r	1	4	37	2	"(261, 181)"	"(290, 187)"	1	0	8810498.30	72	36
8	w	24	r	1	4	37	3	"(261, 638)"	"(264, 637)"	1	0	8811090.25	72	36
8	w	24	r	1	4	37	4	"(922, 433)"	"(898, 422)"	1	0	8811842.13	72	36
8	w	24	r	1	4	37	5	"(572, 88)"	"(575, 84)"	1	0	8812346.85	72	36
8	w	24	r	1	4	37	6	"(884, 76)"	"(893, 85)"	1	0	8812698.15	72	36
8	w	24	r	1	4	37	7	"(103, 437)"	"(115, 438)"	1	0	8813348.86	72	36
8	w	24	r	1	4	37	8	"(570, 692)"	"(572, 708)"	1	0	8813940.08	72	36
8	w	24	r	1	4	37	8	"(570, 692)"	"(572, 708)"	1	    4.94	8813940.08	72	36
8	w	24	r	1	4	38	1	"(889, 669)"	"(878, 693)"	1	0	8817724.28	72	36
8	w	24	r	1	4	38	2	"(261, 181)"	"(247, 184)"	1	0	8818338.77	72	36
8	w	24	r	1	4	38	3	"(261, 638)"	"(266, 640)"	1	0	8818769.93	72	36
8	w	24	r	1	4	38	4	"(922, 433)"	"(910, 444)"	1	0	8819228.75	72	36
8	w	24	r	1	4	38	5	"(572, 88)"	"(589, 89)"	1	0	8819883.58	72	36
8	w	24	r	1	4	38	6	"(884, 76)"	"(853, 78)"	1	0	8820500.01	72	36
8	w	24	r	1	4	38	7	"(103, 437)"	"(99, 423)"	1	0	8821202.53	72	36
8	w	24	r	1	4	38	8	"(570, 692)"	"(566, 694)"	1	0	8821889.06	72	36
8	w	24	r	1	4	38	8	"(570, 692)"	"(566, 694)"	1	    4.90	8821889.06	72	36
8	w	24	r	1	4	39	1	"(889, 669)"	"(868, 676)"	1	0	8825146.43	72	36
8	w	24	r	1	4	39	2	"(261, 181)"	"(257, 196)"	1	0	8825800.82	72	36
8	w	24	r	1	4	39	3	"(261, 638)"	"(264, 627)"	1	0	8826386.42	72	36
8	w	24	r	1	4	39	4	"(922, 433)"	"(903, 441)"	1	0	8827219.37	72	36
8	w	24	r	1	4	39	5	"(572, 88)"	"(568, 90)"	1	0	8827877.31	72	36
8	w	24	r	1	4	39	6	"(884, 76)"	"(897, 84)"	1	0	8828491.59	72	36
8	w	24	r	1	4	39	7	"(103, 437)"	"(114, 434)"	1	0	8829101.06	72	36
8	w	24	r	1	4	39	8	"(570, 692)"	"(564, 679)"	1	0	8829579.13	72	36
8	w	24	r	1	4	39	8	"(570, 692)"	"(564, 679)"	1	    5.30	8829579.13	72	36
8	w	24	r	1	4	40	1	"(889, 669)"	"(866, 662)"	1	0	8832619.79	72	36
8	w	24	r	1	4	40	2	"(261, 181)"	"(264, 186)"	1	0	8833265.95	72	36
8	w	24	r	1	4	40	3	"(261, 638)"	"(269, 672)"	1	0	8833867.65	72	36
8	w	24	r	1	4	40	4	"(922, 433)"	"(929, 452)"	1	0	8834715.39	72	36
8	w	24	r	1	4	40	5	"(572, 88)"	"(589, 88)"	1	0	8835434.08	72	36
8	w	24	r	1	4	40	6	"(884, 76)"	"(878, 79)"	1	0	8836052.82	72	36
8	w	24	r	1	4	40	7	"(103, 437)"	"(117, 443)"	1	0	8836925.10	72	36
8	w	24	r	1	4	40	8	"(570, 692)"	"(560, 703)"	1	0	8837786.26	72	36
8	w	24	r	1	4	40	8	"(570, 692)"	"(560, 703)"	1	    5.91	8837786.26	72	36
8	w	24	r	1	5	41	1	"(889, 669)"	"(901, 675)"	1	0	8842725.62	72	36
8	w	24	r	1	5	41	2	"(261, 181)"	"(254, 196)"	1	0	8843558.34	72	36
8	w	24	r	1	5	41	3	"(261, 638)"	"(277, 638)"	1	0	8844150.20	72	36
8	w	24	r	1	5	41	4	"(922, 433)"	"(940, 437)"	1	0	8844924.90	72	36
8	w	24	r	1	5	41	5	"(572, 88)"	"(557, 83)"	1	0	8845523.72	72	36
8	w	24	r	1	5	41	6	"(884, 76)"	"(893, 75)"	1	0	8846137.14	72	36
8	w	24	r	1	5	41	7	"(103, 437)"	"(91, 442)"	1	0	8846748.30	72	36
8	w	24	r	1	5	41	8	"(570, 692)"	"(560, 702)"	1	0	8847637.56	72	36
8	w	24	r	1	5	41	8	"(570, 692)"	"(560, 702)"	1	    6.12	8847637.56	72	36
8	w	24	r	1	5	42	1	"(889, 669)"	"(895, 673)"	1	0	8852509.38	72	36
8	w	24	r	1	5	42	2	"(261, 181)"	"(261, 178)"	1	0	8853212.90	72	36
8	w	24	r	1	5	42	3	"(261, 638)"	"(251, 627)"	1	0	8853797.45	72	36
8	w	24	r	1	5	42	4	"(922, 433)"	"(944, 443)"	1	0	8854454.31	72	36
8	w	24	r	1	5	42	5	"(572, 88)"	"(535, 100)"	1	0	8855018.59	72	36
8	w	24	r	1	5	42	6	"(884, 76)"	"(863, 74)"	1	0	8855638.17	72	36
8	w	24	r	1	5	42	7	"(103, 437)"	"(95, 453)"	1	0	8856485.50	72	36
8	w	24	r	1	5	42	8	"(570, 692)"	"(579, 701)"	1	0	8856899.90	72	36
8	w	24	r	1	5	42	8	"(570, 692)"	"(579, 701)"	1	    5.31	8856899.90	72	36
8	w	24	r	1	5	43	1	"(889, 669)"	"(872, 657)"	1	0	8859828.05	72	36
8	w	24	r	1	5	43	2	"(261, 181)"	"(247, 182)"	1	0	8860493.24	72	36
8	w	24	r	1	5	43	3	"(261, 638)"	"(263, 652)"	1	0	8860957.97	72	36
8	w	24	r	1	5	43	4	"(922, 433)"	"(941, 434)"	1	0	8861515.46	72	36
8	w	24	r	1	5	43	5	"(572, 88)"	"(576, 102)"	1	0	8862092.06	72	36
8	w	24	r	1	5	43	6	"(884, 76)"	"(924, 77)"	1	0	8862687.01	72	36
8	w	24	r	1	5	43	7	"(103, 437)"	"(110, 447)"	1	0	8863645.95	72	36
8	w	24	r	1	5	43	8	"(570, 692)"	"(568, 690)"	1	0	8864165.28	72	36
8	w	24	r	1	5	43	8	"(570, 692)"	"(568, 690)"	1	    5.07	8864165.28	72	36
8	w	24	r	1	5	44	1	"(889, 669)"	"(903, 664)"	1	0	8867086.51	72	36
8	w	24	r	1	5	44	2	"(261, 181)"	"(262, 182)"	1	0	8867755.68	72	36
8	w	24	r	1	5	44	3	"(261, 638)"	"(259, 646)"	1	0	8868286.75	72	36
8	w	24	r	1	5	44	4	"(922, 433)"	"(926, 434)"	1	0	8868867.89	72	36
8	w	24	r	1	5	44	5	"(572, 88)"	"(581, 70)"	1	0	8869404.59	72	36
8	w	24	r	1	5	44	6	"(884, 76)"	"(882, 78)"	1	0	8869989.53	72	36
8	w	24	r	1	5	44	7	"(103, 437)"	"(91, 440)"	1	0	8870766.87	72	36
8	w	24	r	1	5	44	8	"(570, 692)"	"(578, 689)"	1	0	8871259.85	72	36
8	w	24	r	1	5	44	8	"(570, 692)"	"(578, 689)"	1	    5.07	8871259.85	72	36
8	w	24	r	1	5	45	1	"(889, 669)"	"(877, 672)"	1	0	8874493.72	72	36
8	w	24	r	1	5	45	2	"(261, 181)"	"(252, 190)"	1	0	8875294.92	72	36
8	w	24	r	1	5	45	3	"(261, 638)"	"(263, 662)"	1	0	8875908.37	72	36
8	w	24	r	1	5	45	4	"(922, 433)"	"(921, 438)"	1	0	8876604.26	72	36
8	w	24	r	1	5	45	5	"(572, 88)"	"(534, 56)"	1	0	8877142.78	72	36
8	w	24	r	1	5	45	6	"(884, 76)"	"(917, 60)"	1	0	8877702.78	72	36
8	w	24	r	1	5	45	7	"(103, 437)"	"(110, 449)"	1	0	8878420.25	72	36
8	w	24	r	1	5	45	8	"(570, 692)"	"(555, 701)"	1	0	8879021.38	72	36
8	w	24	r	1	5	45	8	"(570, 692)"	"(555, 701)"	1	    5.44	8879021.38	72	36
8	w	24	r	1	5	46	1	"(889, 669)"	"(854, 684)"	1	0	8882166.61	72	36
8	w	24	r	1	5	46	2	"(261, 181)"	"(233, 185)"	1	0	8882830.67	72	36
8	w	24	r	1	5	46	3	"(261, 638)"	"(270, 622)"	1	0	8883551.04	72	36
8	w	24	r	1	5	46	4	"(922, 433)"	"(923, 456)"	1	0	8884213.56	72	36
8	w	24	r	1	5	46	5	"(572, 88)"	"(589, 88)"	1	0	8884766.78	72	36
8	w	24	r	1	5	46	6	"(884, 76)"	"(866, 82)"	1	0	8885220.39	72	36
8	w	24	r	1	5	46	7	"(103, 437)"	"(96, 435)"	1	0	8885886.43	72	36
8	w	24	r	1	5	46	8	"(570, 692)"	"(551, 710)"	1	0	8886343.82	72	36
8	w	24	r	1	5	46	8	"(570, 692)"	"(551, 710)"	1	    4.91	8886343.82	72	36
8	w	24	r	1	5	47	1	"(889, 669)"	"(862, 649)"	1	0	8889151.60	72	36
8	w	24	r	1	5	47	2	"(261, 181)"	"(258, 196)"	1	0	8889710.06	72	36
8	w	24	r	1	5	47	3	"(261, 638)"	"(285, 632)"	1	0	8890237.23	72	36
8	w	24	r	1	5	47	4	"(922, 433)"	"(919, 454)"	1	0	8890878.36	72	36
8	w	24	r	1	5	47	5	"(572, 88)"	"(563, 109)"	1	0	8891511.26	72	36
8	w	24	r	1	5	47	6	"(884, 76)"	"(905, 76)"	1	0	8892070.26	72	36
8	w	24	r	1	5	47	7	"(103, 437)"	"(116, 453)"	1	0	8892773.90	72	36
8	w	24	r	1	5	47	8	"(570, 692)"	"(574, 693)"	1	0	8893286.37	72	36
8	w	24	r	1	5	47	8	"(570, 692)"	"(574, 693)"	1	    4.84	8893286.37	72	36
8	w	24	r	1	5	48	1	"(889, 669)"	"(867, 692)"	1	0	8896655.39	72	36
8	w	24	r	1	5	48	2	"(261, 181)"	"(272, 192)"	1	0	8897399.02	72	36
8	w	24	r	1	5	48	3	"(261, 638)"	"(270, 608)"	1	0	8897767.49	72	36
8	w	24	r	1	5	48	4	"(922, 433)"	"(913, 426)"	1	0	8898571.08	72	36
8	w	24	r	1	5	48	5	"(572, 88)"	"(563, 111)"	1	0	8899077.61	72	36
8	w	24	r	1	5	48	6	"(884, 76)"	"(876, 89)"	1	0	8899456.22	72	36
8	w	24	r	1	5	48	7	"(103, 437)"	"(105, 448)"	1	0	8900060.40	72	36
8	w	24	r	1	5	48	8	"(570, 692)"	"(576, 722)"	1	0	8900514.33	72	36
8	w	24	r	1	5	48	8	"(570, 692)"	"(576, 722)"	1	    4.62	8900514.33	72	36
8	w	24	r	1	5	49	1	"(889, 669)"	"(875, 689)"	1	0	8903152.05	72	36
8	w	24	r	1	5	49	2	"(261, 181)"	"(239, 177)"	1	0	8903767.75	72	36
8	w	24	r	1	5	49	3	"(261, 638)"	"(242, 610)"	1	0	8904191.64	72	36
8	w	24	r	1	5	49	4	"(922, 433)"	"(930, 456)"	1	0	8905857.71	72	36
8	w	24	r	1	5	49	5	"(572, 88)"	"(588, 114)"	1	0	8906871.37	72	36
8	w	24	r	1	5	49	6	"(884, 76)"	"(849, 72)"	2	0	8908177.73	72	36
8	w	24	r	1	5	49	7	"(103, 437)"	"(68, 470)"	1	0	8908798.61	72	36
8	w	24	r	1	5	49	8	"(570, 692)"	"(571, 696)"	1	0	8909581.90	72	36
8	w	24	r	1	5	49	8	"(570, 692)"	"(571, 696)"	1	    7.05	8909581.90	72	36
8	w	24	r	1	5	50	1	"(889, 669)"	"(889, 674)"	1	0	8912894.28	72	36
8	w	24	r	1	5	50	2	"(261, 181)"	"(240, 176)"	1	0	8913624.31	72	36
8	w	24	r	1	5	50	3	"(261, 638)"	"(265, 623)"	1	0	8914078.69	72	36
8	w	24	r	1	5	50	4	"(922, 433)"	"(927, 469)"	1	0	8914725.95	72	36
8	w	24	r	1	5	50	5	"(572, 88)"	"(564, 48)"	1	0	8915294.60	72	36
8	w	24	r	1	5	50	6	"(884, 76)"	"(905, 79)"	1	0	8915798.10	72	36
8	w	24	r	1	5	50	7	"(103, 437)"	"(74, 461)"	1	0	8916561.79	72	36
8	w	24	r	1	5	50	8	"(570, 692)"	"(564, 707)"	1	0	8917225.69	72	36
8	w	24	r	1	5	50	8	"(570, 692)"	"(564, 707)"	1	    5.47	8917225.69	72	36
8	w	24	r	1	6	51	1	"(889, 669)"	"(886, 675)"	1	0	8921609.70	72	36
8	w	24	r	1	6	51	2	"(261, 181)"	"(232, 193)"	1	0	8922314.17	72	36
8	w	24	r	1	6	51	3	"(261, 638)"	"(276, 649)"	1	0	8922888.68	72	36
8	w	24	r	1	6	51	4	"(922, 433)"	"(947, 454)"	1	0	8923514.21	72	36
8	w	24	r	1	6	51	5	"(572, 88)"	"(577, 103)"	1	0	8924048.34	72	36
8	w	24	r	1	6	51	6	"(884, 76)"	"(891, 78)"	1	0	8924633.49	72	36
8	w	24	r	1	6	51	7	"(103, 437)"	"(116, 441)"	1	0	8925288.42	72	36
8	w	24	r	1	6	51	8	"(570, 692)"	"(591, 710)"	1	0	8925934.75	72	36
8	w	24	r	1	6	51	8	"(570, 692)"	"(591, 710)"	1	    4.90	8925934.75	72	36
8	w	24	r	1	6	52	1	"(889, 669)"	"(911, 677)"	1	0	8928889.59	72	36
8	w	24	r	1	6	52	2	"(261, 181)"	"(263, 193)"	1	0	8929630.82	72	36
8	w	24	r	1	6	52	3	"(261, 638)"	"(286, 656)"	1	0	8930297.80	72	36
8	w	24	r	1	6	52	4	"(922, 433)"	"(893, 443)"	1	0	8930879.94	72	36
8	w	24	r	1	6	52	5	"(572, 88)"	"(575, 79)"	1	0	8931515.36	72	36
8	w	24	r	1	6	52	6	"(884, 76)"	"(874, 79)"	1	0	8932059.25	72	36
8	w	24	r	1	6	52	7	"(103, 437)"	"(86, 452)"	1	0	8932800.17	72	36
8	w	24	r	1	6	52	8	"(570, 692)"	"(551, 681)"	1	0	8933466.10	72	36
8	w	24	r	1	6	52	8	"(570, 692)"	"(551, 681)"	1	    5.21	8933466.10	72	36
8	w	24	r	1	6	53	1	"(889, 669)"	"(877, 667)"	1	0	8936919.96	72	36
8	w	24	r	1	6	53	2	"(261, 181)"	"(261, 186)"	1	0	8937943.76	72	36
8	w	24	r	1	6	53	3	"(261, 638)"	"(262, 633)"	1	0	8938470.58	72	36
8	w	24	r	1	6	53	4	"(922, 433)"	"(936, 438)"	1	0	8939120.63	72	36
8	w	24	r	1	6	53	5	"(572, 88)"	"(582, 94)"	1	0	8939737.49	72	36
8	w	24	r	1	6	53	6	"(884, 76)"	"(896, 94)"	1	0	8940137.96	72	36
8	w	24	r	1	6	53	7	"(103, 437)"	"(94, 455)"	1	0	8940943.86	72	36
8	w	24	r	1	6	53	8	"(570, 692)"	"(583, 715)"	1	0	8941545.21	72	36
8	w	24	r	1	6	53	8	"(570, 692)"	"(583, 715)"	1	    5.40	8941545.21	72	36
8	w	24	r	1	6	54	1	"(889, 669)"	"(863, 687)"	1	0	8944450.91	72	36
8	w	24	r	1	6	54	2	"(261, 181)"	"(233, 191)"	1	0	8944975.85	72	36
8	w	24	r	1	6	54	3	"(261, 638)"	"(247, 644)"	1	0	8945490.43	72	36
8	w	24	r	1	6	54	4	"(922, 433)"	"(944, 452)"	1	0	8946259.41	72	36
8	w	24	r	1	6	54	5	"(572, 88)"	"(572, 67)"	1	0	8946703.66	72	36
8	w	24	r	1	6	54	6	"(884, 76)"	"(916, 81)"	1	0	8947064.51	72	36
8	w	24	r	1	6	54	7	"(103, 437)"	"(77, 459)"	1	0	8947867.07	72	36
8	w	24	r	1	6	54	8	"(570, 692)"	"(543, 685)"	1	0	8948275.86	72	36
8	w	24	r	1	6	54	8	"(570, 692)"	"(543, 685)"	1	    4.36	8948275.86	72	36
8	w	24	r	1	6	55	1	"(889, 669)"	"(867, 687)"	1	0	8951168.57	72	36
8	w	24	r	1	6	55	2	"(261, 181)"	"(252, 184)"	1	0	8951769.04	72	36
8	w	24	r	1	6	55	3	"(261, 638)"	"(248, 624)"	1	0	8952265.71	72	36
8	w	24	r	1	6	55	4	"(922, 433)"	"(922, 435)"	1	0	8952785.27	72	36
8	w	24	r	1	6	55	5	"(572, 88)"	"(569, 114)"	1	0	8953354.92	72	36
8	w	24	r	1	6	55	6	"(884, 76)"	"(904, 72)"	1	0	8953971.41	72	36
8	w	24	r	1	6	55	7	"(103, 437)"	"(121, 429)"	1	0	8954600.45	72	36
8	w	24	r	1	6	55	8	"(570, 692)"	"(573, 712)"	1	0	8955040.36	72	36
8	w	24	r	1	6	55	8	"(570, 692)"	"(573, 712)"	1	    4.59	8955040.36	72	36
8	w	24	r	1	6	56	1	"(889, 669)"	"(889, 684)"	1	0	8959691.47	72	36
8	w	24	r	1	6	56	2	"(261, 181)"	"(256, 201)"	1	0	8960443.59	72	36
8	w	24	r	1	6	56	3	"(261, 638)"	"(259, 656)"	1	0	8961116.57	72	36
8	w	24	r	1	6	56	4	"(922, 433)"	"(927, 438)"	1	0	8961859.68	72	36
8	w	24	r	1	6	56	5	"(572, 88)"	"(557, 82)"	1	0	8962305.41	72	36
8	w	24	r	1	6	56	6	"(884, 76)"	"(848, 93)"	1	0	8962857.27	72	36
8	w	24	r	1	6	56	7	"(103, 437)"	"(139, 454)"	1	0	8963601.71	72	36
8	w	24	r	1	6	56	8	"(570, 692)"	"(577, 686)"	1	0	8964155.58	72	36
8	w	24	r	1	6	56	8	"(570, 692)"	"(577, 686)"	1	    5.16	8964155.58	72	36
8	w	24	r	1	6	57	1	"(889, 669)"	"(904, 684)"	1	0	8967634.26	72	36
8	w	24	r	1	6	57	2	"(261, 181)"	"(236, 169)"	1	0	8968257.80	72	36
8	w	24	r	1	6	57	3	"(261, 638)"	"(286, 653)"	1	0	8968787.53	72	36
8	w	24	r	1	6	57	4	"(922, 433)"	"(933, 460)"	1	0	8969265.38	72	36
8	w	24	r	1	6	57	5	"(572, 88)"	"(582, 99)"	1	0	8969930.63	72	36
8	w	24	r	1	6	57	6	"(884, 76)"	"(882, 88)"	1	0	8970532.86	72	36
8	w	24	r	1	6	57	7	"(103, 437)"	"(109, 453)"	1	0	8971188.53	72	36
8	w	24	r	1	6	57	8	"(570, 692)"	"(568, 699)"	1	0	8971706.26	72	36
8	w	24	r	1	6	57	8	"(570, 692)"	"(568, 699)"	1	    4.93	8971706.26	72	36
8	w	24	r	1	6	58	1	"(889, 669)"	"(903, 684)"	1	0	8974724.76	72	36
8	w	24	r	1	6	58	2	"(261, 181)"	"(239, 186)"	1	0	8975353.63	72	36
8	w	24	r	1	6	58	3	"(261, 638)"	"(263, 633)"	1	0	8975908.15	72	36
8	w	24	r	1	6	58	4	"(922, 433)"	"(915, 464)"	1	0	8976516.01	72	36
8	w	24	r	1	6	58	5	"(572, 88)"	"(586, 97)"	1	0	8976979.93	72	36
8	w	24	r	1	6	58	6	"(884, 76)"	"(867, 75)"	1	0	8977522.93	72	36
8	w	24	r	1	6	58	7	"(103, 437)"	"(90, 443)"	1	0	8978269.10	72	36
8	w	24	r	1	6	58	8	"(570, 692)"	"(577, 691)"	1	0	8978909.12	72	36
8	w	24	r	1	6	58	8	"(570, 692)"	"(577, 691)"	1	    4.88	8978909.12	72	36
8	w	24	r	1	6	59	1	"(889, 669)"	"(879, 683)"	1	0	8982290.78	72	36
8	w	24	r	1	6	59	2	"(261, 181)"	"(258, 165)"	1	0	8982834.00	72	36
8	w	24	r	1	6	59	3	"(261, 638)"	"(250, 615)"	1	0	8983570.06	72	36
8	w	24	r	1	6	59	4	"(922, 433)"	"(921, 442)"	1	0	8984189.09	72	36
8	w	24	r	1	6	59	5	"(572, 88)"	"(561, 73)"	1	0	8984787.44	72	36
8	w	24	r	1	6	59	6	"(884, 76)"	"(879, 84)"	1	0	8985123.56	72	36
8	w	24	r	1	6	59	7	"(103, 437)"	"(72, 457)"	1	0	8985906.44	72	36
8	w	24	r	1	6	59	8	"(570, 692)"	"(564, 717)"	1	0	8986489.85	72	36
8	w	24	r	1	6	59	8	"(570, 692)"	"(564, 717)"	1	    4.83	8986489.85	72	36
8	w	24	r	1	6	60	1	"(889, 669)"	"(899, 668)"	1	0	8989564.10	72	36
8	w	24	r	1	6	60	2	"(261, 181)"	"(255, 183)"	1	0	8990283.20	72	36
8	w	24	r	1	6	60	3	"(261, 638)"	"(273, 651)"	1	0	8990790.48	72	36
8	w	24	r	1	6	60	4	"(922, 433)"	"(897, 443)"	1	0	8991350.64	72	36
8	w	24	r	1	6	60	5	"(572, 88)"	"(579, 89)"	1	0	8991923.33	72	36
8	w	24	r	1	6	60	6	"(884, 76)"	"(866, 75)"	1	0	8992299.68	72	36
8	w	24	r	1	6	60	7	"(103, 437)"	"(107, 449)"	1	0	8993101.69	72	36
8	w	24	r	1	6	60	8	"(570, 692)"	"(582, 699)"	1	0	8993587.05	72	36
8	w	24	r	1	6	60	8	"(570, 692)"	"(582, 699)"	1	    4.71	8993587.05	72	36
8	w	24	r	2	7	61	1	"(889, 669)"	"(925, 668)"	1	0	8997940.73	72	36
8	w	24	r	2	7	61	2	"(261, 181)"	"(265, 193)"	1	0	8998973.80	72	36
8	w	24	r	2	7	61	3	"(261, 638)"	"(257, 633)"	1	0	8999541.34	72	36
8	w	24	r	2	7	61	4	"(922, 433)"	"(912, 456)"	1	0	9000146.94	72	36
8	w	24	r	2	7	61	5	"(572, 88)"	"(573, 89)"	1	0	9000702.15	72	36
8	w	24	r	2	7	61	6	"(884, 76)"	"(886, 85)"	1	0	9001212.75	72	36
8	w	24	r	2	7	61	7	"(103, 437)"	"(83, 444)"	1	0	9002062.04	72	36
8	w	24	r	2	7	61	8	"(570, 692)"	"(597, 725)"	1	0	9002500.61	72	36
8	w	24	r	2	7	61	8	"(570, 692)"	"(597, 725)"	1	    5.08	9002500.61	72	36
8	w	24	r	2	7	62	1	"(889, 669)"	"(874, 695)"	1	0	9005212.99	72	36
8	w	24	r	2	7	62	2	"(261, 181)"	"(232, 193)"	1	0	9005803.94	72	36
8	w	24	r	2	7	62	3	"(261, 638)"	"(303, 609)"	1	0	9006629.47	72	36
8	w	24	r	2	7	62	4	"(922, 433)"	"(881, 460)"	1	0	9007701.55	72	36
8	w	24	r	2	7	62	5	"(572, 88)"	"(561, 115)"	1	0	9008178.70	72	36
8	w	24	r	2	7	62	6	"(884, 76)"	"(909, 87)"	1	0	9008787.63	72	36
8	w	24	r	2	7	62	7	"(103, 437)"	"(96, 441)"	1	0	9009622.18	72	36
8	w	24	r	2	7	62	8	"(570, 692)"	"(603, 703)"	1	0	9010223.14	72	36
8	w	24	r	2	7	62	8	"(570, 692)"	"(603, 703)"	1	    5.50	9010223.14	72	36
8	w	24	r	2	7	63	1	"(889, 669)"	"(883, 681)"	1	0	9014846.34	72	36
8	w	24	r	2	7	63	2	"(261, 181)"	"(275, 197)"	1	0	9015621.99	72	36
8	w	24	r	2	7	63	3	"(261, 638)"	"(281, 651)"	1	0	9016072.72	72	36
8	w	24	r	2	7	63	4	"(922, 433)"	"(911, 445)"	1	0	9016627.53	72	36
8	w	24	r	2	7	63	5	"(572, 88)"	"(563, 100)"	3	0	9018822.17	72	36
8	w	24	r	2	7	63	6	"(884, 76)"	"(895, 85)"	1	0	9019228.72	72	36
8	w	24	r	2	7	63	7	"(103, 437)"	"(83, 435)"	1	0	9019919.19	72	36
8	w	24	r	2	7	63	8	"(570, 692)"	"(581, 693)"	1	0	9020486.75	72	36
8	w	24	r	2	7	63	8	"(570, 692)"	"(581, 693)"	1	    7.26	9020486.75	72	36
8	w	24	r	2	7	64	1	"(889, 669)"	"(872, 688)"	1	0	9024412.08	72	36
8	w	24	r	2	7	64	2	"(261, 181)"	"(254, 184)"	1	0	9025349.40	72	36
8	w	24	r	2	7	64	3	"(261, 638)"	"(266, 647)"	1	0	9025964.92	72	36
8	w	24	r	2	7	64	4	"(922, 433)"	"(902, 452)"	1	0	9027399.71	72	36
8	w	24	r	2	7	64	5	"(572, 88)"	"(582, 99)"	1	0	9027965.17	72	36
8	w	24	r	2	7	64	6	"(884, 76)"	"(878, 84)"	1	0	9028471.84	72	36
8	w	24	r	2	7	64	7	"(103, 437)"	"(114, 449)"	1	0	9029032.13	72	36
8	w	24	r	2	7	64	8	"(570, 692)"	"(571, 703)"	1	0	9029655.79	72	36
8	w	24	r	2	7	64	8	"(570, 692)"	"(571, 703)"	1	    6.23	9029655.79	72	36
8	w	24	r	2	7	65	1	"(889, 669)"	"(879, 678)"	1	0	9033764.66	72	36
8	w	24	r	2	7	65	2	"(261, 181)"	"(262, 181)"	1	0	9034612.66	72	36
8	w	24	r	2	7	65	3	"(261, 638)"	"(278, 652)"	1	0	9035151.44	72	36
8	w	24	r	2	7	65	4	"(922, 433)"	"(895, 448)"	1	0	9035990.62	72	36
8	w	24	r	2	7	65	5	"(572, 88)"	"(567, 110)"	1	0	9036888.03	72	36
8	w	24	r	2	7	65	6	"(884, 76)"	"(885, 86)"	1	0	9037361.00	72	36
8	w	24	r	2	7	65	7	"(103, 437)"	"(102, 454)"	1	0	9037981.29	72	36
8	w	24	r	2	7	65	8	"(570, 692)"	"(577, 718)"	1	0	9038543.62	72	36
8	w	24	r	2	7	65	8	"(570, 692)"	"(577, 718)"	1	    5.43	9038543.62	72	36
8	w	24	r	2	7	66	1	"(889, 669)"	"(882, 652)"	1	0	9042822.47	72	36
8	w	24	r	2	7	66	2	"(261, 181)"	"(254, 175)"	1	0	9043542.00	72	36
8	w	24	r	2	7	66	3	"(261, 638)"	"(255, 644)"	1	0	9044118.11	72	36
8	w	24	r	2	7	66	4	"(922, 433)"	"(929, 465)"	1	0	9044541.35	72	36
8	w	24	r	2	7	66	5	"(572, 88)"	"(538, 64)"	1	0	9045222.62	72	36
8	w	24	r	2	7	66	6	"(884, 76)"	"(910, 78)"	1	0	9045672.70	72	36
8	w	24	r	2	7	66	7	"(103, 437)"	"(85, 446)"	1	0	9046253.79	72	36
8	w	24	r	2	7	66	8	"(570, 692)"	"(592, 705)"	1	0	9046869.56	72	36
8	w	24	r	2	7	66	8	"(570, 692)"	"(592, 705)"	1	    4.81	9046869.56	72	36
8	w	24	r	2	7	67	1	"(889, 669)"	"(854, 678)"	1	0	9050046.17	72	36
8	w	24	r	2	7	67	2	"(261, 181)"	"(277, 181)"	1	0	9050722.83	72	36
8	w	24	r	2	7	67	3	"(261, 638)"	"(262, 645)"	1	0	9051225.39	72	36
8	w	24	r	2	7	67	4	"(922, 433)"	"(955, 449)"	1	0	9051935.27	72	36
8	w	24	r	2	7	67	5	"(572, 88)"	"(586, 70)"	1	0	9052576.42	72	36
8	w	24	r	2	7	67	6	"(884, 76)"	"(886, 70)"	1	0	9052998.91	72	36
8	w	24	r	2	7	67	7	"(103, 437)"	"(122, 444)"	1	0	9053559.29	72	36
8	w	24	r	2	7	67	8	"(570, 692)"	"(572, 709)"	1	0	9054152.01	72	36
8	w	24	r	2	7	67	8	"(570, 692)"	"(572, 709)"	1	    4.74	9054152.01	72	36
8	w	24	r	2	7	68	1	"(889, 669)"	"(932, 689)"	1	0	9057896.03	72	36
8	w	24	r	2	7	68	2	"(261, 181)"	"(219, 188)"	1	0	9058488.78	72	36
8	w	24	r	2	7	68	3	"(261, 638)"	"(275, 640)"	1	0	9058986.41	72	36
8	w	24	r	2	7	68	4	"(922, 433)"	"(920, 441)"	1	0	9060087.88	72	36
8	w	24	r	2	7	68	5	"(572, 88)"	"(571, 85)"	1	0	9060672.73	72	36
8	w	24	r	2	7	68	6	"(884, 76)"	"(896, 84)"	1	0	9061039.40	72	36
8	w	24	r	2	7	68	7	"(103, 437)"	"(122, 434)"	1	0	9061623.06	72	36
8	w	24	r	2	7	68	8	"(570, 692)"	"(608, 679)"	1	0	9062255.37	72	36
8	w	24	r	2	7	68	8	"(570, 692)"	"(608, 679)"	1	    5.11	9062255.37	72	36
8	w	24	r	2	7	69	1	"(889, 669)"	"(924, 676)"	1	0	9065926.85	72	36
8	w	24	r	2	7	69	2	"(261, 181)"	"(269, 181)"	1	0	9066481.61	72	36
8	w	24	r	2	7	69	3	"(261, 638)"	"(281, 645)"	1	0	9067271.17	72	36
8	w	24	r	2	7	69	4	"(922, 433)"	"(911, 443)"	1	0	9067960.03	72	36
8	w	24	r	2	7	69	5	"(572, 88)"	"(580, 93)"	1	0	9068546.72	72	36
8	w	24	r	2	7	69	6	"(884, 76)"	"(881, 72)"	1	0	9069119.13	72	36
8	w	24	r	2	7	69	7	"(103, 437)"	"(76, 442)"	1	0	9069638.96	72	36
8	w	24	r	2	7	69	8	"(570, 692)"	"(542, 709)"	1	0	9070266.04	72	36
8	w	24	r	2	7	69	8	"(570, 692)"	"(542, 709)"	1	    5.52	9070266.04	72	36
8	w	24	r	2	7	70	1	"(889, 669)"	"(898, 650)"	1	0	9074096.37	72	36
8	w	24	r	2	7	70	2	"(261, 181)"	"(264, 197)"	1	0	9074690.42	72	36
8	w	24	r	2	7	70	3	"(261, 638)"	"(269, 639)"	1	0	9075334.78	72	36
8	w	24	r	2	7	70	4	"(922, 433)"	"(951, 450)"	1	0	9075999.47	72	36
8	w	24	r	2	7	70	5	"(572, 88)"	"(583, 99)"	1	0	9076545.22	72	36
8	w	24	r	2	7	70	6	"(884, 76)"	"(900, 88)"	1	0	9076928.75	72	36
8	w	24	r	2	7	70	7	"(103, 437)"	"(139, 451)"	1	0	9077638.80	72	36
8	w	24	r	2	7	70	8	"(570, 692)"	"(552, 683)"	1	0	9078254.94	72	36
8	w	24	r	2	7	70	8	"(570, 692)"	"(552, 683)"	1	    4.93	9078254.94	72	36
8	w	24	r	2	8	71	1	"(889, 669)"	"(866, 672)"	1	0	9083859.12	72	36
8	w	24	r	2	8	71	2	"(261, 181)"	"(261, 195)"	1	0	9084554.18	72	36
8	w	24	r	2	8	71	3	"(261, 638)"	"(260, 641)"	1	0	9085178.18	72	36
8	w	24	r	2	8	71	4	"(922, 433)"	"(945, 441)"	1	0	9085810.63	72	36
8	w	24	r	2	8	71	5	"(572, 88)"	"(572, 99)"	1	0	9086402.67	72	36
8	w	24	r	2	8	71	6	"(884, 76)"	"(886, 82)"	1	0	9086951.71	72	36
8	w	24	r	2	8	71	7	"(103, 437)"	"(72, 445)"	1	0	9087479.60	72	36
8	w	24	r	2	8	71	8	"(570, 692)"	"(575, 715)"	1	0	9088138.30	72	36
8	w	24	r	2	8	71	8	"(570, 692)"	"(575, 715)"	1	    5.19	9088138.30	72	36
8	w	24	r	2	8	72	1	"(889, 669)"	"(909, 689)"	1	0	9092599.72	72	36
8	w	24	r	2	8	72	2	"(261, 181)"	"(263, 188)"	1	0	9093369.07	72	36
8	w	24	r	2	8	72	3	"(261, 638)"	"(276, 638)"	1	0	9093808.90	72	36
8	w	24	r	2	8	72	4	"(922, 433)"	"(901, 460)"	2	0	9095427.49	72	36
8	w	24	r	2	8	72	5	"(572, 88)"	"(554, 108)"	1	0	9096210.57	72	36
8	w	24	r	2	8	72	6	"(884, 76)"	"(889, 79)"	1	0	9096795.75	72	36
8	w	24	r	2	8	72	7	"(103, 437)"	"(115, 448)"	1	0	9097664.96	72	36
8	w	24	r	2	8	72	8	"(570, 692)"	"(593, 719)"	1	0	9098257.75	72	36
8	w	24	r	2	8	72	8	"(570, 692)"	"(593, 719)"	1	    6.39	9098257.75	72	36
8	w	24	r	2	8	73	1	"(889, 669)"	"(885, 695)"	1	0	9106107.52	72	36
8	w	24	r	2	8	73	2	"(261, 181)"	"(216, 180)"	1	0	9106698.16	72	36
8	w	24	r	2	8	73	3	"(261, 638)"	"(259, 651)"	1	0	9107147.24	72	36
8	w	24	r	2	8	73	4	"(922, 433)"	"(931, 436)"	1	0	9108658.57	72	36
8	w	24	r	2	8	73	5	"(572, 88)"	"(574, 86)"	1	0	9109195.05	72	36
8	w	24	r	2	8	73	6	"(884, 76)"	"(899, 64)"	1	0	9109563.74	72	36
8	w	24	r	2	8	73	7	"(103, 437)"	"(80, 440)"	1	0	9110226.13	72	36
8	w	24	r	2	8	73	8	"(570, 692)"	"(560, 708)"	1	0	9110812.54	72	36
8	w	24	r	2	8	73	8	"(570, 692)"	"(560, 708)"	1	    5.67	9110812.54	72	36
8	w	24	r	2	8	74	1	"(889, 669)"	"(858, 695)"	1	0	9114876.54	72	36
8	w	24	r	2	8	74	2	"(261, 181)"	"(255, 204)"	1	0	9115441.39	72	36
8	w	24	r	2	8	74	3	"(261, 638)"	"(264, 682)"	1	0	9116018.04	72	36
8	w	24	r	2	8	74	4	"(922, 433)"	"(938, 445)"	1	0	9116765.07	72	36
8	w	24	r	2	8	74	5	"(572, 88)"	"(568, 108)"	1	0	9117356.38	72	36
8	w	24	r	2	8	74	6	"(884, 76)"	"(888, 90)"	1	0	9117938.95	72	36
8	w	24	r	2	8	74	7	"(103, 437)"	"(94, 430)"	1	0	9118883.16	72	36
8	w	24	r	2	8	74	8	"(570, 692)"	"(600, 707)"	1	0	9119468.08	72	36
8	w	24	r	2	8	74	8	"(570, 692)"	"(600, 707)"	1	    5.72	9119468.08	72	36
8	w	24	r	2	8	75	1	"(889, 669)"	"(921, 681)"	1	0	9123058.00	72	36
8	w	24	r	2	8	75	2	"(261, 181)"	"(254, 186)"	1	0	9123764.66	72	36
8	w	24	r	2	8	75	3	"(261, 638)"	"(266, 613)"	1	0	9124394.68	72	36
8	w	24	r	2	8	75	4	"(922, 433)"	"(963, 442)"	1	0	9125084.38	72	36
8	w	24	r	2	8	75	5	"(572, 88)"	"(559, 86)"	1	0	9125931.79	72	36
8	w	24	r	2	8	75	6	"(884, 76)"	"(840, 78)"	1	0	9126475.86	72	36
8	w	24	r	2	8	75	7	"(103, 437)"	"(113, 419)"	1	0	9127211.74	72	36
8	w	24	r	2	8	75	8	"(570, 692)"	"(559, 693)"	1	0	9127860.78	72	36
8	w	24	r	2	8	75	8	"(570, 692)"	"(559, 693)"	1	    5.72	9127860.78	72	36
8	w	24	r	2	8	76	1	"(889, 669)"	"(864, 704)"	1	0	9131708.36	72	36
8	w	24	r	2	8	76	2	"(261, 181)"	"(235, 176)"	3	0	9133427.75	72	36
8	w	24	r	2	8	76	3	"(261, 638)"	"(263, 652)"	1	0	9134130.98	72	36
8	w	24	r	2	8	76	4	"(922, 433)"	"(939, 427)"	1	0	9134580.71	72	36
8	w	24	r	2	8	76	5	"(572, 88)"	"(580, 96)"	1	0	9135130.58	72	36
8	w	24	r	2	8	76	6	"(884, 76)"	"(888, 71)"	1	0	9135651.68	72	36
8	w	24	r	2	8	76	7	"(103, 437)"	"(120, 460)"	1	0	9136244.48	72	36
8	w	24	r	2	8	76	8	"(570, 692)"	"(594, 725)"	1	0	9136779.76	72	36
8	w	24	r	2	8	76	8	"(570, 692)"	"(594, 725)"	1	    5.60	9136779.76	72	36
8	w	24	r	2	8	77	1	"(889, 669)"	"(890, 686)"	1	0	9140654.45	72	36
8	w	24	r	2	8	77	2	"(261, 181)"	"(260, 201)"	1	0	9141115.75	72	36
8	w	24	r	2	8	77	3	"(261, 638)"	"(276, 639)"	1	0	9141731.78	72	36
8	w	24	r	2	8	77	4	"(922, 433)"	"(895, 466)"	1	0	9142259.31	72	36
8	w	24	r	2	8	77	5	"(572, 88)"	"(552, 64)"	1	0	9142885.59	72	36
8	w	24	r	2	8	77	6	"(884, 76)"	"(898, 68)"	1	0	9143198.06	72	36
8	w	24	r	2	8	77	7	"(103, 437)"	"(90, 447)"	1	0	9143836.26	72	36
8	w	24	r	2	8	77	8	"(570, 692)"	"(595, 688)"	1	0	9144363.15	72	36
8	w	24	r	2	8	77	8	"(570, 692)"	"(595, 688)"	1	    4.39	9144363.15	72	36
8	w	24	r	2	8	78	1	"(889, 669)"	"(870, 679)"	1	0	9148411.54	72	36
8	w	24	r	2	8	78	2	"(261, 181)"	"(251, 180)"	1	0	9149012.80	72	36
8	w	24	r	2	8	78	3	"(261, 638)"	"(260, 663)"	1	0	9149620.30	72	36
8	w	24	r	2	8	78	4	"(922, 433)"	"(905, 444)"	1	0	9150060.12	72	36
8	w	24	r	2	8	78	5	"(572, 88)"	"(579, 92)"	1	0	9150628.43	72	36
8	w	24	r	2	8	78	6	"(884, 76)"	"(912, 83)"	1	0	9151110.34	72	36
8	w	24	r	2	8	78	7	"(103, 437)"	"(78, 452)"	1	0	9151979.13	72	36
8	w	24	r	2	8	78	8	"(570, 692)"	"(593, 692)"	1	0	9152478.40	72	36
8	w	24	r	2	8	78	8	"(570, 692)"	"(593, 692)"	1	    4.60	9152478.40	72	36
8	w	24	r	2	8	79	1	"(889, 669)"	"(901, 680)"	1	0	9155820.84	72	36
8	w	24	r	2	8	79	2	"(261, 181)"	"(251, 170)"	1	0	9156603.64	72	36
8	w	24	r	2	8	79	3	"(261, 638)"	"(267, 656)"	1	0	9157054.44	72	36
8	w	24	r	2	8	79	4	"(922, 433)"	"(899, 436)"	1	0	9157645.68	72	36
8	w	24	r	2	8	79	5	"(572, 88)"	"(582, 99)"	1	0	9158294.15	72	36
8	w	24	r	2	8	79	6	"(884, 76)"	"(863, 82)"	1	0	9158852.45	72	36
8	w	24	r	2	8	79	7	"(103, 437)"	"(116, 457)"	1	0	9159604.34	72	36
8	w	24	r	2	8	79	8	"(570, 692)"	"(562, 714)"	2	0	9160365.35	72	36
8	w	24	r	2	8	79	8	"(570, 692)"	"(562, 714)"	2	    4.94	9160365.35	72	36
8	w	24	r	2	8	80	1	"(889, 669)"	"(885, 669)"	1	0	9163811.64	72	36
8	w	24	r	2	8	80	2	"(261, 181)"	"(251, 167)"	1	0	9164380.80	72	36
8	w	24	r	2	8	80	3	"(261, 638)"	"(273, 636)"	1	0	9164817.92	72	36
8	w	24	r	2	8	80	4	"(922, 433)"	"(934, 466)"	1	0	9165236.02	72	36
8	w	24	r	2	8	80	5	"(572, 88)"	"(582, 103)"	1	0	9165837.30	72	36
8	w	24	r	2	8	80	6	"(884, 76)"	"(900, 75)"	1	0	9166302.20	72	36
8	w	24	r	2	8	80	7	"(103, 437)"	"(79, 471)"	1	0	9167013.98	72	36
8	w	24	r	2	8	80	8	"(570, 692)"	"(550, 699)"	1	0	9167551.22	72	36
8	w	24	r	2	8	80	8	"(570, 692)"	"(550, 699)"	1	    4.14	9167551.22	72	36
8	w	24	r	3	9	81	1	"(889, 669)"	"(863, 666)"	1	0	9172607.48	72	36
8	w	24	r	3	9	81	2	"(261, 181)"	"(245, 176)"	1	0	9173023.45	72	36
8	w	24	r	3	9	81	3	"(261, 638)"	"(267, 667)"	1	0	9173677.57	72	36
8	w	24	r	3	9	81	4	"(922, 433)"	"(924, 453)"	1	0	9174285.52	72	36
8	w	24	r	3	9	81	5	"(572, 88)"	"(546, 69)"	2	0	9175700.44	72	36
8	w	24	r	3	9	81	6	"(884, 76)"	"(886, 85)"	1	0	9176351.91	72	36
8	w	24	r	3	9	81	7	"(103, 437)"	"(110, 446)"	1	0	9177206.79	72	36
8	w	24	r	3	9	81	8	"(570, 692)"	"(589, 682)"	1	0	9177613.80	72	36
8	w	24	r	3	9	81	8	"(570, 692)"	"(589, 682)"	1	    5.39	9177613.80	72	36
8	w	24	r	3	9	82	1	"(889, 669)"	"(907, 665)"	1	0	9181013.54	72	36
8	w	24	r	3	9	82	2	"(261, 181)"	"(265, 186)"	1	0	9181766.98	72	36
8	w	24	r	3	9	82	3	"(261, 638)"	"(263, 630)"	1	0	9182388.72	72	36
8	w	24	r	3	9	82	4	"(922, 433)"	"(923, 448)"	1	0	9182998.92	72	36
8	w	24	r	3	9	82	5	"(572, 88)"	"(574, 97)"	1	0	9183581.24	72	36
8	w	24	r	3	9	82	6	"(884, 76)"	"(842, 85)"	1	0	9183880.16	72	36
8	w	24	r	3	9	82	7	"(103, 437)"	"(118, 458)"	2	0	9184887.53	72	36
8	w	24	r	3	9	82	8	"(570, 692)"	"(540, 679)"	1	0	9185510.82	72	36
8	w	24	r	3	9	82	8	"(570, 692)"	"(540, 679)"	1	    5.11	9185510.82	72	36
8	w	24	r	3	9	83	1	"(889, 669)"	"(894, 704)"	1	0	9188598.24	72	36
8	w	24	r	3	9	83	2	"(261, 181)"	"(245, 199)"	1	0	9189062.26	72	36
8	w	24	r	3	9	83	3	"(261, 638)"	"(257, 643)"	1	0	9189622.16	72	36
8	w	24	r	3	9	83	4	"(922, 433)"	"(934, 455)"	1	0	9190310.80	72	36
8	w	24	r	3	9	83	5	"(572, 88)"	"(562, 86)"	1	0	9190997.83	72	36
8	w	24	r	3	9	83	6	"(884, 76)"	"(923, 83)"	1	0	9191367.44	72	36
8	w	24	r	3	9	83	7	"(103, 437)"	"(79, 450)"	1	0	9192078.69	72	36
8	w	24	r	3	9	83	8	"(570, 692)"	"(552, 698)"	2	0	9192686.17	72	36
8	w	24	r	3	9	83	8	"(570, 692)"	"(552, 698)"	2	    4.74	9192686.17	72	36
8	w	24	r	3	9	84	1	"(889, 669)"	"(901, 682)"	1	0	9196808.28	72	36
8	w	24	r	3	9	84	2	"(261, 181)"	"(245, 182)"	1	0	9197486.86	72	36
8	w	24	r	3	9	84	3	"(261, 638)"	"(260, 660)"	1	0	9198113.01	72	36
8	w	24	r	3	9	84	4	"(922, 433)"	"(923, 451)"	1	0	9198727.74	72	36
8	w	24	r	3	9	84	5	"(572, 88)"	"(558, 81)"	1	0	9199310.45	72	36
8	w	24	r	3	9	84	6	"(884, 76)"	"(877, 81)"	1	0	9199671.09	72	36
8	w	24	r	3	9	84	7	"(103, 437)"	"(81, 435)"	1	0	9200271.98	72	36
8	w	24	r	3	9	84	8	"(570, 692)"	"(604, 714)"	1	0	9200871.75	72	36
8	w	24	r	3	9	84	8	"(570, 692)"	"(604, 714)"	1	    4.67	9200871.75	72	36
8	w	24	r	3	9	85	1	"(889, 669)"	"(865, 693)"	1	0	9204534.25	72	36
8	w	24	r	3	9	85	2	"(261, 181)"	"(259, 151)"	1	0	9205065.71	72	36
8	w	24	r	3	9	85	3	"(261, 638)"	"(265, 594)"	1	0	9205505.54	72	36
8	w	24	r	3	9	85	4	"(922, 433)"	"(960, 429)"	1	0	9206263.65	72	36
8	w	24	r	3	9	85	5	"(572, 88)"	"(549, 65)"	1	0	9206871.56	72	36
8	w	24	r	3	9	85	6	"(884, 76)"	"(891, 78)"	1	0	9207358.81	72	36
8	w	24	r	3	9	85	7	"(103, 437)"	"(104, 442)"	1	0	9207903.60	72	36
8	w	24	r	3	9	85	8	"(570, 692)"	"(561, 682)"	1	0	9208446.02	72	36
8	w	24	r	3	9	85	8	"(570, 692)"	"(561, 682)"	1	    4.54	9208446.02	72	36
8	w	24	r	3	9	86	1	"(889, 669)"	"(926, 658)"	1	0	9211737.14	72	36
8	w	24	r	3	9	86	2	"(261, 181)"	"(277, 168)"	1	0	9212344.93	72	36
8	w	24	r	3	9	86	3	"(261, 638)"	"(266, 614)"	1	0	9212961.57	72	36
8	w	24	r	3	9	86	4	"(922, 433)"	"(912, 449)"	1	0	9213762.26	72	36
8	w	24	r	3	9	86	5	"(572, 88)"	"(581, 90)"	1	0	9214312.97	72	36
8	w	24	r	3	9	86	6	"(884, 76)"	"(880, 75)"	1	0	9214764.25	72	36
8	w	24	r	3	9	86	7	"(103, 437)"	"(111, 420)"	1	0	9215463.19	72	36
8	w	24	r	3	9	86	8	"(570, 692)"	"(604, 714)"	1	0	9216039.73	72	36
8	w	24	r	3	9	86	8	"(570, 692)"	"(604, 714)"	1	    4.86	9216039.73	72	36
8	w	24	r	3	9	87	1	"(889, 669)"	"(857, 676)"	1	0	9220359.11	72	36
8	w	24	r	3	9	87	2	"(261, 181)"	"(260, 180)"	1	0	9220895.52	72	36
8	w	24	r	3	9	87	3	"(261, 638)"	"(265, 676)"	1	0	9221424.43	72	36
8	w	24	r	3	9	87	4	"(922, 433)"	"(963, 436)"	1	0	9222089.11	72	36
8	w	24	r	3	9	87	5	"(572, 88)"	"(558, 86)"	1	0	9222711.76	72	36
8	w	24	r	3	9	87	6	"(884, 76)"	"(886, 91)"	1	0	9223065.49	72	36
8	w	24	r	3	9	87	7	"(103, 437)"	"(68, 452)"	1	0	9223713.89	72	36
8	w	24	r	3	9	87	8	"(570, 692)"	"(523, 689)"	1	0	9224247.69	72	36
8	w	24	r	3	9	87	8	"(570, 692)"	"(523, 689)"	1	    4.59	9224247.69	72	36
8	w	24	r	3	9	88	1	"(889, 669)"	"(920, 673)"	1	0	9227968.14	72	36
8	w	24	r	3	9	88	2	"(261, 181)"	"(250, 208)"	1	0	9228569.71	72	36
8	w	24	r	3	9	88	3	"(261, 638)"	"(281, 653)"	1	0	9229128.57	72	36
8	w	24	r	3	9	88	4	"(922, 433)"	"(910, 427)"	1	0	9229715.10	72	36
8	w	24	r	3	9	88	5	"(572, 88)"	"(602, 117)"	1	0	9230322.63	72	36
8	w	24	r	3	9	88	6	"(884, 76)"	"(921, 92)"	1	0	9230680.54	72	36
8	w	24	r	3	9	88	7	"(103, 437)"	"(131, 434)"	1	0	9231192.60	72	36
8	w	24	r	3	9	88	8	"(570, 692)"	"(562, 726)"	1	0	9231673.42	72	36
8	w	24	r	3	9	88	8	"(570, 692)"	"(562, 726)"	1	    4.36	9231673.42	72	36
8	w	24	r	3	9	89	1	"(889, 669)"	"(889, 661)"	1	0	9235105.54	72	36
8	w	24	r	3	9	89	2	"(261, 181)"	"(261, 217)"	1	0	9235940.19	72	36
8	w	24	r	3	9	89	3	"(261, 638)"	"(266, 639)"	1	0	9236488.01	72	36
8	w	24	r	3	9	89	4	"(922, 433)"	"(875, 429)"	1	0	9236911.01	72	36
8	w	24	r	3	9	89	5	"(572, 88)"	"(548, 80)"	1	0	9237720.96	72	36
8	w	24	r	3	9	89	6	"(884, 76)"	"(914, 82)"	1	0	9238066.15	72	36
8	w	24	r	3	9	89	7	"(103, 437)"	"(91, 449)"	1	0	9238643.41	72	36
8	w	24	r	3	9	89	8	"(570, 692)"	"(565, 743)"	1	0	9238960.07	72	36
8	w	24	r	3	9	89	8	"(570, 692)"	"(565, 743)"	1	    4.46	9238960.07	72	36
8	w	24	r	3	9	90	1	"(889, 669)"	"(861, 683)"	1	0	9242255.31	72	36
8	w	24	r	3	9	90	2	"(261, 181)"	"(240, 209)"	1	0	9242852.44	72	36
8	w	24	r	3	9	90	3	"(261, 638)"	"(271, 647)"	1	0	9243337.19	72	36
8	w	24	r	3	9	90	4	"(922, 433)"	"(917, 399)"	1	0	9243774.29	72	36
8	w	24	r	3	9	90	5	"(572, 88)"	"(576, 96)"	1	0	9244329.85	72	36
8	w	24	r	3	9	90	6	"(884, 76)"	"(891, 82)"	2	0	9244985.63	72	36
8	w	24	r	3	9	90	7	"(103, 437)"	"(118, 436)"	1	0	9245594.82	72	36
8	w	24	r	3	9	90	8	"(570, 692)"	"(576, 663)"	1	0	9246130.21	72	36
8	w	24	r	3	9	90	8	"(570, 692)"	"(576, 663)"	1	    4.40	9246130.21	72	36
8	w	24	r	3	10	91	1	"(889, 669)"	"(925, 684)"	2	0	9254201.23	72	36
8	w	24	r	3	10	91	2	"(261, 181)"	"(255, 209)"	1	0	9254857.54	72	36
8	w	24	r	3	10	91	3	"(261, 638)"	"(262, 653)"	1	0	9255404.23	72	36
8	w	24	r	3	10	91	4	"(922, 433)"	"(939, 452)"	1	0	9256172.12	72	36
8	w	24	r	3	10	91	5	"(572, 88)"	"(571, 107)"	1	0	9256803.11	72	36
8	w	24	r	3	10	91	6	"(884, 76)"	"(868, 103)"	2	0	9257464.74	72	36
8	w	24	r	3	10	91	7	"(103, 437)"	"(88, 473)"	1	0	9258089.83	72	36
8	w	24	r	3	10	91	8	"(570, 692)"	"(585, 712)"	2	0	9258939.82	72	36
8	w	24	r	3	10	91	8	"(570, 692)"	"(585, 712)"	2	    6.58	9258939.82	72	36
8	w	24	r	3	10	92	1	"(889, 669)"	"(841, 681)"	1	0	9264953.29	72	36
8	w	24	r	3	10	92	2	"(261, 181)"	"(240, 188)"	1	0	9265513.79	72	36
8	w	24	r	3	10	92	3	"(261, 638)"	"(274, 630)"	1	0	9265937.29	72	36
8	w	24	r	3	10	92	4	"(922, 433)"	"(919, 450)"	1	0	9266513.84	72	36
8	w	24	r	3	10	92	5	"(572, 88)"	"(564, 107)"	1	0	9267113.66	72	36
8	w	24	r	3	10	92	6	"(884, 76)"	"(850, 78)"	1	0	9267812.53	72	36
8	w	24	r	3	10	92	7	"(103, 437)"	"(136, 434)"	1	0	9268354.76	72	36
8	w	24	r	3	10	92	8	"(570, 692)"	"(577, 683)"	1	0	9268956.59	72	36
8	w	24	r	3	10	92	8	"(570, 692)"	"(577, 683)"	1	    4.74	9268956.59	72	36
8	w	24	r	3	10	93	1	"(889, 669)"	"(888, 678)"	1	0	9272334.09	72	36
8	w	24	r	3	10	93	2	"(261, 181)"	"(244, 191)"	1	0	9272973.70	72	36
8	w	24	r	3	10	93	3	"(261, 638)"	"(235, 649)"	1	0	9274293.79	72	36
8	w	24	r	3	10	93	4	"(922, 433)"	"(923, 450)"	1	0	9274973.19	72	36
8	w	24	r	3	10	93	5	"(572, 88)"	"(591, 91)"	1	0	9275533.59	72	36
8	w	24	r	3	10	93	6	"(884, 76)"	"(906, 74)"	1	0	9276026.22	72	36
8	w	24	r	3	10	93	7	"(103, 437)"	"(104, 457)"	1	0	9276644.50	72	36
8	w	24	r	3	10	93	8	"(570, 692)"	"(531, 706)"	1	0	9277076.57	72	36
8	w	24	r	3	10	93	8	"(570, 692)"	"(531, 706)"	1	    5.46	9277076.57	72	36
8	w	24	r	3	10	94	1	"(889, 669)"	"(902, 686)"	2	0	9281650.34	72	36
8	w	24	r	3	10	94	2	"(261, 181)"	"(264, 169)"	1	0	9282212.75	72	36
8	w	24	r	3	10	94	3	"(261, 638)"	"(278, 673)"	1	0	9282730.15	72	36
8	w	24	r	3	10	94	4	"(922, 433)"	"(901, 440)"	1	0	9283258.90	72	36
8	w	24	r	3	10	94	5	"(572, 88)"	"(574, 105)"	1	0	9283781.50	72	36
8	w	24	r	3	10	94	6	"(884, 76)"	"(870, 66)"	1	0	9284283.18	72	36
8	w	24	r	3	10	94	7	"(103, 437)"	"(94, 451)"	1	0	9284787.68	72	36
8	w	24	r	3	10	94	8	"(570, 692)"	"(563, 694)"	2	0	9285504.84	72	36
8	w	24	r	3	10	94	8	"(570, 692)"	"(563, 694)"	2	    5.89	9285504.84	72	36
8	w	24	r	3	10	95	1	"(889, 669)"	"(899, 678)"	1	0	9291166.84	72	36
8	w	24	r	3	10	95	2	"(261, 181)"	"(282, 208)"	1	0	9291666.91	72	36
8	w	24	r	3	10	95	3	"(261, 638)"	"(269, 672)"	1	0	9292106.96	72	36
8	w	24	r	3	10	95	4	"(922, 433)"	"(933, 469)"	1	0	9292611.90	72	36
8	w	24	r	3	10	95	5	"(572, 88)"	"(560, 78)"	1	0	9293195.65	72	36
8	w	24	r	3	10	95	6	"(884, 76)"	"(883, 90)"	1	0	9293790.53	72	36
8	w	24	r	3	10	95	7	"(103, 437)"	"(107, 436)"	1	0	9294444.29	72	36
8	w	24	r	3	10	95	8	"(570, 692)"	"(561, 711)"	1	0	9294958.77	72	36
8	w	24	r	3	10	95	8	"(570, 692)"	"(561, 711)"	1	    4.21	9294958.77	72	36
8	w	24	r	3	10	96	1	"(889, 669)"	"(847, 680)"	1	0	9298733.41	72	36
8	w	24	r	3	10	96	2	"(261, 181)"	"(246, 208)"	1	0	9299181.10	72	36
8	w	24	r	3	10	96	3	"(261, 638)"	"(271, 651)"	1	0	9299652.68	72	36
8	w	24	r	3	10	96	4	"(922, 433)"	"(899, 432)"	1	0	9300252.42	72	36
8	w	24	r	3	10	96	5	"(572, 88)"	"(575, 92)"	1	0	9300701.88	72	36
8	w	24	r	3	10	96	6	"(884, 76)"	"(871, 85)"	1	0	9301211.77	72	36
8	w	24	r	3	10	96	7	"(103, 437)"	"(93, 450)"	1	0	9301870.19	72	36
8	w	24	r	3	10	96	8	"(570, 692)"	"(557, 693)"	1	0	9302404.91	72	36
8	w	24	r	3	10	96	8	"(570, 692)"	"(557, 693)"	1	    4.22	9302404.91	72	36
8	w	24	r	3	10	97	1	"(889, 669)"	"(862, 707)"	1	0	9307964.30	72	36
8	w	24	r	3	10	97	2	"(261, 181)"	"(275, 211)"	1	0	9308804.35	72	36
8	w	24	r	3	10	97	3	"(261, 638)"	"(269, 646)"	1	0	9309215.61	72	36
8	w	24	r	3	10	97	4	"(922, 433)"	"(945, 423)"	1	0	9309756.84	72	36
8	w	24	r	3	10	97	5	"(572, 88)"	"(577, 124)"	1	0	9310319.28	72	36
8	w	24	r	3	10	97	6	"(884, 76)"	"(875, 89)"	1	0	9310893.80	72	36
8	w	24	r	3	10	97	7	"(103, 437)"	"(110, 486)"	1	0	9311574.52	72	36
8	w	24	r	3	10	97	8	"(570, 692)"	"(544, 706)"	1	0	9312013.31	72	36
8	w	24	r	3	10	97	8	"(570, 692)"	"(544, 706)"	1	    4.58	9312013.31	72	36
8	w	24	r	3	10	98	1	"(889, 669)"	"(889, 707)"	1	0	9315828.17	72	36
8	w	24	r	3	10	98	2	"(261, 181)"	"(251, 147)"	1	0	9316366.66	72	36
8	w	24	r	3	10	98	3	"(261, 638)"	"(272, 646)"	1	0	9316852.92	72	36
8	w	24	r	3	10	98	4	"(922, 433)"	"(927, 442)"	1	0	9317471.46	72	36
8	w	24	r	3	10	98	5	"(572, 88)"	"(550, 104)"	1	0	9317904.30	72	36
8	w	24	r	3	10	98	6	"(884, 76)"	"(907, 78)"	1	0	9318487.88	72	36
8	w	24	r	3	10	98	7	"(103, 437)"	"(105, 423)"	1	0	9319527.07	72	36
8	w	24	r	3	10	98	8	"(570, 692)"	"(584, 670)"	1	0	9320295.50	72	36
8	w	24	r	3	10	98	8	"(570, 692)"	"(584, 670)"	1	    5.04	9320295.50	72	36
8	w	24	r	3	10	99	1	"(889, 669)"	"(881, 691)"	1	0	9324582.98	72	36
8	w	24	r	3	10	99	2	"(261, 181)"	"(255, 224)"	1	0	9325198.54	72	36
8	w	24	r	3	10	99	3	"(261, 638)"	"(267, 612)"	1	0	9325718.41	72	36
8	w	24	r	3	10	99	4	"(922, 433)"	"(950, 457)"	1	0	9326372.95	72	36
8	w	24	r	3	10	99	5	"(572, 88)"	"(565, 101)"	1	0	9327103.61	72	36
8	w	24	r	3	10	99	6	"(884, 76)"	"(878, 75)"	1	0	9327630.67	72	36
8	w	24	r	3	10	99	7	"(103, 437)"	"(125, 436)"	1	0	9328263.54	72	36
8	w	24	r	3	10	99	8	"(570, 692)"	"(565, 715)"	1	0	9328770.68	72	36
8	w	24	r	3	10	99	8	"(570, 692)"	"(565, 715)"	1	    4.91	9328770.68	72	36
8	w	24	r	3	10	100	1	"(889, 669)"	"(892, 638)"	1	0	9332549.53	72	36
8	w	24	r	3	10	100	2	"(261, 181)"	"(237, 197)"	1	0	9333294.71	72	36
8	w	24	r	3	10	100	3	"(261, 638)"	"(266, 643)"	1	0	9333829.49	72	36
8	w	24	r	3	10	100	4	"(922, 433)"	"(903, 464)"	1	0	9334432.09	72	36
8	w	24	r	3	10	100	5	"(572, 88)"	"(558, 99)"	1	0	9335077.34	72	36
8	w	24	r	3	10	100	6	"(884, 76)"	"(882, 77)"	1	0	9335976.21	72	36
8	w	24	r	3	10	100	7	"(103, 437)"	"(124, 437)"	1	0	9336717.33	72	36
8	w	24	r	3	10	100	8	"(570, 692)"	"(576, 709)"	1	0	9337359.95	72	36
8	w	24	r	3	10	100	8	"(570, 692)"	"(576, 709)"	1	    5.62	9337359.95	72	36
