START 365264
EBLINK	R	366670	368459	1790
EBLINK	R	370071	370146	76
END 378655
START 443021
EBLINK	R	450008	450104	97
END 450627
START 456805
END 464078
START 467158
END 474319
START 478568
END 484407
START 493222
EBLINK	R	498342	498418	77
END 498803
START 503479
END 509491
START 513277
END 519582
START 522280
END 527905
START 533577
END 539105
START 543147
END 548228
START 562107
END 568685
START 571595
END 576920
START 580196
END 585333
START 589278
EBLINK	R	594251	594252	2
END 594253
START 596212
END 601758
START 614950
END 620120
START 623255
EBLINK	R	627622	627745	124
END 628151
START 632486
END 636992
START 649287
END 654709
START 658345
END 662764
START 671489
END 676343
START 684370
END 689388
START 697723
END 702931
START 708066
END 714380
START 724211
END 730204
START 732349
END 737163
START 743948
END 749413
START 756325
END 761082
START 766629
END 771863
START 774855
END 779520
START 786095
END 790543
START 796652
END 801582
START 808009
END 812336
START 817008
END 821638
START 837001
END 844318
START 852578
END 857295
START 863484
END 868397
START 874222
EBLINK	R	880366	880488	123
END 881004
START 887904
END 892707
START 895469
EBLINK	R	895802	895908	107
END 900653
START 903887
EBLINK	R	907817	907817	1
END 909676
START 912227
END 918088
START 920176
END 924987
START 929991
END 934932
START 939696
END 944775
START 946647
END 951373
START 952993
END 958567
START 960318
END 965222
START 967137
END 971796
START 973860
END 978208
START 981088
EBLINK	R	985425	985538	114
END 986009
START 989698
END 994499
START 995929
EBLINK	R	999514	999599	86
EBLINK	R	1000556	1000620	65
END 1005370
START 1007075
EBLINK	R	1012183	1012298	116
END 1012666
START 1014284
END 1018927
START 1020541
END 1025286
START 1026950
END 1032467
START 1034684
END 1040041
START 1041460
END 1046392
START 1047609
END 1053670
START 1057122
END 1062272
START 1066067
END 1070876
START 1072415
END 1078746
START 1080368
END 1085231
START 1086919
END 1093091
START 1094351
END 1099377
START 1100632
EBLINK	R	1106717	1106749	33
EBLINK	R	1107491	1107623	133
END 1107624
START 1109986
END 1115742
START 1117420
END 1121816
START 1125506
END 1129640
START 1132577
EBLINK	R	1137207	1137323	117
END 1137671
START 1140076
END 1144719
START 1146730
END 1150859
START 1153981
END 1158028
START 1160859
END 1165184
START 1167613
END 1171803
START 1174334
END 1179372
START 1180901
END 1185539
START 1188200
END 1193366
START 1197446
END 1202989
START 1206870
END 1211777
START 1214784
EBLINK	R	1220844	1220946	103
END 1221375
START 1222846
EBLINK	R	1226761	1226908	148
END 1227351
START 1230912
END 1236301
START 1238127
EBLINK	R	1242709	1242780	72
END 1243251
START 1245183
END 1251446
START 1254549
END 1259830
START 1261626
END 1267017
START 1268606
END 1273081
START 1275353
END 1280055
START 1283610
END 1288667
START 1290109
END 1294628
START 1296994
END 1302460
START 1304344
END 1310257
START 1311764
END 1316982
START 1318284
END 1323207
START 1324542
EBLINK	R	1329946	1330010	65
END 1330011
START 1331476
END 1336959
START 1338565
EBLINK	R	1343489	1343606	118
END 1344070
START 1346743
END 1351734
