START 10325507
END 10335194
START 10392510
EBLINK	R	10393292	10393325	34
END 10401654
START 10409422
END 10415784
START 10421571
END 10428176
START 10435706
END 10441185
START 10445785
END 10451605
START 10455851
END 10461774
START 10465916
EBLINK	R	10467786	10467789	4
END 10471156
START 10478939
END 10484282
START 10489124
EBLINK	R	10490720	10490727	8
EBLINK	R	10491064	10491064	1
END 10494965
START 10502309
END 10508273
START 10515246
END 10520932
START 10525398
END 10530983
START 10536751
END 10542473
START 10545159
EBLINK	R	10545674	10545674	1
END 10550472
START 10553343
END 10558326
START 10561815
EBLINK	R	10562722	10562722	1
EBLINK	R	10562773	10562773	1
END 10566514
START 10569608
END 10574576
START 10583801
EBLINK	R	10586189	10586196	8
EBLINK	R	10587082	10587129	48
END 10590072
START 10594201
END 10599234
START 10602882
END 10608428
START 10613739
END 10618330
START 10621892
END 10626322
START 10630020
EBLINK	R	10632489	10633022	534
END 10634682
START 10638156
END 10643100
START 10649421
END 10655677
START 10658884
END 10664007
START 10666798
EBLINK	R	10668176	10668176	1
END 10671431
START 10673415
END 10678552
START 10683110
END 10687567
START 10690374
EBLINK	R	10691059	10691164	106
END 10695318
START 10699383
END 10704158
START 10706145
EBLINK	R	10707710	10707712	3
END 10711173
START 10714400
EBLINK	R	10715453	10715453	1
EBLINK	R	10715502	10715514	13
END 10719090
START 10722336
END 10727059
START 10729368
END 10734048
START 10746355
END 10751434
START 10754482
END 10758618
START 10761755
END 10766601
START 10769900
END 10774804
START 10777635
EBLINK	R	10782287	10782359	73
END 10782818
START 10786724
EBLINK	R	10789688	10789690	3
EBLINK	R	10789753	10789756	4
END 10792627
START 10794972
EBLINK	R	10796471	10796473	3
END 10799821
START 10802597
EBLINK	R	10803811	10803815	5
END 10806937
START 10812630
EBLINK	R	10814108	10814198	91
END 10817166
START 10819366
END 10823725
START 10826637
END 10830686
START 10834071
END 10838208
START 10841071
EBLINK	R	10841698	10841969	272
EBLINK	R	10842028	10842065	38
EBLINK	R	10842107	10842227	121
END 10844998
START 10848119
EBLINK	R	10848766	10848771	6
EBLINK	R	10848856	10848859	4
EBLINK	R	10848914	10848919	6
EBLINK	R	10848963	10848968	6
EBLINK	R	10849027	10849034	8
EBLINK	R	10849091	10849096	6
EBLINK	R	10849154	10849186	33
EBLINK	R	10849247	10849260	14
EBLINK	R	10850274	10850325	52
EBLINK	R	10850437	10850516	80
EBLINK	R	10850691	10850691	1
EBLINK	R	10850793	10850797	5
EBLINK	R	10850911	10850915	5
END 10854297
START 10856945
EBLINK	R	10857557	10857871	315
EBLINK	R	10857982	10858337	356
EBLINK	R	10858755	10859180	426
EBLINK	R	10859270	10859368	99
END 10862871
START 10867480
EBLINK	R	10868217	10868555	339
EBLINK	R	10868621	10868657	37
EBLINK	R	10868699	10868721	23
END 10871984
START 10874193
END 10878592
START 10882233
END 10886531
START 10888667
END 10893452
START 10904419
END 10908460
START 10911979
END 10915917
START 10918779
END 10923748
START 10927172
END 10932284
START 10936216
EBLINK	R	10937590	10937863	274
EBLINK	R	10938047	10938049	3
END 10940318
START 10943029
END 10947293
START 10952765
END 10961222
START 10964623
END 10968767
START 10971398
END 10975856
START 10979183
END 10985190
START 10988647
EBLINK	R	10990433	10990435	3
END 10993673
START 10997256
END 11002033
START 11004864
END 11010077
START 11013082
END 11017946
START 11021713
END 11026385
START 11030122
END 11035277
START 11038482
END 11043217
START 11046370
EBLINK	R	11047137	11047145	9
EBLINK	R	11047290	11047290	1
END 11051995
START 11054851
EBLINK	R	11055762	11055770	9
EBLINK	R	11055958	11055965	8
EBLINK	R	11056552	11056552	1
EBLINK	R	11056772	11056831	60
EBLINK	R	11056987	11057057	71
EBLINK	R	11057164	11057166	3
END 11060659
START 11063355
END 11067852
START 11071428
END 11076268
START 11079947
EBLINK	R	11083875	11083882	8
END 11085116
START 11089733
END 11094783
START 11098413
END 11103926
START 11107118
END 11112678
START 11115782
EBLINK	R	11117923	11118393	471
END 11120925
START 11127439
END 11132784
START 11136831
EBLINK	R	11138752	11138752	1
EBLINK	R	11140321	11140322	2
END 11141802
START 11144866
EBLINK	R	11146309	11146480	172
END 11149358
START 11152288
EBLINK	R	11152890	11152892	3
EBLINK	R	11153640	11153705	66
END 11156433
START 11159482
EBLINK	R	11160953	11160984	32
END 11164070
START 11167337
EBLINK	R	11168625	11168672	48
END 11171786
START 11175817
END 11181129
START 11184651
EBLINK	R	11186165	11186167	3
EBLINK	R	11188592	11188657	66
END 11188994
START 11191946
EBLINK	R	11193390	11193392	3
EBLINK	R	11193463	11193474	12
END 11196235
START 11199828
EBLINK	R	11201230	11201274	45
EBLINK	R	11201397	11201398	2
END 11204765
START 11209571
END 11214756
START 11218907
END 11223524
START 11228420
END 11232746
START 11236335
END 11240765
START 11244061
END 11247983
START 11252895
END 11257422
START 11262151
END 11266920
START 11270534
END 11275045
START 11278320
END 11282225
START 11286503
EBLINK	R	11287706	11287707	2
END 11290358
