VPnr	VPgender	VPage	VPeyeDominance	Condition	Block	Trial	Number	LocNumberCurrent	LocClickCorrect	NrClicksPerCircle	TimeTrial	TimeClickCorrect	SizeCircles	ClickTolerance
20	w	20	l	1	1	0	1	"(889, 669)"	"(887, 671)"	1	0	9771983.92	72	36
20	w	20	l	1	1	0	2	"(261, 181)"	"(259, 183)"	1	0	9775906.61	72	36
20	w	20	l	1	1	0	3	"(261, 638)"	"(265, 636)"	1	0	9777074.98	72	36
20	w	20	l	1	1	0	4	"(922, 433)"	"(920, 431)"	1	0	9778256.49	72	36
20	w	20	l	1	1	0	5	"(572, 88)"	"(575, 83)"	1	0	9778970.62	72	36
20	w	20	l	1	1	0	6	"(884, 76)"	"(873, 77)"	1	0	9779756.01	72	36
20	w	20	l	1	1	0	7	"(103, 437)"	"(107, 437)"	1	0	9780920.49	72	36
20	w	20	l	1	1	0	8	"(570, 692)"	"(574, 697)"	1	0	9781665.05	72	36
20	w	20	l	1	1	0	8	"(570, 692)"	"(574, 697)"	1	   13.77	9781665.05	72	36
20	w	20	l	1	1	1	1	"(889, 669)"	"(898, 675)"	1	0	9821851.01	72	36
20	w	20	l	1	1	1	2	"(261, 181)"	"(253, 188)"	1	0	9822931.35	72	36
20	w	20	l	1	1	1	3	"(261, 638)"	"(266, 632)"	1	0	9823594.10	72	36
20	w	20	l	1	1	1	4	"(922, 433)"	"(965, 447)"	1	0	9824982.16	72	36
20	w	20	l	1	1	1	5	"(572, 88)"	"(549, 89)"	1	0	9826021.28	72	36
20	w	20	l	1	1	1	6	"(884, 76)"	"(881, 75)"	1	0	9826643.14	72	36
20	w	20	l	1	1	1	7	"(103, 437)"	"(112, 433)"	1	0	9827741.76	72	36
20	w	20	l	1	1	1	8	"(570, 692)"	"(584, 701)"	1	0	9828284.89	72	36
20	w	20	l	1	1	1	8	"(570, 692)"	"(584, 701)"	1	    7.96	9828284.89	72	36
20	w	20	l	1	1	2	1	"(889, 669)"	"(892, 669)"	1	0	9835229.18	72	36
20	w	20	l	1	1	2	2	"(261, 181)"	"(250, 176)"	1	0	9836202.95	72	36
20	w	20	l	1	1	2	3	"(261, 638)"	"(243, 664)"	1	0	9836757.67	72	36
20	w	20	l	1	1	2	4	"(922, 433)"	"(916, 451)"	1	0	9837850.81	72	36
20	w	20	l	1	1	2	5	"(572, 88)"	"(570, 96)"	1	0	9838356.45	72	36
20	w	20	l	1	1	2	6	"(884, 76)"	"(915, 74)"	1	0	9838782.13	72	36
20	w	20	l	1	1	2	7	"(103, 437)"	"(103, 425)"	1	0	9839620.75	72	36
20	w	20	l	1	1	2	8	"(570, 692)"	"(574, 691)"	1	0	9840123.25	72	36
20	w	20	l	1	1	2	8	"(570, 692)"	"(574, 691)"	1	    6.11	9840123.25	72	36
20	w	20	l	1	1	3	1	"(889, 669)"	"(890, 679)"	1	0	9847428.80	72	36
20	w	20	l	1	1	3	2	"(261, 181)"	"(248, 183)"	1	0	9848283.54	72	36
20	w	20	l	1	1	3	3	"(261, 638)"	"(253, 669)"	1	0	9848836.35	72	36
20	w	20	l	1	1	3	4	"(922, 433)"	"(918, 432)"	1	0	9849701.44	72	36
20	w	20	l	1	1	3	5	"(572, 88)"	"(574, 113)"	1	0	9850261.01	72	36
20	w	20	l	1	1	3	6	"(884, 76)"	"(882, 92)"	1	0	9850773.93	72	36
20	w	20	l	1	1	3	7	"(103, 437)"	"(85, 445)"	1	0	9851647.02	72	36
20	w	20	l	1	1	3	8	"(570, 692)"	"(597, 695)"	2	0	9852469.12	72	36
20	w	20	l	1	1	3	8	"(570, 692)"	"(597, 695)"	2	    6.31	9852469.12	72	36
20	w	20	l	1	1	4	1	"(889, 669)"	"(893, 675)"	1	0	9861596.19	72	36
20	w	20	l	1	1	4	2	"(261, 181)"	"(237, 190)"	1	0	9862556.68	72	36
20	w	20	l	1	1	4	3	"(261, 638)"	"(256, 638)"	1	0	9863211.40	72	36
20	w	20	l	1	1	4	4	"(922, 433)"	"(914, 424)"	1	0	9863813.11	72	36
20	w	20	l	1	1	4	5	"(572, 88)"	"(592, 105)"	1	0	9864374.94	72	36
20	w	20	l	1	1	4	6	"(884, 76)"	"(917, 79)"	1	0	9864727.21	72	36
20	w	20	l	1	1	4	7	"(103, 437)"	"(98, 457)"	1	0	9865559.66	72	36
20	w	20	l	1	1	4	8	"(570, 692)"	"(595, 706)"	1	0	9866084.58	72	36
20	w	20	l	1	1	4	8	"(570, 692)"	"(595, 706)"	1	    5.51	9866084.58	72	36
20	w	20	l	1	1	5	1	"(889, 669)"	"(895, 683)"	1	0	9872976.54	72	36
20	w	20	l	1	1	5	2	"(261, 181)"	"(231, 164)"	1	0	9873789.68	72	36
20	w	20	l	1	1	5	3	"(261, 638)"	"(264, 622)"	1	0	9874287.66	72	36
20	w	20	l	1	1	5	4	"(922, 433)"	"(919, 416)"	1	0	9874855.91	72	36
20	w	20	l	1	1	5	5	"(572, 88)"	"(598, 61)"	1	0	9875317.79	72	36
20	w	20	l	1	1	5	6	"(884, 76)"	"(902, 55)"	1	0	9875885.30	72	36
20	w	20	l	1	1	5	7	"(103, 437)"	"(128, 447)"	2	0	9877055.31	72	36
20	w	20	l	1	1	5	8	"(570, 692)"	"(572, 693)"	1	0	9877598.14	72	36
20	w	20	l	1	1	5	8	"(570, 692)"	"(572, 693)"	1	    5.64	9877598.14	72	36
20	w	20	l	1	1	6	1	"(889, 669)"	"(923, 674)"	1	0	9884129.36	72	36
20	w	20	l	1	1	6	2	"(261, 181)"	"(247, 179)"	1	0	9884718.55	72	36
20	w	20	l	1	1	6	3	"(261, 638)"	"(252, 632)"	1	0	9885154.03	72	36
20	w	20	l	1	1	6	4	"(922, 433)"	"(912, 416)"	1	0	9885726.45	72	36
20	w	20	l	1	1	6	5	"(572, 88)"	"(585, 82)"	1	0	9886209.35	72	36
20	w	20	l	1	1	6	6	"(884, 76)"	"(894, 97)"	1	0	9886646.37	72	36
20	w	20	l	1	1	6	7	"(103, 437)"	"(131, 439)"	2	0	9888551.15	72	36
20	w	20	l	1	1	6	8	"(570, 692)"	"(580, 712)"	1	0	9889021.83	72	36
20	w	20	l	1	1	6	8	"(570, 692)"	"(580, 712)"	1	    5.94	9889021.83	72	36
20	w	20	l	1	1	7	1	"(889, 669)"	"(888, 674)"	1	0	9893582.34	72	36
20	w	20	l	1	1	7	2	"(261, 181)"	"(229, 189)"	1	0	9894385.17	72	36
20	w	20	l	1	1	7	3	"(261, 638)"	"(257, 627)"	1	0	9894927.14	72	36
20	w	20	l	1	1	7	4	"(922, 433)"	"(925, 440)"	1	0	9895430.55	72	36
20	w	20	l	1	1	7	5	"(572, 88)"	"(594, 88)"	2	0	9896438.01	72	36
20	w	20	l	1	1	7	6	"(884, 76)"	"(857, 82)"	1	0	9897001.35	72	36
20	w	20	l	1	1	7	7	"(103, 437)"	"(97, 449)"	1	0	9897718.78	72	36
20	w	20	l	1	1	7	8	"(570, 692)"	"(559, 707)"	1	0	9898185.84	72	36
20	w	20	l	1	1	7	8	"(570, 692)"	"(559, 707)"	1	    5.50	9898185.84	72	36
20	w	20	l	1	1	8	1	"(889, 669)"	"(928, 685)"	1	0	9903927.26	72	36
20	w	20	l	1	1	8	2	"(261, 181)"	"(246, 184)"	2	0	9905063.14	72	36
20	w	20	l	1	1	8	3	"(261, 638)"	"(241, 640)"	1	0	9905886.65	72	36
20	w	20	l	1	1	8	4	"(922, 433)"	"(956, 436)"	1	0	9906544.25	72	36
20	w	20	l	1	1	8	5	"(572, 88)"	"(559, 86)"	1	0	9907071.79	72	36
20	w	20	l	1	1	8	6	"(884, 76)"	"(863, 87)"	1	0	9907535.42	72	36
20	w	20	l	1	1	8	7	"(103, 437)"	"(64, 446)"	1	0	9908136.44	72	36
20	w	20	l	1	1	8	8	"(570, 692)"	"(547, 698)"	2	0	9908944.13	72	36
20	w	20	l	1	1	8	8	"(570, 692)"	"(547, 698)"	2	    5.80	9908944.13	72	36
20	w	20	l	1	1	9	1	"(889, 669)"	"(919, 685)"	1	0	9913387.16	72	36
20	w	20	l	1	1	9	2	"(261, 181)"	"(247, 182)"	1	0	9914296.37	72	36
20	w	20	l	1	1	9	3	"(261, 638)"	"(258, 619)"	1	0	9914943.73	72	36
20	w	20	l	1	1	9	4	"(922, 433)"	"(913, 413)"	1	0	9915449.11	72	36
20	w	20	l	1	1	9	5	"(572, 88)"	"(590, 91)"	1	0	9915986.56	72	36
20	w	20	l	1	1	9	6	"(884, 76)"	"(886, 64)"	1	0	9916530.83	72	36
20	w	20	l	1	1	9	7	"(103, 437)"	"(75, 433)"	1	0	9917160.69	72	36
20	w	20	l	1	1	9	8	"(570, 692)"	"(609, 702)"	2	0	9918175.97	72	36
20	w	20	l	1	1	9	8	"(570, 692)"	"(609, 702)"	2	    5.60	9918175.97	72	36
20	w	20	l	1	1	10	1	"(889, 669)"	"(885, 656)"	1	0	9922947.92	72	36
20	w	20	l	1	1	10	2	"(261, 181)"	"(275, 197)"	1	0	9923616.86	72	36
20	w	20	l	1	1	10	3	"(261, 638)"	"(248, 623)"	1	0	9924008.88	72	36
20	w	20	l	1	1	10	4	"(922, 433)"	"(909, 430)"	1	0	9924730.56	72	36
20	w	20	l	1	1	10	5	"(572, 88)"	"(588, 114)"	1	0	9925175.80	72	36
20	w	20	l	1	1	10	6	"(884, 76)"	"(890, 79)"	1	0	9925672.48	72	36
20	w	20	l	1	1	10	7	"(103, 437)"	"(89, 426)"	1	0	9926343.87	72	36
20	w	20	l	1	1	10	8	"(570, 692)"	"(604, 690)"	1	0	9926874.36	72	36
20	w	20	l	1	1	10	8	"(570, 692)"	"(604, 690)"	1	    4.97	9926874.36	72	36
20	w	20	l	1	2	11	1	"(889, 669)"	"(875, 679)"	1	0	9933473.15	72	36
20	w	20	l	1	2	11	2	"(261, 181)"	"(260, 210)"	1	0	9934130.44	72	36
20	w	20	l	1	2	11	3	"(261, 638)"	"(266, 663)"	1	0	9934681.79	72	36
20	w	20	l	1	2	11	4	"(922, 433)"	"(927, 438)"	1	0	9935217.10	72	36
20	w	20	l	1	2	11	5	"(572, 88)"	"(586, 82)"	1	0	9935690.30	72	36
20	w	20	l	1	2	11	6	"(884, 76)"	"(867, 75)"	1	0	9936180.83	72	36
20	w	20	l	1	2	11	7	"(103, 437)"	"(90, 453)"	1	0	9936794.05	72	36
20	w	20	l	1	2	11	8	"(570, 692)"	"(588, 685)"	1	0	9937203.42	72	36
20	w	20	l	1	2	11	8	"(570, 692)"	"(588, 685)"	1	    4.85	9937203.42	72	36
20	w	20	l	1	2	12	1	"(889, 669)"	"(869, 653)"	1	0	9943473.40	72	36
20	w	20	l	1	2	12	2	"(261, 181)"	"(251, 208)"	1	0	9944555.08	72	36
20	w	20	l	1	2	12	3	"(261, 638)"	"(271, 624)"	1	0	9945084.28	72	36
20	w	20	l	1	2	12	4	"(922, 433)"	"(935, 428)"	1	0	9945589.02	72	36
20	w	20	l	1	2	12	5	"(572, 88)"	"(532, 61)"	1	0	9946148.47	72	36
20	w	20	l	1	2	12	6	"(884, 76)"	"(885, 84)"	2	0	9946779.27	72	36
20	w	20	l	1	2	12	7	"(103, 437)"	"(125, 435)"	2	0	9947788.55	72	36
20	w	20	l	1	2	12	8	"(570, 692)"	"(585, 713)"	1	0	9948321.74	72	36
20	w	20	l	1	2	12	8	"(570, 692)"	"(585, 713)"	1	    5.90	9948321.74	72	36
20	w	20	l	1	2	13	1	"(889, 669)"	"(887, 671)"	1	0	9953177.65	72	36
20	w	20	l	1	2	13	2	"(261, 181)"	"(276, 227)"	1	0	9953833.90	72	36
20	w	20	l	1	2	13	3	"(261, 638)"	"(254, 649)"	1	0	9954435.54	72	36
20	w	20	l	1	2	13	4	"(922, 433)"	"(945, 440)"	1	0	9954956.65	72	36
20	w	20	l	1	2	13	5	"(572, 88)"	"(556, 68)"	1	0	9955443.50	72	36
20	w	20	l	1	2	13	6	"(884, 76)"	"(913, 101)"	1	0	9955937.64	72	36
20	w	20	l	1	2	13	7	"(103, 437)"	"(99, 422)"	1	0	9956540.62	72	36
20	w	20	l	1	2	13	8	"(570, 692)"	"(619, 684)"	1	0	9957086.54	72	36
20	w	20	l	1	2	13	8	"(570, 692)"	"(619, 684)"	1	    4.88	9957086.54	72	36
20	w	20	l	1	2	14	1	"(889, 669)"	"(886, 668)"	1	0	9961147.79	72	36
20	w	20	l	1	2	14	2	"(261, 181)"	"(298, 161)"	1	0	9961708.70	72	36
20	w	20	l	1	2	14	3	"(261, 638)"	"(243, 634)"	1	0	9962187.86	72	36
20	w	20	l	1	2	14	4	"(922, 433)"	"(903, 436)"	2	0	9963045.06	72	36
20	w	20	l	1	2	14	5	"(572, 88)"	"(585, 60)"	1	0	9963518.03	72	36
20	w	20	l	1	2	14	6	"(884, 76)"	"(859, 75)"	1	0	9963932.02	72	36
20	w	20	l	1	2	14	7	"(103, 437)"	"(100, 444)"	1	0	9964509.40	72	36
20	w	20	l	1	2	14	8	"(570, 692)"	"(592, 699)"	1	0	9964930.18	72	36
20	w	20	l	1	2	14	8	"(570, 692)"	"(592, 699)"	1	    4.58	9964930.18	72	36
20	w	20	l	1	2	15	1	"(889, 669)"	"(878, 685)"	1	0	9969140.94	72	36
20	w	20	l	1	2	15	2	"(261, 181)"	"(236, 187)"	1	0	9969882.24	72	36
20	w	20	l	1	2	15	3	"(261, 638)"	"(247, 679)"	1	0	9970330.46	72	36
20	w	20	l	1	2	15	4	"(922, 433)"	"(930, 435)"	1	0	9970820.28	72	36
20	w	20	l	1	2	15	5	"(572, 88)"	"(563, 95)"	1	0	9971210.62	72	36
20	w	20	l	1	2	15	6	"(884, 76)"	"(863, 78)"	1	0	9971635.15	72	36
20	w	20	l	1	2	15	7	"(103, 437)"	"(55, 435)"	1	0	9972126.20	72	36
20	w	20	l	1	2	15	8	"(570, 692)"	"(561, 674)"	1	0	9972605.57	72	36
20	w	20	l	1	2	15	8	"(570, 692)"	"(561, 674)"	1	    4.29	9972605.57	72	36
20	w	20	l	1	2	16	1	"(889, 669)"	"(920, 672)"	1	0	9977389.52	72	36
20	w	20	l	1	2	16	2	"(261, 181)"	"(258, 175)"	1	0	9978187.33	72	36
20	w	20	l	1	2	16	3	"(261, 638)"	"(243, 621)"	1	0	9978627.81	72	36
20	w	20	l	1	2	16	4	"(922, 433)"	"(918, 416)"	2	0	9979348.98	72	36
20	w	20	l	1	2	16	5	"(572, 88)"	"(539, 65)"	1	0	9979907.20	72	36
20	w	20	l	1	2	16	6	"(884, 76)"	"(859, 76)"	1	0	9980323.87	72	36
20	w	20	l	1	2	16	7	"(103, 437)"	"(86, 445)"	1	0	9980787.22	72	36
20	w	20	l	1	2	16	8	"(570, 692)"	"(544, 714)"	1	0	9981288.04	72	36
20	w	20	l	1	2	16	8	"(570, 692)"	"(544, 714)"	1	    4.94	9981288.04	72	36
20	w	20	l	1	2	17	1	"(889, 669)"	"(906, 683)"	1	0	9985627.48	72	36
20	w	20	l	1	2	17	2	"(261, 181)"	"(289, 188)"	1	0	9986098.43	72	36
20	w	20	l	1	2	17	3	"(261, 638)"	"(277, 602)"	1	0	9986491.02	72	36
20	w	20	l	1	2	17	4	"(922, 433)"	"(932, 447)"	1	0	9987045.95	72	36
20	w	20	l	1	2	17	5	"(572, 88)"	"(572, 93)"	1	0	9987518.99	72	36
20	w	20	l	1	2	17	6	"(884, 76)"	"(891, 108)"	1	0	9988011.96	72	36
20	w	20	l	1	2	17	7	"(103, 437)"	"(116, 437)"	1	0	9988521.34	72	36
20	w	20	l	1	2	17	8	"(570, 692)"	"(574, 673)"	1	0	9989013.64	72	36
20	w	20	l	1	2	17	8	"(570, 692)"	"(574, 673)"	1	    4.40	9989013.64	72	36
20	w	20	l	1	2	18	1	"(889, 669)"	"(888, 696)"	1	0	9993038.76	72	36
20	w	20	l	1	2	18	2	"(261, 181)"	"(274, 169)"	1	0	9994139.88	72	36
20	w	20	l	1	2	18	3	"(261, 638)"	"(251, 651)"	1	0	9994591.00	72	36
20	w	20	l	1	2	18	4	"(922, 433)"	"(897, 457)"	1	0	9995075.46	72	36
20	w	20	l	1	2	18	5	"(572, 88)"	"(597, 121)"	1	0	9995564.91	72	36
20	w	20	l	1	2	18	6	"(884, 76)"	"(908, 100)"	1	0	9995923.54	72	36
20	w	20	l	1	2	18	7	"(103, 437)"	"(131, 438)"	1	0	9996435.72	72	36
20	w	20	l	1	2	18	8	"(570, 692)"	"(569, 694)"	2	0	9997125.74	72	36
20	w	20	l	1	2	18	8	"(570, 692)"	"(569, 694)"	2	    4.97	9997125.74	72	36
20	w	20	l	1	2	19	1	"(889, 669)"	"(895, 691)"	1	0	10000828.85	72	36
20	w	20	l	1	2	19	2	"(261, 181)"	"(241, 174)"	1	0	10001324.48	72	36
20	w	20	l	1	2	19	3	"(261, 638)"	"(246, 663)"	1	0	10001743.82	72	36
20	w	20	l	1	2	19	4	"(922, 433)"	"(933, 434)"	1	0	10002218.48	72	36
20	w	20	l	1	2	19	5	"(572, 88)"	"(535, 80)"	1	0	10002594.14	72	36
20	w	20	l	1	2	19	6	"(884, 76)"	"(862, 80)"	1	0	10002902.26	72	36
20	w	20	l	1	2	19	7	"(103, 437)"	"(58, 448)"	1	0	10003438.30	72	36
20	w	20	l	1	2	19	8	"(570, 692)"	"(551, 718)"	1	0	10003789.46	72	36
20	w	20	l	1	2	19	8	"(570, 692)"	"(551, 718)"	1	    3.88	10003789.46	72	36
20	w	20	l	1	2	20	1	"(889, 669)"	"(846, 660)"	5	0	10010111.34	72	36
20	w	20	l	1	2	20	2	"(261, 181)"	"(254, 172)"	2	0	10010957.83	72	36
20	w	20	l	1	2	20	3	"(261, 638)"	"(259, 637)"	1	0	10011500.97	72	36
20	w	20	l	1	2	20	4	"(922, 433)"	"(949, 433)"	1	0	10011960.93	72	36
20	w	20	l	1	2	20	5	"(572, 88)"	"(597, 70)"	1	0	10012341.68	72	36
20	w	20	l	1	2	20	6	"(884, 76)"	"(847, 75)"	1	0	10012807.75	72	36
20	w	20	l	1	2	20	7	"(103, 437)"	"(77, 409)"	1	0	10013462.11	72	36
20	w	20	l	1	2	20	8	"(570, 692)"	"(536, 665)"	2	0	10014495.09	72	36
20	w	20	l	1	2	20	8	"(570, 692)"	"(536, 665)"	2	    7.35	10014495.09	72	36
20	w	20	l	1	3	21	1	"(889, 669)"	"(883, 681)"	1	0	10021030.51	72	36
20	w	20	l	1	3	21	2	"(261, 181)"	"(264, 218)"	2	0	10021861.45	72	36
20	w	20	l	1	3	21	3	"(261, 638)"	"(261, 611)"	1	0	10022278.67	72	36
20	w	20	l	1	3	21	4	"(922, 433)"	"(950, 446)"	1	0	10022823.62	72	36
20	w	20	l	1	3	21	5	"(572, 88)"	"(558, 85)"	1	0	10023330.74	72	36
20	w	20	l	1	3	21	6	"(884, 76)"	"(891, 89)"	1	0	10023761.17	72	36
20	w	20	l	1	3	21	7	"(103, 437)"	"(107, 441)"	2	0	10024526.00	72	36
20	w	20	l	1	3	21	8	"(570, 692)"	"(563, 670)"	1	0	10025055.09	72	36
20	w	20	l	1	3	21	8	"(570, 692)"	"(563, 670)"	1	    5.03	10025055.09	72	36
20	w	20	l	1	3	22	1	"(889, 669)"	"(859, 684)"	1	0	10028397.87	72	36
20	w	20	l	1	3	22	2	"(261, 181)"	"(271, 190)"	1	0	10028837.28	72	36
20	w	20	l	1	3	22	3	"(261, 638)"	"(263, 639)"	1	0	10029335.98	72	36
20	w	20	l	1	3	22	4	"(922, 433)"	"(905, 454)"	1	0	10029832.60	72	36
20	w	20	l	1	3	22	5	"(572, 88)"	"(569, 64)"	2	0	10030432.09	72	36
20	w	20	l	1	3	22	6	"(884, 76)"	"(888, 60)"	1	0	10030766.28	72	36
20	w	20	l	1	3	22	7	"(103, 437)"	"(80, 443)"	1	0	10031368.51	72	36
20	w	20	l	1	3	22	8	"(570, 692)"	"(588, 672)"	1	0	10031903.42	72	36
20	w	20	l	1	3	22	8	"(570, 692)"	"(588, 672)"	1	    4.38	10031903.42	72	36
20	w	20	l	1	3	23	1	"(889, 669)"	"(890, 689)"	1	0	10038636.56	72	36
20	w	20	l	1	3	23	2	"(261, 181)"	"(284, 157)"	1	0	10039193.22	72	36
20	w	20	l	1	3	23	3	"(261, 638)"	"(250, 607)"	3	0	10041190.25	72	36
20	w	20	l	1	3	23	4	"(922, 433)"	"(927, 451)"	1	0	10041921.00	72	36
20	w	20	l	1	3	23	5	"(572, 88)"	"(573, 95)"	1	0	10042534.52	72	36
20	w	20	l	1	3	23	6	"(884, 76)"	"(896, 87)"	1	0	10043161.71	72	36
20	w	20	l	1	3	23	7	"(103, 437)"	"(84, 446)"	1	0	10043893.91	72	36
20	w	20	l	1	3	23	8	"(570, 692)"	"(569, 683)"	1	0	10044666.87	72	36
20	w	20	l	1	3	23	8	"(570, 692)"	"(569, 683)"	1	    6.91	10044666.87	72	36
20	w	20	l	1	3	24	1	"(889, 669)"	"(883, 684)"	1	0	10048063.13	72	36
20	w	20	l	1	3	24	2	"(261, 181)"	"(286, 155)"	1	0	10048590.83	72	36
20	w	20	l	1	3	24	3	"(261, 638)"	"(275, 653)"	1	0	10049159.21	72	36
20	w	20	l	1	3	24	4	"(922, 433)"	"(941, 457)"	1	0	10049728.21	72	36
20	w	20	l	1	3	24	5	"(572, 88)"	"(521, 72)"	1	0	10050232.51	72	36
20	w	20	l	1	3	24	6	"(884, 76)"	"(889, 80)"	1	0	10050707.58	72	36
20	w	20	l	1	3	24	7	"(103, 437)"	"(94, 452)"	1	0	10051112.97	72	36
20	w	20	l	1	3	24	8	"(570, 692)"	"(574, 698)"	1	0	10051503.79	72	36
20	w	20	l	1	3	24	8	"(570, 692)"	"(574, 698)"	1	    4.15	10051503.79	72	36
20	w	20	l	1	3	25	1	"(889, 669)"	"(897, 675)"	1	0	10055002.48	72	36
20	w	20	l	1	3	25	2	"(261, 181)"	"(269, 162)"	3	0	10056527.11	72	36
20	w	20	l	1	3	25	3	"(261, 638)"	"(275, 628)"	1	0	10056987.88	72	36
20	w	20	l	1	3	25	4	"(922, 433)"	"(918, 432)"	1	0	10057471.75	72	36
20	w	20	l	1	3	25	5	"(572, 88)"	"(562, 100)"	1	0	10057862.94	72	36
20	w	20	l	1	3	25	6	"(884, 76)"	"(877, 82)"	1	0	10058304.03	72	36
20	w	20	l	1	3	25	7	"(103, 437)"	"(113, 453)"	1	0	10058792.38	72	36
20	w	20	l	1	3	25	8	"(570, 692)"	"(590, 691)"	1	0	10059296.05	72	36
20	w	20	l	1	3	25	8	"(570, 692)"	"(590, 691)"	1	    5.16	10059296.05	72	36
20	w	20	l	1	3	26	1	"(889, 669)"	"(868, 711)"	1	0	10062208.88	72	36
20	w	20	l	1	3	26	2	"(261, 181)"	"(242, 179)"	1	0	10062992.09	72	36
20	w	20	l	1	3	26	3	"(261, 638)"	"(253, 645)"	1	0	10063623.71	72	36
20	w	20	l	1	3	26	4	"(922, 433)"	"(924, 409)"	1	0	10064033.55	72	36
20	w	20	l	1	3	26	5	"(572, 88)"	"(558, 91)"	1	0	10064421.17	72	36
20	w	20	l	1	3	26	6	"(884, 76)"	"(867, 91)"	1	0	10064962.32	72	36
20	w	20	l	1	3	26	7	"(103, 437)"	"(105, 443)"	1	0	10065640.13	72	36
20	w	20	l	1	3	26	8	"(570, 692)"	"(585, 695)"	2	0	10066329.72	72	36
20	w	20	l	1	3	26	8	"(570, 692)"	"(585, 695)"	2	    4.91	10066329.72	72	36
20	w	20	l	1	3	27	1	"(889, 669)"	"(870, 681)"	1	0	10069673.64	72	36
20	w	20	l	1	3	27	2	"(261, 181)"	"(279, 179)"	1	0	10070176.22	72	36
20	w	20	l	1	3	27	3	"(261, 638)"	"(277, 649)"	1	0	10070642.85	72	36
20	w	20	l	1	3	27	4	"(922, 433)"	"(878, 423)"	1	0	10071113.61	72	36
20	w	20	l	1	3	27	5	"(572, 88)"	"(607, 70)"	2	0	10071873.43	72	36
20	w	20	l	1	3	27	6	"(884, 76)"	"(891, 77)"	2	0	10072672.22	72	36
20	w	20	l	1	3	27	7	"(103, 437)"	"(91, 426)"	1	0	10073218.66	72	36
20	w	20	l	1	3	27	8	"(570, 692)"	"(555, 699)"	1	0	10073712.06	72	36
20	w	20	l	1	3	27	8	"(570, 692)"	"(555, 699)"	1	    5.17	10073712.06	72	36
20	w	20	l	1	3	28	1	"(889, 669)"	"(905, 668)"	1	0	10077250.07	72	36
20	w	20	l	1	3	28	2	"(261, 181)"	"(275, 204)"	1	0	10077728.46	72	36
20	w	20	l	1	3	28	3	"(261, 638)"	"(267, 621)"	1	0	10078174.11	72	36
20	w	20	l	1	3	28	4	"(922, 433)"	"(936, 426)"	1	0	10078689.63	72	36
20	w	20	l	1	3	28	5	"(572, 88)"	"(589, 87)"	1	0	10079196.81	72	36
20	w	20	l	1	3	28	6	"(884, 76)"	"(909, 98)"	1	0	10079538.26	72	36
20	w	20	l	1	3	28	7	"(103, 437)"	"(125, 434)"	1	0	10080072.39	72	36
20	w	20	l	1	3	28	8	"(570, 692)"	"(580, 706)"	1	0	10080628.89	72	36
20	w	20	l	1	3	28	8	"(570, 692)"	"(580, 706)"	1	    4.36	10080628.89	72	36
20	w	20	l	1	3	29	1	"(889, 669)"	"(866, 688)"	1	0	10084064.84	72	36
20	w	20	l	1	3	29	2	"(261, 181)"	"(245, 194)"	1	0	10084650.33	72	36
20	w	20	l	1	3	29	3	"(261, 638)"	"(284, 628)"	1	0	10085178.07	72	36
20	w	20	l	1	3	29	4	"(922, 433)"	"(936, 458)"	1	0	10085657.40	72	36
20	w	20	l	1	3	29	5	"(572, 88)"	"(562, 103)"	1	0	10086043.53	72	36
20	w	20	l	1	3	29	6	"(884, 76)"	"(870, 87)"	1	0	10086440.66	72	36
20	w	20	l	1	3	29	7	"(103, 437)"	"(68, 431)"	1	0	10087040.40	72	36
20	w	20	l	1	3	29	8	"(570, 692)"	"(521, 703)"	2	0	10087688.39	72	36
20	w	20	l	1	3	29	8	"(570, 692)"	"(521, 703)"	2	    4.37	10087688.39	72	36
20	w	20	l	1	3	30	1	"(889, 669)"	"(923, 685)"	1	0	10090786.54	72	36
20	w	20	l	1	3	30	2	"(261, 181)"	"(235, 171)"	1	0	10091289.55	72	36
20	w	20	l	1	3	30	3	"(261, 638)"	"(254, 611)"	1	0	10091810.14	72	36
20	w	20	l	1	3	30	4	"(922, 433)"	"(913, 443)"	1	0	10092202.12	72	36
20	w	20	l	1	3	30	5	"(572, 88)"	"(541, 58)"	1	0	10092724.60	72	36
20	w	20	l	1	3	30	6	"(884, 76)"	"(867, 76)"	2	0	10093218.66	72	36
20	w	20	l	1	3	30	7	"(103, 437)"	"(86, 428)"	1	0	10093972.08	72	36
20	w	20	l	1	3	30	8	"(570, 692)"	"(619, 709)"	2	0	10094633.27	72	36
20	w	20	l	1	3	30	8	"(570, 692)"	"(619, 709)"	2	    4.64	10094633.27	72	36
20	w	20	l	1	4	31	1	"(889, 669)"	"(886, 697)"	1	0	10099963.53	72	36
20	w	20	l	1	4	31	2	"(261, 181)"	"(273, 156)"	1	0	10100482.86	72	36
20	w	20	l	1	4	31	3	"(261, 638)"	"(261, 617)"	1	0	10100825.60	72	36
20	w	20	l	1	4	31	4	"(922, 433)"	"(913, 418)"	4	0	10102810.35	72	36
20	w	20	l	1	4	31	5	"(572, 88)"	"(558, 37)"	1	0	10103396.38	72	36
20	w	20	l	1	4	31	6	"(884, 76)"	"(873, 81)"	2	0	10104292.71	72	36
20	w	20	l	1	4	31	7	"(103, 437)"	"(92, 448)"	1	0	10105034.37	72	36
20	w	20	l	1	4	31	8	"(570, 692)"	"(595, 699)"	1	0	10105554.95	72	36
20	w	20	l	1	4	31	8	"(570, 692)"	"(595, 699)"	1	    6.43	10105554.95	72	36
20	w	20	l	1	4	32	1	"(889, 669)"	"(907, 667)"	1	0	10112212.89	72	36
20	w	20	l	1	4	32	2	"(261, 181)"	"(266, 151)"	1	0	10112675.33	72	36
20	w	20	l	1	4	32	3	"(261, 638)"	"(266, 644)"	1	0	10113147.51	72	36
20	w	20	l	1	4	32	4	"(922, 433)"	"(961, 435)"	1	0	10113735.63	72	36
20	w	20	l	1	4	32	5	"(572, 88)"	"(552, 77)"	1	0	10114156.10	72	36
20	w	20	l	1	4	32	6	"(884, 76)"	"(862, 84)"	1	0	10114607.21	72	36
20	w	20	l	1	4	32	7	"(103, 437)"	"(96, 446)"	1	0	10115412.16	72	36
20	w	20	l	1	4	32	8	"(570, 692)"	"(602, 694)"	1	0	10115908.92	72	36
20	w	20	l	1	4	32	8	"(570, 692)"	"(602, 694)"	1	    4.57	10115908.92	72	36
20	w	20	l	1	4	33	1	"(889, 669)"	"(910, 696)"	1	0	10118650.33	72	36
20	w	20	l	1	4	33	2	"(261, 181)"	"(300, 180)"	1	0	10119138.67	72	36
20	w	20	l	1	4	33	3	"(261, 638)"	"(254, 636)"	1	0	10119659.62	72	36
20	w	20	l	1	4	33	4	"(922, 433)"	"(933, 436)"	1	0	10120186.39	72	36
20	w	20	l	1	4	33	5	"(572, 88)"	"(616, 113)"	2	0	10120917.42	72	36
20	w	20	l	1	4	33	6	"(884, 76)"	"(894, 81)"	3	0	10121571.61	72	36
20	w	20	l	1	4	33	7	"(103, 437)"	"(74, 437)"	1	0	10122173.36	72	36
20	w	20	l	1	4	33	8	"(570, 692)"	"(527, 710)"	1	0	10122748.06	72	36
20	w	20	l	1	4	33	8	"(570, 692)"	"(527, 710)"	1	    4.84	10122748.06	72	36
20	w	20	l	1	4	34	1	"(889, 669)"	"(896, 684)"	1	0	10127180.37	72	36
20	w	20	l	1	4	34	2	"(261, 181)"	"(266, 193)"	1	0	10127629.26	72	36
20	w	20	l	1	4	34	3	"(261, 638)"	"(260, 642)"	1	0	10128080.33	72	36
20	w	20	l	1	4	34	4	"(922, 433)"	"(923, 447)"	1	0	10128555.25	72	36
20	w	20	l	1	4	34	5	"(572, 88)"	"(575, 83)"	1	0	10129069.51	72	36
20	w	20	l	1	4	34	6	"(884, 76)"	"(888, 78)"	1	0	10129492.44	72	36
20	w	20	l	1	4	34	7	"(103, 437)"	"(73, 459)"	1	0	10129974.44	72	36
20	w	20	l	1	4	34	8	"(570, 692)"	"(575, 668)"	1	0	10130436.03	72	36
20	w	20	l	1	4	34	8	"(570, 692)"	"(575, 668)"	1	    4.66	10130436.03	72	36
20	w	20	l	1	4	35	1	"(889, 669)"	"(877, 681)"	1	0	10133212.58	72	36
20	w	20	l	1	4	35	2	"(261, 181)"	"(253, 170)"	1	0	10133604.89	72	36
20	w	20	l	1	4	35	3	"(261, 638)"	"(270, 603)"	1	0	10133956.55	72	36
20	w	20	l	1	4	35	4	"(922, 433)"	"(922, 437)"	1	0	10134500.72	72	36
20	w	20	l	1	4	35	5	"(572, 88)"	"(588, 74)"	1	0	10135004.94	72	36
20	w	20	l	1	4	35	6	"(884, 76)"	"(861, 76)"	1	0	10135276.70	72	36
20	w	20	l	1	4	35	7	"(103, 437)"	"(123, 425)"	1	0	10135693.81	72	36
20	w	20	l	1	4	35	8	"(570, 692)"	"(543, 707)"	1	0	10136278.56	72	36
20	w	20	l	1	4	35	8	"(570, 692)"	"(543, 707)"	1	    4.00	10136278.56	72	36
20	w	20	l	1	4	36	1	"(889, 669)"	"(904, 668)"	1	0	10139509.41	72	36
20	w	20	l	1	4	36	2	"(261, 181)"	"(273, 192)"	2	0	10140590.00	72	36
20	w	20	l	1	4	36	3	"(261, 638)"	"(264, 639)"	1	0	10140992.59	72	36
20	w	20	l	1	4	36	4	"(922, 433)"	"(918, 435)"	1	0	10141612.96	72	36
20	w	20	l	1	4	36	5	"(572, 88)"	"(602, 80)"	1	0	10142174.23	72	36
20	w	20	l	1	4	36	6	"(884, 76)"	"(878, 92)"	1	0	10142719.06	72	36
20	w	20	l	1	4	36	7	"(103, 437)"	"(93, 448)"	1	0	10143276.11	72	36
20	w	20	l	1	4	36	8	"(570, 692)"	"(578, 720)"	1	0	10143836.95	72	36
20	w	20	l	1	4	36	8	"(570, 692)"	"(578, 720)"	1	    4.89	10143836.95	72	36
20	w	20	l	1	4	37	1	"(889, 669)"	"(911, 704)"	1	0	10147366.69	72	36
20	w	20	l	1	4	37	2	"(261, 181)"	"(262, 192)"	1	0	10147829.45	72	36
20	w	20	l	1	4	37	3	"(261, 638)"	"(267, 625)"	2	0	10148331.26	72	36
20	w	20	l	1	4	37	4	"(922, 433)"	"(942, 438)"	1	0	10148766.86	72	36
20	w	20	l	1	4	37	5	"(572, 88)"	"(598, 107)"	1	0	10149053.36	72	36
20	w	20	l	1	4	37	6	"(884, 76)"	"(899, 70)"	1	0	10149304.30	72	36
20	w	20	l	1	4	37	7	"(103, 437)"	"(100, 442)"	4	0	10151358.02	72	36
20	w	20	l	1	4	37	8	"(570, 692)"	"(588, 697)"	1	0	10151911.72	72	36
20	w	20	l	1	4	37	8	"(570, 692)"	"(588, 697)"	1	    5.70	10151911.72	72	36
20	w	20	l	1	4	38	1	"(889, 669)"	"(894, 656)"	1	0	10158734.00	72	36
20	w	20	l	1	4	38	2	"(261, 181)"	"(269, 215)"	2	0	10159501.40	72	36
20	w	20	l	1	4	38	3	"(261, 638)"	"(262, 654)"	1	0	10159942.37	72	36
20	w	20	l	1	4	38	4	"(922, 433)"	"(910, 477)"	1	0	10160430.98	72	36
20	w	20	l	1	4	38	5	"(572, 88)"	"(526, 101)"	1	0	10160880.05	72	36
20	w	20	l	1	4	38	6	"(884, 76)"	"(872, 96)"	1	0	10161349.19	72	36
20	w	20	l	1	4	38	7	"(103, 437)"	"(127, 427)"	1	0	10161837.75	72	36
20	w	20	l	1	4	38	8	"(570, 692)"	"(582, 675)"	1	0	10162158.46	72	36
20	w	20	l	1	4	38	8	"(570, 692)"	"(582, 675)"	1	    4.21	10162158.46	72	36
20	w	20	l	1	4	39	1	"(889, 669)"	"(880, 687)"	1	0	10167942.79	72	36
20	w	20	l	1	4	39	2	"(261, 181)"	"(273, 194)"	1	0	10168525.29	72	36
20	w	20	l	1	4	39	3	"(261, 638)"	"(257, 652)"	1	0	10168871.16	72	36
20	w	20	l	1	4	39	4	"(922, 433)"	"(908, 436)"	1	0	10169341.31	72	36
20	w	20	l	1	4	39	5	"(572, 88)"	"(600, 86)"	1	0	10169801.88	72	36
20	w	20	l	1	4	39	6	"(884, 76)"	"(886, 92)"	2	0	10170328.43	72	36
20	w	20	l	1	4	39	7	"(103, 437)"	"(97, 418)"	1	0	10170763.34	72	36
20	w	20	l	1	4	39	8	"(570, 692)"	"(570, 705)"	2	0	10171438.43	72	36
20	w	20	l	1	4	39	8	"(570, 692)"	"(570, 705)"	2	    4.24	10171438.43	72	36
20	w	20	l	1	4	40	1	"(889, 669)"	"(866, 682)"	1	0	10173823.99	72	36
20	w	20	l	1	4	40	2	"(261, 181)"	"(281, 199)"	1	0	10174309.49	72	36
20	w	20	l	1	4	40	3	"(261, 638)"	"(260, 667)"	1	0	10174790.27	72	36
20	w	20	l	1	4	40	4	"(922, 433)"	"(951, 435)"	1	0	10175303.09	72	36
20	w	20	l	1	4	40	5	"(572, 88)"	"(613, 79)"	2	0	10176029.94	72	36
20	w	20	l	1	4	40	6	"(884, 76)"	"(843, 71)"	1	0	10176362.88	72	36
20	w	20	l	1	4	40	7	"(103, 437)"	"(112, 436)"	1	0	10176953.94	72	36
20	w	20	l	1	4	40	8	"(570, 692)"	"(601, 698)"	2	0	10177936.31	72	36
20	w	20	l	1	4	40	8	"(570, 692)"	"(601, 698)"	2	    4.89	10177936.31	72	36
20	w	20	l	1	5	41	1	"(889, 669)"	"(915, 677)"	1	0	10181462.31	72	36
20	w	20	l	1	5	41	2	"(261, 181)"	"(261, 218)"	1	0	10181952.92	72	36
20	w	20	l	1	5	41	3	"(261, 638)"	"(255, 591)"	1	0	10182327.80	72	36
20	w	20	l	1	5	41	4	"(922, 433)"	"(940, 425)"	1	0	10182918.42	72	36
20	w	20	l	1	5	41	5	"(572, 88)"	"(533, 90)"	1	0	10183390.92	72	36
20	w	20	l	1	5	41	6	"(884, 76)"	"(878, 96)"	1	0	10183695.62	72	36
20	w	20	l	1	5	41	7	"(103, 437)"	"(132, 443)"	1	0	10184216.64	72	36
20	w	20	l	1	5	41	8	"(570, 692)"	"(609, 686)"	1	0	10184697.75	72	36
20	w	20	l	1	5	41	8	"(570, 692)"	"(609, 686)"	1	    4.20	10184697.75	72	36
20	w	20	l	1	5	42	1	"(889, 669)"	"(881, 682)"	1	0	10187111.30	72	36
20	w	20	l	1	5	42	2	"(261, 181)"	"(247, 137)"	1	0	10187478.88	72	36
20	w	20	l	1	5	42	3	"(261, 638)"	"(272, 648)"	7	0	10190232.25	72	36
20	w	20	l	1	5	42	4	"(922, 433)"	"(916, 480)"	1	0	10191214.12	72	36
20	w	20	l	1	5	42	5	"(572, 88)"	"(577, 136)"	1	0	10191561.85	72	36
20	w	20	l	1	5	42	6	"(884, 76)"	"(840, 99)"	1	0	10191920.97	72	36
20	w	20	l	1	5	42	7	"(103, 437)"	"(109, 426)"	1	0	10192718.40	72	36
20	w	20	l	1	5	42	8	"(570, 692)"	"(565, 684)"	2	0	10193342.77	72	36
20	w	20	l	1	5	42	8	"(570, 692)"	"(565, 684)"	2	    6.88	10193342.77	72	36
20	w	20	l	1	5	43	1	"(889, 669)"	"(894, 671)"	1	0	10195776.45	72	36
20	w	20	l	1	5	43	2	"(261, 181)"	"(229, 199)"	1	0	10196295.31	72	36
20	w	20	l	1	5	43	3	"(261, 638)"	"(246, 628)"	1	0	10196654.88	72	36
20	w	20	l	1	5	43	4	"(922, 433)"	"(952, 457)"	1	0	10197048.78	72	36
20	w	20	l	1	5	43	5	"(572, 88)"	"(576, 83)"	4	0	10198879.58	72	36
20	w	20	l	1	5	43	6	"(884, 76)"	"(869, 89)"	4	0	10201086.74	72	36
20	w	20	l	1	5	43	7	"(103, 437)"	"(74, 429)"	1	0	10201679.54	72	36
20	w	20	l	1	5	43	8	"(570, 692)"	"(563, 692)"	1	0	10202344.55	72	36
20	w	20	l	1	5	43	8	"(570, 692)"	"(563, 692)"	1	    7.34	10202344.55	72	36
20	w	20	l	1	5	44	1	"(889, 669)"	"(866, 664)"	1	0	10206064.90	72	36
20	w	20	l	1	5	44	2	"(261, 181)"	"(236, 168)"	1	0	10206536.66	72	36
20	w	20	l	1	5	44	3	"(261, 638)"	"(269, 652)"	2	0	10208147.07	72	36
20	w	20	l	1	5	44	4	"(922, 433)"	"(958, 439)"	1	0	10208730.26	72	36
20	w	20	l	1	5	44	5	"(572, 88)"	"(555, 67)"	1	0	10209559.73	72	36
20	w	20	l	1	5	44	6	"(884, 76)"	"(895, 91)"	1	0	10210055.96	72	36
20	w	20	l	1	5	44	7	"(103, 437)"	"(124, 428)"	1	0	10210772.70	72	36
20	w	20	l	1	5	44	8	"(570, 692)"	"(583, 697)"	2	0	10211674.15	72	36
20	w	20	l	1	5	44	8	"(570, 692)"	"(583, 697)"	2	    6.66	10211674.15	72	36
20	w	20	l	1	5	45	1	"(889, 669)"	"(903, 704)"	1	0	10219360.51	72	36
20	w	20	l	1	5	45	2	"(261, 181)"	"(253, 179)"	1	0	10220280.79	72	36
20	w	20	l	1	5	45	3	"(261, 638)"	"(260, 655)"	1	0	10220672.64	72	36
20	w	20	l	1	5	45	4	"(922, 433)"	"(916, 440)"	1	0	10221153.30	72	36
20	w	20	l	1	5	45	5	"(572, 88)"	"(551, 97)"	1	0	10221680.62	72	36
20	w	20	l	1	5	45	6	"(884, 76)"	"(872, 108)"	1	0	10222033.19	72	36
20	w	20	l	1	5	45	7	"(103, 437)"	"(108, 432)"	1	0	10222491.57	72	36
20	w	20	l	1	5	45	8	"(570, 692)"	"(560, 685)"	1	0	10222920.27	72	36
20	w	20	l	1	5	45	8	"(570, 692)"	"(560, 685)"	1	    4.37	10222920.27	72	36
20	w	20	l	1	5	46	1	"(889, 669)"	"(934, 698)"	1	0	10225895.69	72	36
20	w	20	l	1	5	46	2	"(261, 181)"	"(265, 199)"	2	0	10226931.42	72	36
20	w	20	l	1	5	46	3	"(261, 638)"	"(254, 612)"	1	0	10227465.16	72	36
20	w	20	l	1	5	46	4	"(922, 433)"	"(956, 441)"	1	0	10227977.50	72	36
20	w	20	l	1	5	46	5	"(572, 88)"	"(573, 104)"	1	0	10228523.93	72	36
20	w	20	l	1	5	46	6	"(884, 76)"	"(893, 119)"	1	0	10228784.77	72	36
20	w	20	l	1	5	46	7	"(103, 437)"	"(139, 418)"	1	0	10229339.58	72	36
20	w	20	l	1	5	46	8	"(570, 692)"	"(569, 687)"	1	0	10230035.44	72	36
20	w	20	l	1	5	46	8	"(570, 692)"	"(569, 687)"	1	    4.99	10230035.44	72	36
20	w	20	l	1	5	47	1	"(889, 669)"	"(893, 680)"	3	0	10234492.08	72	36
20	w	20	l	1	5	47	2	"(261, 181)"	"(264, 194)"	1	0	10235133.47	72	36
20	w	20	l	1	5	47	3	"(261, 638)"	"(255, 651)"	1	0	10235752.48	72	36
20	w	20	l	1	5	47	4	"(922, 433)"	"(952, 438)"	1	0	10236368.41	72	36
20	w	20	l	1	5	47	5	"(572, 88)"	"(534, 87)"	1	0	10236898.27	72	36
20	w	20	l	1	5	47	6	"(884, 76)"	"(859, 95)"	1	0	10237517.52	72	36
20	w	20	l	1	5	47	7	"(103, 437)"	"(81, 457)"	1	0	10238218.59	72	36
20	w	20	l	1	5	47	8	"(570, 692)"	"(578, 713)"	1	0	10238907.60	72	36
20	w	20	l	1	5	47	8	"(570, 692)"	"(578, 713)"	1	    7.35	10238907.60	72	36
20	w	20	l	1	5	48	1	"(889, 669)"	"(901, 692)"	1	0	10241748.55	72	36
20	w	20	l	1	5	48	2	"(261, 181)"	"(264, 178)"	1	0	10242145.56	72	36
20	w	20	l	1	5	48	3	"(261, 638)"	"(280, 649)"	1	0	10242596.79	72	36
20	w	20	l	1	5	48	4	"(922, 433)"	"(925, 483)"	1	0	10242972.19	72	36
20	w	20	l	1	5	48	5	"(572, 88)"	"(589, 81)"	4	0	10244953.69	72	36
20	w	20	l	1	5	48	6	"(884, 76)"	"(864, 71)"	1	0	10245353.50	72	36
20	w	20	l	1	5	48	7	"(103, 437)"	"(84, 436)"	1	0	10245931.56	72	36
20	w	20	l	1	5	48	8	"(570, 692)"	"(562, 725)"	1	0	10246452.78	72	36
20	w	20	l	1	5	48	8	"(570, 692)"	"(562, 725)"	1	    5.55	10246452.78	72	36
20	w	20	l	1	5	49	1	"(889, 669)"	"(864, 663)"	1	0	10249328.18	72	36
20	w	20	l	1	5	49	2	"(261, 181)"	"(232, 176)"	1	0	10249858.98	72	36
20	w	20	l	1	5	49	3	"(261, 638)"	"(268, 651)"	1	0	10250201.62	72	36
20	w	20	l	1	5	49	4	"(922, 433)"	"(893, 460)"	3	0	10252042.75	72	36
20	w	20	l	1	5	49	5	"(572, 88)"	"(534, 80)"	2	0	10253057.77	72	36
20	w	20	l	1	5	49	6	"(884, 76)"	"(910, 80)"	2	0	10254129.73	72	36
20	w	20	l	1	5	49	7	"(103, 437)"	"(121, 439)"	1	0	10255133.23	72	36
20	w	20	l	1	5	49	8	"(570, 692)"	"(578, 704)"	1	0	10255837.41	72	36
20	w	20	l	1	5	49	8	"(570, 692)"	"(578, 704)"	1	    7.15	10255837.41	72	36
20	w	20	l	1	5	50	1	"(889, 669)"	"(899, 693)"	1	0	10259195.11	72	36
20	w	20	l	1	5	50	2	"(261, 181)"	"(220, 180)"	1	0	10259666.28	72	36
20	w	20	l	1	5	50	3	"(261, 638)"	"(262, 683)"	1	0	10260066.08	72	36
20	w	20	l	1	5	50	4	"(922, 433)"	"(934, 418)"	1	0	10260564.81	72	36
20	w	20	l	1	5	50	5	"(572, 88)"	"(580, 106)"	3	0	10262324.30	72	36
20	w	20	l	1	5	50	6	"(884, 76)"	"(885, 86)"	1	0	10262706.64	72	36
20	w	20	l	1	5	50	7	"(103, 437)"	"(89, 453)"	1	0	10263267.64	72	36
20	w	20	l	1	5	50	8	"(570, 692)"	"(557, 699)"	1	0	10263771.92	72	36
20	w	20	l	1	5	50	8	"(570, 692)"	"(557, 699)"	1	    5.44	10263771.92	72	36
20	w	20	l	1	6	51	1	"(889, 669)"	"(904, 658)"	1	0	10267419.02	72	36
20	w	20	l	1	6	51	2	"(261, 181)"	"(263, 207)"	1	0	10268003.19	72	36
20	w	20	l	1	6	51	3	"(261, 638)"	"(275, 607)"	1	0	10268339.87	72	36
20	w	20	l	1	6	51	4	"(922, 433)"	"(933, 466)"	1	0	10268836.29	72	36
20	w	20	l	1	6	51	5	"(572, 88)"	"(598, 95)"	1	0	10269307.16	72	36
20	w	20	l	1	6	51	6	"(884, 76)"	"(850, 91)"	1	0	10269573.65	72	36
20	w	20	l	1	6	51	7	"(103, 437)"	"(82, 437)"	1	0	10270236.70	72	36
20	w	20	l	1	6	51	8	"(570, 692)"	"(581, 690)"	2	0	10270922.93	72	36
20	w	20	l	1	6	51	8	"(570, 692)"	"(581, 690)"	2	    4.19	10270922.93	72	36
20	w	20	l	1	6	52	1	"(889, 669)"	"(883, 672)"	1	0	10273349.80	72	36
20	w	20	l	1	6	52	2	"(261, 181)"	"(257, 195)"	3	0	10275108.10	72	36
20	w	20	l	1	6	52	3	"(261, 638)"	"(264, 640)"	1	0	10275692.85	72	36
20	w	20	l	1	6	52	4	"(922, 433)"	"(885, 418)"	1	0	10276219.45	72	36
20	w	20	l	1	6	52	5	"(572, 88)"	"(600, 85)"	1	0	10276834.89	72	36
20	w	20	l	1	6	52	6	"(884, 76)"	"(897, 78)"	2	0	10277971.69	72	36
20	w	20	l	1	6	52	7	"(103, 437)"	"(111, 440)"	1	0	10278579.79	72	36
20	w	20	l	1	6	52	8	"(570, 692)"	"(597, 699)"	1	0	10279139.27	72	36
20	w	20	l	1	6	52	8	"(570, 692)"	"(597, 699)"	1	    6.59	10279139.27	72	36
20	w	20	l	1	6	53	1	"(889, 669)"	"(873, 702)"	1	0	10282307.74	72	36
20	w	20	l	1	6	53	2	"(261, 181)"	"(257, 191)"	1	0	10282828.18	72	36
20	w	20	l	1	6	53	3	"(261, 638)"	"(277, 686)"	1	0	10283139.52	72	36
20	w	20	l	1	6	53	4	"(922, 433)"	"(932, 427)"	1	0	10284822.34	72	36
20	w	20	l	1	6	53	5	"(572, 88)"	"(568, 106)"	1	0	10285421.15	72	36
20	w	20	l	1	6	53	6	"(884, 76)"	"(892, 83)"	1	0	10286046.16	72	36
20	w	20	l	1	6	53	7	"(103, 437)"	"(96, 443)"	1	0	10286619.24	72	36
20	w	20	l	1	6	53	8	"(570, 692)"	"(566, 683)"	1	0	10287143.31	72	36
20	w	20	l	1	6	53	8	"(570, 692)"	"(566, 683)"	1	    5.53	10287143.31	72	36
20	w	20	l	1	6	54	1	"(889, 669)"	"(890, 679)"	1	0	10289779.87	72	36
20	w	20	l	1	6	54	2	"(261, 181)"	"(287, 209)"	1	0	10290405.37	72	36
20	w	20	l	1	6	54	3	"(261, 638)"	"(258, 630)"	1	0	10290923.81	72	36
20	w	20	l	1	6	54	4	"(922, 433)"	"(915, 455)"	1	0	10291490.34	72	36
20	w	20	l	1	6	54	5	"(572, 88)"	"(554, 68)"	1	0	10291903.21	72	36
20	w	20	l	1	6	54	6	"(884, 76)"	"(899, 86)"	1	0	10292263.46	72	36
20	w	20	l	1	6	54	7	"(103, 437)"	"(124, 451)"	1	0	10292862.70	72	36
20	w	20	l	1	6	54	8	"(570, 692)"	"(555, 684)"	1	0	10293532.68	72	36
20	w	20	l	1	6	54	8	"(570, 692)"	"(555, 684)"	1	    4.51	10293532.68	72	36
20	w	20	l	1	6	55	1	"(889, 669)"	"(939, 680)"	1	0	10296036.47	72	36
20	w	20	l	1	6	55	2	"(261, 181)"	"(268, 192)"	4	0	10298348.90	72	36
20	w	20	l	1	6	55	3	"(261, 638)"	"(272, 659)"	1	0	10298877.86	72	36
20	w	20	l	1	6	55	4	"(922, 433)"	"(913, 444)"	2	0	10299941.17	72	36
20	w	20	l	1	6	55	5	"(572, 88)"	"(610, 103)"	1	0	10300496.18	72	36
20	w	20	l	1	6	55	6	"(884, 76)"	"(893, 81)"	1	0	10301052.86	72	36
20	w	20	l	1	6	55	7	"(103, 437)"	"(96, 429)"	1	0	10301732.58	72	36
20	w	20	l	1	6	55	8	"(570, 692)"	"(561, 678)"	1	0	10302461.00	72	36
20	w	20	l	1	6	55	8	"(570, 692)"	"(561, 678)"	1	    7.25	10302461.00	72	36
20	w	20	l	1	6	56	1	"(889, 669)"	"(907, 685)"	1	0	10305484.69	72	36
20	w	20	l	1	6	56	2	"(261, 181)"	"(266, 196)"	1	0	10306093.00	72	36
20	w	20	l	1	6	56	3	"(261, 638)"	"(251, 656)"	1	0	10306444.98	72	36
20	w	20	l	1	6	56	4	"(922, 433)"	"(895, 455)"	1	0	10306974.73	72	36
20	w	20	l	1	6	56	5	"(572, 88)"	"(581, 89)"	1	0	10307333.26	72	36
20	w	20	l	1	6	56	6	"(884, 76)"	"(851, 98)"	1	0	10307637.04	72	36
20	w	20	l	1	6	56	7	"(103, 437)"	"(118, 461)"	1	0	10308169.15	72	36
20	w	20	l	1	6	56	8	"(570, 692)"	"(565, 716)"	2	0	10308670.00	72	36
20	w	20	l	1	6	56	8	"(570, 692)"	"(565, 716)"	2	    3.95	10308670.00	72	36
20	w	20	l	1	6	57	1	"(889, 669)"	"(881, 677)"	1	0	10311526.16	72	36
20	w	20	l	1	6	57	2	"(261, 181)"	"(269, 193)"	1	0	10311989.10	72	36
20	w	20	l	1	6	57	3	"(261, 638)"	"(250, 656)"	1	0	10312310.48	72	36
20	w	20	l	1	6	57	4	"(922, 433)"	"(914, 423)"	1	0	10312720.21	72	36
20	w	20	l	1	6	57	5	"(572, 88)"	"(571, 64)"	1	0	10313198.45	72	36
20	w	20	l	1	6	57	6	"(884, 76)"	"(931, 93)"	1	0	10313576.64	72	36
20	w	20	l	1	6	57	7	"(103, 437)"	"(130, 441)"	1	0	10314089.62	72	36
20	w	20	l	1	6	57	8	"(570, 692)"	"(556, 706)"	2	0	10314712.45	72	36
20	w	20	l	1	6	57	8	"(570, 692)"	"(556, 706)"	2	    3.91	10314712.45	72	36
20	w	20	l	1	6	58	1	"(889, 669)"	"(907, 718)"	1	0	10318593.80	72	36
20	w	20	l	1	6	58	2	"(261, 181)"	"(289, 160)"	1	0	10318997.81	72	36
20	w	20	l	1	6	58	3	"(261, 638)"	"(261, 628)"	2	0	10319679.22	72	36
20	w	20	l	1	6	58	4	"(922, 433)"	"(912, 431)"	1	0	10320670.77	72	36
20	w	20	l	1	6	58	5	"(572, 88)"	"(612, 95)"	2	0	10321522.20	72	36
20	w	20	l	1	6	58	6	"(884, 76)"	"(905, 90)"	1	0	10321934.89	72	36
20	w	20	l	1	6	58	7	"(103, 437)"	"(93, 441)"	1	0	10322477.78	72	36
20	w	20	l	1	6	58	8	"(570, 692)"	"(570, 704)"	2	0	10322989.74	72	36
20	w	20	l	1	6	58	8	"(570, 692)"	"(570, 704)"	2	    4.99	10322989.74	72	36
20	w	20	l	1	6	59	1	"(889, 669)"	"(903, 662)"	1	0	10325590.89	72	36
20	w	20	l	1	6	59	2	"(261, 181)"	"(289, 198)"	1	0	10326079.63	72	36
20	w	20	l	1	6	59	3	"(261, 638)"	"(265, 647)"	1	0	10326637.24	72	36
20	w	20	l	1	6	59	4	"(922, 433)"	"(908, 430)"	1	0	10327038.88	72	36
20	w	20	l	1	6	59	5	"(572, 88)"	"(555, 69)"	1	0	10327558.63	72	36
20	w	20	l	1	6	59	6	"(884, 76)"	"(850, 87)"	2	0	10328274.32	72	36
20	w	20	l	1	6	59	7	"(103, 437)"	"(112, 459)"	2	0	10328935.39	72	36
20	w	20	l	1	6	59	8	"(570, 692)"	"(586, 702)"	2	0	10329626.29	72	36
20	w	20	l	1	6	59	8	"(570, 692)"	"(586, 702)"	2	    4.75	10329626.29	72	36
20	w	20	l	1	6	60	1	"(889, 669)"	"(905, 680)"	4	0	10334775.07	72	36
20	w	20	l	1	6	60	2	"(261, 181)"	"(251, 200)"	1	0	10335448.05	72	36
20	w	20	l	1	6	60	3	"(261, 638)"	"(256, 667)"	1	0	10336078.70	72	36
20	w	20	l	1	6	60	4	"(922, 433)"	"(930, 449)"	1	0	10336686.09	72	36
20	w	20	l	1	6	60	5	"(572, 88)"	"(531, 96)"	1	0	10337232.69	72	36
20	w	20	l	1	6	60	6	"(884, 76)"	"(915, 78)"	3	0	10339001.29	72	36
20	w	20	l	1	6	60	7	"(103, 437)"	"(115, 432)"	1	0	10339800.90	72	36
20	w	20	l	1	6	60	8	"(570, 692)"	"(570, 693)"	1	0	10340513.78	72	36
20	w	20	l	1	6	60	8	"(570, 692)"	"(570, 693)"	1	    8.18	10340513.78	72	36
20	w	20	l	2	7	61	1	"(889, 669)"	"(899, 652)"	1	0	10345071.00	72	36
20	w	20	l	2	7	61	2	"(261, 181)"	"(308, 201)"	1	0	10345543.79	72	36
20	w	20	l	2	7	61	3	"(884, 76)"	"(901, 76)"	1	0	10346759.78	72	36
20	w	20	l	2	7	61	4	"(922, 433)"	"(909, 440)"	1	0	10347176.54	72	36
20	w	20	l	2	7	61	5	"(572, 88)"	"(568, 115)"	1	0	10347626.55	72	36
20	w	20	l	2	7	61	6	"(261, 638)"	"(246, 601)"	1	0	10348209.67	72	36
20	w	20	l	2	7	61	7	"(103, 437)"	"(102, 445)"	1	0	10348662.98	72	36
20	w	20	l	2	7	61	8	"(570, 692)"	"(555, 672)"	1	0	10349127.29	72	36
20	w	20	l	2	7	61	8	"(570, 692)"	"(555, 672)"	1	    4.85	10349127.29	72	36
20	w	20	l	2	7	62	1	"(889, 669)"	"(890, 682)"	1	0	10353113.25	72	36
20	w	20	l	2	7	62	2	"(261, 181)"	"(298, 188)"	1	0	10353679.11	72	36
20	w	20	l	2	7	62	3	"(884, 76)"	"(909, 88)"	1	0	10354145.48	72	36
20	w	20	l	2	7	62	4	"(922, 433)"	"(916, 473)"	1	0	10354512.68	72	36
20	w	20	l	2	7	62	5	"(572, 88)"	"(581, 111)"	1	0	10355006.90	72	36
20	w	20	l	2	7	62	6	"(261, 638)"	"(305, 634)"	1	0	10355520.21	72	36
20	w	20	l	2	7	62	7	"(103, 437)"	"(90, 443)"	4	0	10356912.19	72	36
20	w	20	l	2	7	62	8	"(570, 692)"	"(541, 716)"	1	0	10357480.55	72	36
20	w	20	l	2	7	62	8	"(570, 692)"	"(541, 716)"	1	    5.09	10357480.55	72	36
20	w	20	l	2	7	63	1	"(889, 669)"	"(895, 675)"	1	0	10359800.16	72	36
20	w	20	l	2	7	63	2	"(261, 181)"	"(240, 197)"	1	0	10360570.60	72	36
20	w	20	l	2	7	63	3	"(884, 76)"	"(833, 86)"	1	0	10361105.92	72	36
20	w	20	l	2	7	63	4	"(922, 433)"	"(905, 423)"	1	0	10361585.33	72	36
20	w	20	l	2	7	63	5	"(572, 88)"	"(580, 70)"	1	0	10362031.94	72	36
20	w	20	l	2	7	63	6	"(261, 638)"	"(218, 610)"	4	0	10363675.63	72	36
20	w	20	l	2	7	63	7	"(103, 437)"	"(107, 445)"	2	0	10364496.00	72	36
20	w	20	l	2	7	63	8	"(570, 692)"	"(570, 678)"	1	0	10365064.57	72	36
20	w	20	l	2	7	63	8	"(570, 692)"	"(570, 678)"	1	    6.07	10365064.57	72	36
20	w	20	l	2	7	64	1	"(889, 669)"	"(912, 663)"	1	0	10369017.09	72	36
20	w	20	l	2	7	64	2	"(261, 181)"	"(268, 173)"	1	0	10369448.65	72	36
20	w	20	l	2	7	64	3	"(884, 76)"	"(918, 98)"	1	0	10369935.93	72	36
20	w	20	l	2	7	64	4	"(922, 433)"	"(914, 433)"	1	0	10370362.82	72	36
20	w	20	l	2	7	64	5	"(572, 88)"	"(610, 99)"	1	0	10370826.09	72	36
20	w	20	l	2	7	64	6	"(261, 638)"	"(301, 616)"	1	0	10371316.73	72	36
20	w	20	l	2	7	64	7	"(103, 437)"	"(93, 443)"	1	0	10371721.12	72	36
20	w	20	l	2	7	64	8	"(570, 692)"	"(571, 714)"	1	0	10372144.22	72	36
20	w	20	l	2	7	64	8	"(570, 692)"	"(571, 714)"	1	    3.71	10372144.22	72	36
20	w	20	l	2	7	65	1	"(889, 669)"	"(911, 658)"	1	0	10376666.76	72	36
20	w	20	l	2	7	65	2	"(261, 181)"	"(244, 184)"	1	0	10377361.84	72	36
20	w	20	l	2	7	65	3	"(884, 76)"	"(876, 81)"	1	0	10377802.58	72	36
20	w	20	l	2	7	65	4	"(922, 433)"	"(946, 408)"	1	0	10378580.30	72	36
20	w	20	l	2	7	65	5	"(572, 88)"	"(589, 102)"	1	0	10379058.55	72	36
20	w	20	l	2	7	65	6	"(261, 638)"	"(249, 647)"	1	0	10379651.23	72	36
20	w	20	l	2	7	65	7	"(103, 437)"	"(115, 432)"	4	0	10381321.32	72	36
20	w	20	l	2	7	65	8	"(570, 692)"	"(573, 694)"	1	0	10382083.47	72	36
20	w	20	l	2	7	65	8	"(570, 692)"	"(573, 694)"	1	    6.19	10382083.47	72	36
20	w	20	l	2	7	66	1	"(889, 669)"	"(884, 707)"	1	0	10385371.07	72	36
20	w	20	l	2	7	66	2	"(261, 181)"	"(222, 164)"	1	0	10386051.37	72	36
20	w	20	l	2	7	66	3	"(884, 76)"	"(913, 87)"	1	0	10386633.59	72	36
20	w	20	l	2	7	66	4	"(922, 433)"	"(919, 404)"	1	0	10387057.92	72	36
20	w	20	l	2	7	66	5	"(572, 88)"	"(542, 91)"	1	0	10387593.62	72	36
20	w	20	l	2	7	66	6	"(261, 638)"	"(288, 614)"	1	0	10388186.75	72	36
20	w	20	l	2	7	66	7	"(103, 437)"	"(94, 438)"	1	0	10388597.70	72	36
20	w	20	l	2	7	66	8	"(570, 692)"	"(580, 705)"	1	0	10389076.14	72	36
20	w	20	l	2	7	66	8	"(570, 692)"	"(580, 705)"	1	    4.45	10389076.14	72	36
20	w	20	l	2	7	67	1	"(889, 669)"	"(918, 669)"	1	0	10393058.75	72	36
20	w	20	l	2	7	67	2	"(261, 181)"	"(290, 175)"	3	0	10394866.66	72	36
20	w	20	l	2	7	67	3	"(884, 76)"	"(856, 89)"	1	0	10395450.94	72	36
20	w	20	l	2	7	67	4	"(922, 433)"	"(925, 426)"	1	0	10395907.02	72	36
20	w	20	l	2	7	67	5	"(572, 88)"	"(540, 99)"	1	0	10396380.20	72	36
20	w	20	l	2	7	67	6	"(261, 638)"	"(278, 636)"	1	0	10397181.24	72	36
20	w	20	l	2	7	67	7	"(103, 437)"	"(103, 430)"	1	0	10397537.40	72	36
20	w	20	l	2	7	67	8	"(570, 692)"	"(579, 676)"	1	0	10398284.94	72	36
20	w	20	l	2	7	67	8	"(570, 692)"	"(579, 676)"	1	    5.85	10398284.94	72	36
20	w	20	l	2	7	68	1	"(889, 669)"	"(903, 671)"	1	0	10401066.03	72	36
20	w	20	l	2	7	68	2	"(261, 181)"	"(275, 163)"	1	0	10401714.29	72	36
20	w	20	l	2	7	68	3	"(884, 76)"	"(883, 92)"	1	0	10402115.53	72	36
20	w	20	l	2	7	68	4	"(922, 433)"	"(921, 439)"	1	0	10402554.42	72	36
20	w	20	l	2	7	68	5	"(572, 88)"	"(597, 97)"	1	0	10403074.81	72	36
20	w	20	l	2	7	68	6	"(261, 638)"	"(251, 654)"	1	0	10403491.91	72	36
20	w	20	l	2	7	68	7	"(103, 437)"	"(77, 404)"	1	0	10403803.57	72	36
20	w	20	l	2	7	68	8	"(570, 692)"	"(565, 700)"	2	0	10404714.73	72	36
20	w	20	l	2	7	68	8	"(570, 692)"	"(565, 700)"	2	    4.59	10404714.73	72	36
20	w	20	l	2	7	69	1	"(889, 669)"	"(884, 693)"	1	0	10407356.97	72	36
20	w	20	l	2	7	69	2	"(261, 181)"	"(224, 208)"	1	0	10407883.14	72	36
20	w	20	l	2	7	69	3	"(884, 76)"	"(903, 95)"	1	0	10408330.89	72	36
20	w	20	l	2	7	69	4	"(922, 433)"	"(904, 479)"	1	0	10408723.83	72	36
20	w	20	l	2	7	69	5	"(572, 88)"	"(566, 113)"	1	0	10409221.99	72	36
20	w	20	l	2	7	69	6	"(261, 638)"	"(269, 631)"	1	0	10409707.56	72	36
20	w	20	l	2	7	69	7	"(103, 437)"	"(94, 410)"	1	0	10410013.26	72	36
20	w	20	l	2	7	69	8	"(570, 692)"	"(550, 705)"	2	0	10410668.24	72	36
20	w	20	l	2	7	69	8	"(570, 692)"	"(550, 705)"	2	    4.10	10410668.24	72	36
20	w	20	l	2	7	70	1	"(889, 669)"	"(879, 672)"	1	0	10414803.30	72	36
20	w	20	l	2	7	70	2	"(261, 181)"	"(284, 186)"	1	0	10415317.81	72	36
20	w	20	l	2	7	70	3	"(884, 76)"	"(904, 82)"	1	0	10415948.29	72	36
20	w	20	l	2	7	70	4	"(922, 433)"	"(931, 467)"	1	0	10416404.55	72	36
20	w	20	l	2	7	70	5	"(572, 88)"	"(550, 75)"	1	0	10416819.34	72	36
20	w	20	l	2	7	70	6	"(261, 638)"	"(250, 598)"	1	0	10417397.12	72	36
20	w	20	l	2	7	70	7	"(103, 437)"	"(97, 438)"	1	0	10417885.19	72	36
20	w	20	l	2	7	70	8	"(570, 692)"	"(565, 696)"	2	0	10418629.93	72	36
20	w	20	l	2	7	70	8	"(570, 692)"	"(565, 696)"	2	    4.85	10418629.93	72	36
20	w	20	l	2	8	71	1	"(889, 669)"	"(919, 686)"	1	0	10421964.74	72	36
20	w	20	l	2	8	71	2	"(261, 181)"	"(296, 182)"	1	0	10422483.23	72	36
20	w	20	l	2	8	71	3	"(884, 76)"	"(925, 80)"	1	0	10422992.46	72	36
20	w	20	l	2	8	71	4	"(922, 433)"	"(927, 410)"	1	0	10423341.48	72	36
20	w	20	l	2	8	71	5	"(572, 88)"	"(558, 98)"	1	0	10423710.74	72	36
20	w	20	l	2	8	71	6	"(261, 638)"	"(290, 669)"	4	0	10425427.67	72	36
20	w	20	l	2	8	71	7	"(103, 437)"	"(83, 410)"	1	0	10425923.18	72	36
20	w	20	l	2	8	71	8	"(570, 692)"	"(579, 732)"	1	0	10426396.19	72	36
20	w	20	l	2	8	71	8	"(570, 692)"	"(579, 732)"	1	    5.12	10426396.19	72	36
20	w	20	l	2	8	72	1	"(889, 669)"	"(866, 680)"	1	0	10428635.77	72	36
20	w	20	l	2	8	72	2	"(261, 181)"	"(243, 177)"	1	0	10429302.12	72	36
20	w	20	l	2	8	72	3	"(884, 76)"	"(848, 79)"	1	0	10429772.93	72	36
20	w	20	l	2	8	72	4	"(922, 433)"	"(938, 437)"	1	0	10430332.52	72	36
20	w	20	l	2	8	72	5	"(572, 88)"	"(587, 120)"	2	0	10431044.74	72	36
20	w	20	l	2	8	72	6	"(261, 638)"	"(271, 601)"	1	0	10431444.42	72	36
20	w	20	l	2	8	72	7	"(103, 437)"	"(116, 443)"	5	0	10435331.84	72	36
20	w	20	l	2	8	72	8	"(570, 692)"	"(537, 708)"	1	0	10435972.41	72	36
20	w	20	l	2	8	72	8	"(570, 692)"	"(537, 708)"	1	    7.95	10435972.41	72	36
20	w	20	l	2	8	73	1	"(889, 669)"	"(891, 664)"	1	0	10438685.24	72	36
20	w	20	l	2	8	73	2	"(261, 181)"	"(228, 177)"	1	0	10439347.93	72	36
20	w	20	l	2	8	73	3	"(884, 76)"	"(854, 87)"	1	0	10440005.05	72	36
20	w	20	l	2	8	73	4	"(922, 433)"	"(912, 442)"	1	0	10440516.24	72	36
20	w	20	l	2	8	73	5	"(572, 88)"	"(576, 72)"	1	0	10440997.07	72	36
20	w	20	l	2	8	73	6	"(261, 638)"	"(272, 614)"	1	0	10441457.76	72	36
20	w	20	l	2	8	73	7	"(103, 437)"	"(96, 452)"	1	0	10441805.25	72	36
20	w	20	l	2	8	73	8	"(570, 692)"	"(609, 695)"	1	0	10442246.77	72	36
20	w	20	l	2	8	73	8	"(570, 692)"	"(609, 695)"	1	    4.23	10442246.77	72	36
20	w	20	l	2	8	74	1	"(889, 669)"	"(885, 662)"	1	0	10445542.15	72	36
20	w	20	l	2	8	74	2	"(261, 181)"	"(242, 205)"	1	0	10446095.44	72	36
20	w	20	l	2	8	74	3	"(884, 76)"	"(867, 98)"	1	0	10446556.04	72	36
20	w	20	l	2	8	74	4	"(922, 433)"	"(936, 441)"	1	0	10446957.99	72	36
20	w	20	l	2	8	74	5	"(572, 88)"	"(599, 104)"	1	0	10447472.35	72	36
20	w	20	l	2	8	74	6	"(261, 638)"	"(234, 650)"	1	0	10447901.46	72	36
20	w	20	l	2	8	74	7	"(103, 437)"	"(151, 450)"	1	0	10448210.10	72	36
20	w	20	l	2	8	74	8	"(570, 692)"	"(541, 681)"	2	0	10448813.05	72	36
20	w	20	l	2	8	74	8	"(570, 692)"	"(541, 681)"	2	    4.12	10448813.05	72	36
20	w	20	l	2	8	75	1	"(889, 669)"	"(892, 653)"	1	0	10451918.04	72	36
20	w	20	l	2	8	75	2	"(261, 181)"	"(275, 181)"	1	0	10452422.27	72	36
20	w	20	l	2	8	75	3	"(884, 76)"	"(884, 92)"	1	0	10452966.71	72	36
20	w	20	l	2	8	75	4	"(922, 433)"	"(902, 458)"	1	0	10453398.48	72	36
20	w	20	l	2	8	75	5	"(572, 88)"	"(599, 102)"	1	0	10453853.43	72	36
20	w	20	l	2	8	75	6	"(261, 638)"	"(266, 627)"	1	0	10454269.31	72	36
20	w	20	l	2	8	75	7	"(103, 437)"	"(119, 447)"	1	0	10454639.75	72	36
20	w	20	l	2	8	75	8	"(570, 692)"	"(586, 719)"	1	0	10455132.89	72	36
20	w	20	l	2	8	75	8	"(570, 692)"	"(586, 719)"	1	    4.07	10455132.89	72	36
20	w	20	l	2	8	76	1	"(889, 669)"	"(927, 683)"	1	0	10457292.57	72	36
20	w	20	l	2	8	76	2	"(261, 181)"	"(258, 203)"	1	0	10457909.97	72	36
20	w	20	l	2	8	76	3	"(884, 76)"	"(877, 119)"	1	0	10458436.69	72	36
20	w	20	l	2	8	76	4	"(922, 433)"	"(945, 442)"	1	0	10458857.20	72	36
20	w	20	l	2	8	76	5	"(572, 88)"	"(560, 98)"	1	0	10459277.96	72	36
20	w	20	l	2	8	76	6	"(261, 638)"	"(276, 657)"	6	0	10461581.79	72	36
20	w	20	l	2	8	76	7	"(103, 437)"	"(80, 431)"	1	0	10462013.71	72	36
20	w	20	l	2	8	76	8	"(570, 692)"	"(561, 689)"	2	0	10463135.03	72	36
20	w	20	l	2	8	76	8	"(570, 692)"	"(561, 689)"	2	    6.49	10463135.03	72	36
20	w	20	l	2	8	77	1	"(889, 669)"	"(894, 680)"	1	0	10471207.53	72	36
20	w	20	l	2	8	77	2	"(261, 181)"	"(236, 179)"	1	0	10472039.54	72	36
20	w	20	l	2	8	77	3	"(884, 76)"	"(927, 72)"	1	0	10472591.15	72	36
20	w	20	l	2	8	77	4	"(922, 433)"	"(891, 406)"	1	0	10473071.83	72	36
20	w	20	l	2	8	77	5	"(572, 88)"	"(561, 102)"	1	0	10473522.40	72	36
20	w	20	l	2	8	77	6	"(261, 638)"	"(277, 627)"	1	0	10473943.33	72	36
20	w	20	l	2	8	77	7	"(103, 437)"	"(75, 430)"	1	0	10474283.56	72	36
20	w	20	l	2	8	77	8	"(570, 692)"	"(609, 674)"	1	0	10474798.86	72	36
20	w	20	l	2	8	77	8	"(570, 692)"	"(609, 674)"	1	    4.35	10474798.86	72	36
20	w	20	l	2	8	78	1	"(889, 669)"	"(884, 675)"	1	0	10476951.37	72	36
20	w	20	l	2	8	78	2	"(261, 181)"	"(261, 203)"	1	0	10477499.97	72	36
20	w	20	l	2	8	78	3	"(884, 76)"	"(863, 98)"	1	0	10477951.04	72	36
20	w	20	l	2	8	78	4	"(922, 433)"	"(921, 436)"	1	0	10478296.05	72	36
20	w	20	l	2	8	78	5	"(572, 88)"	"(599, 100)"	1	0	10478781.32	72	36
20	w	20	l	2	8	78	6	"(261, 638)"	"(249, 617)"	1	0	10479202.76	72	36
20	w	20	l	2	8	78	7	"(103, 437)"	"(123, 423)"	1	0	10479527.01	72	36
20	w	20	l	2	8	78	8	"(570, 692)"	"(526, 691)"	1	0	10479881.44	72	36
20	w	20	l	2	8	78	8	"(570, 692)"	"(526, 691)"	1	    3.57	10479881.44	72	36
20	w	20	l	2	8	79	1	"(889, 669)"	"(871, 671)"	1	0	10485092.37	72	36
20	w	20	l	2	8	79	2	"(261, 181)"	"(248, 203)"	1	0	10485583.50	72	36
20	w	20	l	2	8	79	3	"(884, 76)"	"(898, 92)"	1	0	10486110.35	72	36
20	w	20	l	2	8	79	4	"(922, 433)"	"(912, 456)"	1	0	10486382.40	72	36
20	w	20	l	2	8	79	5	"(572, 88)"	"(583, 70)"	5	0	10488768.21	72	36
20	w	20	l	2	8	79	6	"(261, 638)"	"(276, 624)"	1	0	10489534.28	72	36
20	w	20	l	2	8	79	7	"(103, 437)"	"(86, 440)"	1	0	10489969.59	72	36
20	w	20	l	2	8	79	8	"(570, 692)"	"(585, 682)"	1	0	10490503.80	72	36
20	w	20	l	2	8	79	8	"(570, 692)"	"(585, 682)"	1	    6.27	10490503.80	72	36
20	w	20	l	2	8	80	1	"(889, 669)"	"(917, 664)"	1	0	10493657.22	72	36
20	w	20	l	2	8	80	2	"(261, 181)"	"(253, 181)"	4	0	10495666.43	72	36
20	w	20	l	2	8	80	3	"(884, 76)"	"(894, 74)"	1	0	10496375.64	72	36
20	w	20	l	2	8	80	4	"(922, 433)"	"(909, 401)"	1	0	10496772.76	72	36
20	w	20	l	2	8	80	5	"(572, 88)"	"(568, 114)"	2	0	10497664.00	72	36
20	w	20	l	2	8	80	6	"(261, 638)"	"(264, 650)"	1	0	10498376.44	72	36
20	w	20	l	2	8	80	7	"(103, 437)"	"(110, 436)"	1	0	10498783.92	72	36
20	w	20	l	2	8	80	8	"(570, 692)"	"(595, 694)"	1	0	10499347.03	72	36
20	w	20	l	2	8	80	8	"(570, 692)"	"(595, 694)"	1	    6.17	10499347.03	72	36
20	w	20	l	3	9	81	1	"(889, 669)"	"(890, 669)"	1	0	10503872.29	72	36
20	w	20	l	3	9	81	2	"(261, 181)"	"(292, 192)"	1	0	10504368.10	72	36
20	w	20	l	3	9	81	3	"(261, 638)"	"(261, 647)"	1	0	10506080.40	72	36
20	w	20	l	3	9	81	4	"(922, 433)"	"(932, 451)"	1	0	10506640.05	72	36
20	w	20	l	3	9	81	5	"(572, 88)"	"(602, 104)"	1	0	10507281.09	72	36
20	w	20	l	3	9	81	6	"(884, 76)"	"(900, 79)"	1	0	10507641.14	72	36
20	w	20	l	3	9	81	7	"(103, 437)"	"(82, 440)"	1	0	10508362.47	72	36
20	w	20	l	3	9	81	8	"(570, 692)"	"(579, 709)"	1	0	10508883.37	72	36
20	w	20	l	3	9	81	8	"(570, 692)"	"(579, 709)"	1	    5.58	10508883.37	72	36
20	w	20	l	3	9	82	1	"(889, 669)"	"(898, 708)"	1	0	10511838.48	72	36
20	w	20	l	3	9	82	2	"(261, 181)"	"(277, 152)"	1	0	10512240.91	72	36
20	w	20	l	3	9	82	3	"(261, 638)"	"(283, 645)"	1	0	10512620.12	72	36
20	w	20	l	3	9	82	4	"(922, 433)"	"(926, 437)"	4	0	10514947.65	72	36
20	w	20	l	3	9	82	5	"(572, 88)"	"(543, 51)"	1	0	10515489.48	72	36
20	w	20	l	3	9	82	6	"(884, 76)"	"(866, 72)"	2	0	10516370.01	72	36
20	w	20	l	3	9	82	7	"(103, 437)"	"(137, 454)"	1	0	10516960.94	72	36
20	w	20	l	3	9	82	8	"(570, 692)"	"(598, 683)"	1	0	10517664.94	72	36
20	w	20	l	3	9	82	8	"(570, 692)"	"(598, 683)"	1	    6.52	10517664.94	72	36
20	w	20	l	3	9	83	1	"(889, 669)"	"(917, 683)"	1	0	10521084.52	72	36
20	w	20	l	3	9	83	2	"(261, 181)"	"(271, 187)"	1	0	10521832.93	72	36
20	w	20	l	3	9	83	3	"(261, 638)"	"(239, 617)"	1	0	10522251.93	72	36
20	w	20	l	3	9	83	4	"(922, 433)"	"(935, 466)"	3	0	10524099.82	72	36
20	w	20	l	3	9	83	5	"(572, 88)"	"(600, 107)"	1	0	10524668.43	72	36
20	w	20	l	3	9	83	6	"(884, 76)"	"(877, 85)"	1	0	10525090.60	72	36
20	w	20	l	3	9	83	7	"(103, 437)"	"(118, 439)"	1	0	10525689.81	72	36
20	w	20	l	3	9	83	8	"(570, 692)"	"(584, 682)"	1	0	10526211.10	72	36
20	w	20	l	3	9	83	8	"(570, 692)"	"(584, 682)"	1	    6.14	10526211.10	72	36
20	w	20	l	3	9	84	1	"(889, 669)"	"(882, 684)"	1	0	10528404.25	72	36
20	w	20	l	3	9	84	2	"(261, 181)"	"(243, 196)"	1	0	10528850.51	72	36
20	w	20	l	3	9	84	3	"(261, 638)"	"(284, 676)"	1	0	10529257.89	72	36
20	w	20	l	3	9	84	4	"(922, 433)"	"(959, 448)"	1	0	10529811.14	72	36
20	w	20	l	3	9	84	5	"(572, 88)"	"(569, 91)"	1	0	10530323.96	72	36
20	w	20	l	3	9	84	6	"(884, 76)"	"(863, 93)"	1	0	10530675.84	72	36
20	w	20	l	3	9	84	7	"(103, 437)"	"(61, 436)"	1	0	10531161.71	72	36
20	w	20	l	3	9	84	8	"(570, 692)"	"(531, 676)"	2	0	10531912.69	72	36
20	w	20	l	3	9	84	8	"(570, 692)"	"(531, 676)"	2	    4.27	10531912.69	72	36
20	w	20	l	3	9	85	1	"(889, 669)"	"(904, 666)"	1	0	10534649.48	72	36
20	w	20	l	3	9	85	2	"(261, 181)"	"(270, 185)"	1	0	10535120.19	72	36
20	w	20	l	3	9	85	3	"(261, 638)"	"(277, 619)"	1	0	10535488.65	72	36
20	w	20	l	3	9	85	4	"(922, 433)"	"(894, 447)"	1	0	10535962.45	72	36
20	w	20	l	3	9	85	5	"(572, 88)"	"(550, 91)"	1	0	10536461.10	72	36
20	w	20	l	3	9	85	6	"(884, 76)"	"(851, 79)"	1	0	10536811.36	72	36
20	w	20	l	3	9	85	7	"(103, 437)"	"(137, 429)"	1	0	10537364.40	72	36
20	w	20	l	3	9	85	8	"(570, 692)"	"(583, 726)"	1	0	10537881.57	72	36
20	w	20	l	3	9	85	8	"(570, 692)"	"(583, 726)"	1	    3.97	10537881.57	72	36
20	w	20	l	3	9	86	1	"(889, 669)"	"(917, 665)"	1	0	10542090.70	72	36
20	w	20	l	3	9	86	2	"(261, 181)"	"(267, 179)"	1	0	10542628.78	72	36
20	w	20	l	3	9	86	3	"(261, 638)"	"(249, 635)"	1	0	10542962.19	72	36
20	w	20	l	3	9	86	4	"(922, 433)"	"(905, 455)"	1	0	10543491.92	72	36
20	w	20	l	3	9	86	5	"(572, 88)"	"(580, 107)"	1	0	10543897.71	72	36
20	w	20	l	3	9	86	6	"(884, 76)"	"(866, 92)"	1	0	10544233.97	72	36
20	w	20	l	3	9	86	7	"(103, 437)"	"(122, 439)"	1	0	10544777.86	72	36
20	w	20	l	3	9	86	8	"(570, 692)"	"(588, 680)"	1	0	10545130.21	72	36
20	w	20	l	3	9	86	8	"(570, 692)"	"(588, 680)"	1	    3.53	10545130.21	72	36
20	w	20	l	3	9	87	1	"(889, 669)"	"(914, 668)"	1	0	10549185.58	72	36
20	w	20	l	3	9	87	2	"(261, 181)"	"(280, 200)"	1	0	10549745.45	72	36
20	w	20	l	3	9	87	3	"(261, 638)"	"(279, 644)"	1	0	10550053.52	72	36
20	w	20	l	3	9	87	4	"(922, 433)"	"(946, 441)"	1	0	10550534.32	72	36
20	w	20	l	3	9	87	5	"(572, 88)"	"(573, 64)"	1	0	10550893.38	72	36
20	w	20	l	3	9	87	6	"(884, 76)"	"(910, 74)"	5	0	10553239.82	72	36
20	w	20	l	3	9	87	7	"(103, 437)"	"(97, 400)"	1	0	10553794.95	72	36
20	w	20	l	3	9	87	8	"(570, 692)"	"(555, 689)"	1	0	10554461.04	72	36
20	w	20	l	3	9	87	8	"(570, 692)"	"(555, 689)"	1	    6.37	10554461.04	72	36
20	w	20	l	3	9	88	1	"(889, 669)"	"(904, 684)"	1	0	10557315.33	72	36
20	w	20	l	3	9	88	2	"(261, 181)"	"(242, 189)"	1	0	10557835.14	72	36
20	w	20	l	3	9	88	3	"(261, 638)"	"(248, 638)"	1	0	10558219.84	72	36
20	w	20	l	3	9	88	4	"(922, 433)"	"(892, 436)"	1	0	10558714.52	72	36
20	w	20	l	3	9	88	5	"(572, 88)"	"(590, 82)"	1	0	10559267.59	72	36
20	w	20	l	3	9	88	6	"(884, 76)"	"(898, 75)"	1	0	10559554.54	72	36
20	w	20	l	3	9	88	7	"(103, 437)"	"(149, 446)"	1	0	10560011.25	72	36
20	w	20	l	3	9	88	8	"(570, 692)"	"(617, 692)"	2	0	10560572.20	72	36
20	w	20	l	3	9	88	8	"(570, 692)"	"(617, 692)"	2	    3.92	10560572.20	72	36
20	w	20	l	3	9	89	1	"(889, 669)"	"(905, 656)"	1	0	10563156.52	72	36
20	w	20	l	3	9	89	2	"(261, 181)"	"(275, 219)"	2	0	10564221.91	72	36
20	w	20	l	3	9	89	3	"(261, 638)"	"(264, 638)"	2	0	10565123.76	72	36
20	w	20	l	3	9	89	4	"(922, 433)"	"(951, 453)"	1	0	10565766.82	72	36
20	w	20	l	3	9	89	5	"(572, 88)"	"(589, 92)"	1	0	10566469.41	72	36
20	w	20	l	3	9	89	6	"(884, 76)"	"(906, 82)"	2	0	10567548.37	72	36
20	w	20	l	3	9	89	7	"(103, 437)"	"(93, 433)"	1	0	10568325.15	72	36
20	w	20	l	3	9	89	8	"(570, 692)"	"(557, 693)"	1	0	10568934.10	72	36
20	w	20	l	3	9	89	8	"(570, 692)"	"(557, 693)"	1	    6.57	10568934.10	72	36
20	w	20	l	3	9	90	1	"(889, 669)"	"(866, 670)"	1	0	10572315.90	72	36
20	w	20	l	3	9	90	2	"(261, 181)"	"(243, 164)"	1	0	10572828.84	72	36
20	w	20	l	3	9	90	3	"(261, 638)"	"(289, 651)"	1	0	10573237.33	72	36
20	w	20	l	3	9	90	4	"(922, 433)"	"(934, 430)"	1	0	10573734.57	72	36
20	w	20	l	3	9	90	5	"(572, 88)"	"(599, 77)"	1	0	10574246.28	72	36
20	w	20	l	3	9	90	6	"(884, 76)"	"(876, 72)"	1	0	10574716.35	72	36
20	w	20	l	3	9	90	7	"(103, 437)"	"(92, 461)"	4	0	10576749.53	72	36
20	w	20	l	3	9	90	8	"(570, 692)"	"(580, 698)"	1	0	10577349.70	72	36
20	w	20	l	3	9	90	8	"(570, 692)"	"(580, 698)"	1	    6.19	10577349.70	72	36
20	w	20	l	3	10	91	1	"(889, 669)"	"(931, 695)"	1	0	10581900.78	72	36
20	w	20	l	3	10	91	2	"(261, 181)"	"(267, 205)"	1	0	10582860.61	72	36
20	w	20	l	3	10	91	3	"(261, 638)"	"(267, 631)"	1	0	10583344.67	72	36
20	w	20	l	3	10	91	4	"(922, 433)"	"(942, 438)"	1	0	10584153.07	72	36
20	w	20	l	3	10	91	5	"(572, 88)"	"(590, 103)"	1	0	10584935.81	72	36
20	w	20	l	3	10	91	6	"(884, 76)"	"(880, 84)"	1	0	10585548.55	72	36
20	w	20	l	3	10	91	7	"(103, 437)"	"(123, 440)"	1	0	10586149.61	72	36
20	w	20	l	3	10	91	8	"(570, 692)"	"(589, 719)"	1	0	10586670.77	72	36
20	w	20	l	3	10	91	8	"(570, 692)"	"(589, 719)"	1	    5.63	10586670.77	72	36
20	w	20	l	3	10	92	1	"(889, 669)"	"(900, 678)"	1	0	10589261.51	72	36
20	w	20	l	3	10	92	2	"(261, 181)"	"(258, 209)"	1	0	10589871.65	72	36
20	w	20	l	3	10	92	3	"(261, 638)"	"(271, 656)"	1	0	10590285.06	72	36
20	w	20	l	3	10	92	4	"(922, 433)"	"(943, 419)"	1	0	10590783.95	72	36
20	w	20	l	3	10	92	5	"(572, 88)"	"(557, 83)"	1	0	10591415.79	72	36
20	w	20	l	3	10	92	6	"(884, 76)"	"(904, 79)"	1	0	10591945.53	72	36
20	w	20	l	3	10	92	7	"(103, 437)"	"(88, 436)"	2	0	10593068.60	72	36
20	w	20	l	3	10	92	8	"(570, 692)"	"(596, 703)"	1	0	10593667.99	72	36
20	w	20	l	3	10	92	8	"(570, 692)"	"(596, 703)"	1	    5.06	10593667.99	72	36
20	w	20	l	3	10	93	1	"(889, 669)"	"(902, 671)"	1	0	10597549.20	72	36
20	w	20	l	3	10	93	2	"(261, 181)"	"(251, 185)"	1	0	10598118.51	72	36
20	w	20	l	3	10	93	3	"(261, 638)"	"(252, 605)"	1	0	10598493.24	72	36
20	w	20	l	3	10	93	4	"(922, 433)"	"(945, 431)"	1	0	10598957.64	72	36
20	w	20	l	3	10	93	5	"(572, 88)"	"(592, 91)"	1	0	10599462.89	72	36
20	w	20	l	3	10	93	6	"(884, 76)"	"(917, 94)"	1	0	10599958.74	72	36
20	w	20	l	3	10	93	7	"(103, 437)"	"(105, 425)"	1	0	10600413.58	72	36
20	w	20	l	3	10	93	8	"(570, 692)"	"(577, 673)"	1	0	10600965.42	72	36
20	w	20	l	3	10	93	8	"(570, 692)"	"(577, 673)"	1	    4.32	10600965.42	72	36
20	w	20	l	3	10	94	1	"(889, 669)"	"(908, 688)"	1	0	10603261.13	72	36
20	w	20	l	3	10	94	2	"(261, 181)"	"(273, 191)"	2	0	10603900.90	72	36
20	w	20	l	3	10	94	3	"(261, 638)"	"(243, 653)"	1	0	10604262.49	72	36
20	w	20	l	3	10	94	4	"(922, 433)"	"(946, 452)"	1	0	10604685.02	72	36
20	w	20	l	3	10	94	5	"(572, 88)"	"(562, 46)"	1	0	10605021.24	72	36
20	w	20	l	3	10	94	6	"(884, 76)"	"(836, 67)"	1	0	10605335.93	72	36
20	w	20	l	3	10	94	7	"(103, 437)"	"(100, 437)"	1	0	10605780.59	72	36
20	w	20	l	3	10	94	8	"(570, 692)"	"(551, 700)"	1	0	10606090.17	72	36
20	w	20	l	3	10	94	8	"(570, 692)"	"(551, 700)"	1	    3.54	10606090.17	72	36
20	w	20	l	3	10	95	1	"(889, 669)"	"(888, 687)"	1	0	10609198.53	72	36
20	w	20	l	3	10	95	2	"(261, 181)"	"(250, 187)"	1	0	10609638.03	72	36
20	w	20	l	3	10	95	3	"(261, 638)"	"(264, 635)"	2	0	10610151.65	72	36
20	w	20	l	3	10	95	4	"(922, 433)"	"(918, 439)"	1	0	10610618.62	72	36
20	w	20	l	3	10	95	5	"(572, 88)"	"(590, 83)"	1	0	10611031.18	72	36
20	w	20	l	3	10	95	6	"(884, 76)"	"(929, 73)"	1	0	10611336.90	72	36
20	w	20	l	3	10	95	7	"(103, 437)"	"(150, 443)"	1	0	10611932.98	72	36
20	w	20	l	3	10	95	8	"(570, 692)"	"(560, 698)"	1	0	10612533.74	72	36
20	w	20	l	3	10	95	8	"(570, 692)"	"(560, 698)"	1	    4.20	10612533.74	72	36
20	w	20	l	3	10	96	1	"(889, 669)"	"(872, 655)"	1	0	10615927.27	72	36
20	w	20	l	3	10	96	2	"(261, 181)"	"(261, 185)"	1	0	10616390.15	72	36
20	w	20	l	3	10	96	3	"(261, 638)"	"(258, 615)"	1	0	10616742.37	72	36
20	w	20	l	3	10	96	4	"(922, 433)"	"(946, 450)"	1	0	10617269.59	72	36
20	w	20	l	3	10	96	5	"(572, 88)"	"(565, 100)"	1	0	10617727.98	72	36
20	w	20	l	3	10	96	6	"(884, 76)"	"(906, 78)"	2	0	10618261.50	72	36
20	w	20	l	3	10	96	7	"(103, 437)"	"(94, 454)"	1	0	10618726.14	72	36
20	w	20	l	3	10	96	8	"(570, 692)"	"(580, 702)"	2	0	10619414.44	72	36
20	w	20	l	3	10	96	8	"(570, 692)"	"(580, 702)"	2	    4.11	10619414.44	72	36
20	w	20	l	3	10	97	1	"(889, 669)"	"(926, 689)"	1	0	10621946.98	72	36
20	w	20	l	3	10	97	2	"(261, 181)"	"(250, 158)"	1	0	10622878.07	72	36
20	w	20	l	3	10	97	3	"(261, 638)"	"(250, 616)"	1	0	10623261.48	72	36
20	w	20	l	3	10	97	4	"(922, 433)"	"(920, 435)"	1	0	10623845.49	72	36
20	w	20	l	3	10	97	5	"(572, 88)"	"(601, 82)"	1	0	10624281.09	72	36
20	w	20	l	3	10	97	6	"(884, 76)"	"(874, 83)"	1	0	10624807.07	72	36
20	w	20	l	3	10	97	7	"(103, 437)"	"(109, 438)"	1	0	10625200.88	72	36
20	w	20	l	3	10	97	8	"(570, 692)"	"(524, 679)"	1	0	10625558.77	72	36
20	w	20	l	3	10	97	8	"(570, 692)"	"(524, 679)"	1	    4.46	10625558.77	72	36
20	w	20	l	3	10	98	1	"(889, 669)"	"(876, 688)"	1	0	10627945.34	72	36
20	w	20	l	3	10	98	2	"(261, 181)"	"(260, 212)"	1	0	10628686.98	72	36
20	w	20	l	3	10	98	3	"(261, 638)"	"(262, 622)"	1	0	10629097.25	72	36
20	w	20	l	3	10	98	4	"(922, 433)"	"(946, 458)"	1	0	10629542.79	72	36
20	w	20	l	3	10	98	5	"(572, 88)"	"(578, 97)"	1	0	10629922.02	72	36
20	w	20	l	3	10	98	6	"(884, 76)"	"(859, 96)"	4	0	10631753.78	72	36
20	w	20	l	3	10	98	7	"(103, 437)"	"(111, 459)"	1	0	10632503.64	72	36
20	w	20	l	3	10	98	8	"(570, 692)"	"(591, 702)"	1	0	10633070.76	72	36
20	w	20	l	3	10	98	8	"(570, 692)"	"(591, 702)"	1	    5.89	10633070.76	72	36
20	w	20	l	3	10	99	1	"(889, 669)"	"(872, 678)"	1	0	10636337.11	72	36
20	w	20	l	3	10	99	2	"(261, 181)"	"(252, 197)"	1	0	10636865.11	72	36
20	w	20	l	3	10	99	3	"(261, 638)"	"(234, 613)"	1	0	10637334.77	72	36
20	w	20	l	3	10	99	4	"(922, 433)"	"(927, 433)"	1	0	10637784.07	72	36
20	w	20	l	3	10	99	5	"(572, 88)"	"(535, 81)"	1	0	10638320.47	72	36
20	w	20	l	3	10	99	6	"(884, 76)"	"(931, 79)"	1	0	10638767.99	72	36
20	w	20	l	3	10	99	7	"(103, 437)"	"(84, 439)"	1	0	10639398.31	72	36
20	w	20	l	3	10	99	8	"(570, 692)"	"(573, 678)"	2	0	10640033.20	72	36
20	w	20	l	3	10	99	8	"(570, 692)"	"(573, 678)"	2	    4.27	10640033.20	72	36
20	w	20	l	3	10	100	1	"(889, 669)"	"(921, 676)"	1	0	10643767.22	72	36
20	w	20	l	3	10	100	2	"(261, 181)"	"(252, 198)"	2	0	10645106.82	72	36
20	w	20	l	3	10	100	3	"(261, 638)"	"(278, 659)"	1	0	10645648.06	72	36
20	w	20	l	3	10	100	4	"(922, 433)"	"(942, 436)"	1	0	10646162.81	72	36
20	w	20	l	3	10	100	5	"(572, 88)"	"(597, 91)"	1	0	10646888.71	72	36
20	w	20	l	3	10	100	6	"(884, 76)"	"(849, 75)"	2	0	10647735.16	72	36
20	w	20	l	3	10	100	7	"(103, 437)"	"(93, 429)"	1	0	10648723.24	72	36
20	w	20	l	3	10	100	8	"(570, 692)"	"(591, 656)"	1	0	10649578.45	72	36
20	w	20	l	3	10	100	8	"(570, 692)"	"(591, 656)"	1	    6.63	10649578.45	72	36
