START 430095
ESACC	R	430372	430408	37	507.4	408.3	464.1	245.3	4.726518	185.9	
ESACC	R	430552	430575	24	440.6	235.6	531.5	219.2	2.5597992	214.2	
ESACC	R	430788	430833	46	533.5	226.1	213.1	266.3	8.861756	341.2	
ESACC	R	430961	431001	41	208.2	262.6	95.0	440.7	5.7806263	339.9	
ESACC	R	431194	431301	108	84.8	444.8	251.2	680.6	7.769318	780.6	
ESACC	R	431419	431482	64	255.5	693.4	944.0	431.4	19.639574	556.1	
ESACC	R	431658	431700	43	934.8	452.7	830.2	637.3	5.730106	398.6	
ESACC	R	431881	431922	42	821.7	651.7	608.5	674.1	5.7628984	433.8	
ESACC	R	432058	432170	113	574.4	681.8	663.8	117.1	15.704334	779.1	
ESACC	R	432359	432404	46	636.5	123.8	232.1	218.8	11.377204	530.1	
ESACC	R	432565	432614	50	234.5	216.5	118.5	388.7	5.705809	329.3	
ESACC	R	432795	432861	67	117.4	408.8	874.2	429.0	20.242922	637.5	
ESACC	R	433073	433118	46	883.6	448.9	900.9	636.7	5.1170096	335.0	
ESACC	R	433725	433746	22	881.5	663.7	905.6	667.0	0.6403021	102.8	
ESACC	R	433995	434041	47	905.8	659.3	596.8	404.4	10.85696	392.7	
ESACC	R	434178	434211	34	551.1	399.7	341.2	226.0	7.5631757	391.3	
ESACC	R	434549	434568	20	300.7	231.4	250.2	210.8	1.4949598	151.4	
ESACC	R	434763	434804	42	255.3	213.9	566.7	209.0	8.556046	450.0	
ESACC	R	434996	435034	39	553.0	211.2	921.5	75.7	10.668536	740.9	
ESACC	R	435279	435345	67	912.3	94.7	233.2	530.3	21.778234	802.1	
ESACC	R	435449	435486	38	218.1	538.4	139.8	440.1	3.419274	321.0	
ESACC	R	435604	435638	35	127.6	441.6	303.6	629.2	6.9711313	461.0	
ESACC	R	435795	435841	47	296.5	630.6	314.9	245.0	10.634413	467.0	
ESACC	R	435999	436050	52	288.5	244.7	288.3	630.6	10.616232	414.5	
ESACC	R	436632	436668	37	283.8	621.9	608.0	685.9	8.931717	495.8	
ESACC	R	436806	436857	52	590.4	694.3	101.0	482.0	14.329782	527.9	
ESACC	R	437017	437075	59	108.0	472.8	603.0	201.5	15.376318	640.6	
ESACC	R	437265	437305	41	574.9	211.2	935.9	67.2	10.552896	717.1	
ESACC	R	437436	437488	53	916.3	81.4	958.9	400.2	8.806846	672.8	
ESACC	R	437955	438026	72	954.6	415.8	136.3	449.4	21.782812	644.0	
ESACC	R	438175	438234	60	112.5	448.4	816.8	78.8	21.445646	637.5	
ESACC	R	438361	438390	30	800.2	90.0	607.5	123.3	5.345666	366.1	
ESACC	R	438954	438994	41	552.5	205.0	931.0	64.2	10.960974	757.0	
ESACC	R	439351	439417	67	910.1	87.1	571.5	681.6	18.561796	867.7	
ESACC	R	439564	439600	37	554.4	669.8	248.8	632.9	8.319613	452.2	
ESACC	R	439756	439801	46	252.9	639.7	114.5	456.4	6.210609	387.7	
ESACC	R	440033	440059	27	99.9	454.6	119.5	453.6	0.5219961	117.1	
ESACC	R	440340	440387	48	112.6	458.3	553.3	708.4	13.639376	577.5	
ESACC	R	440654	440674	21	571.7	700.7	605.0	693.9	0.9208147	100.5	
END 441147
START 487261
ESACC	R	487446	487480	35	494.3	399.3	387.9	232.8	5.51831	314.8	
ESACC	R	487606	487633	28	370.0	243.2	231.0	221.8	3.8498318	257.2	
ESACC	R	487759	487801	43	236.1	226.9	114.8	407.6	5.972945	363.9	
ESACC	R	487965	488002	38	103.8	413.2	345.1	653.4	9.208887	569.0	
ESACC	R	488137	488179	43	342.6	649.1	592.3	675.3	6.803985	441.1	
ESACC	R	488324	488364	41	603.4	675.3	930.7	542.6	9.459578	518.2	
ESACC	R	488577	488599	23	911.6	553.4	889.7	619.7	1.8809246	157.7	
ESACC	R	488757	488811	55	895.5	622.0	412.1	239.8	16.747545	549.0	
ESACC	R	488951	488986	36	389.1	247.5	599.5	125.7	6.739531	351.0	
ESACC	R	489135	489195	61	592.5	143.7	236.1	224.9	10.037403	427.4	
ESACC	R	489369	489421	53	230.4	232.5	126.9	491.7	7.673933	454.2	
ESACC	R	489533	489571	39	129.7	497.9	253.4	607.0	4.453702	365.3	
ESACC	R	489998	490060	63	272.3	622.9	727.1	118.9	18.562515	584.2	
ESACC	R	490225	490260	36	709.1	134.8	904.3	93.5	5.39796	319.5	
ESACC	R	490426	490480	55	890.1	109.6	925.7	451.7	9.433223	700.8	
ESACC	R	490754	490795	42	924.3	467.9	621.2	672.2	9.84137	553.9	
ESACC	R	490919	490983	65	617.7	666.8	551.7	138.1	14.676249	485.1	
ESACC	R	491105	491136	32	517.3	199.0	575.7	189.5	1.6373833	214.0	
ESACC	R	491568	491609	42	564.4	215.1	924.8	81.3	10.448366	601.3	
ESACC	R	491944	492019	76	923.5	89.9	134.0	425.1	22.953539	914.3	
ESACC	R	493010	493055	46	108.7	437.6	557.6	698.4	13.980405	604.9	
ESACC	R	493383	493405	23	551.3	696.1	582.8	682.1	0.93355066	122.5	
END 493604
START 500910
ESACC	R	501078	501125	48	521.4	394.9	942.3	196.0	12.656912	572.7	
ESACC	R	501239	501291	53	919.6	240.4	946.6	496.1	7.0419927	308.9	
ESACC	R	501392	501432	41	948.8	511.6	917.7	663.5	4.169932	343.3	
ESACC	R	501691	501755	65	918.7	682.9	296.0	187.9	21.43317	656.1	
ESACC	R	502181	502231	51	270.1	199.7	835.1	107.6	15.544402	763.9	
ESACC	R	502484	502541	58	817.4	115.7	615.9	678.8	16.342964	820.1	
ESACC	R	502718	502768	51	616.5	682.9	257.6	617.6	9.859674	495.9	
ESACC	R	502946	502967	22	235.0	622.9	218.2	585.3	1.1155846	106.5	
ESACC	R	503013	503046	34	211.3	600.7	276.8	614.3	1.7990155	261.7	
ESACC	R	503189	503238	50	289.3	616.8	430.4	216.6	11.708161	412.5	
ESACC	R	503361	503396	36	410.4	219.9	568.9	168.3	4.61149	311.3	
ESACC	R	503574	503622	49	542.0	211.3	933.2	437.4	12.317894	508.4	
ESACC	R	503888	503910	23	911.3	437.1	949.9	419.5	1.132018	136.9	
ESACC	R	504102	504155	54	948.9	416.2	634.0	123.7	11.734882	440.5	
ESACC	R	504652	504698	47	554.2	218.2	921.1	77.8	10.678616	519.1	
ESACC	R	505118	505194	77	906.0	93.5	130.4	445.2	22.847664	946.0	
ESACC	R	505756	505788	33	101.9	461.7	340.5	540.3	6.7758894	465.9	
ESACC	R	505935	505979	45	344.5	538.7	556.5	671.6	6.8230457	492.3	
END 506541
START 512547
ESACC	R	512625	512671	47	507.3	398.3	806.6	501.1	8.649989	472.8	
ESACC	R	512800	512840	41	811.5	501.5	906.7	645.8	4.660496	393.6	
ESACC	R	513377	513437	61	893.2	667.7	575.8	89.9	17.931583	535.2	
ESACC	R	513575	513619	45	528.8	117.1	274.1	209.4	7.4583726	389.7	
ESACC	R	513998	514049	52	262.1	223.9	281.5	603.5	10.484985	395.7	
ESACC	R	514263	514304	42	283.4	608.3	263.4	461.0	4.082839	295.2	
ESACC	R	514489	514522	34	254.8	463.8	296.2	615.2	4.3024955	264.6	
ESACC	R	514730	514785	56	296.4	610.8	678.7	92.8	17.659239	513.3	
ESACC	R	514925	514961	37	655.1	108.8	903.4	84.2	6.754166	324.0	
ESACC	R	515154	515199	46	891.0	97.5	922.7	456.0	9.871555	722.1	
ESACC	R	515302	515352	51	918.9	452.7	583.8	679.8	10.913978	577.0	
ESACC	R	515528	515575	48	568.8	675.5	940.8	398.8	12.51303	539.6	
ESACC	R	516008	516031	24	906.4	415.0	952.3	426.2	1.2571461	163.2	
ESACC	R	516197	516247	51	945.4	431.9	638.9	101.8	12.312117	439.2	
ESACC	R	516617	516624	8	606.7	105.9	614.9	94.8	0.3832695	49.8	
ESACC	R	516809	516848	40	610.9	98.8	921.7	81.4	8.413778	364.7	
ESACC	R	517221	517299	79	905.3	91.3	93.4	418.9	23.384142	911.6	
ESACC	R	517538	517562	25	84.6	428.4	116.9	428.7	0.8590821	130.5	
ESACC	R	517885	517936	52	107.7	429.2	571.6	710.1	14.592597	553.3	
END 518550
START 529135
ESACC	R	529292	529348	57	517.3	396.3	935.3	663.3	13.391541	542.8	
ESACC	R	529777	529842	66	927.5	686.1	310.3	197.4	21.193724	609.5	
ESACC	R	530399	530452	54	285.6	206.1	264.7	630.3	11.68365	390.7	
ESACC	R	530653	530682	30	238.0	633.2	289.2	624.4	1.398678	189.9	
ESACC	R	530925	530988	64	297.0	623.7	995.2	126.2	22.979881	767.2	
ESACC	R	531129	531178	50	980.1	137.5	949.3	446.9	8.492524	755.2	
ESACC	R	531359	531409	51	952.3	463.9	669.3	185.2	10.837891	496.0	
ESACC	R	531669	531693	25	600.2	239.0	596.0	169.2	1.9613589	180.6	
ESACC	R	532009	532050	42	563.4	213.2	923.8	97.7	10.291597	589.2	
ESACC	R	532697	532770	74	900.1	107.7	122.9	469.2	22.976076	964.1	
ESACC	R	532972	532993	22	118.1	463.4	140.7	443.3	0.81747425	100.5	
ESACC	R	533483	533533	51	120.2	448.7	567.9	719.6	14.083623	570.3	
ESACC	R	533906	533926	21	564.3	710.5	589.3	684.9	0.9663699	107.0	
END 533990
START 545033
ESACC	R	545064	545106	43	517.1	401.1	821.2	589.6	9.773066	404.5	
ESACC	R	545249	545282	34	809.8	586.5	903.7	649.0	3.0096772	307.0	
ESACC	R	545920	545985	66	888.7	659.0	313.9	210.1	19.754446	530.4	
ESACC	R	546259	546280	22	294.5	215.2	250.2	200.8	1.2752912	138.9	
ESACC	R	546629	546680	52	248.0	216.5	277.7	668.7	12.415089	401.0	
ESACC	R	546921	546936	16	281.1	659.2	292.1	625.3	0.9641767	84.0	
ESACC	R	547140	547208	69	287.2	627.9	961.4	388.1	19.129204	587.7	
ESACC	R	547662	547714	53	963.3	410.5	644.1	97.1	12.188961	469.9	
ESACC	R	547899	547921	23	599.2	124.1	633.1	91.5	1.3034743	144.7	
ESACC	R	548288	548330	43	620.3	94.7	914.2	76.2	7.970394	387.8	
ESACC	R	548675	548751	77	891.3	84.2	133.3	435.2	22.419973	984.3	
ESACC	R	549078	549097	20	131.1	446.0	159.8	433.2	0.84618545	105.6	
ESACC	R	549201	549255	55	149.3	441.0	558.2	670.8	12.697436	545.7	
ESACC	R	549512	549533	22	551.1	681.6	573.6	646.0	1.1426386	116.2	
END 550008
START 554904
ESACC	R	555108	555153	46	518.0	397.6	898.2	615.7	11.878865	509.8	
ESACC	R	555876	555929	54	892.1	640.9	333.6	216.6	19.003767	562.9	
ESACC	R	556442	556496	55	289.8	221.5	291.9	656.8	11.958926	427.8	
ESACC	R	556663	556684	22	281.1	643.1	299.2	614.5	0.91618216	109.2	
ESACC	R	557002	557060	59	298.0	614.9	959.4	406.7	18.55203	604.1	
ESACC	R	557394	557445	52	949.0	430.1	663.5	114.9	11.620435	426.3	
ESACC	R	558205	558246	42	604.1	154.8	921.1	92.6	8.761867	438.9	
ESACC	R	558797	558869	73	908.2	103.9	163.8	435.1	21.914341	872.0	
ESACC	R	559654	559706	53	136.3	439.8	620.5	714.9	15.00506	587.8	
ESACC	R	559900	559919	20	608.1	712.6	562.8	680.8	1.4966034	142.5	
END 560215
START 564481
ESACC	R	564640	564684	45	498.5	394.6	948.0	494.4	12.440704	516.6	
ESACC	R	564858	564887	30	925.7	506.4	910.0	643.9	3.7342494	272.2	
ESACC	R	565601	565663	63	886.0	649.1	291.8	222.5	19.78304	576.1	
ESACC	R	566167	566215	49	263.3	251.8	270.9	636.7	10.59073	404.3	
ESACC	R	566673	566736	64	261.4	636.2	803.2	87.4	20.93099	586.1	
ESACC	R	566926	566955	30	797.2	98.4	928.0	72.3	3.5794566	280.0	
ESACC	R	567191	567233	43	918.5	95.2	966.6	428.3	9.202184	745.4	
ESACC	R	567473	567485	13	964.1	426.4	932.2	435.9	0.8830338	88.4	
ESACC	R	567744	567802	59	943.2	437.6	662.0	118.3	11.629672	378.3	
ESACC	R	568312	568364	53	560.8	236.1	595.5	680.6	12.282027	382.1	
ESACC	R	568678	568730	53	595.9	670.4	903.4	123.7	17.041637	696.7	
ESACC	R	568968	568988	21	855.4	142.0	906.0	97.0	1.8363366	185.9	
ESACC	R	569567	569635	69	891.8	111.1	91.3	440.8	23.157812	903.6	
ESACC	R	570225	570283	59	101.0	425.5	537.8	639.5	13.134891	576.2	
ESACC	R	570575	570597	23	536.8	654.6	570.9	668.9	1.0057709	140.7	
ESACC	R	570947	570965	19	565.2	672.0	530.8	551.6	3.4255817	219.5	
END 570967
START 574868
ESACC	R	575368	575428	61	860.9	648.0	329.0	208.1	18.744457	558.1	
ESACC	R	575682	575703	22	306.6	204.4	255.4	219.6	1.4619205	149.2	
ESACC	R	576122	576173	52	263.7	224.6	293.4	649.8	11.709089	418.8	
ESACC	R	576818	576878	61	293.0	644.6	958.0	423.2	18.728737	586.2	
ESACC	R	577523	577574	52	924.5	444.1	654.5	100.1	11.975367	442.0	
ESACC	R	577954	577996	43	611.5	96.7	914.2	80.6	8.204249	351.8	
ESACC	R	578271	578330	60	901.7	87.8	349.1	555.8	19.664951	853.9	
ESACC	R	578453	578498	46	337.0	549.4	122.8	459.4	6.280739	360.0	
ESACC	R	578700	578722	23	99.1	457.8	122.5	429.8	0.98863614	106.7	
ESACC	R	578952	579002	51	108.0	430.1	595.9	712.3	15.1573	603.0	
ESACC	R	579206	579216	11	574.5	708.1	562.4	688.6	0.61890686	69.6	
END 579488
START 584082
ESACC	R	584264	584306	43	505.5	397.8	783.2	605.8	9.496298	425.0	
ESACC	R	584529	584567	39	766.3	624.5	914.6	659.8	4.0516014	343.7	
ESACC	R	584944	585002	59	912.4	666.5	274.3	209.7	21.147627	626.7	
ESACC	R	585533	585584	52	246.2	225.5	274.4	654.3	11.78879	419.5	
ESACC	R	585929	585956	28	271.1	644.4	306.7	627.2	1.0667919	153.7	
ESACC	R	586058	586110	53	306.4	631.9	813.5	523.6	14.002265	502.7	
ESACC	R	586306	586335	30	806.3	524.6	932.1	419.6	4.4260044	319.4	
ESACC	R	586859	586906	48	936.3	424.0	668.6	97.9	11.547953	555.0	
ESACC	R	587432	587470	39	626.3	94.9	911.6	79.8	7.7325044	362.6	
ESACC	R	588147	588223	77	900.4	88.1	128.5	409.7	22.430075	930.9	
ESACC	R	588522	588548	27	116.0	422.5	137.9	429.6	0.6165374	129.3	
ESACC	R	588937	588984	48	128.1	436.0	576.2	686.1	13.849322	568.0	
END 589659
START 593851
ESACC	R	594026	594072	47	508.2	393.2	883.6	631.3	12.066909	504.5	
ESACC	R	594454	594521	68	875.0	636.9	260.4	199.2	20.405142	534.7	
ESACC	R	594990	595047	58	254.3	207.9	289.0	591.0	10.610258	408.4	
ESACC	R	595402	595458	57	294.3	612.3	965.3	446.3	18.456175	604.8	
ESACC	R	595784	595799	16	949.1	444.1	960.4	407.5	1.0449255	95.6	
ESACC	R	596141	596193	53	963.9	414.3	631.9	108.0	12.315634	469.4	
ESACC	R	596429	596447	19	591.8	134.3	622.4	101.9	1.2385229	106.0	
ESACC	R	596628	596668	41	609.5	109.3	922.7	75.1	8.517424	402.2	
ESACC	R	597127	597203	77	904.6	86.6	127.1	407.2	22.552053	926.2	
ESACC	R	597697	597720	24	102.7	430.6	141.6	438.9	1.0620321	141.7	
ESACC	R	597953	598000	48	129.1	446.4	568.1	682.0	13.462119	595.6	
END 598497
START 606213
ESACC	R	606348	606392	45	507.6	387.0	846.5	612.3	11.10073	493.1	
ESACC	R	606639	606672	34	847.3	623.9	906.9	632.5	1.5935787	209.2	
ESACC	R	606833	606906	74	918.4	632.1	307.7	231.9	19.741446	523.8	
ESACC	R	607528	607579	52	290.9	244.3	269.1	630.5	10.640986	373.6	
ESACC	R	607879	607948	70	265.6	624.8	980.9	435.3	19.708553	567.6	
ESACC	R	608071	608091	21	968.9	448.1	926.2	411.8	1.5041381	136.1	
ESACC	R	608473	608524	52	929.7	430.4	632.6	106.1	12.039709	450.5	
ESACC	R	608857	608899	43	568.8	157.4	908.0	86.3	9.401036	476.8	
ESACC	R	609461	609528	68	900.4	90.5	129.3	404.9	22.33299	895.4	
ESACC	R	609991	610040	50	129.4	427.1	547.6	694.0	13.396517	534.0	
END 610499
START 614813
ESACC	R	615059	615106	48	513.3	396.7	911.1	658.1	12.871256	509.9	
ESACC	R	615534	615599	66	900.2	656.2	235.6	203.0	21.668627	586.6	
ESACC	R	616089	616150	62	228.7	209.3	289.7	618.3	11.37251	388.7	
ESACC	R	616580	616636	57	295.1	623.6	956.3	414.8	18.57443	579.4	
ESACC	R	617356	617400	45	920.0	438.5	665.0	95.9	11.707567	484.5	
ESACC	R	617886	617925	40	604.3	101.4	929.3	75.9	8.811984	390.1	
ESACC	R	618173	618246	74	908.1	84.4	164.9	397.4	21.65704	913.7	
ESACC	R	618479	618502	24	152.4	411.1	109.8	426.9	1.2191544	142.7	
ESACC	R	618738	618793	56	108.9	442.3	572.0	684.5	14.071046	589.9	
END 619259
START 622550
ESACC	R	622648	622678	31	511.4	397.9	607.5	557.3	5.156994	358.6	
ESACC	R	622723	622762	40	603.3	555.4	689.2	675.8	4.0263333	355.8	
ESACC	R	622944	622977	34	689.1	691.7	934.6	641.2	6.6596565	397.0	
ESACC	R	623310	623384	75	912.1	650.2	283.3	219.5	20.57748	558.5	
ESACC	R	624014	624071	58	249.3	210.1	272.0	604.7	10.887962	399.5	
ESACC	R	624425	624484	60	273.3	624.1	833.5	105.9	20.712627	706.4	
ESACC	R	624732	624758	27	809.7	123.9	911.6	85.3	2.9349747	226.1	
ESACC	R	624954	624998	45	891.7	105.8	953.6	437.6	9.237889	714.4	
ESACC	R	625454	625499	46	941.4	438.0	657.7	116.5	11.728999	445.1	
ESACC	R	625967	626006	40	591.0	142.7	899.3	96.1	8.465622	452.1	
ESACC	R	626553	626616	64	887.3	106.0	122.1	410.3	22.106274	919.3	
ESACC	R	627155	627204	50	117.5	420.7	565.3	659.5	13.702158	570.8	
ESACC	R	627685	627728	44	557.9	678.5	563.1	365.2	8.63203	317.5	
END 627730
START 632886
ESACC	R	633105	633130	26	842.4	682.9	907.9	653.6	1.8995883	211.1	
ESACC	R	633531	633601	71	897.2	658.6	254.3	212.5	21.081682	546.2	
ESACC	R	633972	634025	54	239.9	218.0	281.8	640.6	11.665285	430.7	
ESACC	R	634538	634597	60	278.5	632.2	906.9	393.8	18.062544	558.5	
ESACC	R	634854	634882	29	892.8	408.8	935.2	417.2	1.152502	158.5	
ESACC	R	635080	635129	50	932.6	423.2	638.4	92.0	12.114486	456.2	
ESACC	R	635613	635654	42	592.5	104.0	923.2	73.5	8.977462	419.8	
ESACC	R	635922	635986	65	904.4	87.2	129.3	397.4	22.382738	949.6	
ESACC	R	636701	636749	49	108.2	422.6	550.4	670.4	13.675441	592.9	
ESACC	R	637001	637024	24	530.0	671.4	575.4	674.9	1.2373273	136.0	
END 637163
START 640917
ESACC	R	641055	641100	46	511.6	405.3	896.5	669.0	12.631092	506.2	
ESACC	R	641576	641640	65	894.8	661.5	289.6	223.5	20.178665	560.6	
ESACC	R	642153	642202	50	272.7	243.8	265.4	682.4	12.001627	415.4	
ESACC	R	642390	642413	24	265.2	677.1	293.3	628.5	1.5157326	173.1	
ESACC	R	642612	642679	68	290.8	629.3	956.0	439.1	18.501	582.7	
ESACC	R	642941	642959	19	954.4	439.1	965.6	400.2	1.1045599	108.7	
ESACC	R	643143	643186	44	962.2	407.0	704.4	94.6	11.058712	488.2	
ESACC	R	643694	643736	43	623.3	110.9	922.3	78.1	8.131719	337.8	
ESACC	R	644131	644203	73	913.4	88.8	178.1	443.4	21.965197	936.2	
ESACC	R	644780	644825	46	155.5	457.6	574.1	662.5	12.605813	562.0	
END 645220
START 652031
ESACC	R	652193	652241	49	527.3	405.7	904.7	643.2	12.07076	558.4	
ESACC	R	652760	652826	67	898.7	656.6	298.4	238.7	19.759445	561.8	
ESACC	R	653443	653495	53	285.8	240.5	294.1	653.5	11.348395	370.9	
ESACC	R	653727	653749	23	278.0	648.3	303.8	613.1	1.1815493	131.5	
ESACC	R	653901	653958	58	303.2	616.5	986.0	422.7	18.932999	648.6	
ESACC	R	654483	654539	57	956.7	428.8	631.8	125.2	12.125581	459.6	
ESACC	R	654798	654828	31	583.8	168.1	621.7	107.3	1.9963683	180.2	
ESACC	R	655279	655317	39	612.0	121.3	917.9	73.9	8.381948	454.4	
ESACC	R	655640	655716	77	912.1	80.5	124.3	441.4	23.19905	1021.7	
ESACC	R	655998	656019	22	111.4	446.9	135.7	425.7	0.8712712	107.4	
ESACC	R	656185	656233	49	124.6	437.1	621.1	702.3	15.152307	631.7	
END 656686
START 661726
ESACC	R	661820	661865	46	515.6	408.9	791.2	546.2	8.426886	480.2	
ESACC	R	661922	661963	42	790.8	557.3	925.8	600.7	3.7827032	349.1	
ESACC	R	662666	662730	65	915.1	651.6	264.4	217.0	21.083515	589.1	
ESACC	R	663293	663343	51	266.6	240.4	281.7	619.0	10.4377985	383.1	
ESACC	R	663806	663866	61	283.0	625.4	985.4	386.1	19.8096	566.5	
ESACC	R	664297	664344	48	961.6	408.6	668.5	97.3	11.670341	508.9	
ESACC	R	665024	665061	38	606.0	108.6	899.2	83.5	7.976078	421.1	
ESACC	R	665380	665459	80	899.5	87.7	167.2	425.6	21.703938	917.8	
ESACC	R	665983	666041	59	143.3	444.2	590.1	689.7	13.757644	579.4	
END 666534
START 668646
ESACC	R	668793	668838	46	529.6	405.5	912.9	667.4	12.556199	530.2	
ESACC	R	669284	669358	75	899.8	675.9	292.8	179.7	21.174019	570.0	
ESACC	R	669485	669503	19	276.0	182.1	276.0	227.4	1.2653629	110.8	
ESACC	R	669916	669966	51	273.6	230.9	264.7	656.2	11.670532	400.2	
ESACC	R	670117	670146	30	260.4	653.9	291.7	638.6	0.9385375	174.7	
ESACC	R	670268	670329	62	297.0	639.2	985.4	410.8	19.334618	591.0	
ESACC	R	670910	670968	59	958.9	433.3	653.9	144.6	11.453736	442.2	
ESACC	R	671403	671443	41	596.4	188.1	950.4	81.7	9.99892	589.2	
ESACC	R	671898	671963	66	924.1	96.0	159.1	429.9	22.39235	947.0	
ESACC	R	672525	672571	47	153.9	448.9	580.6	678.5	13.110465	560.4	
ESACC	R	673023	673037	15	575.5	680.7	605.4	586.2	2.700747	120.4	
END 673039
START 677134
ESACC	R	677334	677385	52	518.5	398.6	936.7	644.4	13.09518	502.5	
ESACC	R	677792	677856	65	919.1	645.9	278.6	210.2	20.875546	562.6	
ESACC	R	678425	678482	58	267.0	213.5	292.9	598.1	10.633037	416.5	
ESACC	R	678915	678972	58	296.0	618.4	966.1	416.4	18.72061	575.6	
ESACC	R	679445	679496	52	928.4	427.4	676.9	106.6	11.162952	418.5	
ESACC	R	680062	680097	36	627.6	136.1	887.0	106.0	7.088558	402.9	
ESACC	R	680394	680441	48	880.7	108.8	952.7	430.8	9.039177	623.3	
ESACC	R	680866	680927	62	939.9	440.1	625.5	135.1	11.966346	379.8	
ESACC	R	681477	681519	43	559.9	202.8	910.0	90.4	9.999207	525.9	
ESACC	R	681907	681981	75	893.1	95.3	144.5	413.5	21.871078	883.3	
ESACC	R	682518	682567	50	131.7	426.6	592.3	669.4	14.0720625	577.6	
ESACC	R	683006	683037	32	577.8	680.6	567.7	408.8	7.4824085	352.1	
END 683039
START 688984
ESACC	R	689166	689207	42	520.1	384.6	869.3	586.1	10.982377	523.5	
ESACC	R	689509	689537	29	870.0	606.0	907.5	621.2	1.0745492	149.9	
ESACC	R	689969	690028	60	901.0	640.7	297.8	226.8	19.777912	585.2	
ESACC	R	690484	690536	53	257.8	219.2	314.4	626.7	11.330769	414.0	
ESACC	R	690849	690891	43	305.9	624.7	652.3	612.5	9.393417	499.1	
ESACC	R	690934	690978	45	638.2	616.7	973.4	387.3	10.961353	530.7	
ESACC	R	691529	691575	47	942.4	414.5	668.5	103.0	11.344502	513.5	
ESACC	R	692233	692270	38	622.0	93.4	882.1	90.1	7.0589347	330.8	
ESACC	R	692666	692740	75	876.9	101.1	151.0	456.1	21.774145	888.0	
ESACC	R	693304	693350	47	113.3	440.8	554.6	682.8	13.586332	588.5	
END 693781
START 706713
ESACC	R	706921	706968	48	518.3	401.6	924.3	639.8	12.72432	523.1	
ESACC	R	707454	707525	72	896.7	646.9	258.3	218.1	20.76008	623.7	
ESACC	R	707911	707930	20	236.3	221.4	263.2	222.9	0.73516184	88.8	
ESACC	R	708090	708141	52	259.1	224.5	282.5	643.2	11.520262	413.5	
ESACC	R	708570	708632	63	283.6	637.7	955.6	144.7	22.415094	595.2	
ESACC	R	709116	709156	41	948.3	166.0	630.8	91.2	8.827024	397.2	
ESACC	R	709604	709646	43	598.6	111.2	927.8	77.5	8.945868	411.5	
ESACC	R	709974	710040	67	905.6	87.1	157.8	414.3	21.95181	917.6	
ESACC	R	710570	710614	45	139.4	425.7	567.2	658.7	13.171614	575.3	
ESACC	R	711036	711052	17	559.3	661.1	567.7	543.9	3.2147677	202.3	
END 711054
START 716603
ESACC	R	716780	716824	45	519.0	402.6	872.9	579.8	10.761627	497.6	
ESACC	R	717071	717095	25	874.9	597.6	922.4	630.5	1.5346148	163.1	
ESACC	R	717291	717350	60	914.6	632.1	307.5	242.5	19.500578	603.2	
ESACC	R	717780	717854	75	283.4	243.2	884.2	676.0	19.989815	568.7	
ESACC	R	718087	718108	22	878.6	686.4	918.7	657.9	1.298738	131.2	
ESACC	R	718577	718645	69	907.7	664.7	259.6	227.0	21.064726	589.5	
ESACC	R	719118	719167	50	237.7	231.3	275.0	655.5	11.681559	398.3	
ESACC	R	719653	719724	72	284.7	652.1	973.9	379.7	19.817083	586.6	
ESACC	R	720224	720269	46	952.6	395.1	678.4	89.9	11.2052765	436.4	
ESACC	R	720655	720696	42	607.2	94.9	918.4	73.9	8.442148	354.8	
ESACC	R	721171	721249	79	912.6	75.5	129.6	418.1	22.903313	897.7	
ESACC	R	721920	721971	52	119.4	432.1	578.4	663.9	13.880043	584.9	
END 722511
START 724778
ESACC	R	725050	725105	56	513.9	407.0	886.1	640.4	11.919841	516.0	
ESACC	R	725546	725609	64	879.3	656.1	286.2	201.4	20.212372	604.5	
ESACC	R	726125	726174	50	270.1	218.4	268.8	637.4	11.526877	409.8	
ESACC	R	726634	726701	68	272.4	631.0	1094.2	255.8	23.871695	607.6	
ESACC	R	726884	726908	25	1068.5	278.0	948.2	398.5	4.5499067	437.1	
ESACC	R	727403	727452	50	938.1	411.3	628.0	95.8	12.091398	578.4	
ESACC	R	727685	727706	22	601.8	85.1	627.3	88.2	0.7077667	99.1	
ESACC	R	728208	728246	39	614.5	90.3	925.3	70.7	8.417383	386.6	
ESACC	R	728516	728597	82	899.1	80.7	77.3	441.8	23.959137	904.9	
ESACC	R	728849	728877	29	52.5	447.0	115.4	437.2	1.6876605	228.9	
ESACC	R	729478	729529	52	110.0	449.2	569.7	697.1	14.059803	590.2	
END 729952
START 733811
ESACC	R	734056	734102	47	503.5	402.7	873.0	669.6	12.360617	489.9	
ESACC	R	734528	734590	63	849.8	668.7	286.6	628.7	15.097266	492.0	
ESACC	R	734723	734772	50	276.1	624.6	279.0	224.2	11.015411	452.1	
ESACC	R	735200	735254	55	261.6	242.9	292.9	690.3	12.270121	394.5	
ESACC	R	735425	735447	23	283.6	678.2	310.7	614.4	1.8751949	168.4	
ESACC	R	735671	735727	57	299.7	619.5	941.1	394.9	18.236208	581.4	
ESACC	R	736186	736232	47	940.0	406.0	661.8	96.4	11.380979	497.0	
ESACC	R	736616	736656	41	602.0	97.2	918.5	74.8	8.588013	391.9	
ESACC	R	737111	737189	79	910.2	83.1	136.3	444.6	22.89673	899.2	
ESACC	R	737446	737468	23	124.8	456.4	147.3	433.1	0.8784463	113.4	
ESACC	R	737915	737962	48	129.1	440.5	600.3	680.8	14.274058	586.6	
END 738322
START 741696
ESACC	R	741892	741916	25	871.8	721.0	917.9	652.3	2.1903024	212.0	
ESACC	R	742356	742415	60	910.6	660.6	293.8	234.2	20.218912	599.8	
ESACC	R	742877	742938	62	270.3	218.1	288.0	633.9	11.448871	405.7	
ESACC	R	743262	743322	61	290.9	647.4	977.0	394.1	19.525126	561.8	
ESACC	R	743761	743802	42	940.5	412.3	651.8	99.9	11.627209	520.5	
ESACC	R	744204	744247	44	592.0	88.6	880.1	80.9	7.8210826	360.1	
ESACC	R	744545	744623	79	874.6	82.2	138.1	431.0	21.905947	954.2	
ESACC	R	745206	745255	50	125.4	437.0	581.9	702.0	14.228334	585.2	
ESACC	R	745712	745736	25	574.5	696.2	603.7	662.8	1.2011554	145.3	
END 745738
START 752955
ESACC	R	753084	753131	48	524.6	415.3	909.8	697.0	12.8895235	541.0	
ESACC	R	753349	753372	24	898.1	690.2	927.2	626.7	1.8576163	163.1	
ESACC	R	753587	753650	64	917.1	631.9	249.5	177.2	21.767614	602.0	
ESACC	R	753890	753919	30	242.3	185.1	273.2	195.8	0.89438105	150.6	
ESACC	R	754103	754161	59	271.3	200.7	317.2	617.5	11.565568	414.8	
ESACC	R	754641	754697	57	310.2	634.3	951.7	395.6	18.344158	587.2	
ESACC	R	755225	755272	48	916.7	427.4	658.3	86.8	11.727939	474.8	
ESACC	R	755660	755698	39	612.0	82.1	902.9	88.1	7.8852115	402.7	
ESACC	R	755960	756035	76	899.6	92.0	152.7	424.5	21.965775	939.2	
ESACC	R	756384	756433	50	128.1	434.7	576.6	684.3	13.856564	586.9	
END 756909
START 762884
ESACC	R	763009	763052	44	520.2	404.0	883.3	655.9	11.980983	545.5	
ESACC	R	763549	763609	61	889.9	658.9	319.4	238.8	19.181646	566.5	
ESACC	R	764044	764101	58	286.1	236.6	285.5	609.5	10.286909	438.3	
ESACC	R	764518	764565	48	289.6	612.0	313.9	226.2	10.663336	435.4	
ESACC	R	765099	765149	51	285.9	234.5	288.4	623.6	10.719224	409.6	
ESACC	R	765417	765476	60	277.2	627.8	967.3	387.5	19.5328	599.7	
ESACC	R	765970	766018	49	943.6	408.4	654.2	97.2	11.615322	462.5	
ESACC	R	766426	766465	40	607.6	106.0	899.5	71.7	7.967269	397.8	
ESACC	R	766897	766972	76	890.4	86.7	147.7	438.3	22.11262	877.7	
ESACC	R	767496	767543	48	120.6	441.7	592.2	670.9	14.147536	589.8	
END 767978
START 772124
ESACC	R	772330	772379	50	520.6	392.4	902.8	621.8	12.084052	446.4	
ESACC	R	772808	772873	66	892.2	628.0	267.3	204.1	20.422142	558.3	
ESACC	R	773282	773331	50	242.1	208.6	267.6	614.8	11.196038	415.4	
ESACC	R	773582	773628	47	274.2	610.7	574.1	661.1	8.2308035	510.8	
ESACC	R	773749	773793	45	580.7	667.2	953.8	359.0	13.067883	630.4	
ESACC	R	774054	774094	41	938.5	368.2	631.7	104.8	11.04504	533.2	
ESACC	R	774341	774364	24	589.4	98.6	616.6	96.6	0.7513839	121.2	
ESACC	R	774566	774604	39	612.6	93.0	895.1	77.5	7.6677904	391.4	
ESACC	R	774897	774940	44	883.6	97.9	942.0	423.0	9.053296	652.8	
ESACC	R	775174	775217	44	945.2	425.2	690.3	98.1	11.345755	552.5	
ESACC	R	775770	775806	37	638.2	86.0	898.2	83.8	7.036798	370.0	
ESACC	R	776213	776287	75	884.6	87.7	151.3	429.2	21.76521	922.2	
ESACC	R	776723	776772	50	120.3	433.3	584.3	689.2	14.285158	591.9	
ESACC	R	777037	777049	13	585.0	686.1	595.7	660.6	0.74785995	67.2	
END 777261
START 780861
ESACC	R	781027	781068	42	520.6	393.8	885.9	607.4	11.49672	508.2	
ESACC	R	781529	781552	24	884.6	614.1	938.7	611.9	1.4267871	137.0	
ESACC	R	781679	781736	58	926.5	614.6	299.9	196.3	20.345537	646.1	
ESACC	R	782187	782242	56	284.5	202.7	306.8	593.8	10.820942	466.7	
ESACC	R	782541	782605	65	297.8	606.6	949.8	395.3	18.364231	561.4	
ESACC	R	783023	783067	45	939.2	410.8	662.0	95.2	11.488456	563.8	
ESACC	R	783487	783526	40	606.1	89.4	903.5	80.2	8.063627	401.2	
ESACC	R	783893	783968	76	893.7	92.7	121.8	428.4	22.555622	934.6	
ESACC	R	784385	784434	50	92.3	445.6	553.0	685.3	13.98229	582.8	
ESACC	R	784802	784820	19	546.9	687.9	556.7	551.7	3.7258162	244.0	
END 784822
START 795631
ESACC	R	795794	795845	52	512.6	414.6	932.5	664.0	13.180194	513.0	
ESACC	R	796309	796372	64	915.3	670.8	303.1	212.9	20.616833	592.4	
ESACC	R	796845	796900	56	293.9	234.6	297.9	621.7	10.664468	415.9	
ESACC	R	797294	797360	67	296.5	627.3	964.7	390.8	18.973497	631.9	
ESACC	R	797854	797899	46	946.6	416.8	656.4	97.9	11.780945	476.7	
ESACC	R	798316	798352	37	597.0	106.9	880.4	100.6	7.692624	406.9	
ESACC	R	798647	798719	73	865.1	103.6	147.6	433.9	21.279469	910.9	
ESACC	R	799117	799162	46	130.9	442.5	565.2	659.9	13.123309	615.1	
ESACC	R	799481	799535	55	560.7	663.5	884.8	110.6	17.450592	633.2	
ESACC	R	799779	799798	20	854.9	123.9	880.7	87.4	1.2204436	122.2	
ESACC	R	800166	800240	75	876.8	104.3	130.1	448.4	22.119892	913.2	
ESACC	R	800840	800884	45	116.0	454.0	556.4	654.8	13.074	564.1	
ESACC	R	801128	801158	31	531.5	647.8	575.9	662.7	1.2740302	206.6	
END 801215
START 806096
ESACC	R	806270	806314	45	507.1	400.8	807.1	649.6	10.638486	479.8	
ESACC	R	806578	806612	35	807.9	655.8	902.3	650.0	2.505491	283.6	
ESACC	R	806780	806849	70	910.8	650.3	289.1	212.4	20.5354	588.6	
ESACC	R	807184	807241	58	269.0	226.3	305.3	588.8	10.06241	460.7	
ESACC	R	807509	807572	64	298.2	608.0	904.0	398.3	17.248055	585.0	
ESACC	R	807981	808024	44	903.6	413.7	661.8	107.5	10.703691	622.8	
ESACC	R	808391	808426	36	628.2	101.5	899.7	85.5	7.3710237	419.5	
ESACC	R	808691	808762	72	883.5	92.3	176.6	430.5	21.140867	907.5	
ESACC	R	809206	809252	47	151.6	440.1	583.8	695.3	13.56712	594.6	
END 809729
START 816023
ESACC	R	816181	816227	47	501.7	396.7	895.0	658.0	12.786424	512.5	
ESACC	R	816652	816705	54	891.2	649.2	323.3	244.6	18.87385	616.8	
ESACC	R	817086	817141	56	288.1	246.2	293.5	589.5	9.484568	414.2	
ESACC	R	817361	817426	66	302.1	601.0	944.9	438.8	17.770102	599.1	
ESACC	R	817530	817573	44	932.7	449.5	709.4	97.4	11.415403	523.2	
ESACC	R	817764	817805	42	653.6	113.9	957.1	367.2	10.777527	524.7	
ESACC	R	818140	818187	48	957.5	373.0	689.0	93.7	10.5718775	513.9	
ESACC	R	818578	818615	38	630.3	92.0	892.1	95.7	7.1052146	363.0	
ESACC	R	818823	818887	65	883.5	98.9	142.1	403.8	21.549524	936.2	
ESACC	R	819520	819566	47	140.9	419.8	611.2	674.5	14.456514	600.2	
END 819863
START 826311
ESACC	R	826477	826521	45	506.5	401.5	888.6	607.6	11.777381	541.1	
ESACC	R	826908	826976	69	875.9	627.5	298.5	260.4	18.537783	563.4	
ESACC	R	827322	827379	58	276.7	276.6	296.1	630.0	9.7498	409.5	
ESACC	R	827612	827668	57	295.1	647.1	863.9	348.3	17.356728	648.3	
ESACC	R	827988	828026	39	832.0	369.1	669.4	102.3	8.634469	556.7	
ESACC	R	828430	828467	38	629.5	97.6	895.6	75.7	7.2367125	365.6	
ESACC	R	828817	828855	39	881.7	82.9	595.3	97.1	7.781997	400.9	
ESACC	R	829164	829197	34	577.8	88.3	641.9	95.0	1.7732881	221.8	
ESACC	R	829326	829361	36	642.7	96.7	901.6	80.6	7.020866	384.4	
ESACC	R	829612	829676	65	887.8	85.8	124.4	407.2	22.244501	913.1	
ESACC	R	830142	830190	49	113.2	409.7	582.2	678.1	14.589825	595.9	
ESACC	R	830630	830667	38	570.6	680.4	529.2	357.5	8.967537	407.8	
END 830669
START 834771
ESACC	R	834940	834983	44	516.4	399.2	911.2	613.1	12.164893	590.4	
ESACC	R	835380	835436	57	904.5	621.5	312.7	227.1	19.257317	628.4	
ESACC	R	835780	835837	58	290.4	230.1	285.5	610.3	10.489122	428.3	
ESACC	R	836122	836181	60	285.3	608.0	959.3	350.6	19.34854	588.4	
ESACC	R	836649	836693	45	932.7	368.4	659.8	88.3	10.697491	495.3	
ESACC	R	837070	837108	39	605.9	97.8	905.7	83.6	8.1341505	377.2	
ESACC	R	837353	837427	75	894.3	89.7	178.1	456.5	21.66838	896.8	
ESACC	R	837880	837928	49	156.3	466.8	601.4	668.9	13.218618	559.0	
END 838289
START 843260
ESACC	R	843421	843464	44	507.3	398.5	867.5	650.7	11.937977	548.5	
ESACC	R	843811	843869	59	833.6	640.6	290.7	241.7	18.304697	526.0	
ESACC	R	844367	844413	47	292.0	245.1	277.8	614.2	10.175364	411.6	
ESACC	R	844663	844720	58	276.9	618.7	941.0	397.6	18.756153	571.8	
ESACC	R	845188	845235	48	926.9	417.6	650.6	95.2	11.631954	584.8	
ESACC	R	845697	845735	39	616.6	95.7	933.9	80.8	8.585522	388.8	
ESACC	R	846068	846143	76	920.4	92.5	154.1	472.0	22.958467	949.4	
ESACC	R	846631	846678	48	135.0	477.9	608.3	704.7	14.118199	580.9	
END 847071
START 851241
ESACC	R	851427	851471	45	521.9	393.9	901.5	602.8	11.755541	493.2	
ESACC	R	851855	851910	56	901.4	607.2	324.1	235.6	18.610567	594.0	
ESACC	R	852386	852443	58	290.1	244.2	329.0	599.8	9.88038	423.0	
ESACC	R	852651	852706	56	320.1	608.5	933.4	378.2	17.628939	565.0	
ESACC	R	853153	853195	43	921.3	396.6	656.5	102.0	10.845806	646.6	
ESACC	R	853695	853743	49	628.2	93.2	981.8	390.6	12.565963	532.2	
ESACC	R	854155	854203	49	948.4	405.5	663.0	97.8	11.464205	487.1	
ESACC	R	854563	854601	39	611.8	94.2	883.9	90.3	7.3847785	383.4	
ESACC	R	855181	855249	69	877.5	98.1	130.3	453.0	22.23666	906.9	
ESACC	R	855990	856041	52	131.4	453.5	611.7	721.3	14.816041	579.3	
ESACC	R	856270	856279	10	596.7	705.4	597.4	682.8	0.60945994	68.9	
END 856687
START 861970
ESACC	R	862117	862161	45	514.3	412.8	921.7	621.8	12.384373	516.1	
ESACC	R	862523	862583	61	906.5	640.8	266.6	215.6	20.719002	613.5	
ESACC	R	862949	863009	61	252.9	218.6	324.2	621.2	11.258871	431.0	
ESACC	R	863187	863242	56	323.6	636.4	961.8	411.4	18.110645	630.3	
ESACC	R	863428	863481	54	943.6	430.3	286.8	203.8	18.757084	586.5	
ESACC	R	864134	864190	57	261.1	220.7	276.8	638.3	11.496206	422.4	
ESACC	R	864476	864538	63	269.2	643.5	910.6	371.4	18.708857	596.4	
ESACC	R	864970	865016	47	903.4	391.3	674.7	85.9	10.482272	442.6	
ESACC	R	865437	865484	48	630.8	99.4	940.6	412.4	12.036073	518.7	
ESACC	R	866399	866451	53	926.7	411.6	638.0	82.0	12.000507	402.1	
ESACC	R	866968	867009	42	607.8	93.3	908.4	70.7	8.15924	385.0	
ESACC	R	867493	867558	66	893.6	75.7	164.2	415.6	21.65202	849.7	
ESACC	R	868080	868126	47	161.5	411.9	627.8	698.9	14.802974	549.8	
ESACC	R	868627	868678	52	584.3	686.7	556.1	353.9	9.187975	321.7	
END 868680
START 870657
ESACC	R	870947	870993	47	510.7	400.5	903.9	612.1	12.096676	479.3	
ESACC	R	871376	871438	63	892.3	626.9	300.3	226.0	19.353952	590.3	
ESACC	R	871859	871916	58	286.3	228.6	304.0	624.6	10.919717	435.0	
ESACC	R	872321	872379	59	293.9	632.9	976.5	378.6	19.476917	584.4	
ESACC	R	872813	872856	44	956.3	396.0	655.2	93.7	11.644922	594.9	
ESACC	R	873245	873284	40	613.3	90.4	920.9	78.0	8.320568	392.9	
ESACC	R	873625	873691	67	905.8	81.2	144.9	389.2	22.01377	863.3	
ESACC	R	874253	874305	53	148.7	398.3	638.6	694.7	15.463686	637.8	
ESACC	R	874528	874548	21	618.2	686.7	576.7	673.8	1.1787817	121.6	
END 874688
START 880378
ESACC	R	880516	880561	46	533.4	417.5	853.7	686.2	11.350661	526.6	
ESACC	R	880758	880791	34	856.2	690.0	918.3	657.6	1.8504543	219.5	
ESACC	R	881080	881145	66	924.5	656.2	317.7	640.0	16.165653	533.9	
ESACC	R	881292	881336	45	302.1	638.5	324.4	247.8	10.780223	457.1	
ESACC	R	881658	881733	76	279.9	245.9	892.4	596.8	19.09869	610.0	
ESACC	R	882114	882173	60	879.1	616.6	303.9	221.7	18.922844	567.4	
ESACC	R	882521	882576	56	288.8	222.6	294.7	659.5	12.003818	376.3	
ESACC	R	882819	882883	65	290.5	654.6	914.2	102.3	22.465702	763.9	
ESACC	R	883183	883228	46	900.6	114.0	962.9	400.9	8.042658	738.6	
ESACC	R	883503	883550	48	956.9	413.3	626.8	77.4	12.847327	496.0	
ESACC	R	883844	883870	27	580.6	86.0	617.9	82.3	1.0327053	160.3	
ESACC	R	883967	884019	53	618.2	93.2	964.5	409.8	12.783075	508.1	
ESACC	R	884943	884992	50	937.5	403.9	611.7	93.9	12.291147	468.9	
ESACC	R	885200	885222	23	584.8	90.7	627.7	81.8	1.2060213	156.3	
ESACC	R	885493	885529	37	618.0	87.1	890.4	83.0	7.393001	373.4	
ESACC	R	886031	886107	77	881.2	88.3	152.6	429.8	21.651766	884.4	
ESACC	R	886599	886647	49	140.9	446.7	583.7	667.4	13.368398	582.4	
ESACC	R	887160	887192	33	582.2	667.3	581.5	384.2	7.79892	392.6	
END 887194
START 890731
ESACC	R	891141	891191	51	515.2	400.2	939.6	618.8	12.898658	494.2	
ESACC	R	891622	891696	75	928.9	625.0	292.8	202.9	20.596003	571.9	
ESACC	R	892408	892464	57	279.9	221.3	299.7	662.6	12.118946	422.3	
ESACC	R	892638	892654	17	299.3	649.7	298.6	621.1	0.77529895	77.4	
ESACC	R	892867	892926	60	291.0	624.6	974.5	396.9	19.253714	627.5	
ESACC	R	893384	893430	47	947.2	425.8	654.3	85.4	12.278088	558.6	
ESACC	R	894077	894119	43	614.8	80.9	906.8	64.2	7.9160256	349.7	
ESACC	R	894737	894797	61	892.2	77.4	168.3	411.6	21.451626	902.1	
ESACC	R	895325	895340	16	137.8	430.7	108.5	449.0	0.9291051	88.3	
ESACC	R	895631	895683	53	110.5	446.1	593.3	683.1	14.476835	565.6	
ESACC	R	896106	896154	49	577.2	684.6	567.4	378.0	8.438923	346.1	
END 896156
START 905716
ESACC	R	905799	905847	49	522.5	392.9	868.2	576.5	10.646682	486.6	
ESACC	R	906301	906354	54	863.8	596.7	353.3	246.5	16.843311	587.4	
ESACC	R	906809	906854	46	308.9	236.8	311.7	593.6	9.87028	406.2	
ESACC	R	907116	907181	66	306.1	596.3	961.8	389.8	18.419939	581.5	
ESACC	R	907428	907485	58	944.9	416.3	260.3	197.7	19.368645	586.2	
ESACC	R	907982	908036	55	248.4	217.2	278.2	626.9	11.2844305	397.6	
ESACC	R	908383	908444	62	265.6	627.4	978.8	438.4	19.651093	566.1	
ESACC	R	908635	908653	19	948.9	444.5	926.7	415.1	0.9977739	93.5	
ESACC	R	908844	908891	48	933.7	423.5	638.3	94.2	12.096221	489.0	
ESACC	R	909456	909496	41	589.5	99.0	897.8	75.3	8.380695	380.7	
ESACC	R	909845	909922	78	886.6	89.8	120.3	433.3	22.533192	850.0	
ESACC	R	910578	910629	52	90.6	439.9	551.6	691.9	14.129535	590.4	
ESACC	R	911015	911045	31	555.1	696.2	594.2	690.6	1.0703187	178.7	
END 911100
START 914317
ESACC	R	914416	914452	37	510.9	393.5	834.0	543.1	9.717099	491.4	
ESACC	R	914675	914710	36	827.3	552.5	902.8	608.2	2.513307	255.3	
ESACC	R	914853	914917	65	915.5	608.8	312.7	219.6	19.424175	620.1	
ESACC	R	915415	915473	59	288.8	217.9	312.9	607.9	10.778644	450.5	
ESACC	R	915733	915801	69	296.2	625.1	970.4	396.8	19.049908	632.3	
ESACC	R	916362	916410	49	953.6	418.0	645.1	100.9	12.077958	581.2	
ESACC	R	916780	916815	36	611.6	95.1	888.1	77.8	7.518638	399.3	
ESACC	R	917091	917166	76	879.5	76.8	130.2	444.6	22.438591	924.9	
ESACC	R	917584	917633	50	107.0	453.5	598.7	732.5	15.176363	628.1	
ESACC	R	917830	917850	21	579.9	728.8	565.0	665.9	1.7406194	147.2	
END 918580
START 927060
ESACC	R	927157	927194	38	502.0	401.5	831.3	595.6	10.424243	523.1	
ESACC	R	927577	927632	56	815.4	601.0	299.3	229.2	17.335745	572.4	
ESACC	R	928019	928075	57	285.7	226.7	268.2	595.7	10.190443	407.3	
ESACC	R	928320	928372	53	274.7	611.3	834.4	138.8	19.905983	692.3	
ESACC	R	928647	928697	51	829.5	138.1	939.1	406.7	7.9600616	686.0	
ESACC	R	928958	929000	43	927.9	427.2	675.2	107.2	11.165173	552.9	
ESACC	R	929550	929586	37	631.4	95.0	876.1	88.3	6.643019	346.4	
ESACC	R	929862	929895	34	864.2	90.6	620.0	96.2	6.637683	399.3	
ESACC	R	930219	930255	37	620.0	91.2	885.0	87.5	7.1920447	388.4	
ESACC	R	930730	930804	75	879.1	90.3	124.0	462.5	22.601137	929.8	
ESACC	R	931006	931071	66	117.1	457.5	899.8	111.8	22.92577	726.0	
ESACC	R	931266	931288	23	863.8	126.2	895.7	100.8	1.1041164	132.3	
ESACC	R	931503	931573	71	893.1	113.1	113.3	430.1	22.57026	853.7	
ESACC	R	932032	932082	51	108.6	440.9	561.1	691.5	13.926183	552.8	
ESACC	R	932331	932354	24	542.1	693.8	584.7	672.0	1.2971636	142.5	
END 932524
START 939253
ESACC	R	939476	939526	51	515.2	388.7	917.2	660.3	13.12104	501.1	
ESACC	R	939925	939990	66	887.7	678.1	254.3	220.9	21.052563	593.6	
ESACC	R	940429	940479	51	246.6	227.3	280.9	621.9	10.895296	409.8	
ESACC	R	940874	940925	52	274.1	618.5	282.1	206.2	11.360208	411.8	
ESACC	R	941340	941390	51	261.0	217.8	277.2	642.5	11.675861	413.6	
ESACC	R	941846	941905	60	278.1	622.4	967.1	383.3	19.497187	602.7	
ESACC	R	942394	942443	50	938.4	396.8	625.1	87.4	12.039621	448.6	
ESACC	R	942839	942880	42	574.7	97.6	901.2	55.9	8.911036	407.3	
ESACC	R	943342	943423	82	884.9	73.4	101.3	459.6	23.403885	919.2	
ESACC	R	943577	943594	18	86.1	458.4	97.1	433.5	0.741112	78.6	
ESACC	R	943920	943945	26	89.6	438.6	112.1	431.8	0.6268105	110.2	
ESACC	R	944054	944104	51	113.4	441.4	564.3	670.3	13.646042	551.7	
END 944454
START 947936
ESACC	R	948237	948284	48	498.7	399.3	882.5	609.2	11.880332	491.2	
ESACC	R	948630	948700	71	878.0	625.5	271.7	229.2	19.583755	596.0	
ESACC	R	949043	949094	52	244.7	222.6	289.7	579.1	9.910213	504.3	
ESACC	R	949327	949392	66	281.1	589.8	935.3	401.1	18.262436	651.0	
ESACC	R	949729	949771	43	936.0	411.2	651.1	95.0	11.637308	524.1	
ESACC	R	950132	950172	41	590.2	90.5	902.6	75.2	8.476696	415.5	
ESACC	R	950443	950479	37	884.6	77.6	602.9	86.3	7.648291	402.6	
ESACC	R	950894	950935	42	581.6	82.1	919.4	71.7	9.134237	419.1	
ESACC	R	951455	951530	76	891.8	83.2	105.6	427.2	22.971468	913.6	
ESACC	R	951747	951778	32	84.6	436.8	119.5	437.3	0.92829293	197.5	
ESACC	R	952085	952133	49	104.8	446.2	555.5	683.3	13.726325	543.4	
ESACC	R	952514	952561	48	538.1	684.5	541.0	380.1	8.374518	365.9	
END 952869
START 958310
ESACC	R	958466	958512	47	496.2	399.5	909.4	626.9	12.761575	548.5	
ESACC	R	958838	958902	65	890.8	622.2	264.4	209.9	20.276571	578.4	
ESACC	R	959305	959361	57	266.4	227.8	260.7	581.5	9.771947	430.9	
ESACC	R	959638	959706	69	260.6	605.6	924.6	423.1	18.463829	596.7	
ESACC	R	959972	959994	23	917.8	435.3	950.3	396.8	1.3622608	143.5	
ESACC	R	960154	960197	44	952.9	403.5	631.4	88.5	12.280651	542.4	
ESACC	R	960591	960631	41	587.5	80.1	909.9	76.7	8.725811	404.0	
ESACC	R	960988	961053	66	888.4	83.8	116.9	439.4	22.799799	910.8	
ESACC	R	961390	961420	31	112.3	452.8	151.5	447.8	1.0556791	188.9	
ESACC	R	961573	961626	54	153.9	456.1	595.9	677.8	13.357751	592.8	
ESACC	R	962153	962323	171	586.5	697.7	555.9	403.4	8.128395	1030.2	
END 962325
START 965768
ESACC	R	965959	966011	53	505.7	392.2	885.6	637.8	12.275961	492.6	
ESACC	R	966467	966527	61	877.6	647.1	290.8	239.5	19.335436	554.0	
ESACC	R	967110	967161	52	267.5	251.6	262.0	660.4	11.216352	443.0	
ESACC	R	967384	967406	23	277.9	660.0	307.2	637.7	0.9934625	157.3	
ESACC	R	967509	967567	59	305.6	634.0	964.5	390.3	18.80551	603.5	
ESACC	R	967928	967978	51	949.1	406.5	648.1	97.3	11.780504	423.1	
ESACC	R	968222	968271	50	610.4	125.0	989.3	409.3	12.861687	534.0	
ESACC	R	968463	968515	53	979.5	411.4	629.9	97.0	12.797663	492.9	
ESACC	R	968736	968765	30	582.7	103.4	629.8	89.5	1.354212	202.2	
ESACC	R	968881	968920	40	629.8	90.5	926.2	94.0	8.0113945	381.4	
ESACC	R	969152	969223	72	907.1	93.5	190.7	426.1	21.274595	895.6	
ESACC	R	969667	969712	46	163.5	433.6	574.7	669.5	12.847287	582.8	
END 970138
START 974879
ESACC	R	975101	975150	50	497.9	386.6	932.8	665.0	13.9551525	520.3	
ESACC	R	975531	975598	68	904.5	653.9	286.2	202.7	20.675875	565.9	
ESACC	R	976152	976202	51	286.8	225.5	312.0	639.0	11.396165	409.8	
ESACC	R	976574	976630	57	308.8	645.5	965.8	391.8	18.856232	660.3	
ESACC	R	976962	977004	43	941.7	413.5	713.8	103.9	10.515539	533.5	
ESACC	R	977554	977592	39	655.1	90.6	922.5	77.9	7.2257724	347.2	
ESACC	R	978023	978060	38	913.3	85.3	626.3	88.5	7.7677565	403.2	
ESACC	R	978388	978428	41	603.5	78.4	927.6	81.1	8.759775	406.4	
ESACC	R	978727	978797	71	903.2	88.9	177.8	433.0	21.629255	905.0	
ESACC	R	979259	979305	47	143.1	433.0	584.5	696.0	13.889092	608.2	
ESACC	R	979772	979821	50	571.7	696.5	542.0	337.0	9.923376	338.9	
END 979873
START 983304
ESACC	R	983479	983521	43	509.8	394.3	863.3	606.3	11.215604	506.4	
ESACC	R	984067	984128	62	849.2	635.5	277.9	654.3	15.283804	543.4	
ESACC	R	984346	984392	47	265.1	649.1	298.0	240.0	11.289827	457.0	
ESACC	R	984833	984881	49	274.4	243.6	303.9	624.2	10.515449	415.1	
ESACC	R	985130	985183	54	292.0	611.3	312.0	211.2	11.065912	400.4	
ESACC	R	985628	985679	52	289.8	223.2	302.9	625.6	11.091129	396.5	
ESACC	R	986077	986136	60	273.6	631.6	975.1	380.0	19.899927	632.3	
ESACC	R	986476	986528	53	954.9	400.1	681.4	88.2	11.332941	446.6	
ESACC	R	987143	987183	41	617.5	94.4	902.0	68.9	7.7421393	344.7	
ESACC	R	987597	987675	79	888.3	79.3	142.3	386.4	21.691065	841.1	
ESACC	R	988137	988186	50	126.7	397.4	581.5	671.0	14.35293	571.4	
END 988580
START 991776
ESACC	R	992054	992100	47	506.8	399.0	911.4	621.2	12.493796	496.7	
ESACC	R	992529	992592	64	900.6	638.8	266.7	201.5	20.802433	579.4	
ESACC	R	993063	993111	49	262.5	215.6	291.9	601.3	10.6699505	409.7	
ESACC	R	993356	993414	59	285.3	605.1	980.1	374.5	19.569967	588.8	
ESACC	R	993558	993604	47	950.8	390.6	655.6	98.6	11.330358	559.8	
ESACC	R	993752	993809	58	623.0	95.1	1003.2	268.6	11.288415	547.3	
ESACC	R	994152	994194	43	923.1	365.5	673.4	92.3	10.139865	530.6	
ESACC	R	994554	994593	40	630.3	86.5	904.4	66.0	7.4297223	374.4	
ESACC	R	995075	995112	38	888.1	79.6	613.7	89.3	7.4512367	411.1	
ESACC	R	995519	995557	39	604.6	85.1	924.8	73.9	8.659568	410.7	
ESACC	R	995815	995895	81	907.1	79.4	121.0	411.8	22.839766	916.5	
ESACC	R	996535	996594	60	97.6	427.8	568.7	676.8	14.362588	576.4	
ESACC	R	996998	997028	31	575.1	675.7	531.2	414.1	7.29651	357.8	
END 997030
START 1017561
ESACC	R	1017716	1017762	47	505.1	393.6	908.7	658.3	13.063367	506.0	
ESACC	R	1018083	1018159	77	908.7	657.4	306.0	260.6	19.494385	546.8	
ESACC	R	1018628	1018679	52	276.5	246.6	283.7	651.1	11.114353	418.9	
ESACC	R	1018945	1019007	63	270.2	635.4	741.3	106.8	19.332537	593.9	
ESACC	R	1019140	1019192	53	733.2	131.5	957.1	386.6	9.26746	512.7	
ESACC	R	1019388	1019437	50	944.5	406.0	653.0	88.0	11.785698	425.4	
ESACC	R	1019929	1019977	49	612.9	111.1	926.9	419.7	12.053712	513.3	
ESACC	R	1020630	1020695	66	931.1	432.5	615.6	114.2	12.257154	421.2	
ESACC	R	1020861	1020892	32	538.2	189.4	590.0	131.7	2.161675	249.6	
ESACC	R	1021211	1021251	41	610.5	115.1	904.2	87.6	7.9956203	424.7	
ESACC	R	1021655	1021727	73	887.5	91.8	144.7	410.2	21.73108	931.9	
ESACC	R	1022569	1022619	51	120.9	423.8	573.3	674.7	13.96543	588.1	
ESACC	R	1023215	1023264	50	569.1	682.4	149.0	467.0	12.754143	441.0	
ESACC	R	1023777	1023832	56	124.5	447.5	565.3	678.6	13.432802	574.0	
ESACC	R	1024337	1024389	53	571.2	683.9	956.8	390.4	13.05246	614.3	
ESACC	R	1024591	1024629	39	946.1	391.4	935.5	73.4	8.70494	751.9	
ESACC	R	1025264	1025345	82	898.9	88.2	104.4	412.7	22.959846	881.8	
ESACC	R	1025550	1025612	63	90.4	418.6	593.9	162.0	15.369003	593.5	
ESACC	R	1026302	1026342	41	559.8	190.8	899.8	78.6	9.749268	503.2	
ESACC	R	1026589	1026688	100	888.4	89.6	957.6	400.3	8.720426	651.2	
ESACC	R	1026919	1026928	10	942.2	426.5	938.8	407.9	0.5174874	58.1	
ESACC	R	1027355	1027535	181	946.9	409.2	291.0	517.7	17.8353	1241.7	
ESACC	R	1027678	1027715	38	300.1	532.9	255.8	617.2	2.5986798	296.6	
ESACC	R	1027949	1027992	44	238.8	631.5	545.9	673.1	8.364706	524.3	
END 1028410
START 1034266
ESACC	R	1034451	1034498	48	510.0	395.5	852.9	620.8	11.165331	500.9	
ESACC	R	1034961	1034989	29	857.7	631.2	900.1	610.0	1.2615103	179.6	
ESACC	R	1035055	1035111	57	900.4	617.4	290.3	217.6	19.721947	608.3	
ESACC	R	1035536	1035598	63	271.1	212.3	907.4	421.2	18.122784	629.6	
ESACC	R	1035726	1035787	62	899.3	434.2	304.6	612.2	16.711893	646.7	
ESACC	R	1036032	1036079	48	286.7	631.5	287.7	208.9	11.625892	464.8	
ESACC	R	1036378	1036429	52	272.3	229.3	327.3	668.6	12.160621	465.5	
ESACC	R	1036858	1036918	61	309.6	660.4	982.4	371.1	19.57051	592.9	
ESACC	R	1037341	1037384	44	938.4	396.3	661.9	109.9	10.883997	463.5	
ESACC	R	1037831	1037874	44	623.0	108.7	922.9	62.9	8.203555	402.3	
ESACC	R	1038299	1038378	80	907.5	75.6	118.6	424.6	23.088257	945.9	
ESACC	R	1038811	1038868	58	97.5	437.0	578.5	678.8	14.507885	626.8	
ESACC	R	1039353	1039371	19	560.5	689.9	552.1	544.6	3.9711502	258.5	
END 1039373
START 1048187
ESACC	R	1048330	1048385	56	518.5	393.9	905.7	678.8	13.0022545	517.8	
ESACC	R	1048759	1048825	67	897.0	680.0	272.1	202.9	21.205538	631.8	
ESACC	R	1049241	1049299	59	258.7	201.4	298.7	600.9	11.059201	399.6	
ESACC	R	1049591	1049656	66	307.6	625.4	959.8	387.3	18.609325	608.7	
ESACC	R	1050137	1050177	41	940.6	402.8	650.9	94.9	11.553494	606.7	
ESACC	R	1050488	1050541	54	605.7	85.4	949.1	369.5	12.161459	553.2	
ESACC	R	1051310	1051445	136	941.2	389.1	638.5	116.2	11.138986	1144.3	
ESACC	R	1052064	1052104	41	617.0	97.3	912.0	66.6	8.028679	373.0	
ESACC	R	1052513	1052591	79	894.4	79.6	142.7	435.0	22.344967	902.0	
ESACC	R	1053080	1053129	50	112.6	449.3	553.8	689.9	13.528982	609.5	
ESACC	R	1053507	1053570	64	542.3	694.8	512.0	370.1	8.97109	353.3	
END 1053572
START 1060140
ESACC	R	1060340	1060390	51	515.1	394.5	903.8	633.5	12.36695	479.0	
ESACC	R	1060846	1060907	62	901.3	637.7	277.3	215.4	20.349802	579.3	
ESACC	R	1061541	1061591	51	248.9	213.9	278.8	621.6	11.245188	398.9	
ESACC	R	1061991	1062060	70	272.5	625.8	938.3	429.8	18.585966	594.2	
ESACC	R	1062664	1062713	50	929.4	427.9	642.8	83.0	12.272468	487.0	
ESACC	R	1063362	1063403	42	587.2	84.8	902.2	71.7	8.544251	390.8	
ESACC	R	1063747	1063824	78	891.7	73.4	152.4	395.1	21.68225	902.6	
ESACC	R	1064493	1064537	45	125.4	418.6	541.8	641.4	12.785553	583.4	
END 1064970
START 1070861
ESACC	R	1071113	1071161	49	487.1	398.4	926.2	622.9	13.324228	486.5	
ESACC	R	1071577	1071636	60	903.8	635.0	292.1	228.9	19.84541	582.3	
ESACC	R	1072249	1072299	51	279.0	233.5	278.0	625.3	10.778576	372.6	
ESACC	R	1072666	1072722	57	276.8	629.3	949.5	407.9	18.948591	617.2	
ESACC	R	1073009	1073030	22	930.1	422.7	961.9	407.9	0.9338902	121.3	
ESACC	R	1073224	1073270	47	955.8	413.6	645.5	77.8	12.490124	521.9	
ESACC	R	1073547	1073570	24	586.0	74.7	633.1	79.9	1.3038062	165.5	
ESACC	R	1073806	1073845	40	621.4	85.6	924.8	72.7	8.207717	356.2	
ESACC	R	1074165	1074241	77	910.1	84.5	175.8	421.1	21.731583	894.1	
ESACC	R	1074725	1074777	53	148.7	436.1	599.8	700.7	14.116809	574.8	
END 1075237
START 1079534
ESACC	R	1079725	1079776	52	503.9	395.2	889.0	628.8	12.222977	498.3	
ESACC	R	1080270	1080336	67	884.7	635.7	291.1	243.8	19.242636	535.5	
ESACC	R	1080814	1080872	59	272.5	245.7	251.2	638.7	10.812123	397.7	
ESACC	R	1081049	1081070	22	241.1	650.8	255.7	617.1	0.99269605	114.4	
ESACC	R	1081388	1081447	60	249.3	623.2	935.1	436.8	19.00371	571.3	
ESACC	R	1081913	1081935	23	914.9	434.1	945.9	408.5	1.0813957	116.5	
ESACC	R	1082111	1082156	46	942.2	409.6	646.2	94.0	11.825182	525.6	
ESACC	R	1082704	1082743	40	604.0	83.5	889.6	74.3	7.7440076	355.8	
ESACC	R	1083109	1083181	73	881.9	79.6	127.2	388.1	21.89123	879.8	
ESACC	R	1083698	1083748	51	117.0	400.7	576.4	669.6	14.383962	600.0	
END 1084091
START 1086790
ESACC	R	1087055	1087100	46	511.3	397.7	952.4	475.4	12.09747	519.0	
ESACC	R	1087253	1087292	40	932.8	482.5	901.1	578.2	2.729062	259.1	
ESACC	R	1087600	1087661	62	886.4	618.3	294.4	231.3	19.140402	567.5	
ESACC	R	1088196	1088253	58	270.1	244.5	270.1	615.9	10.231406	421.5	
ESACC	R	1088616	1088676	61	267.9	635.3	954.1	432.1	19.092476	611.3	
ESACC	R	1089124	1089173	50	933.1	445.3	632.2	103.1	12.4797325	586.7	
ESACC	R	1089633	1089672	40	603.1	96.6	895.6	84.0	7.9345093	366.7	
ESACC	R	1089948	1090024	77	881.8	86.9	155.7	459.8	21.974535	885.4	
ESACC	R	1090318	1090334	17	124.8	448.2	86.7	442.8	1.0240709	97.9	
ESACC	R	1090565	1090617	53	90.8	435.3	579.6	690.7	14.828891	602.6	
END 1091004
START 1094062
ESACC	R	1094231	1094276	46	512.0	399.2	867.2	644.0	11.721408	518.0	
ESACC	R	1094718	1094782	65	869.9	643.0	277.6	199.8	20.013693	558.8	
ESACC	R	1095156	1095213	58	255.8	195.9	280.3	585.0	10.754364	385.9	
ESACC	R	1095595	1095650	56	280.2	610.1	918.0	434.0	17.761465	624.1	
ESACC	R	1096130	1096174	45	907.4	426.2	647.1	104.4	11.3520565	491.6	
ESACC	R	1096619	1096659	41	604.6	97.1	905.0	78.6	8.145998	373.6	
ESACC	R	1096958	1097035	78	888.5	81.1	111.2	418.2	22.728043	877.8	
ESACC	R	1097587	1097638	52	102.3	437.4	582.0	697.6	14.691262	618.9	
END 1097981
START 1101113
ESACC	R	1101820	1101862	43	504.9	397.7	258.7	214.4	8.487464	334.9	
ESACC	R	1102331	1102384	54	250.2	211.9	290.9	629.7	11.531039	385.4	
ESACC	R	1102810	1102869	60	289.2	631.2	970.7	366.7	19.550245	590.1	
ESACC	R	1103258	1103299	42	950.1	387.3	684.9	105.7	10.558072	535.5	
ESACC	R	1103743	1103779	37	620.3	100.2	899.0	69.8	7.599517	367.4	
ESACC	R	1104081	1104150	70	886.3	76.0	137.4	471.6	22.776207	869.8	
ESACC	R	1104556	1104579	24	116.3	470.2	144.8	448.2	0.9705115	133.5	
ESACC	R	1104709	1104756	48	135.3	456.7	577.8	671.0	13.28339	584.8	
ESACC	R	1105162	1105204	43	571.5	665.8	581.1	371.7	8.106195	375.8	
END 1105206
START 1108539
ESACC	R	1108703	1108753	51	511.2	390.0	951.2	674.2	14.11095	543.2	
ESACC	R	1109001	1109067	67	944.2	661.3	251.9	206.6	22.224012	613.9	
ESACC	R	1109463	1109521	59	235.3	213.7	307.7	601.5	10.86284	429.0	
ESACC	R	1109821	1109877	57	308.6	612.7	971.6	402.4	18.632807	614.5	
ESACC	R	1110272	1110312	41	944.8	414.6	663.8	93.9	11.655526	552.7	
ESACC	R	1110638	1110675	38	601.5	88.0	906.4	83.7	8.252547	404.0	
ESACC	R	1110940	1111003	64	897.9	89.6	186.2	437.6	21.353434	915.7	
ESACC	R	1111527	1111573	47	170.1	440.1	603.8	679.6	13.406313	564.1	
END 1112077
START 1122580
ESACC	R	1122708	1122758	51	495.7	393.8	925.0	674.2	13.846047	516.9	
ESACC	R	1122931	1122951	21	914.3	670.3	893.5	620.5	1.4399405	134.1	
ESACC	R	1123036	1123100	65	891.4	630.0	274.9	209.6	20.16367	590.3	
ESACC	R	1123521	1123580	60	262.5	221.9	295.4	601.7	10.515316	428.5	
ESACC	R	1123963	1124028	66	299.5	620.3	690.7	173.4	16.28468	583.6	
ESACC	R	1124176	1124216	41	676.7	187.4	911.6	96.3	6.839793	394.7	
ESACC	R	1124592	1124635	44	895.1	114.0	968.6	391.0	7.8461905	602.0	
ESACC	R	1124898	1124941	44	966.0	402.9	698.1	101.7	11.004226	606.3	
ESACC	R	1125084	1125137	54	660.1	92.2	440.9	358.1	9.580428	663.7	
ESACC	R	1125236	1125276	41	426.7	367.0	651.8	91.5	9.883058	500.0	
ESACC	R	1125479	1125545	67	630.0	108.8	165.3	465.1	16.027237	540.1	
ESACC	R	1125708	1125751	44	134.6	488.3	599.0	681.9	13.549876	655.3	
ESACC	R	1125888	1125937	50	583.7	688.1	284.9	624.0	8.259903	439.3	
ESACC	R	1126170	1126206	37	256.8	619.2	140.9	413.4	6.4263873	349.3	
ESACC	R	1126733	1126786	54	115.5	429.9	598.6	705.9	14.981597	567.3	
ESACC	R	1127258	1127277	20	585.9	715.8	566.9	582.2	3.6621861	296.1	
END 1127279
START 1132352
ESACC	R	1132432	1132487	56	521.2	389.6	876.6	677.7	12.408738	526.1	
ESACC	R	1132678	1132738	61	881.2	684.2	322.3	194.0	20.115208	640.1	
ESACC	R	1132908	1132949	42	302.0	189.6	571.1	90.9	7.8902016	692.8	
ESACC	R	1133062	1133106	45	577.9	89.0	313.1	213.4	8.073152	683.7	
ESACC	R	1133268	1133324	57	288.3	219.6	255.4	582.8	10.059117	468.9	
ESACC	R	1133443	1133511	69	250.3	592.1	1019.5	169.7	23.425613	805.5	
ESACC	R	1133705	1133741	37	1018.7	188.1	870.3	81.9	4.8842053	278.5	
ESACC	R	1133819	1133833	15	853.7	77.4	872.3	62.6	0.6437655	76.1	
ESACC	R	1134124	1134161	38	866.7	72.2	592.9	99.8	7.4793954	414.5	
ESACC	R	1134260	1134312	53	592.1	86.5	974.1	442.4	14.20771	583.2	
ESACC	R	1134473	1134536	64	966.2	442.2	300.8	446.8	17.839594	561.8	
ESACC	R	1134674	1134724	51	291.8	451.4	630.6	93.3	13.62418	546.1	
ESACC	R	1134952	1135014	63	596.2	128.3	128.9	451.0	15.522239	502.3	
ESACC	R	1135155	1135199	45	119.6	462.3	295.1	619.4	6.36957	486.7	
ESACC	R	1135582	1135629	48	299.0	642.4	145.0	441.3	6.8735313	404.0	
ESACC	R	1136179	1136238	60	115.4	440.8	563.6	679.0	13.699661	566.3	
END 1136559
START 1140528
ESACC	R	1140719	1140766	48	510.4	402.6	902.9	595.3	11.855713	481.2	
ESACC	R	1141019	1141062	44	898.7	608.3	1038.3	194.2	11.8037405	643.3	
ESACC	R	1141184	1141215	32	1021.6	198.6	910.0	83.7	4.3015423	270.7	
ESACC	R	1141321	1141364	44	893.9	89.9	650.3	98.4	6.596885	429.0	
ESACC	R	1141595	1141659	65	621.7	86.3	226.7	216.9	11.402978	708.6	
ESACC	R	1141835	1141865	31	236.8	221.1	284.3	219.9	1.2982454	208.9	
ESACC	R	1142012	1142065	54	290.6	224.4	888.9	80.6	16.674925	771.2	
ESACC	R	1142243	1142298	56	880.4	93.0	980.7	423.7	9.430921	717.2	
ESACC	R	1142459	1142503	45	975.4	428.9	892.5	61.5	10.289067	742.2	
ESACC	R	1142744	1142788	45	857.3	69.6	617.1	73.8	6.5282083	356.1	
ESACC	R	1142905	1142968	64	591.4	71.6	1032.3	449.6	15.710358	556.4	
ESACC	R	1143125	1143180	56	1035.3	444.2	616.8	141.3	13.958537	459.9	
ESACC	R	1143297	1143304	8	581.5	164.8	573.0	179.7	0.4793935	60.9	
ESACC	R	1143433	1143459	27	560.2	197.4	606.2	84.9	3.3937309	276.9	
ESACC	R	1143767	1143831	65	597.1	106.1	142.3	479.8	16.099276	482.4	
ESACC	R	1143989	1144022	34	129.9	484.1	290.4	621.0	5.7024407	458.3	
ESACC	R	1144158	1144194	37	287.8	627.9	575.1	662.9	7.8330126	471.0	
ESACC	R	1144359	1144393	35	557.8	666.6	291.2	622.9	7.321609	397.2	
ESACC	R	1144621	1144657	37	277.5	624.4	131.8	423.9	6.7373095	333.6	
ESACC	R	1145201	1145251	51	114.0	416.6	585.0	651.9	14.21519	575.1	
ESACC	R	1145554	1145605	52	569.4	657.4	552.1	363.7	8.115959	422.2	
END 1145607
START 1151146
ESACC	R	1151360	1151408	49	512.6	387.8	917.7	615.8	12.5966835	499.5	
ESACC	R	1151792	1151848	57	907.9	623.4	876.7	122.2	13.644821	642.5	
ESACC	R	1151978	1152011	34	842.5	120.0	635.7	78.1	5.7459884	362.2	
ESACC	R	1152315	1152352	38	633.9	74.5	319.4	222.2	9.574596	639.1	
ESACC	R	1152778	1152832	55	303.5	215.4	897.1	79.8	16.47592	755.6	
ESACC	R	1153314	1153366	53	881.8	108.6	966.7	433.2	9.185681	702.3	
ESACC	R	1153622	1153671	50	959.7	447.5	712.2	90.9	11.859662	515.9	
ESACC	R	1153938	1153957	20	660.4	88.9	606.5	82.3	1.4941602	137.1	
ESACC	R	1154043	1154109	67	606.3	99.8	156.2	463.5	15.846081	554.4	
ESACC	R	1154214	1154259	46	146.7	472.6	286.9	614.9	5.414828	478.6	
ESACC	R	1154593	1154630	38	283.5	635.9	123.0	434.0	6.990207	336.8	
ESACC	R	1154960	1155009	50	105.9	434.5	594.8	672.0	14.645464	566.4	
ESACC	R	1155460	1155488	29	571.5	670.2	562.8	461.1	5.749435	331.1	
END 1155490
START 1158689
ESACC	R	1158888	1158936	49	510.9	396.0	897.3	648.3	12.50667	541.7	
ESACC	R	1159257	1159312	56	898.0	659.5	678.5	104.0	16.26492	602.0	
ESACC	R	1159543	1159609	67	634.1	106.8	216.8	209.5	11.771146	712.8	
ESACC	R	1159700	1159756	57	227.5	217.1	907.8	63.0	18.77522	787.2	
ESACC	R	1159885	1159938	54	894.8	75.5	300.4	192.2	16.386007	674.2	
ESACC	R	1160212	1160266	55	289.0	196.8	909.4	95.0	16.98008	753.2	
ESACC	R	1160704	1160758	55	903.4	101.2	963.5	438.6	9.380291	722.6	
ESACC	R	1161033	1161081	49	959.9	445.7	685.4	87.0	12.332681	465.8	
ESACC	R	1161430	1161436	7	629.0	103.6	613.0	109.9	0.47460252	65.3	
ESACC	R	1161562	1161631	70	616.9	109.3	121.9	452.9	16.440632	534.4	
ESACC	R	1161789	1161831	43	121.1	457.5	272.1	614.9	5.9019203	469.0	
ESACC	R	1162376	1162415	40	269.1	627.3	130.1	421.7	6.743928	319.6	
ESACC	R	1162904	1162954	51	99.4	420.9	542.9	697.7	14.08845	556.4	
ESACC	R	1163429	1163478	50	541.7	699.5	982.1	406.7	14.192413	550.1	
ESACC	R	1164025	1164063	39	952.5	416.8	883.8	99.2	8.902814	677.7	
ESACC	R	1164240	1164272	33	846.0	100.3	633.2	65.3	5.8631	354.3	
ESACC	R	1164324	1164329	6	622.3	64.4	616.0	72.9	0.293158	39.0	
ESACC	R	1164715	1164756	42	599.0	95.4	249.6	226.0	10.244166	563.9	
ESACC	R	1164902	1164957	56	245.7	229.0	123.3	446.4	6.85936	376.3	
ESACC	R	1165088	1165132	45	126.5	456.4	260.0	634.4	6.024901	467.3	
ESACC	R	1165423	1165464	42	273.1	648.3	118.3	421.0	7.45228	346.3	
ESACC	R	1166056	1166116	61	99.2	427.7	546.9	677.7	13.824507	585.8	
ESACC	R	1166583	1166650	68	558.9	691.3	439.1	293.6	11.422567	437.5	
END 1166652
START 1175418
ESACC	R	1175580	1175622	43	503.9	408.6	869.6	630.9	11.625346	516.0	
ESACC	R	1175943	1176004	62	862.8	657.7	259.0	201.5	20.464962	628.2	
ESACC	R	1176328	1176357	30	242.7	203.3	282.4	202.8	1.084789	196.9	
ESACC	R	1176462	1176516	55	287.9	203.6	912.2	76.7	17.211975	774.4	
ESACC	R	1176784	1176818	35	894.6	93.5	613.0	85.7	7.634485	419.2	
ESACC	R	1176922	1176970	49	589.6	80.3	957.9	402.6	13.344849	625.8	
ESACC	R	1177246	1177298	53	935.9	419.4	615.8	97.3	12.4191675	415.7	
ESACC	R	1177759	1177817	59	577.4	142.3	299.3	612.2	15.041035	429.4	
ESACC	R	1178346	1178383	38	288.3	611.5	120.4	438.5	6.5313787	345.7	
ESACC	R	1178648	1178678	31	101.5	438.9	144.6	461.2	1.3020229	198.1	
ESACC	R	1178812	1178862	51	148.2	463.3	597.3	699.2	13.683276	582.5	
END 1179265
START 1185244
ESACC	R	1185290	1185329	40	503.1	389.9	756.9	511.1	7.725579	402.8	
ESACC	R	1185474	1185514	41	748.5	517.9	892.4	630.0	4.9140835	361.0	
ESACC	R	1185731	1185788	58	893.1	637.5	284.8	240.3	19.633928	584.4	
ESACC	R	1186103	1186154	52	257.8	225.2	860.9	114.3	16.63116	750.7	
ESACC	R	1186563	1186605	43	857.7	119.0	982.1	397.4	8.333278	604.2	
ESACC	R	1186933	1186976	44	977.7	403.8	685.9	101.5	11.441534	492.1	
ESACC	R	1187282	1187341	60	624.6	113.1	186.7	485.3	15.757026	518.7	
ESACC	R	1187937	1187972	36	160.7	499.0	281.2	606.7	4.3795	380.3	
ESACC	R	1188193	1188228	36	288.4	613.9	160.0	459.4	5.455749	301.2	
ESACC	R	1188635	1188691	57	141.4	466.3	610.6	661.3	13.720528	586.1	
END 1188995
START 1192627
ESACC	R	1192829	1192872	44	515.6	385.7	877.2	632.5	11.900211	523.0	
ESACC	R	1193122	1193178	57	877.5	636.4	357.5	230.4	17.917894	576.7	
ESACC	R	1193610	1193658	49	323.4	225.4	827.3	96.2	14.17473	750.1	
ESACC	R	1194140	1194187	48	840.8	111.0	951.6	434.3	9.361674	682.5	
ESACC	R	1194401	1194446	46	951.8	434.2	663.7	99.0	12.075101	458.5	
ESACC	R	1194702	1194760	59	616.4	115.8	215.9	524.6	15.715282	485.0	
ESACC	R	1195730	1195773	44	187.0	520.8	592.3	702.2	11.995841	566.6	
END 1196540
START 1200085
ESACC	R	1200331	1200380	50	527.4	391.3	938.0	657.8	13.217559	516.6	
ESACC	R	1200672	1200732	61	930.3	661.3	305.0	231.6	20.438793	596.0	
ESACC	R	1201244	1201297	54	284.8	222.4	891.7	64.8	16.97218	774.6	
ESACC	R	1201706	1201751	46	885.7	89.1	967.2	429.3	9.568617	673.9	
ESACC	R	1202009	1202055	47	963.5	433.8	683.4	79.7	12.322782	459.1	
ESACC	R	1202357	1202420	64	636.2	95.6	298.2	614.6	16.990519	527.9	
ESACC	R	1202946	1202982	37	281.5	618.2	150.6	436.2	6.1000533	323.2	
ESACC	R	1203416	1203464	49	128.7	443.2	576.4	690.0	13.796013	573.7	
END 1203803
START 1209668
ESACC	R	1209895	1209946	52	501.3	394.7	914.3	665.4	13.352646	515.2	
ESACC	R	1210205	1210269	65	898.3	673.2	306.4	185.3	20.729456	604.1	
ESACC	R	1210708	1210760	53	288.7	193.8	868.1	109.4	15.875475	755.7	
ESACC	R	1211231	1211276	46	867.2	113.7	968.0	418.5	8.781364	688.2	
ESACC	R	1211538	1211586	49	969.8	418.4	674.8	103.9	11.754028	518.4	
ESACC	R	1212020	1212086	67	622.5	137.1	285.5	615.7	16.089205	459.1	
ESACC	R	1212364	1212404	41	271.4	616.6	136.3	430.8	6.244633	334.9	
ESACC	R	1212686	1212734	49	117.0	439.2	556.4	657.9	13.251438	566.2	
END 1213062
START 1224525
ESACC	R	1224700	1224744	45	514.1	400.6	853.9	622.5	11.043674	491.2	
ESACC	R	1224974	1225026	53	846.1	634.0	354.7	239.2	17.161114	551.8	
ESACC	R	1225407	1225457	51	315.7	238.8	868.5	98.7	15.497929	695.4	
ESACC	R	1225883	1225925	43	864.7	108.3	926.4	401.2	8.224479	609.5	
ESACC	R	1226229	1226280	52	932.6	411.1	624.7	112.7	11.729235	444.3	
ESACC	R	1226559	1226564	6	573.4	151.3	570.7	162.8	0.33065096	51.1	
ESACC	R	1226625	1226634	10	562.8	171.3	556.8	181.7	0.33599168	37.7	
ESACC	R	1226684	1226750	67	540.7	219.8	246.8	682.4	15.000903	473.2	
ESACC	R	1226865	1226888	24	240.8	687.4	288.6	627.5	2.0640953	204.7	
ESACC	R	1227090	1227126	37	277.3	634.7	132.4	449.4	6.379189	373.0	
ESACC	R	1227638	1227655	18	118.8	453.0	133.2	437.4	0.5753433	75.7	
ESACC	R	1228040	1228091	52	127.6	451.1	585.9	728.0	14.41123	579.4	
ESACC	R	1228302	1228324	23	571.5	710.9	575.0	641.5	1.8780795	158.4	
END 1228543
START 1232190
ESACC	R	1232415	1232462	48	511.9	396.3	930.8	654.6	13.289512	531.7	
ESACC	R	1232879	1232944	66	927.3	659.2	301.4	185.8	21.158064	606.8	
ESACC	R	1233265	1233325	61	269.9	186.7	855.2	101.6	16.036484	749.3	
ESACC	R	1233739	1233786	48	860.2	117.9	956.4	430.9	8.97243	685.6	
ESACC	R	1234094	1234151	58	957.7	429.6	294.1	253.3	18.493343	573.3	
ESACC	R	1234431	1234448	18	284.1	249.3	294.5	208.4	1.1774536	109.6	
ESACC	R	1234695	1234749	55	278.6	214.6	903.9	89.4	17.228884	742.3	
ESACC	R	1235217	1235265	49	901.9	104.6	936.2	459.9	9.776785	684.8	
ESACC	R	1235564	1235615	52	938.2	453.1	664.6	87.9	12.485227	408.3	
ESACC	R	1235860	1235877	18	624.3	82.2	590.6	99.5	1.0463033	114.3	
ESACC	R	1236287	1236366	80	573.0	164.1	276.9	614.3	14.815922	418.5	
ESACC	R	1236737	1236758	22	265.5	639.5	286.5	620.0	0.77437955	111.4	
ESACC	R	1237367	1237404	38	276.7	631.0	121.9	424.2	7.0044374	344.8	
ESACC	R	1238457	1238514	58	102.8	427.1	601.8	700.4	15.301181	534.7	
ESACC	R	1238682	1238703	22	591.6	691.7	575.5	639.5	1.4807417	123.7	
ESACC	R	1239572	1239617	46	567.6	684.0	554.3	367.0	8.740381	345.6	
END 1239654
START 1243647
ESACC	R	1243827	1243874	48	501.5	385.9	834.4	625.1	11.181115	530.6	
ESACC	R	1244077	1244112	36	835.4	630.1	899.5	623.5	1.7095209	235.3	
ESACC	R	1244455	1244517	63	909.0	623.1	284.3	226.0	20.001102	596.5	
ESACC	R	1244955	1245009	55	258.6	229.2	930.0	72.2	18.585785	775.1	
ESACC	R	1245388	1245438	51	902.7	85.9	932.9	379.2	8.086733	666.3	
ESACC	R	1245708	1245760	53	932.6	398.5	625.0	75.7	12.192758	502.5	
ESACC	R	1246179	1246238	60	576.7	86.5	274.7	606.9	16.51841	518.2	
ESACC	R	1246765	1246803	39	277.5	625.6	126.2	425.7	6.8005233	357.3	
ESACC	R	1247125	1247183	59	114.4	426.9	569.8	655.0	13.751708	586.2	
END 1247541
START 1249505
ESACC	R	1249903	1249962	60	510.4	397.3	918.0	636.6	12.789428	468.3	
ESACC	R	1250371	1250439	69	920.2	659.8	312.2	189.7	20.759039	557.8	
ESACC	R	1250786	1250847	62	286.7	197.8	899.4	85.7	16.847305	781.6	
ESACC	R	1251336	1251390	55	901.3	108.1	964.5	422.6	8.778001	774.3	
ESACC	R	1251715	1251764	50	962.5	441.8	643.8	89.8	12.957063	488.3	
ESACC	R	1251928	1251933	6	599.0	94.9	595.8	105.1	0.29824224	38.3	
ESACC	R	1252180	1252242	63	589.8	114.3	336.1	590.4	14.875666	419.8	
ESACC	R	1252483	1252551	69	327.4	592.5	943.6	447.2	16.990421	553.4	
ESACC	R	1252743	1252763	21	937.3	453.6	943.1	396.6	1.5670576	137.2	
ESACC	R	1253184	1253232	49	933.6	404.5	636.0	99.9	11.64866	494.0	
ESACC	R	1253283	1253292	10	626.5	74.3	609.7	80.7	0.49536356	62.8	
ESACC	R	1253693	1253761	69	599.7	125.0	307.2	663.7	16.814236	404.1	
ESACC	R	1253995	1254015	21	299.7	654.2	254.0	624.4	1.4709517	146.3	
ESACC	R	1254120	1254155	36	252.5	624.9	147.8	429.7	6.0286565	344.7	
ESACC	R	1254620	1254667	48	121.8	432.2	562.3	662.6	13.420744	601.1	
ESACC	R	1255171	1255215	45	553.6	671.2	548.3	342.7	9.063235	368.7	
END 1255253
START 1256920
ESACC	R	1257155	1257201	47	511.2	394.4	889.2	617.4	11.908008	504.0	
ESACC	R	1257762	1257830	69	867.2	631.9	325.3	234.8	18.237669	596.2	
ESACC	R	1258337	1258387	51	283.4	214.6	874.9	73.3	16.479692	808.6	
ESACC	R	1258827	1258871	45	876.0	85.2	934.0	433.8	9.687715	788.1	
ESACC	R	1259080	1259092	13	929.2	431.0	934.6	406.4	0.6899294	66.0	
ESACC	R	1259252	1259299	48	930.2	415.5	634.0	82.7	12.192853	556.8	
ESACC	R	1259715	1259777	63	589.1	115.2	318.2	626.4	15.913992	439.9	
ESACC	R	1260260	1260298	39	306.2	639.0	141.4	435.6	7.1070595	418.9	
ESACC	R	1260792	1260842	51	105.8	432.3	569.9	658.6	13.920193	574.6	
END 1261157
START 1263999
ESACC	R	1264182	1264232	51	501.2	388.2	895.9	631.7	12.569622	493.5	
ESACC	R	1264664	1264725	62	891.6	635.1	270.0	203.7	20.439552	600.4	
ESACC	R	1265159	1265211	53	256.0	194.5	881.9	82.8	17.173643	774.1	
ESACC	R	1265700	1265754	55	887.0	98.0	973.9	414.5	8.972374	654.7	
ESACC	R	1265994	1266035	42	967.8	426.0	924.6	73.4	9.701431	707.1	
ESACC	R	1266349	1266404	56	902.7	87.1	973.4	400.3	8.771359	651.6	
ESACC	R	1266790	1266845	56	955.7	409.9	629.5	66.9	12.916578	490.2	
ESACC	R	1267339	1267345	7	578.9	106.3	578.8	117.0	0.2988954	41.3	
ESACC	R	1267434	1267502	69	572.9	141.2	277.6	619.7	15.464801	402.8	
ESACC	R	1268040	1268076	37	276.4	619.6	131.0	441.5	6.2382135	309.2	
ESACC	R	1268756	1268807	52	105.4	437.9	590.0	677.7	14.554114	580.4	
ESACC	R	1269201	1269247	47	567.7	665.6	547.0	368.4	8.218266	318.4	
END 1269286
START 1273649
ESACC	R	1273681	1273726	46	507.7	397.7	885.8	628.1	12.015871	484.7	
ESACC	R	1274123	1274179	57	882.6	637.5	281.2	249.0	19.36612	598.2	
ESACC	R	1274520	1274574	55	259.5	235.3	904.3	73.4	17.947807	777.7	
ESACC	R	1274968	1275010	43	872.0	95.5	940.1	399.5	8.558032	639.5	
ESACC	R	1275276	1275323	48	929.7	404.7	652.3	89.9	11.490932	465.6	
ESACC	R	1275731	1275793	63	592.3	125.2	261.0	627.2	16.498856	494.1	
ESACC	R	1276148	1276185	38	241.9	631.0	119.5	422.3	6.561152	309.9	
ESACC	R	1276606	1276655	50	101.7	437.3	557.2	678.5	13.892707	614.9	
ESACC	R	1277005	1277029	25	539.1	685.9	576.3	475.1	5.872141	389.6	
END 1277031
START 1284665
ESACC	R	1284755	1284803	49	516.8	398.3	789.6	577.5	8.939194	515.9	
ESACC	R	1285191	1285244	54	790.5	594.9	313.5	225.9	16.481222	533.9	
ESACC	R	1285582	1285603	22	285.6	242.6	251.4	197.1	1.5760596	141.3	
ESACC	R	1285827	1285882	56	256.0	206.0	907.6	81.3	17.874771	796.5	
ESACC	R	1286597	1286638	42	891.1	111.3	923.7	360.6	6.9131994	554.9	
ESACC	R	1286987	1287040	54	924.4	370.6	333.7	228.1	16.448261	552.4	
ESACC	R	1287497	1287512	16	307.2	225.3	277.8	200.8	1.0575701	98.0	
ESACC	R	1287668	1287725	58	278.6	205.0	941.6	69.4	18.21197	749.8	
ESACC	R	1287927	1287941	15	929.1	72.4	895.4	71.5	0.89661354	86.9	
ESACC	R	1288290	1288335	46	900.4	82.8	962.8	389.0	8.550766	610.9	
ESACC	R	1288605	1288654	50	962.4	399.3	682.6	86.5	11.446925	461.2	
ESACC	R	1289054	1289133	80	625.3	122.7	268.3	629.4	16.99805	441.4	
ESACC	R	1289374	1289397	24	263.7	645.7	299.8	625.0	1.12317	143.6	
ESACC	R	1289705	1289744	40	297.8	629.6	114.7	422.3	7.499444	346.8	
ESACC	R	1289935	1289959	25	89.3	425.7	126.5	427.3	0.9916509	126.7	
ESACC	R	1290387	1290436	50	116.9	433.5	535.0	675.5	13.043842	525.2	
ESACC	R	1290735	1290759	25	517.1	675.3	610.7	646.0	2.6645417	252.3	
END 1290890
START 1295026
ESACC	R	1295183	1295226	44	512.2	396.5	894.9	624.9	12.081323	526.9	
ESACC	R	1295510	1295571	62	880.0	627.0	286.6	209.1	19.652637	603.4	
ESACC	R	1296000	1296055	56	270.4	204.5	922.9	84.2	17.876406	770.9	
ESACC	R	1296420	1296462	43	903.3	88.2	952.2	393.7	8.470036	679.1	
ESACC	R	1296699	1296744	46	946.1	397.5	636.7	76.1	12.180978	533.0	
ESACC	R	1297272	1297312	41	580.0	75.6	914.9	68.0	9.066026	415.3	
ESACC	R	1297668	1297715	48	902.2	84.7	950.3	418.1	9.223156	639.9	
ESACC	R	1298152	1298205	54	947.1	426.6	609.7	89.9	13.016948	468.6	
ESACC	R	1298640	1298702	63	569.1	108.8	309.3	617.8	15.7207575	453.4	
ESACC	R	1299081	1299104	24	301.6	613.2	249.5	617.5	1.4091657	156.1	
ESACC	R	1299312	1299346	35	252.0	619.2	110.3	436.5	6.2613845	403.7	
ESACC	R	1299808	1299857	50	96.4	438.4	577.8	677.6	14.470025	589.5	
ESACC	R	1300392	1300455	64	566.1	683.2	515.6	411.3	7.6069365	336.1	
END 1300457
START 1308051
ESACC	R	1308208	1308255	48	521.2	392.1	893.7	612.0	11.741044	541.1	
ESACC	R	1308802	1308864	63	883.8	630.1	287.5	205.9	19.816866	628.7	
ESACC	R	1309290	1309345	56	271.9	201.6	895.9	82.6	17.160791	758.2	
ESACC	R	1309890	1309944	55	884.7	101.9	962.9	396.2	8.336948	672.4	
ESACC	R	1310293	1310347	55	971.3	414.6	643.5	82.6	12.709392	421.0	
ESACC	R	1310746	1310810	65	597.8	112.1	305.0	606.5	15.811767	427.5	
ESACC	R	1311284	1311325	42	258.8	619.4	125.6	437.4	6.1165733	263.0	
ESACC	R	1311737	1311786	50	111.3	434.7	589.3	664.6	14.3144	621.9	
END 1312181
START 1324435
ESACC	R	1324598	1324641	44	504.8	403.7	888.7	631.5	12.112509	531.1	
ESACC	R	1324906	1324969	64	884.5	619.4	291.6	245.7	18.961369	584.2	
ESACC	R	1325435	1325483	49	272.2	239.5	737.9	82.3	13.438031	653.3	
ESACC	R	1325692	1325721	30	729.4	89.0	911.4	69.2	4.935975	334.5	
ESACC	R	1325912	1325963	52	908.2	75.7	955.3	383.8	8.53305	652.0	
ESACC	R	1326147	1326220	74	949.9	404.1	385.6	707.9	17.188314	623.0	
ESACC	R	1326350	1326386	37	400.8	709.0	292.8	634.3	3.542767	350.5	
ESACC	R	1326548	1326581	34	283.5	644.0	183.3	542.4	3.8571494	255.8	
ESACC	R	1326777	1326810	34	178.6	550.1	278.3	621.8	3.312127	314.1	
ESACC	R	1327112	1327164	53	282.3	616.2	553.4	217.7	13.273953	493.8	
ESACC	R	1327361	1327409	49	534.0	223.8	957.3	384.0	12.28772	490.6	
ESACC	R	1327755	1327815	61	952.0	394.9	583.4	664.9	12.319877	558.0	
ESACC	R	1327952	1328010	59	584.4	679.5	603.2	109.2	15.676	570.0	
ESACC	R	1328308	1328352	45	537.1	197.8	926.6	59.6	11.228325	562.0	
ESACC	R	1328503	1328551	49	898.7	66.2	581.3	74.0	8.604324	449.8	
ESACC	R	1328725	1328763	39	551.1	84.1	906.3	62.2	9.6320095	477.4	
ESACC	R	1328993	1329055	63	896.4	71.9	558.5	621.7	17.591204	823.1	
ESACC	R	1329151	1329197	47	545.6	619.6	117.2	449.6	12.463168	491.9	
ESACC	R	1329709	1329758	50	106.8	456.2	565.9	677.6	13.733339	575.9	
ESACC	R	1330090	1330142	53	556.7	678.7	567.4	398.5	7.7139635	383.2	
END 1330144
START 1333067
ESACC	R	1333162	1333206	45	513.6	394.9	782.5	542.8	8.412096	492.2	
ESACC	R	1333247	1333286	40	785.9	546.6	893.6	613.5	3.4022503	340.1	
ESACC	R	1333446	1333501	56	903.5	629.6	942.6	88.9	14.669706	706.9	
ESACC	R	1333651	1333718	68	912.3	102.5	406.3	173.9	13.85503	527.0	
ESACC	R	1333815	1333852	38	399.5	185.7	284.8	201.7	3.187015	298.1	
ESACC	R	1334050	1334110	61	266.3	206.8	267.8	597.8	10.7862835	419.5	
ESACC	R	1334514	1334576	63	268.7	620.6	794.3	95.1	20.239656	607.6	
ESACC	R	1334802	1334842	41	780.2	106.7	958.6	383.4	8.9988575	630.9	
ESACC	R	1335064	1335109	46	954.4	389.1	646.2	93.8	11.642809	494.8	
ESACC	R	1335249	1335254	6	606.0	90.1	604.3	100.7	0.29936233	39.8	
ESACC	R	1335675	1335708	34	596.2	110.9	855.3	96.5	7.061646	407.6	
ESACC	R	1335966	1336041	76	853.2	94.0	149.2	416.6	20.884548	911.2	
ESACC	R	1336597	1336645	49	119.1	434.7	587.1	701.9	14.525593	619.2	
END 1337060
START 1346739
ESACC	R	1346895	1346945	51	501.7	399.0	932.5	627.6	13.175381	529.5	
ESACC	R	1347178	1347244	67	918.7	635.2	301.8	216.2	20.132757	547.0	
ESACC	R	1347424	1347494	71	295.4	221.8	262.5	680.2	12.590513	434.2	
ESACC	R	1347674	1347726	53	266.5	680.0	259.3	205.7	12.995981	496.9	
ESACC	R	1347989	1348005	17	242.1	218.8	253.1	210.1	0.38544148	64.7	
ESACC	R	1348169	1348235	67	249.5	219.8	950.4	448.4	19.844751	617.0	
ESACC	R	1348443	1348474	32	946.7	459.0	932.9	648.8	5.135663	310.1	
ESACC	R	1348724	1348786	63	915.3	652.1	268.8	218.2	20.970741	595.5	
ESACC	R	1349292	1349341	50	244.7	228.2	272.1	613.2	10.61747	402.1	
ESACC	R	1349621	1349702	82	270.0	615.1	590.8	181.8	14.828616	547.2	
ESACC	R	1349849	1349892	44	565.4	232.0	929.2	415.6	11.100064	487.0	
ESACC	R	1350208	1350252	45	922.7	420.3	934.2	75.5	9.451499	705.4	
ESACC	R	1350390	1350428	39	910.4	79.9	619.5	75.2	7.863235	421.4	
ESACC	R	1350936	1350977	42	583.1	102.4	918.9	58.1	9.15781	472.8	
ESACC	R	1351319	1351397	79	899.7	68.3	146.4	399.3	22.104439	925.7	
ESACC	R	1351712	1351729	18	121.2	407.6	96.1	418.6	0.73456246	85.5	
ESACC	R	1352114	1352136	23	92.2	425.3	123.6	422.8	0.8379182	115.5	
ESACC	R	1352438	1352487	50	114.1	426.3	567.7	688.7	14.130258	576.3	
ESACC	R	1352734	1352741	8	564.1	683.1	570.7	667.3	0.46369347	58.6	
END 1353192
START 1358692
ESACC	R	1358898	1358943	46	500.5	397.8	884.9	617.9	12.020728	506.8	
ESACC	R	1359220	1359286	67	881.6	627.0	250.1	165.5	21.138456	544.7	
ESACC	R	1359709	1359768	60	236.8	178.7	271.5	586.2	11.280644	435.4	
ESACC	R	1360103	1360164	62	271.8	614.2	964.9	410.4	19.298868	570.2	
ESACC	R	1360583	1360631	49	935.4	427.4	667.9	97.4	11.628838	516.9	
ESACC	R	1361160	1361201	42	611.9	82.1	910.0	64.9	8.0816	356.1	
ESACC	R	1361451	1361527	77	891.3	70.8	122.7	415.6	22.598478	888.8	
ESACC	R	1362006	1362052	47	96.2	438.8	544.5	666.5	13.540048	571.0	
ESACC	R	1362338	1362367	30	533.5	669.6	562.5	675.3	0.80300033	144.9	
END 1362520
START 1368950
ESACC	R	1369154	1369204	51	496.7	391.7	902.7	640.4	12.891253	498.5	
ESACC	R	1369470	1369538	69	882.3	646.7	339.4	180.8	19.418201	513.9	
ESACC	R	1369680	1369711	32	314.6	185.6	254.8	207.0	1.7416081	224.2	
ESACC	R	1369917	1369974	58	251.3	216.0	267.5	563.7	9.615028	413.9	
ESACC	R	1370375	1370435	61	271.2	588.8	878.5	115.8	20.860619	585.3	
ESACC	R	1370578	1370616	39	855.6	131.8	967.8	395.9	7.8559127	633.3	
ESACC	R	1370777	1370822	46	965.6	394.0	604.6	96.4	12.74573	557.8	
ESACC	R	1370982	1371010	29	562.6	103.4	601.4	92.2	1.115008	180.0	
ESACC	R	1371338	1371379	42	600.0	100.7	901.3	78.8	8.187754	376.4	
ESACC	R	1371739	1371813	75	888.3	81.5	130.1	423.8	22.353058	902.9	
ESACC	R	1372263	1372309	47	98.8	436.8	547.5	673.2	13.669921	596.7	
END 1372643
START 1377629
ESACC	R	1377809	1377852	44	505.2	393.3	888.5	606.6	11.901962	487.4	
ESACC	R	1378129	1378191	63	886.2	619.5	243.7	220.0	20.419956	561.1	
ESACC	R	1378620	1378678	59	234.2	209.4	256.0	614.2	11.151837	410.6	
ESACC	R	1378865	1378895	31	255.2	626.2	286.0	614.6	0.8878663	171.7	
ESACC	R	1378966	1379029	64	292.9	619.9	887.2	620.7	15.8903885	576.4	
ESACC	R	1379398	1379468	71	886.3	628.2	282.0	222.5	19.701353	593.8	
ESACC	R	1379954	1380010	57	259.4	234.2	286.1	612.5	10.446713	380.9	
ESACC	R	1380264	1380320	57	283.3	624.6	881.2	98.8	21.541128	776.1	
ESACC	R	1380677	1380727	51	862.9	111.3	954.5	381.9	7.825084	653.0	
ESACC	R	1380891	1380910	20	951.3	398.6	899.4	382.2	1.4519893	128.3	
ESACC	R	1381183	1381223	41	902.3	391.3	907.3	84.2	8.437866	733.0	
ESACC	R	1381357	1381402	46	881.2	92.5	621.9	84.9	7.039775	411.4	
ESACC	R	1381596	1381629	34	587.9	109.4	657.5	101.6	1.9296597	258.5	
ESACC	R	1381761	1381798	38	661.1	101.2	910.5	103.5	6.749962	345.9	
ESACC	R	1382001	1382022	22	892.7	113.9	827.9	123.0	1.7599307	151.6	
ESACC	R	1382155	1382225	71	842.6	122.7	136.5	433.5	20.79967	872.3	
ESACC	R	1382434	1382463	30	123.9	451.1	169.8	460.0	1.2530688	191.0	
ESACC	R	1382722	1382766	45	160.9	464.9	566.0	661.3	12.176466	571.1	
END 1383219
START 1387311
ESACC	R	1387489	1387531	43	499.5	388.4	813.0	618.2	10.608477	499.4	
ESACC	R	1387806	1387855	50	813.6	613.3	313.3	240.7	17.00546	582.7	
ESACC	R	1388337	1388398	62	274.2	227.9	840.0	589.0	18.23529	563.7	
ESACC	R	1388612	1388635	24	825.1	589.5	873.5	641.5	1.9044186	178.3	
ESACC	R	1388842	1388901	60	867.6	634.4	276.1	235.1	19.318014	588.0	
ESACC	R	1389407	1389457	51	267.5	233.0	252.0	640.1	11.19195	419.7	
ESACC	R	1389641	1389670	30	248.0	647.1	282.4	634.4	0.98654026	171.4	
ESACC	R	1389812	1389884	73	286.6	638.2	921.1	88.7	22.64451	803.0	
ESACC	R	1390153	1390201	49	913.7	108.4	947.2	396.6	7.956497	664.7	
ESACC	R	1390392	1390437	46	949.6	408.3	635.7	83.7	12.328484	486.8	
ESACC	R	1390738	1390767	30	584.3	82.2	618.9	93.5	1.0037965	172.9	
ESACC	R	1390812	1390817	6	623.3	93.7	620.3	104.3	0.30700943	38.4	
ESACC	R	1390841	1390884	44	620.1	109.4	942.6	392.3	11.7211	555.5	
ESACC	R	1391314	1391365	52	930.1	395.4	631.8	91.2	11.661289	442.5	
ESACC	R	1391796	1391838	43	589.8	107.7	920.0	69.8	8.985527	399.3	
ESACC	R	1392365	1392434	70	903.4	80.5	92.1	415.3	23.445877	921.7	
ESACC	R	1392779	1392809	31	86.1	406.4	128.6	416.2	1.1634053	190.2	
ESACC	R	1393005	1393054	50	130.2	420.7	588.9	680.4	14.236047	575.1	
END 1393380
START 1396678
ESACC	R	1396876	1396925	50	501.9	387.9	879.7	637.4	12.292869	527.5	
ESACC	R	1397219	1397273	55	873.5	634.6	332.1	255.8	17.915236	578.7	
ESACC	R	1397635	1397656	22	292.3	251.8	258.0	210.8	1.4806318	140.4	
ESACC	R	1397836	1397897	62	265.0	221.0	285.2	644.1	11.636544	428.5	
ESACC	R	1398140	1398201	62	289.0	650.6	980.4	142.1	23.020988	665.8	
ESACC	R	1398511	1398551	41	980.2	148.5	645.3	76.4	9.219782	425.6	
ESACC	R	1398928	1398966	39	611.4	76.2	921.1	81.7	8.371648	405.6	
ESACC	R	1399219	1399279	61	902.5	94.7	527.7	638.1	17.974863	906.2	
ESACC	R	1399370	1399416	47	509.4	637.2	160.3	438.0	10.910891	490.4	
ESACC	R	1399841	1399888	48	127.8	434.0	577.7	673.4	13.769827	609.8	
END 1400335
START 1404392
ESACC	R	1404449	1404500	52	505.1	386.6	904.3	681.9	13.44247	484.7	
ESACC	R	1404685	1404707	23	902.9	684.2	901.1	614.2	1.872257	181.6	
ESACC	R	1404791	1404851	61	894.0	624.9	278.5	222.2	19.868319	635.0	
ESACC	R	1405314	1405373	60	261.5	227.9	288.6	633.4	11.179649	411.7	
ESACC	R	1405563	1405583	21	288.6	646.8	287.0	598.3	1.3168548	123.7	
ESACC	R	1405688	1405726	39	281.1	601.5	264.2	272.6	9.084718	430.8	
ESACC	R	1405953	1405972	20	242.6	262.3	248.5	215.3	1.3208377	108.3	
ESACC	R	1406158	1406206	49	250.2	230.8	314.2	599.0	10.318883	399.0	
ESACC	R	1406446	1406510	65	305.4	597.6	890.1	76.0	21.22981	757.1	
ESACC	R	1406758	1406803	46	873.9	88.4	962.6	421.9	9.436609	701.0	
ESACC	R	1407142	1407193	52	957.6	425.0	636.7	92.7	12.595485	461.1	
ESACC	R	1407575	1407616	42	600.0	116.6	882.3	78.9	7.7316403	375.0	
ESACC	R	1407977	1408012	36	869.3	81.4	615.7	86.5	6.892748	376.9	
ESACC	R	1408318	1408358	41	603.4	86.2	907.1	73.1	8.227177	422.0	
ESACC	R	1408746	1408821	76	881.5	76.5	137.7	410.8	21.93535	870.9	
ESACC	R	1409311	1409360	50	112.0	430.4	558.5	666.8	13.640297	574.1	
ESACC	R	1409821	1409846	26	553.1	672.5	550.9	474.7	5.4343987	322.4	
END 1409848
START 1412335
ESACC	R	1412363	1412410	48	523.7	390.2	896.7	654.5	12.384312	493.3	
ESACC	R	1412771	1412830	60	892.9	649.0	259.1	178.7	21.293	633.0	
ESACC	R	1413382	1413444	63	258.0	191.4	327.1	595.9	11.315929	412.0	
ESACC	R	1413642	1413697	56	330.9	601.4	945.3	454.2	16.955742	532.6	
ESACC	R	1413926	1413947	22	926.8	455.6	953.3	398.0	1.7271738	157.5	
ESACC	R	1414195	1414261	67	949.5	415.3	335.6	583.9	17.094362	604.5	
ESACC	R	1414694	1414752	59	304.7	590.1	975.5	362.5	18.986061	558.8	
ESACC	R	1415193	1415241	49	953.9	384.6	642.0	78.1	11.931696	492.9	
ESACC	R	1415682	1415723	42	585.3	90.0	906.6	64.9	8.723211	370.3	
ESACC	R	1415981	1416057	77	891.0	70.1	114.1	415.7	22.783907	943.9	
ESACC	R	1416529	1416579	51	106.6	421.2	576.0	666.6	14.284759	572.7	
END 1417033
START 1421656
ESACC	R	1421825	1421870	46	506.6	390.6	880.4	619.5	11.899973	495.8	
ESACC	R	1422039	1422096	58	871.7	622.5	311.2	233.5	18.522163	567.6	
ESACC	R	1422542	1422592	51	292.5	237.5	261.7	576.9	9.413076	404.4	
ESACC	R	1422930	1422989	60	250.8	589.1	987.9	379.4	20.42165	592.5	
ESACC	R	1423288	1423336	49	953.0	394.9	661.0	94.6	11.435179	440.3	
ESACC	R	1423845	1423884	40	621.7	95.1	929.1	77.5	8.322282	389.8	
ESACC	R	1424132	1424208	77	905.9	85.9	150.5	421.7	22.204939	923.5	
ESACC	R	1424729	1424776	48	138.7	439.8	595.4	685.7	13.996407	617.6	
END 1425070
START 1431258
ESACC	R	1431359	1431408	50	519.1	399.8	870.8	578.1	10.722375	430.9	
ESACC	R	1431660	1431720	61	860.8	582.1	361.3	634.5	13.520475	512.6	
ESACC	R	1431841	1431888	48	339.6	638.2	301.2	250.8	10.737996	488.9	
ESACC	R	1432291	1432353	63	274.7	260.6	306.5	652.2	10.792796	402.7	
ESACC	R	1432569	1432627	59	292.9	666.2	906.6	630.9	16.34937	517.8	
ESACC	R	1432966	1433026	61	885.7	652.2	319.2	263.9	18.584856	556.3	
ESACC	R	1433504	1433556	53	286.2	276.0	268.7	594.4	8.796348	357.1	
ESACC	R	1433878	1433921	44	266.9	610.6	284.1	219.9	10.773229	439.5	
ESACC	R	1434439	1434490	52	263.0	218.0	294.2	607.8	10.786474	360.7	
ESACC	R	1434943	1435001	59	287.5	610.0	934.4	394.4	18.296886	594.6	
ESACC	R	1435348	1435398	51	923.9	406.6	619.4	118.6	11.469866	417.9	
ESACC	R	1435618	1435638	21	580.9	124.1	611.5	95.7	1.1591583	96.3	
ESACC	R	1435966	1436007	42	597.7	107.5	898.2	71.9	8.202959	420.5	
ESACC	R	1436453	1436518	66	895.6	75.0	133.5	391.1	22.125263	905.9	
ESACC	R	1437048	1437097	50	112.4	396.2	562.8	654.7	14.050048	570.1	
ESACC	R	1437509	1437526	18	553.9	667.7	570.6	555.5	3.0992534	206.5	
END 1437528
START 1439408
ESACC	R	1439600	1439651	52	506.1	390.8	890.2	622.0	12.165512	498.5	
ESACC	R	1440023	1440082	60	883.3	638.5	302.6	226.2	19.285545	564.2	
ESACC	R	1440486	1440535	50	281.8	221.4	298.1	629.3	11.245665	421.0	
ESACC	R	1440833	1440896	64	286.8	627.1	923.8	446.9	17.727568	547.0	
ESACC	R	1441171	1441193	23	910.6	448.7	946.5	417.2	1.2851393	159.6	
ESACC	R	1441419	1441482	64	929.1	419.8	331.0	600.5	16.800282	598.7	
ESACC	R	1441778	1441799	22	309.8	609.7	265.9	609.5	1.1864988	134.1	
ESACC	R	1442010	1442070	61	274.5	615.0	956.6	384.7	19.267113	544.4	
ESACC	R	1442498	1442546	49	926.8	410.1	637.9	80.3	12.0082245	449.5	
ESACC	R	1442947	1442985	39	589.4	89.8	914.2	63.2	8.820832	391.9	
ESACC	R	1443241	1443316	76	899.5	67.1	173.2	405.3	21.58048	913.1	
ESACC	R	1443739	1443783	45	144.5	421.5	561.5	630.7	12.643938	572.1	
END 1444471
START 1446354
ESACC	R	1446438	1446489	52	507.4	393.1	851.5	603.2	10.98194	500.6	
ESACC	R	1446831	1446885	55	843.9	620.5	269.1	251.9	18.526546	579.9	
ESACC	R	1447250	1447307	58	246.4	229.5	289.0	583.9	9.844848	431.5	
ESACC	R	1447536	1447590	55	285.4	599.4	955.7	401.1	18.723505	612.7	
ESACC	R	1447880	1447930	51	916.5	409.4	655.1	94.6	11.21358	483.4	
ESACC	R	1448411	1448449	39	613.9	101.8	919.4	78.0	8.294102	395.6	
ESACC	R	1448856	1448936	81	905.0	86.4	118.4	454.8	23.277979	943.9	
ESACC	R	1449113	1449140	28	103.4	467.9	129.1	416.5	1.5674684	159.9	
ESACC	R	1449578	1449627	50	125.2	423.6	618.8	661.0	14.797627	574.6	
END 1449984
START 1451777
ESACC	R	1451974	1452019	46	508.3	393.6	877.1	631.7	11.917319	532.7	
ESACC	R	1452256	1452325	70	868.6	635.8	290.8	281.4	18.352915	576.1	
ESACC	R	1452719	1452762	44	278.0	286.4	283.7	580.8	8.13408	382.7	
ESACC	R	1453013	1453072	60	277.6	582.8	833.1	92.7	20.15154	774.7	
ESACC	R	1453406	1453460	55	815.3	105.5	968.8	389.4	8.820376	658.4	
ESACC	R	1453818	1453876	59	956.0	413.9	302.0	579.8	18.08878	576.6	
ESACC	R	1454010	1454055	46	287.7	584.7	290.3	212.5	10.282013	469.8	
ESACC	R	1454200	1454254	55	271.4	229.4	261.8	625.9	10.910944	480.3	
ESACC	R	1454617	1454680	64	260.3	632.2	956.9	383.2	19.776262	580.9	
ESACC	R	1455085	1455133	49	936.2	394.2	662.7	95.0	11.090321	455.0	
ESACC	R	1455728	1455767	40	612.5	106.7	889.8	82.0	7.5561433	366.8	
ESACC	R	1456102	1456174	73	875.1	89.9	148.8	414.0	21.416107	844.0	
ESACC	R	1456882	1456932	51	123.9	419.2	578.3	672.1	14.053432	543.5	
ESACC	R	1457228	1457287	60	569.8	668.5	566.9	377.2	8.025186	359.2	
END 1457289
START 1459867
ESACC	R	1460031	1460077	47	524.5	391.5	877.9	635.0	11.655722	498.2	
ESACC	R	1460300	1460358	59	867.6	633.1	314.9	239.7	18.412579	553.6	
ESACC	R	1460711	1460772	62	292.4	234.1	287.0	616.7	10.54097	411.0	
ESACC	R	1461009	1461077	69	279.2	620.8	946.6	460.8	18.346613	608.1	
ESACC	R	1461222	1461245	24	950.0	470.5	932.3	400.0	1.9848878	176.6	
ESACC	R	1461422	1461468	47	929.8	402.6	644.3	98.8	11.408991	501.2	
ESACC	R	1461967	1462008	42	605.5	89.4	921.9	64.0	8.580011	378.6	
ESACC	R	1462295	1462338	44	898.0	86.1	923.5	386.6	8.283379	593.3	
ESACC	R	1462704	1462751	48	926.9	396.8	661.9	93.4	11.033394	456.3	
ESACC	R	1463062	1463099	38	632.9	82.3	904.5	81.1	7.3505473	386.8	
ESACC	R	1463381	1463457	77	889.7	90.0	133.5	412.5	22.080124	911.8	
ESACC	R	1463978	1464026	49	121.6	429.7	569.1	650.2	13.482856	574.9	
END 1464515
START 1466935
ESACC	R	1467011	1467030	20	520.2	401.7	463.9	381.3	1.6569041	139.7	
ESACC	R	1467180	1467204	25	462.1	383.2	521.7	394.0	1.6739717	177.4	
ESACC	R	1467323	1467371	49	511.4	392.2	879.9	621.3	11.776932	481.3	
ESACC	R	1467570	1467632	63	868.1	624.8	254.9	234.0	19.68251	570.2	
ESACC	R	1467976	1468031	56	243.8	238.2	283.0	569.1	9.202741	461.3	
ESACC	R	1468324	1468365	42	278.6	598.9	286.0	237.5	9.971689	451.9	
ESACC	R	1468661	1468707	47	265.8	243.2	255.8	601.7	9.879762	411.1	
ESACC	R	1468928	1468987	60	248.2	604.8	963.1	466.7	19.40593	633.4	
ESACC	R	1469162	1469181	20	934.9	475.6	926.0	425.0	1.4043891	121.1	
ESACC	R	1469401	1469450	50	921.9	431.3	637.5	87.3	12.222298	432.6	
ESACC	R	1469809	1469850	42	586.3	89.9	904.0	69.9	8.615888	376.4	
ESACC	R	1470100	1470174	75	889.8	76.7	121.0	414.0	22.493042	939.4	
ESACC	R	1470631	1470682	52	101.3	418.4	540.4	641.4	13.301472	608.2	
ESACC	R	1470986	1471023	38	530.1	648.6	550.7	368.6	7.7554827	381.4	
END 1471025
START 1473993
ESACC	R	1474087	1474133	47	506.4	390.0	918.6	589.1	12.397392	539.9	
ESACC	R	1474326	1474384	59	909.6	592.9	286.0	257.1	19.128128	579.6	
ESACC	R	1474854	1474866	13	271.9	247.3	252.5	229.5	0.7262274	73.9	
ESACC	R	1474926	1474991	66	253.0	233.3	906.6	625.5	20.547306	580.0	
ESACC	R	1475299	1475363	65	875.7	624.6	278.6	210.7	19.67029	559.5	
ESACC	R	1475669	1475728	60	268.1	220.1	258.1	626.6	11.186227	404.3	
ESACC	R	1475912	1475933	22	259.8	640.7	279.3	599.8	1.2280688	128.9	
ESACC	R	1476080	1476122	43	278.1	614.8	281.6	236.7	10.416412	463.2	
ESACC	R	1476587	1476637	51	254.2	236.4	272.7	612.4	10.370287	344.2	
ESACC	R	1476995	1477055	61	269.4	618.1	938.7	406.3	18.80568	541.2	
ESACC	R	1477316	1477356	41	917.2	416.7	864.7	98.3	8.870756	774.5	
ESACC	R	1477478	1477509	32	838.0	101.2	631.0	72.5	5.6886363	346.1	
ESACC	R	1477820	1477859	40	597.4	94.7	889.9	65.7	7.9673185	371.4	
ESACC	R	1478283	1478348	66	890.2	70.6	135.2	406.2	22.168413	918.7	
ESACC	R	1478817	1478868	52	127.0	412.9	593.6	647.7	14.122505	591.8	
ESACC	R	1479153	1479216	64	582.9	658.6	527.0	346.1	8.75604	405.3	
END 1479218
START 1482284
ESACC	R	1482356	1482415	60	511.5	390.4	940.9	632.7	13.3112135	506.2	
ESACC	R	1482544	1482575	32	933.9	646.6	863.4	615.5	2.038474	224.3	
ESACC	R	1482680	1482747	68	852.6	621.8	270.1	219.7	19.188812	575.9	
ESACC	R	1483229	1483289	61	258.0	226.8	289.7	614.2	10.706885	433.3	
ESACC	R	1483611	1483661	51	282.8	628.2	300.7	214.0	11.405151	426.7	
ESACC	R	1483921	1483943	23	269.9	212.0	227.8	226.1	1.2126899	127.0	
ESACC	R	1484142	1484202	61	239.0	229.9	270.0	608.1	10.438264	416.7	
ESACC	R	1484451	1484508	58	267.6	616.1	976.2	415.6	19.645744	602.0	
ESACC	R	1484808	1484850	43	950.1	422.4	799.9	112.2	9.444395	671.7	
ESACC	R	1484985	1485012	28	761.2	104.4	615.7	81.0	4.0390935	297.8	
ESACC	R	1485410	1485450	41	596.5	88.1	931.3	65.1	9.058684	375.3	
ESACC	R	1485708	1485785	78	914.3	67.8	98.3	383.2	23.35917	936.8	
ESACC	R	1485995	1486026	32	75.1	387.5	116.6	413.1	1.3087521	219.1	
ESACC	R	1486313	1486358	46	109.4	419.4	554.8	643.2	13.472922	633.2	
ESACC	R	1486636	1486690	55	550.5	651.2	536.9	345.3	8.458533	402.0	
END 1486692
START 1489243
ESACC	R	1489378	1489420	43	505.8	386.6	855.5	625.8	11.542982	562.6	
ESACC	R	1489662	1489723	62	869.5	628.4	263.5	213.9	19.875912	600.7	
ESACC	R	1490161	1490220	60	243.9	223.0	285.3	617.8	10.919024	408.5	
ESACC	R	1490463	1490521	59	280.9	629.3	969.2	436.0	19.06996	611.9	
ESACC	R	1490715	1490736	22	934.3	446.7	925.7	385.8	1.6863242	147.8	
ESACC	R	1490937	1490985	49	925.6	393.6	622.7	76.2	12.004516	572.4	
ESACC	R	1491425	1491474	50	587.7	67.7	937.7	403.7	13.261639	505.6	
ESACC	R	1491887	1491935	49	934.6	411.0	669.0	93.0	11.338346	425.3	
ESACC	R	1492490	1492530	41	609.6	99.7	901.3	71.1	7.9446397	362.4	
ESACC	R	1492815	1492888	74	886.3	74.9	129.1	402.1	22.156822	926.5	
ESACC	R	1493270	1493319	50	115.7	404.9	534.1	649.3	13.110959	634.1	
ESACC	R	1493594	1493648	55	528.7	648.6	513.8	345.2	8.391206	394.4	
END 1493650
