START 7633642
END 7642342
START 7661507
END 7669985
START 7675092
END 7681431
START 7686973
END 7693629
START 7699383
END 7705404
START 7711975
END 7720314
START 7726127
END 7732821
START 7745320
END 7751277
START 7758184
END 7764998
START 7773745
END 7779816
START 7782634
END 7788516
START 7794018
END 7799743
START 7801472
END 7806767
START 7809058
END 7814441
START 7820204
END 7826702
START 7830460
END 7835565
START 7839277
END 7844698
START 7847949
END 7852943
START 7855942
END 7861531
START 7865278
END 7871830
START 7876999
END 7883507
START 7891880
END 7896956
START 7901552
END 7906703
START 7910537
END 7915083
START 7919089
END 7925710
START 7932194
END 7938438
START 7945514
END 7950543
START 7954124
END 7959127
START 7962795
END 7967915
START 7973580
END 7978635
START 7982101
END 7987366
START 7990957
END 7997283
START 8000254
END 8004931
START 8008221
END 8013473
START 8022751
END 8027629
START 8030584
END 8036285
START 8041625
END 8046597
START 8050233
END 8054841
START 8057729
END 8062474
START 8066193
END 8072049
START 8075586
END 8080887
START 8086171
END 8090702
START 8093083
END 8099784
START 8103405
END 8108376
START 8115124
END 8121558
START 8126101
END 8131924
START 8135495
END 8140071
START 8143926
END 8148587
START 8152742
END 8157308
START 8159895
END 8165019
START 8167751
END 8173695
START 8179496
END 8184380
START 8187856
END 8192900
START 8196139
END 8200636
START 8204337
END 8211477
START 8215234
END 8220142
START 8223122
END 8228400
START 8231330
END 8236751
START 8239234
END 8245264
START 8247748
END 8253066
START 8255900
END 8260625
START 8264452
END 8271204
START 8274861
END 8281275
START 8284174
END 8290016
START 8293303
END 8299433
START 8301704
END 8308395
START 8310627
END 8316790
START 8320808
END 8326336
START 8330160
END 8335582
START 8338049
END 8343465
START 8345897
END 8350679
START 8353579
END 8359406
START 8361808
END 8366727
START 8369034
END 8374657
START 8377131
END 8382823
START 8385235
END 8391289
START 8394509
END 8399586
START 8402684
END 8408785
START 8411741
END 8417992
START 8419789
END 8424937
START 8427395
END 8432002
START 8436238
END 8443436
START 8447040
END 8451885
START 8453958
END 8458575
START 8460296
END 8465298
START 8467360
END 8472389
START 8474558
END 8479725
START 8481247
END 8488270
START 8490410
END 8495256
START 8497683
END 8501805
START 8503814
END 8507902
START 8512242
END 8517846
START 8519467
END 8524230
START 8525613
END 8530507
START 8532996
END 8538514
START 8540261
END 8546417
START 8548749
END 8553696
START 8556493
END 8560882
START 8563390
END 8567653
START 8569845
END 8575799
START 8579422
END 8584499
