START 8472129
ESACC	R	8472486	8472523	38	530.1	409.2	294.2	416.5	6.483975	296.0	
ESACC	R	8472642	8472673	32	299.4	418.9	135.2	464.7	4.6146636	265.4	
ESACC	R	8472862	8472898	37	148.2	467.9	398.1	717.2	9.527634	523.7	
ESACC	R	8473015	8473046	32	400.0	729.9	608.6	733.0	5.623252	370.7	
ESACC	R	8473159	8473202	44	598.7	733.9	864.1	549.3	8.6863165	403.1	
ESACC	R	8473255	8473296	42	853.5	557.9	798.6	185.9	10.354222	498.6	
ESACC	R	8473374	8473421	48	791.9	194.6	879.8	624.5	11.995721	539.9	
ESACC	R	8473611	8473662	52	875.7	654.5	570.1	210.1	14.732596	562.7	
ESACC	R	8473812	8473860	49	566.1	213.5	257.1	236.3	8.524645	415.7	
ESACC	R	8474217	8474233	17	237.2	234.8	269.6	212.9	1.0745683	100.4	
ESACC	R	8474344	8474398	55	265.6	208.5	769.9	689.5	18.94615	669.0	
ESACC	R	8474681	8474705	25	776.9	696.7	872.9	697.6	2.5431595	244.0	
ESACC	R	8475259	8475330	72	861.7	686.6	197.3	184.2	22.415934	656.0	
ESACC	R	8475446	8475471	26	184.9	174.4	260.2	199.9	2.1653302	206.4	
ESACC	R	8476056	8476071	16	250.3	198.4	282.1	203.7	0.88134044	85.0	
ESACC	R	8476337	8476389	53	274.4	197.6	911.5	92.3	17.4178	555.8	
ESACC	R	8476681	8476699	19	894.9	90.4	853.4	64.3	1.3211378	110.9	
ESACC	R	8476877	8476892	16	854.9	65.4	891.9	75.1	1.0244719	95.1	
ESACC	R	8477255	8477302	48	889.5	68.8	880.1	513.7	12.174948	451.3	
ESACC	R	8477369	8477388	20	892.7	529.4	888.3	467.7	1.6898603	133.2	
ESACC	R	8477612	8477617	6	895.9	463.3	902.4	458.5	0.21757391	39.0	
ESACC	R	8477810	8477868	59	900.5	456.4	387.3	630.2	14.607652	492.4	
ESACC	R	8477956	8477992	37	387.1	635.5	277.5	657.9	3.02356	242.0	
ESACC	R	8478136	8478194	59	275.9	656.0	586.8	151.9	16.234423	521.8	
ESACC	R	8478395	8478424	30	578.8	154.0	577.6	50.7	2.8816407	205.6	
ESACC	R	8478769	8478821	53	568.9	61.7	274.0	617.0	17.260906	583.0	
ESACC	R	8479164	8479184	21	292.7	634.6	233.1	653.4	1.6787423	156.3	
ESACC	R	8479560	8479602	43	239.1	647.7	104.3	426.2	7.0202155	323.8	
ESACC	R	8480232	8480284	53	103.2	413.6	531.5	657.7	13.3190565	504.8	
ESACC	R	8480580	8480601	22	539.6	659.0	578.3	708.1	1.6909101	121.0	
ESACC	R	8480991	8481036	46	574.0	713.3	520.5	419.3	8.186356	350.1	
END 8481038
START 8491411
ESACC	R	8491613	8491657	45	507.0	397.2	442.0	650.4	7.2082696	383.8	
ESACC	R	8491841	8491905	65	443.1	663.1	857.0	665.9	11.096771	423.9	
ESACC	R	8492288	8492350	63	840.4	674.3	234.4	210.8	20.623108	714.9	
ESACC	R	8492535	8492552	18	228.6	206.1	271.4	204.6	1.1669626	104.4	
ESACC	R	8493025	8493074	50	248.0	198.4	813.0	106.5	15.543489	552.2	
ESACC	R	8493249	8493272	24	806.3	108.4	884.5	93.9	2.1426482	182.4	
ESACC	R	8493513	8493558	46	881.4	91.7	894.0	498.5	11.150283	454.4	
ESACC	R	8493728	8493748	21	905.6	502.9	907.5	445.8	1.5630629	114.5	
ESACC	R	8494118	8494172	55	898.3	442.2	503.9	734.0	13.215077	602.3	
ESACC	R	8494293	8494329	37	501.1	740.1	236.3	661.6	7.4228745	415.2	
ESACC	R	8494556	8494609	54	235.3	665.6	504.5	145.2	16.04206	615.9	
ESACC	R	8494779	8494802	24	497.0	146.7	573.9	99.6	2.4996905	227.5	
ESACC	R	8495207	8495263	57	566.1	99.1	165.9	641.1	18.379595	597.4	
ESACC	R	8495398	8495420	23	181.4	660.7	256.4	664.9	2.0058503	188.6	
ESACC	R	8495990	8496029	40	247.4	666.0	101.2	442.2	7.2197523	344.8	
ESACC	R	8496501	8496550	50	95.2	439.6	548.7	728.2	14.437124	554.3	
END 8497127
START 8500417
ESACC	R	8500666	8500715	50	506.9	406.9	343.0	810.3	11.786426	466.0	
ESACC	R	8500842	8500888	47	367.8	833.8	708.5	771.8	9.217634	507.7	
ESACC	R	8500941	8500980	40	713.7	773.7	843.1	716.0	3.7564821	319.8	
ESACC	R	8501137	8501177	41	851.4	710.2	878.9	442.1	7.272937	362.1	
ESACC	R	8501323	8501367	45	876.1	441.6	713.8	120.5	9.922804	409.0	
ESACC	R	8501549	8501593	45	706.6	125.0	329.0	167.8	10.427961	436.8	
ESACC	R	8501741	8501768	28	326.2	169.7	244.0	208.4	2.4946344	215.0	
ESACC	R	8502520	8502572	53	242.1	207.8	876.7	310.7	17.41079	605.5	
ESACC	R	8502657	8502699	43	864.4	326.3	914.7	83.7	6.817178	326.4	
ESACC	R	8503660	8503711	52	901.5	73.5	875.4	418.2	9.49546	352.7	
ESACC	R	8503996	8504016	21	877.1	432.0	935.0	444.1	1.5793794	132.3	
ESACC	R	8504116	8504162	47	927.7	444.0	551.0	121.2	13.5606575	495.6	
ESACC	R	8504465	8504482	18	545.2	120.2	576.9	96.8	1.0923141	92.2	
ESACC	R	8504585	8504638	54	569.2	98.2	208.8	629.7	17.581818	579.5	
ESACC	R	8505330	8505370	41	231.9	648.6	109.5	451.4	6.2744966	285.0	
ESACC	R	8505897	8505945	49	102.5	450.2	549.9	710.5	13.933942	584.2	
END 8506487
START 8508399
ESACC	R	8508664	8508711	48	496.2	392.8	792.8	554.1	9.241322	479.1	
ESACC	R	8508844	8508877	34	814.1	558.1	872.5	682.8	3.707684	311.3	
ESACC	R	8509043	8509090	48	883.9	691.2	803.5	212.0	13.215474	523.6	
ESACC	R	8509302	8509342	41	797.6	215.0	543.1	118.2	7.478524	382.0	
ESACC	R	8509468	8509508	41	537.9	113.5	226.5	203.0	8.889275	409.9	
ESACC	R	8509705	8509723	19	218.7	205.6	263.3	196.9	1.2392523	108.5	
ESACC	R	8510068	8510118	51	249.8	195.5	853.1	84.1	16.616524	609.0	
ESACC	R	8510371	8510391	21	840.1	86.6	896.0	93.0	1.508967	122.9	
ESACC	R	8510950	8510995	46	890.2	89.8	864.8	465.7	10.34929	418.6	
ESACC	R	8511170	8511188	19	867.7	467.1	902.0	435.0	1.2723151	99.7	
ESACC	R	8511407	8511473	67	896.5	426.3	223.6	674.9	19.192698	624.1	
ESACC	R	8511612	8511671	60	215.7	673.4	595.7	111.3	18.508446	556.3	
ESACC	R	8511926	8511948	23	590.1	113.7	534.7	94.0	1.6263111	129.4	
ESACC	R	8512065	8512129	65	541.7	96.0	186.6	551.8	15.857674	487.6	
ESACC	R	8512356	8512391	36	192.0	567.0	253.3	646.5	2.7120512	249.6	
ESACC	R	8512605	8512646	42	261.9	655.1	124.3	461.5	6.422547	320.4	
ESACC	R	8513432	8513485	54	105.3	462.7	544.3	689.1	13.294396	621.1	
ESACC	R	8513597	8513650	54	547.2	695.1	118.4	509.0	12.567738	510.5	
ESACC	R	8513813	8513837	25	97.7	498.2	103.7	420.4	2.1345484	193.9	
ESACC	R	8514213	8514264	52	102.3	415.2	602.9	727.6	15.852893	652.2	
ESACC	R	8514816	8514836	21	585.6	740.0	563.6	707.6	1.0516881	85.2	
END 8514838
START 8517573
ESACC	R	8518234	8518289	56	879.1	689.4	230.7	287.1	20.503742	690.0	
ESACC	R	8518379	8518412	34	226.0	279.9	269.3	189.1	2.7940946	177.4	
ESACC	R	8518858	8518916	59	248.8	181.3	908.2	91.3	17.922937	659.4	
ESACC	R	8519424	8519474	51	904.8	97.9	898.6	546.7	12.263405	401.2	
ESACC	R	8519532	8519554	23	902.8	541.6	913.9	462.2	2.1864066	157.7	
ESACC	R	8519689	8519734	46	913.3	455.5	606.2	151.3	11.84362	451.1	
ESACC	R	8519990	8520010	21	602.0	142.8	559.9	102.7	1.6157634	150.9	
ESACC	R	8520677	8520741	65	552.3	103.0	241.3	711.1	18.61517	572.8	
ESACC	R	8520834	8520858	25	239.6	726.0	269.6	657.2	2.0091088	150.9	
ESACC	R	8521416	8521461	46	261.6	653.5	543.2	726.9	7.8425636	489.6	
ESACC	R	8521548	8521601	54	546.4	733.8	136.3	468.7	13.153218	607.4	
ESACC	R	8521930	8521996	67	104.2	455.5	612.4	747.7	15.716471	631.0	
ESACC	R	8522114	8522131	18	588.6	747.8	551.7	729.5	1.109368	108.5	
END 8522617
START 8524222
ESACC	R	8524380	8524428	49	517.6	398.7	859.5	675.6	11.94915	597.7	
ESACC	R	8524732	8524770	39	867.6	675.1	621.8	602.9	6.8803906	319.5	
ESACC	R	8524799	8524851	53	620.9	607.4	273.4	224.7	14.200841	612.8	
ESACC	R	8525134	8525148	15	270.2	226.3	278.6	193.8	0.9363831	82.4	
ESACC	R	8525316	8525369	54	272.1	193.0	805.4	97.4	14.7525425	621.6	
ESACC	R	8525521	8525544	24	806.9	101.5	887.5	91.9	2.1856852	187.4	
ESACC	R	8526031	8526076	46	874.1	84.9	876.1	453.9	10.137504	374.1	
ESACC	R	8526133	8526154	22	885.3	466.1	933.2	409.3	2.0138364	151.1	
ESACC	R	8526368	8526413	46	923.2	399.3	619.2	153.2	10.69932	455.4	
ESACC	R	8526615	8526639	25	607.1	150.4	558.5	84.7	2.2727492	187.1	
ESACC	R	8527114	8527175	62	550.9	90.2	92.0	524.8	17.238522	559.9	
ESACC	R	8527301	8527338	38	93.4	540.5	242.7	653.8	5.014344	432.8	
ESACC	R	8527637	8527661	25	252.5	673.0	226.3	611.7	1.7974486	119.3	
ESACC	R	8527839	8527859	21	219.5	619.3	270.4	639.2	1.4687476	129.3	
ESACC	R	8528027	8528063	37	261.7	638.2	120.0	449.6	6.382036	374.5	
ESACC	R	8528524	8528571	48	111.8	445.9	594.3	728.3	15.024746	636.9	
ESACC	R	8528791	8528804	14	584.9	728.8	552.1	728.7	0.88649184	81.6	
END 8529118
START 8530710
ESACC	R	8530919	8530982	64	517.8	401.4	925.1	527.3	11.543001	571.6	
ESACC	R	8531290	8531331	42	906.5	522.2	871.5	687.6	4.5474825	351.0	
ESACC	R	8531497	8531558	62	867.6	696.0	324.4	275.8	18.580854	744.0	
ESACC	R	8531757	8531784	28	315.2	264.6	233.7	170.1	3.4506438	236.3	
ESACC	R	8532155	8532205	51	221.3	166.7	869.4	105.9	17.573248	659.7	
ESACC	R	8532740	8532781	42	847.1	108.4	897.4	435.1	9.100201	431.9	
ESACC	R	8533190	8533242	53	905.7	456.9	584.3	157.0	12.045115	472.0	
ESACC	R	8533692	8533748	57	571.2	145.2	253.4	625.1	15.803917	603.4	
ESACC	R	8534221	8534242	22	280.9	645.0	222.3	654.0	1.5917982	139.3	
ESACC	R	8534518	8534556	39	238.3	648.4	118.7	444.3	6.408617	316.7	
ESACC	R	8534987	8535034	48	101.5	442.5	572.9	720.0	14.706329	616.1	
END 8535422
START 8539374
ESACC	R	8539532	8539579	48	516.5	373.1	908.5	672.9	13.369288	568.0	
ESACC	R	8539926	8539947	22	889.9	677.6	822.7	683.1	1.783834	139.6	
ESACC	R	8540003	8540066	64	831.8	682.0	214.6	209.5	20.993937	660.0	
ESACC	R	8540196	8540219	24	218.9	202.4	278.3	203.4	1.6187689	162.2	
ESACC	R	8540376	8540434	59	267.6	207.6	854.1	90.5	16.222832	618.2	
ESACC	R	8540726	8540747	22	842.9	103.2	902.4	104.4	1.5955168	133.9	
ESACC	R	8541012	8541064	53	892.7	102.9	926.9	443.8	9.39678	417.9	
ESACC	R	8541335	8541382	48	913.0	455.9	566.9	139.0	12.846532	529.5	
ESACC	R	8541735	8541751	17	559.4	134.3	595.5	115.1	1.1314489	91.2	
ESACC	R	8541833	8541873	41	591.3	110.7	335.4	378.2	10.266053	511.7	
ESACC	R	8541912	8541945	34	340.7	379.7	516.3	193.3	7.122326	421.3	
ESACC	R	8542075	8542142	68	513.4	196.3	284.3	723.3	15.708568	612.3	
ESACC	R	8542169	8542206	38	287.0	712.4	309.3	613.9	2.7256715	285.8	
ESACC	R	8542321	8542356	36	307.8	599.4	238.5	644.0	2.2266517	273.5	
ESACC	R	8542727	8542799	73	223.6	651.7	116.9	460.7	5.9208035	376.3	
ESACC	R	8543292	8543344	53	101.2	462.6	557.6	729.0	14.182992	647.5	
END 8543784
START 8545247
ESACC	R	8545422	8545467	46	507.1	392.7	898.5	689.0	13.280088	591.0	
ESACC	R	8545788	8545844	57	894.6	693.5	279.5	237.5	20.637417	756.8	
ESACC	R	8546134	8546147	14	271.9	228.4	275.3	198.1	0.85145116	71.0	
ESACC	R	8546309	8546368	60	257.4	192.2	870.7	90.3	16.813646	645.5	
ESACC	R	8546911	8546955	45	867.5	97.6	918.6	441.2	9.537668	420.0	
ESACC	R	8547474	8547522	49	918.9	445.5	603.9	101.8	12.7699175	479.4	
ESACC	R	8547840	8547855	16	593.1	100.1	557.6	98.7	0.98009086	88.3	
ESACC	R	8548106	8548162	57	567.2	102.2	131.8	645.3	18.94452	606.9	
ESACC	R	8548222	8548248	27	152.5	662.1	271.2	648.0	3.1879463	258.6	
ESACC	R	8548782	8548818	37	264.3	652.8	119.1	469.3	6.3227654	336.8	
ESACC	R	8549281	8549335	55	109.5	462.0	576.3	718.8	14.319615	622.3	
END 8549906
START 8551363
ESACC	R	8551562	8551598	37	521.7	386.7	728.5	688.6	10.021957	524.2	
ESACC	R	8551795	8551835	41	743.8	714.1	882.4	697.5	3.7028072	308.2	
ESACC	R	8552193	8552257	65	887.6	692.4	253.1	340.1	19.50614	671.9	
ESACC	R	8552392	8552428	37	238.8	325.7	278.0	195.5	3.7860222	282.3	
ESACC	R	8553034	8553083	50	254.9	182.8	826.8	93.3	15.696228	583.8	
ESACC	R	8553322	8553344	23	822.0	84.8	893.5	82.4	1.9206014	165.7	
ESACC	R	8553584	8553634	51	889.5	78.5	907.2	418.6	9.355321	395.0	
ESACC	R	8553863	8553936	74	906.9	437.4	248.0	642.6	18.483612	524.8	
ESACC	R	8554032	8554084	53	237.6	646.3	577.6	132.7	16.87255	689.7	
ESACC	R	8554248	8554268	21	562.9	141.5	569.7	86.5	1.5498556	131.1	
ESACC	R	8554488	8554564	77	562.9	93.8	279.3	719.4	18.728613	565.8	
ESACC	R	8554678	8554702	25	279.1	713.7	221.6	650.7	2.2839546	188.9	
ESACC	R	8555066	8555109	44	218.4	658.1	96.0	428.2	7.04105	349.6	
ESACC	R	8555545	8555610	66	87.5	429.8	555.3	707.8	14.635709	622.6	
END 8556085
START 8557649
ESACC	R	8557797	8557851	55	515.5	386.5	879.8	713.7	13.25486	609.9	
ESACC	R	8558062	8558079	18	878.4	713.5	857.6	673.9	1.1876059	99.5	
ESACC	R	8558219	8558273	55	855.4	681.7	256.8	221.2	20.415861	764.6	
ESACC	R	8558624	8558683	60	260.5	204.4	867.4	87.0	16.743755	609.8	
ESACC	R	8559286	8559331	46	859.5	82.9	898.9	419.9	9.330639	352.2	
ESACC	R	8559588	8559634	47	906.0	428.4	579.1	113.6	12.439401	490.6	
ESACC	R	8560099	8560157	59	552.5	101.8	183.5	581.5	16.588465	579.6	
ESACC	R	8560342	8560364	23	197.2	609.8	252.4	663.7	2.0751784	181.0	
ESACC	R	8560775	8560815	41	246.0	670.3	90.3	452.4	7.215539	354.0	
ESACC	R	8561432	8561480	49	82.7	457.0	553.5	766.9	15.073362	600.7	
END 8562011
START 8565472
ESACC	R	8565644	8565695	52	498.1	384.4	859.9	649.0	12.193777	576.0	
ESACC	R	8566117	8566194	78	866.9	663.8	259.9	210.5	20.485252	707.1	
ESACC	R	8566765	8566812	48	258.9	215.4	809.1	104.1	15.268268	597.1	
ESACC	R	8566977	8567000	24	795.5	111.5	880.6	97.6	2.3225842	192.7	
ESACC	R	8567399	8567443	45	873.8	91.5	882.4	459.2	10.104272	395.3	
ESACC	R	8567589	8567607	19	889.8	477.2	904.9	440.8	1.0767548	93.1	
ESACC	R	8567990	8568035	46	907.8	439.6	605.6	128.1	11.896536	450.9	
ESACC	R	8568671	8568724	54	585.7	128.7	234.2	616.9	16.510847	562.0	
ESACC	R	8569397	8569433	37	251.9	651.4	99.8	458.7	6.623531	351.8	
ESACC	R	8569840	8569887	48	93.3	450.9	575.4	725.7	14.901915	595.1	
END 8570523
START 8572103
ESACC	R	8572261	8572307	47	505.9	374.9	868.2	736.4	13.860965	591.0	
ESACC	R	8572456	8572479	24	868.1	728.2	862.5	645.5	2.2073612	175.0	
ESACC	R	8572642	8572707	66	858.5	650.0	816.3	279.4	10.188693	339.6	
ESACC	R	8572792	8572853	62	809.7	268.2	259.0	226.0	15.051551	508.2	
ESACC	R	8573100	8573121	22	250.1	216.7	270.1	172.5	1.3467141	102.1	
ESACC	R	8573285	8573336	52	260.9	176.0	879.4	112.9	16.807354	633.3	
ESACC	R	8573978	8574025	48	876.5	107.5	887.7	448.3	9.38031	352.9	
ESACC	R	8574422	8574469	48	900.7	443.9	617.4	241.1	9.53093	349.5	
ESACC	R	8574586	8574622	37	614.1	242.0	579.3	81.0	4.60468	255.1	
ESACC	R	8574855	8574961	107	574.2	84.4	541.3	130.1	1.5662882	511.4	
ESACC	R	8575581	8575637	57	537.7	123.8	199.4	627.4	16.626749	605.0	
ESACC	R	8575809	8575831	23	204.7	655.0	259.9	664.1	1.4961243	159.3	
ESACC	R	8576278	8576317	40	248.8	676.8	117.1	455.5	6.959329	310.7	
ESACC	R	8577027	8577084	58	99.4	455.1	554.9	729.5	14.278592	523.3	
END 8577673
START 8580208
ESACC	R	8580355	8580401	47	502.1	394.7	866.5	771.1	14.1324215	606.5	
ESACC	R	8580498	8580520	23	865.7	768.2	870.1	680.3	2.325203	183.7	
ESACC	R	8581163	8581214	52	869.6	666.5	308.9	273.5	18.547857	672.4	
ESACC	R	8581331	8581352	22	295.5	257.2	262.7	203.7	1.7449503	155.0	
ESACC	R	8581780	8581832	53	258.6	198.7	925.5	95.3	18.17737	648.6	
ESACC	R	8582103	8582120	18	912.5	100.4	871.5	90.3	1.1293148	103.3	
ESACC	R	8582589	8582640	52	881.2	83.2	902.2	437.5	9.749655	451.9	
ESACC	R	8583059	8583121	63	896.5	455.9	297.6	681.4	17.162811	626.5	
ESACC	R	8583258	8583275	18	285.3	686.4	281.3	654.4	0.8691924	83.6	
ESACC	R	8583380	8583438	59	275.6	663.6	564.4	126.5	16.72271	655.1	
ESACC	R	8583958	8584017	60	542.2	136.9	239.0	594.8	15.0935135	505.9	
ESACC	R	8584795	8584842	48	270.2	606.7	109.6	439.9	6.2611427	257.9	
ESACC	R	8585179	8585224	46	108.0	448.3	532.0	402.7	11.559735	545.0	
END 8585818
START 8587329
ESACC	R	8591500	8591551	52	508.1	392.4	146.3	437.2	9.923239	426.4	
ESACC	R	8591934	8591984	51	115.3	439.6	559.8	675.0	13.575821	528.7	
END 8592538
START 8594793
ESACC	R	8594942	8594998	57	504.7	393.9	885.1	711.3	13.395594	600.6	
ESACC	R	8595174	8595199	26	886.0	706.5	871.8	632.0	2.0242946	159.6	
ESACC	R	8595591	8595658	68	866.3	639.0	262.2	221.2	19.885862	684.9	
ESACC	R	8596188	8596236	49	247.3	206.6	848.6	121.6	16.46509	642.2	
ESACC	R	8596420	8596442	23	843.4	117.9	899.2	107.5	1.5231658	152.5	
ESACC	R	8596770	8596824	55	898.1	108.0	930.6	456.1	9.576076	411.6	
ESACC	R	8597007	8597019	13	926.3	474.0	925.3	450.3	0.6489695	56.1	
ESACC	R	8597244	8597290	47	919.9	450.5	599.7	130.0	12.414511	462.5	
ESACC	R	8597797	8597848	52	572.3	125.7	222.4	475.0	13.621292	459.0	
ESACC	R	8598015	8598048	34	223.8	490.3	260.9	670.6	5.0067296	311.0	
ESACC	R	8598953	8599000	48	265.3	658.2	85.5	425.8	7.932984	391.4	
ESACC	R	8599131	8599152	22	75.3	424.4	109.9	451.5	1.1804918	116.5	
ESACC	R	8599558	8599602	45	102.3	445.2	529.7	395.5	11.664188	499.0	
ESACC	R	8599776	8599822	47	523.1	395.9	578.3	628.2	6.5934014	395.0	
ESACC	R	8600014	8600053	40	571.6	642.0	518.1	406.1	6.671057	379.4	
END 8600285
START 8602117
ESACC	R	8602231	8602247	17	490.9	382.8	504.0	385.2	0.36905584	58.5	
ESACC	R	8602266	8602315	50	499.1	384.9	862.4	713.3	13.274861	610.2	
ESACC	R	8602433	8602453	21	858.0	722.8	873.6	668.0	1.5143071	129.2	
ESACC	R	8602724	8602746	23	874.6	673.7	807.4	681.0	1.7931468	150.8	
ESACC	R	8602835	8602903	69	817.9	677.2	322.6	238.0	17.999672	602.3	
ESACC	R	8603054	8603077	24	319.4	231.8	254.5	185.8	2.1917894	197.7	
ESACC	R	8603473	8603533	61	244.1	186.8	837.3	97.2	16.266878	579.0	
ESACC	R	8603777	8603799	23	834.4	99.0	906.0	101.1	1.920442	167.5	
ESACC	R	8604117	8604171	55	896.9	95.4	915.2	486.9	10.737063	367.7	
ESACC	R	8604247	8604268	22	915.5	499.2	894.0	435.5	1.8344623	156.9	
ESACC	R	8604712	8604769	58	894.7	442.8	489.5	298.2	11.720617	404.2	
ESACC	R	8604862	8604900	39	478.2	284.8	588.1	118.4	5.564871	345.6	
ESACC	R	8605492	8605551	60	564.1	119.4	181.7	590.4	16.609406	561.4	
ESACC	R	8605717	8605739	23	223.5	613.3	264.6	645.3	1.4026443	132.6	
ESACC	R	8606203	8606239	37	257.2	647.8	101.4	464.2	6.49606	313.4	
ESACC	R	8606765	8606812	48	92.2	460.9	560.4	720.7	14.372713	553.7	
ESACC	R	8607409	8607451	43	552.7	723.8	516.0	397.7	8.99034	433.1	
END 8607613
START 8609078
ESACC	R	8612493	8612534	42	518.2	387.0	555.7	200.3	5.339055	239.9	
ESACC	R	8613003	8613040	38	530.9	200.2	490.7	424.0	6.3667755	335.3	
END 8614941
START 8616802
END 8622687
START 8623945
ESACC	R	8627347	8627380	34	509.1	397.2	523.5	232.2	4.645441	277.5	
ESACC	R	8627664	8627705	42	518.7	241.2	477.6	437.3	5.609423	244.4	
END 8629709
START 8631588
ESACC	R	8631775	8631837	63	507.0	391.3	880.7	717.7	13.4190645	627.7	
ESACC	R	8632032	8632046	15	868.3	711.9	879.2	683.1	0.8180395	74.4	
ESACC	R	8632188	8632240	53	879.4	687.6	470.5	442.7	12.884259	496.2	
ESACC	R	8632342	8632396	55	453.0	424.7	195.3	149.6	10.3987055	463.7	
ESACC	R	8632513	8632546	34	179.1	142.1	252.6	173.3	2.172247	262.1	
ESACC	R	8632893	8632951	59	259.2	178.4	888.8	85.9	17.184816	639.7	
ESACC	R	8633657	8633715	59	877.0	105.0	883.4	491.4	10.616763	404.5	
ESACC	R	8633823	8633840	18	876.5	501.6	912.6	470.5	1.2840412	115.1	
ESACC	R	8634149	8634212	64	913.5	465.8	221.4	716.1	19.607512	628.4	
ESACC	R	8634309	8634367	59	215.2	727.3	570.2	167.6	18.024672	726.9	
ESACC	R	8634520	8634543	24	557.3	165.0	581.5	97.2	2.0105715	143.6	
ESACC	R	8635210	8635265	56	572.3	95.5	127.1	642.9	19.19122	594.9	
ESACC	R	8635400	8635426	27	146.4	682.0	244.1	653.4	2.7091734	200.7	
ESACC	R	8635973	8636012	40	230.1	652.9	77.4	441.0	7.039852	322.2	
ESACC	R	8636440	8636483	44	69.9	443.1	516.3	398.6	12.111302	567.9	
END 8637308
START 8640300
ESACC	R	8640507	8640570	64	509.2	401.0	879.6	648.8	12.095759	577.6	
ESACC	R	8640778	8640832	55	862.5	643.8	376.1	373.2	15.097341	477.0	
ESACC	R	8640925	8640952	28	373.7	380.1	286.5	248.8	4.384957	318.4	
ESACC	R	8641232	8641283	52	279.6	237.7	562.0	441.0	9.623121	456.8	
ESACC	R	8641432	8641451	20	554.4	443.2	513.0	410.7	1.46095	123.1	
ESACC	R	8642776	8642806	31	494.7	397.5	535.2	316.3	2.5383186	151.1	
ESACC	R	8643448	8643500	53	527.7	316.4	264.4	580.5	10.267228	453.7	
ESACC	R	8643727	8643779	53	271.4	587.7	537.5	400.2	8.930965	474.6	
ESACC	R	8643932	8643946	15	522.5	394.8	491.2	390.2	0.87418866	85.4	
END 8645055
START 8646406
END 8651287
START 8653348
END 8658190
START 8659956
ESACC	R	8660553	8660592	40	511.7	395.0	266.7	246.8	7.9049377	367.3	
ESACC	R	8660859	8660878	20	254.9	244.5	263.0	194.4	1.4149051	106.7	
ESACC	R	8661027	8661066	40	253.1	193.2	483.7	370.4	8.043795	482.2	
ESACC	R	8661207	8661229	23	483.9	377.8	523.6	394.2	1.1904118	137.2	
ESACC	R	8661304	8661351	48	521.8	392.5	851.0	118.4	11.772598	441.6	
ESACC	R	8661577	8661635	59	847.8	114.6	486.4	425.8	13.113454	544.4	
ESACC	R	8661742	8661762	21	472.0	425.4	516.9	393.2	1.5328673	133.3	
END 8664601
START 8666253
END 8671670
START 8673310
ESACC	R	8673547	8673588	42	491.3	391.2	636.2	426.9	4.120091	337.3	
ESACC	R	8673820	8673849	30	641.4	435.4	482.0	387.7	4.5888777	291.9	
ESACC	R	8676741	8676783	43	469.9	399.1	230.8	678.5	10.034743	479.8	
ESACC	R	8676994	8677014	21	241.6	680.5	263.9	655.0	0.9095706	100.2	
ESACC	R	8677208	8677263	56	257.1	650.4	555.0	368.4	11.236257	522.0	
ESACC	R	8677393	8677411	19	535.4	370.2	491.6	394.7	1.3929517	120.5	
END 8678543
START 8680151
ESACC	R	8681595	8681640	46	510.0	395.4	793.6	227.8	9.071262	482.5	
ESACC	R	8681905	8681955	51	782.5	241.7	504.2	409.4	8.957578	469.4	
ESACC	R	8682126	8682147	22	488.0	413.1	521.1	403.3	0.9546818	107.9	
ESACC	R	8682789	8682819	31	508.9	407.9	528.6	308.7	2.835468	183.1	
ESACC	R	8683433	8683471	39	524.1	308.5	566.5	100.6	5.9404693	306.7	
ESACC	R	8683877	8683946	70	559.0	94.1	196.4	763.5	20.61247	532.0	
ESACC	R	8684033	8684056	24	215.5	779.3	227.4	691.6	2.3445246	194.7	
ESACC	R	8684234	8684247	14	220.9	698.7	245.5	680.2	0.8215943	81.0	
ESACC	R	8684477	8684496	20	234.9	676.1	264.2	648.4	1.0830524	101.9	
ESACC	R	8684629	8684684	56	258.6	650.8	873.1	441.8	17.45194	682.8	
ESACC	R	8685105	8685127	23	868.8	444.3	904.9	449.4	0.9753574	122.7	
ESACC	R	8685244	8685291	48	907.6	445.6	581.5	203.8	11.113649	464.5	
ESACC	R	8685427	8685454	28	577.9	200.5	576.9	90.6	3.0785556	214.1	
ESACC	R	8685863	8685920	58	559.4	97.1	184.9	543.7	16.001495	536.2	
ESACC	R	8686082	8686111	30	184.8	612.1	239.2	641.4	1.6561391	191.8	
ESACC	R	8686621	8686667	47	243.2	642.2	129.0	450.9	6.041045	331.7	
ESACC	R	8686992	8687055	64	117.1	448.1	523.1	564.4	11.42867	513.4	
ESACC	R	8687346	8687381	36	512.1	570.0	524.0	394.1	4.8970656	261.4	
END 8687928
START 8689720
ESACC	R	8692339	8692375	37	484.7	382.7	507.4	278.5	2.9897356	159.6	
ESACC	R	8693047	8693102	56	513.4	299.4	221.8	660.0	12.692516	497.3	
ESACC	R	8693312	8693364	53	224.8	678.9	542.4	442.4	10.777335	595.3	
ESACC	R	8693461	8693489	29	525.7	442.7	489.5	382.8	1.9519614	158.6	
END 8695210
START 8696861
ESACC	R	8699196	8699241	46	503.7	386.4	291.0	201.0	7.8248663	420.1	
ESACC	R	8699609	8699659	51	270.1	189.1	841.0	82.9	15.74951	645.1	
ESACC	R	8699827	8699849	23	829.9	78.7	893.5	97.2	1.7816211	169.6	
ESACC	R	8700289	8700351	63	889.8	93.5	905.6	506.3	11.301972	364.7	
ESACC	R	8700405	8700430	26	905.0	519.5	868.3	450.0	2.140893	150.7	
ESACC	R	8700612	8700667	56	877.1	452.8	498.9	420.3	10.316638	417.2	
ESACC	R	8700778	8700822	45	481.1	419.8	564.3	200.3	6.5731773	322.4	
ESACC	R	8701260	8701298	39	551.0	193.5	515.7	349.5	4.4897985	346.5	
ESACC	R	8701471	8701525	55	514.0	369.1	219.3	676.7	11.633852	531.8	
ESACC	R	8701645	8701667	23	214.4	690.5	258.0	663.4	1.3728387	141.5	
ESACC	R	8702085	8702124	40	254.0	662.2	116.2	463.0	6.5452504	334.9	
ESACC	R	8702664	8702706	43	105.8	454.8	515.9	409.3	11.185061	582.0	
ESACC	R	8702911	8702964	54	512.3	403.4	590.3	658.5	7.34528	402.7	
END 8703181
START 8705198
ESACC	R	8706196	8706235	40	510.9	387.5	267.7	209.5	8.339877	365.9	
ESACC	R	8706439	8706474	36	255.7	205.1	518.5	381.3	8.737803	531.3	
ESACC	R	8707958	8708001	44	500.5	383.3	546.9	115.9	7.589051	287.9	
ESACC	R	8708307	8708359	53	534.7	119.4	468.3	388.2	7.749615	415.6	
END 8710194
START 8713296
ESACC	R	8714104	8714153	50	505.5	388.9	256.6	236.5	8.057895	383.9	
ESACC	R	8714485	8714536	52	236.7	224.4	854.3	95.8	17.089878	640.2	
ESACC	R	8715036	8715081	46	845.9	97.6	491.6	401.8	12.829702	522.8	
ESACC	R	8715218	8715238	21	491.5	406.3	522.4	387.6	1.0014963	107.4	
ESACC	R	8715288	8715339	52	521.4	391.0	890.5	406.3	10.03889	505.0	
ESACC	R	8715594	8715642	49	902.6	412.5	599.2	125.0	11.454852	425.5	
ESACC	R	8716157	8716231	75	570.6	121.2	265.9	663.6	17.034592	577.9	
ESACC	R	8716846	8716892	47	267.7	657.4	108.1	440.1	7.2854843	352.4	
ESACC	R	8717208	8717260	53	93.2	433.5	546.0	385.4	12.326621	599.5	
ESACC	R	8717383	8717401	19	547.0	387.5	500.2	387.3	1.2946175	115.6	
END 8717849
START 8719544
END 8724308
START 8725944
ESACC	R	8729009	8729043	35	504.5	402.3	550.8	280.9	3.6382208	287.1	
ESACC	R	8729332	8729371	40	551.8	284.3	513.8	394.8	3.2729743	298.8	
END 8731355
START 8733020
ESACC	R	8735179	8735229	51	496.2	388.0	831.8	197.3	10.600648	464.2	
ESACC	R	8735498	8735550	53	823.7	215.1	541.2	369.9	8.865694	433.6	
ESACC	R	8736233	8736271	39	522.3	379.1	529.3	222.6	4.394182	178.5	
ESACC	R	8736503	8736591	89	529.2	224.9	395.6	576.9	10.445734	274.5	
ESACC	R	8736941	8736980	40	379.8	564.9	264.6	632.6	3.6274965	334.5	
ESACC	R	8737247	8737290	44	248.5	640.0	101.7	439.3	6.722391	319.2	
ESACC	R	8737487	8737540	54	87.1	439.9	533.9	380.0	12.221562	640.2	
ESACC	R	8737670	8737686	17	535.6	380.8	502.2	381.8	0.9256307	88.5	
END 8738308
START 8739393
ESACC	R	8740271	8740307	37	502.4	384.6	320.0	279.4	5.8311024	303.5	
ESACC	R	8740500	8740546	47	303.3	283.0	544.2	391.6	7.292059	370.9	
ESACC	R	8740669	8740727	59	536.9	391.8	874.9	123.8	11.832569	477.0	
ESACC	R	8741142	8741192	51	857.6	136.0	575.2	323.2	9.303913	445.7	
ESACC	R	8741320	8741344	25	567.0	335.2	502.0	404.3	2.6438596	253.1	
END 8744932
START 8746625
ESACC	R	8749886	8749930	45	477.9	405.4	866.0	469.0	10.706893	462.1	
ESACC	R	8750248	8750299	52	853.9	478.0	503.6	414.5	9.693358	402.6	
ESACC	R	8750460	8750498	39	479.5	404.2	559.1	153.2	7.3666453	441.5	
ESACC	R	8750778	8750832	55	545.2	137.2	409.9	492.8	10.596285	418.1	
ESACC	R	8750857	8750871	15	409.5	483.7	425.1	449.5	1.0436436	83.9	
ESACC	R	8750968	8750990	23	419.6	437.3	493.6	415.0	2.134555	165.1	
ESACC	R	8751112	8751163	52	489.2	410.0	211.4	671.9	10.407551	557.1	
ESACC	R	8751425	8751444	20	203.1	689.8	224.9	644.5	1.3479111	111.9	
ESACC	R	8751566	8751605	40	223.5	642.0	93.3	464.4	5.9372263	333.6	
ESACC	R	8751913	8751957	45	71.4	458.3	541.7	381.4	12.870668	594.5	
ESACC	R	8752091	8752110	20	535.7	383.4	488.7	395.0	1.3383844	132.8	
END 8752581
START 8754234
ESACC	R	8754443	8754488	46	501.9	389.9	744.0	525.6	7.629139	457.9	
ESACC	R	8754673	8754717	45	759.9	532.1	515.4	396.7	7.6717463	377.7	
ESACC	R	8756386	8756429	44	488.8	395.0	734.3	254.5	7.814028	453.2	
ESACC	R	8756731	8756767	37	725.1	270.0	475.5	426.4	8.141802	451.7	
ESACC	R	8757081	8757124	44	462.4	421.6	240.9	600.9	7.79897	456.0	
ESACC	R	8757402	8757465	64	245.0	608.6	539.7	211.1	13.609977	501.9	
ESACC	R	8757920	8757983	64	532.5	220.7	412.7	549.1	9.712795	338.2	
ESACC	R	8758401	8758429	29	415.5	542.3	488.0	449.6	3.2570915	238.5	
ESACC	R	8758624	8758683	60	483.7	434.0	80.5	436.4	10.8975	328.2	
ESACC	R	8758848	8758905	58	56.7	432.7	496.2	401.0	11.894715	546.0	
END 8759758
START 8761782
ESACC	R	8761989	8762038	50	496.2	398.9	849.2	682.3	12.287334	558.6	
ESACC	R	8762272	8762319	48	846.8	680.4	514.9	377.3	12.24176	449.6	
ESACC	R	8763949	8764000	52	477.2	361.8	780.9	204.1	9.437744	469.5	
ESACC	R	8764177	8764218	42	758.7	203.2	887.8	91.7	4.6598444	325.2	
ESACC	R	8764349	8764399	51	882.3	95.4	830.9	419.4	9.031934	393.2	
ESACC	R	8764631	8764676	46	829.2	430.7	522.2	280.0	9.379737	379.5	
ESACC	R	8764823	8764850	28	520.0	281.2	552.8	202.3	2.3953042	207.2	
ESACC	R	8764902	8764945	44	555.5	194.6	257.1	454.9	10.942534	532.2	
ESACC	R	8765080	8765147	68	249.3	470.0	566.1	131.9	12.797727	449.2	
ESACC	R	8765332	8765348	17	567.6	127.2	545.5	102.9	0.91363317	84.5	
ESACC	R	8765629	8765682	54	540.0	100.1	425.9	428.5	9.698175	475.5	
ESACC	R	8765982	8766013	32	422.9	444.9	497.9	400.4	2.4145463	238.3	
END 8767492
START 8769187
ESACC	R	8771794	8771831	38	505.8	380.1	525.9	255.6	3.5363927	179.6	
ESACC	R	8774030	8774097	68	521.3	265.0	544.1	557.5	8.160509	238.6	
END 8774589
START 8776290
ESACC	R	8776522	8776582	61	499.3	405.2	891.7	720.4	13.587914	623.9	
ESACC	R	8776744	8776763	20	868.6	726.7	849.0	674.2	1.4892076	107.8	
ESACC	R	8776796	8776847	52	848.4	680.3	522.5	455.4	10.739714	413.8	
ESACC	R	8777062	8777082	21	506.6	451.4	504.8	387.0	1.8020865	137.8	
ESACC	R	8777213	8777253	41	497.9	392.8	284.4	196.8	8.03464	437.9	
ESACC	R	8777455	8777525	71	272.3	196.5	889.9	104.6	16.884901	641.8	
ESACC	R	8778103	8778167	65	866.7	107.4	264.0	182.2	16.44231	517.9	
ESACC	R	8778669	8778738	70	229.2	179.5	881.5	85.9	17.771835	670.9	
ESACC	R	8779354	8779412	59	863.0	82.8	900.5	451.8	10.17299	381.2	
ESACC	R	8779575	8779591	17	895.7	472.0	904.1	437.4	0.9753168	85.7	
ESACC	R	8779810	8779856	47	906.9	430.3	556.7	83.3	13.498467	515.3	
ESACC	R	8780011	8780028	18	543.3	81.1	577.7	88.7	0.97108155	95.0	
ESACC	R	8780486	8780587	102	570.4	89.9	235.0	711.2	19.229486	544.3	
ESACC	R	8780797	8780807	11	251.5	680.1	255.9	659.0	0.57930815	64.9	
ESACC	R	8781121	8781162	42	252.0	654.3	121.5	451.0	6.5341306	331.5	
ESACC	R	8781528	8781577	50	106.8	446.9	598.0	722.9	15.144817	584.2	
ESACC	R	8781728	8781744	17	590.6	726.7	554.6	727.5	0.97320807	92.7	
END 8782103
START 8784868
ESACC	R	8785071	8785136	66	504.1	383.1	956.0	654.7	14.215905	610.8	
ESACC	R	8785254	8785277	24	929.0	656.5	873.8	676.1	1.5420041	168.2	
ESACC	R	8785451	8785522	72	870.1	679.5	286.4	167.5	20.99293	600.8	
ESACC	R	8785653	8785675	23	274.3	164.3	226.7	195.2	1.5566186	133.5	
ESACC	R	8786180	8786236	57	227.2	186.1	856.1	104.8	17.145844	637.6	
ESACC	R	8786408	8786428	21	858.8	100.5	888.3	95.7	0.8018327	89.8	
ESACC	R	8786609	8786665	57	888.1	96.2	917.2	433.1	9.275316	423.6	
ESACC	R	8787075	8787124	50	914.1	449.3	600.2	110.0	12.65956	484.4	
ESACC	R	8787663	8787729	67	563.9	96.8	204.7	680.3	18.679564	550.1	
ESACC	R	8787814	8787836	23	209.1	706.4	268.2	653.1	2.1302142	180.7	
ESACC	R	8788077	8788118	42	251.6	657.3	130.3	536.9	4.594406	259.9	
ESACC	R	8788243	8788265	23	117.9	537.1	90.1	450.3	2.4774108	215.9	
ESACC	R	8788702	8788759	58	79.6	439.3	558.1	739.5	15.1354475	614.0	
ESACC	R	8789181	8789200	20	565.9	744.6	551.5	700.8	1.2370776	89.5	
ESACC	R	8789385	8789433	49	554.7	703.9	506.9	367.7	9.328644	350.2	
END 8789495
START 8791120
ESACC	R	8794162	8794215	54	511.0	386.4	779.5	121.6	10.431664	465.2	
ESACC	R	8794430	8794486	57	769.6	113.9	483.5	401.8	11.22193	547.7	
ESACC	R	8794617	8794638	22	470.8	412.2	513.5	386.8	1.3789201	124.4	
ESACC	R	8795335	8795376	42	506.3	388.9	533.1	176.5	6.003871	343.4	
ESACC	R	8795664	8795712	49	522.1	178.7	497.7	446.4	7.5289164	410.7	
ESACC	R	8795839	8795854	16	495.0	462.7	489.4	422.7	1.1264039	94.0	
END 8797862
START 8798965
END 8804151
START 8805296
ESACC	R	8807993	8808046	54	500.6	368.7	881.9	122.4	12.445219	608.7	
ESACC	R	8808242	8808266	25	871.5	129.2	880.4	87.3	1.178609	105.0	
ESACC	R	8808636	8808742	107	877.9	95.9	865.2	453.2	9.821821	289.5	
ESACC	R	8808940	8808999	60	865.4	461.7	488.3	436.0	10.285892	332.4	
ESACC	R	8809090	8809123	34	478.0	427.3	546.1	388.8	2.167656	199.7	
ESACC	R	8809188	8809229	42	549.6	389.1	885.4	423.4	9.174607	489.6	
ESACC	R	8809381	8809432	52	874.6	424.1	522.9	97.5	13.178135	449.5	
ESACC	R	8809607	8809635	29	517.2	93.4	546.4	91.5	0.8083742	125.6	
ESACC	R	8810110	8810188	79	553.3	89.6	130.8	650.6	19.104542	581.1	
ESACC	R	8810273	8810309	37	143.4	652.1	231.4	652.8	2.3405013	272.9	
ESACC	R	8810681	8810728	48	237.1	668.5	103.9	452.5	6.8538365	267.9	
ESACC	R	8811087	8811144	58	84.7	443.6	547.0	720.9	14.474938	572.8	
END 8811650
START 8813521
ESACC	R	8814681	8814724	44	499.0	384.6	290.9	190.2	7.9015226	356.0	
ESACC	R	8815373	8815420	48	277.1	189.1	789.7	113.3	14.125554	567.2	
ESACC	R	8815532	8815558	27	771.7	116.7	882.4	83.9	3.1183658	237.9	
ESACC	R	8815885	8815935	51	878.6	80.9	940.5	311.3	6.5492344	371.8	
ESACC	R	8816047	8816100	54	931.2	329.3	893.7	479.9	4.2561846	176.1	
ESACC	R	8816225	8816248	24	870.7	488.6	909.5	437.4	1.7454158	173.6	
ESACC	R	8816429	8816482	54	903.4	434.0	500.1	407.4	10.969215	442.1	
ESACC	R	8816567	8816610	44	482.4	400.9	583.5	100.2	8.861514	486.4	
ESACC	R	8817408	8817427	20	557.0	92.3	516.2	66.4	1.3374338	116.4	
ESACC	R	8817570	8817590	21	522.7	70.1	572.9	86.3	1.4546818	133.0	
ESACC	R	8817798	8817863	66	567.8	79.9	208.5	664.9	18.715965	599.2	
ESACC	R	8817980	8818000	21	221.4	688.6	257.3	655.3	1.3117003	108.8	
ESACC	R	8818181	8818200	20	249.2	660.8	221.9	657.0	0.73804635	89.1	
ESACC	R	8818424	8818463	40	223.8	652.4	91.5	437.1	6.829533	330.7	
ESACC	R	8818950	8818999	50	95.3	443.9	582.0	702.7	14.818248	581.6	
ESACC	R	8819270	8819286	17	577.0	704.5	551.0	726.9	0.9256034	87.5	
END 8819431
START 8821749
ESACC	R	8823429	8823476	48	494.2	383.3	296.4	201.8	7.4476266	369.5	
ESACC	R	8823792	8823835	44	283.9	199.8	494.0	366.3	7.433114	417.3	
ESACC	R	8824147	8824193	47	495.6	365.7	874.1	144.9	12.008033	527.5	
ESACC	R	8824405	8824430	26	858.8	143.1	889.3	101.7	1.4033371	115.9	
ESACC	R	8824870	8824888	19	886.4	107.0	846.3	88.6	1.1882757	116.4	
ESACC	R	8824984	8825074	91	854.4	89.6	867.5	440.6	9.675815	399.5	
ESACC	R	8825302	8825357	56	873.8	448.7	537.1	51.3	14.290796	457.7	
ESACC	R	8825475	8825505	31	531.4	47.7	564.1	82.7	1.3263984	170.0	
ESACC	R	8825969	8826067	99	565.2	96.8	225.6	683.9	18.518843	448.7	
ESACC	R	8826255	8826273	19	231.9	682.8	240.0	640.9	1.148465	102.1	
ESACC	R	8826791	8826831	41	240.3	654.6	82.2	437.9	7.2389784	326.6	
ESACC	R	8827000	8827022	23	65.5	435.0	89.4	455.2	0.83927333	99.2	
ESACC	R	8827262	8827318	57	81.8	444.0	499.9	626.3	12.293487	582.4	
ESACC	R	8827559	8827589	31	506.7	633.4	554.0	723.5	2.7527192	246.7	
END 8827825
START 8829990
ESACC	R	8830179	8830228	50	502.6	394.9	854.4	640.1	11.657692	576.8	
ESACC	R	8830559	8830581	23	858.8	636.2	838.3	700.5	1.8029761	158.8	
ESACC	R	8830681	8830738	58	839.2	689.6	252.1	173.7	21.134926	649.9	
ESACC	R	8831077	8831148	72	248.4	181.0	929.3	110.9	18.405912	668.5	
ESACC	R	8831294	8831317	24	908.8	110.2	866.2	91.2	1.2532421	133.5	
ESACC	R	8831899	8831951	53	877.7	87.7	902.9	403.4	8.711036	455.1	
ESACC	R	8832366	8832409	44	895.1	424.4	599.8	122.7	11.586071	475.3	
ESACC	R	8832781	8832803	23	577.3	113.1	524.9	73.9	1.8124952	148.1	
ESACC	R	8832927	8832987	61	527.7	77.5	206.4	522.1	15.082699	556.2	
ESACC	R	8833176	8833201	26	202.6	535.6	232.8	641.9	3.0039904	266.8	
ESACC	R	8833668	8833704	37	244.7	635.7	86.2	441.5	6.766765	367.6	
ESACC	R	8833966	8833984	19	83.5	445.6	100.5	457.2	0.55093026	79.6	
ESACC	R	8834248	8834303	56	96.7	454.2	546.2	699.1	13.76636	574.7	
END 8834707
START 8837826
ESACC	R	8838015	8838048	34	811.1	636.4	861.1	684.7	1.8561022	184.8	
ESACC	R	8838223	8838239	17	865.8	683.7	850.2	649.2	1.0116974	96.4	
ESACC	R	8838423	8838480	58	847.6	654.5	402.0	285.6	15.743612	513.7	
ESACC	R	8838614	8838646	33	400.4	285.0	252.9	170.7	5.157266	338.6	
ESACC	R	8839145	8839193	49	235.8	174.1	868.9	89.8	17.246544	664.3	
ESACC	R	8839723	8839772	50	853.7	99.8	832.9	495.7	10.905678	348.1	
ESACC	R	8839831	8839853	23	839.8	496.3	906.2	441.4	2.3313706	201.2	
ESACC	R	8840205	8840263	59	900.5	438.6	569.6	156.4	11.912679	386.7	
ESACC	R	8840401	8840423	23	567.5	155.1	575.0	94.9	1.6965789	123.4	
ESACC	R	8840737	8840790	54	562.1	97.3	456.3	465.7	10.682586	466.1	
ESACC	R	8840848	8840873	26	454.9	483.4	517.5	409.4	2.691266	202.8	
ESACC	R	8841419	8841477	59	516.0	404.6	222.9	664.1	10.682745	595.9	
ESACC	R	8841634	8841699	66	221.9	666.7	543.4	509.4	9.715092	487.1	
ESACC	R	8841829	8841851	23	510.7	459.9	523.2	393.4	1.8893639	156.1	
END 8842739
START 8844311
ESACC	R	8844484	8844534	51	498.1	395.5	872.1	603.0	11.62051	607.5	
ESACC	R	8844810	8844868	59	873.9	606.9	221.8	175.3	21.116385	669.0	
ESACC	R	8845017	8845049	33	198.4	178.9	241.8	172.6	1.1922969	166.3	
ESACC	R	8845194	8845257	64	248.7	169.4	762.5	111.3	14.092973	714.6	
ESACC	R	8845345	8845382	38	736.4	112.4	865.2	76.5	3.6241188	335.2	
ESACC	R	8845892	8845948	57	868.3	73.1	905.9	461.3	10.697425	435.7	
ESACC	R	8845991	8846016	26	897.4	478.6	868.0	399.2	2.3218212	184.2	
ESACC	R	8846217	8846267	51	863.9	410.1	541.5	88.9	12.521091	438.7	
ESACC	R	8846702	8846765	64	532.9	87.9	191.5	657.0	18.130188	577.3	
ESACC	R	8846812	8846846	35	189.8	676.0	257.5	635.4	2.1116545	206.7	
ESACC	R	8847283	8847325	43	257.3	644.9	117.9	452.2	6.4361844	356.8	
ESACC	R	8847699	8847749	51	96.5	452.8	565.7	708.4	14.364704	671.5	
END 8848128
START 8851008
ESACC	R	8851189	8851224	36	795.9	696.0	860.9	696.1	1.7241399	177.1	
ESACC	R	8851491	8851553	63	868.2	701.1	302.3	222.5	20.04856	707.7	
ESACC	R	8851973	8852042	70	275.8	193.0	894.9	96.9	16.92057	688.7	
ESACC	R	8852512	8852566	55	871.9	94.0	920.7	432.0	9.3766985	427.3	
ESACC	R	8852827	8852843	17	913.0	456.1	896.6	430.1	0.83639544	81.9	
ESACC	R	8853013	8853059	47	897.7	434.1	588.3	142.9	11.650964	444.7	
ESACC	R	8853490	8853548	59	565.6	126.2	208.1	662.0	17.612406	524.2	
ESACC	R	8853703	8853720	18	226.4	689.6	250.4	659.5	1.0318638	92.7	
ESACC	R	8854076	8854115	40	239.4	655.3	120.7	431.4	6.869625	376.2	
ESACC	R	8854610	8854665	56	109.2	433.3	566.4	711.8	14.405445	617.4	
END 8854962
START 8857496
ESACC	R	8857672	8857723	52	498.4	388.0	890.8	665.0	13.005706	647.4	
ESACC	R	8857984	8858039	56	884.4	664.7	304.1	237.0	19.500637	685.7	
ESACC	R	8858271	8858295	25	289.1	221.1	239.8	185.7	1.6701641	167.3	
ESACC	R	8858400	8858467	68	241.0	189.3	831.9	72.6	16.336586	691.2	
ESACC	R	8858622	8858654	33	809.3	72.2	861.8	72.3	1.4131924	172.1	
ESACC	R	8859035	8859068	34	866.9	70.4	897.0	119.6	1.575259	146.7	
ESACC	R	8859232	8859288	57	897.0	137.7	897.5	458.8	8.821438	431.4	
ESACC	R	8859408	8859427	20	883.5	465.6	901.9	426.5	1.1812078	102.5	
ESACC	R	8859665	8859715	51	889.2	445.6	557.2	144.6	12.292524	535.0	
ESACC	R	8860224	8860287	64	534.6	135.6	203.7	629.5	16.293228	530.8	
ESACC	R	8860943	8860980	38	210.4	648.4	80.4	442.6	6.5659914	343.9	
ESACC	R	8861168	8861191	24	67.3	448.7	106.0	464.3	1.110465	113.0	
ESACC	R	8861423	8861480	58	107.1	460.3	574.3	706.8	14.214616	605.2	
END 8861971
START 8864977
ESACC	R	8865148	8865197	50	506.1	352.6	908.1	721.0	14.740074	707.5	
ESACC	R	8865398	8865420	23	894.1	720.7	879.9	658.9	1.6833233	144.3	
ESACC	R	8865517	8865584	68	876.9	667.1	280.1	186.9	20.708158	694.4	
ESACC	R	8866022	8866092	71	264.4	177.5	904.4	87.2	17.453135	707.9	
ESACC	R	8866331	8866388	58	879.8	92.9	307.0	166.0	15.633721	537.8	
ESACC	R	8866803	8866854	52	269.3	168.6	876.2	94.0	16.55403	684.0	
ESACC	R	8867128	8867148	21	860.1	95.3	898.9	92.9	1.0409194	98.6	
ESACC	R	8867426	8867482	57	892.2	87.2	914.5	484.3	10.895606	417.8	
ESACC	R	8867569	8867592	24	909.5	501.7	893.6	434.1	1.8973737	137.6	
ESACC	R	8867780	8867826	47	890.5	445.3	545.9	104.5	13.29695	464.8	
ESACC	R	8868136	8868156	21	535.5	94.5	584.7	86.3	1.3763803	115.3	
ESACC	R	8868316	8868373	58	576.0	79.3	165.4	595.3	18.02144	562.2	
ESACC	R	8868517	8868549	33	177.4	612.7	248.5	636.1	2.005921	214.8	
ESACC	R	8869010	8869050	41	251.9	626.5	109.6	446.0	6.2181864	325.9	
ESACC	R	8869573	8869635	63	92.6	445.6	541.9	677.8	13.616441	608.5	
END 8869980
START 8871689
ESACC	R	8871848	8871904	57	503.1	384.7	887.1	694.4	13.365318	598.7	
ESACC	R	8872102	8872120	19	883.5	697.5	866.4	649.6	1.3546777	121.5	
ESACC	R	8872193	8872245	53	863.5	653.1	304.7	145.7	20.455975	699.7	
ESACC	R	8872697	8872767	71	282.5	136.0	921.3	72.6	17.28387	720.8	
ESACC	R	8872987	8873009	23	901.1	69.8	854.1	61.3	1.2781378	143.6	
ESACC	R	8873184	8873240	57	856.2	66.3	902.9	436.5	10.246695	525.1	
ESACC	R	8873628	8873671	44	884.4	449.5	598.0	116.6	12.059967	489.9	
ESACC	R	8874155	8874229	75	577.8	111.0	179.0	626.7	17.803766	607.1	
ESACC	R	8874340	8874373	34	192.2	626.0	253.5	644.8	1.7180847	210.0	
ESACC	R	8874711	8874745	35	252.0	650.0	101.0	465.2	6.4314475	372.5	
ESACC	R	8875228	8875284	57	93.0	459.2	564.5	723.6	14.510819	610.5	
ESACC	R	8875418	8875471	54	570.1	734.5	115.1	496.5	13.790465	607.9	
ESACC	R	8875687	8875704	18	94.5	476.8	124.3	442.0	1.239822	90.1	
ESACC	R	8875890	8875942	53	105.3	447.2	555.0	716.6	14.094546	595.2	
END 8876258
START 8877793
ESACC	R	8877941	8878003	63	498.0	394.2	845.5	683.9	12.282493	594.8	
ESACC	R	8878178	8878239	62	824.9	675.9	304.8	240.7	18.407488	667.2	
ESACC	R	8878429	8878453	25	282.9	225.1	217.9	183.5	2.1185322	162.6	
ESACC	R	8878759	8878831	73	218.3	185.9	904.7	72.3	18.715841	696.6	
ESACC	R	8879323	8879378	56	879.9	72.4	912.1	427.4	9.790574	501.4	
ESACC	R	8879617	8879629	13	897.6	444.7	898.2	414.1	0.84196836	80.9	
ESACC	R	8879749	8879801	53	898.0	420.9	572.1	104.3	12.463655	511.2	
ESACC	R	8880259	8880319	61	551.5	90.6	229.8	653.4	17.743273	564.6	
ESACC	R	8880455	8880470	16	244.1	673.3	251.3	641.3	0.88386923	89.7	
ESACC	R	8880714	8880752	39	249.3	646.1	112.4	454.7	6.363013	355.4	
ESACC	R	8881164	8881216	53	99.5	438.3	562.2	746.8	14.932768	679.7	
ESACC	R	8881381	8881398	18	567.0	745.6	542.9	710.7	1.1390203	106.5	
END 8881739
START 8883538
ESACC	R	8883590	8883654	65	513.0	399.1	865.7	623.5	11.363034	475.8	
ESACC	R	8883803	8883835	33	851.7	626.4	885.0	661.5	1.2907469	197.6	
ESACC	R	8884000	8884102	103	892.1	662.8	234.3	233.1	21.157429	640.9	
ESACC	R	8884200	8884219	20	235.3	232.4	266.7	201.8	1.2093736	112.5	
ESACC	R	8884528	8884592	65	250.7	200.7	872.9	76.6	17.163044	683.7	
ESACC	R	8885070	8885092	23	845.5	77.4	887.6	88.5	1.1692641	119.1	
ESACC	R	8885649	8885717	69	874.0	86.5	896.4	500.1	11.347282	447.3	
ESACC	R	8885773	8885794	22	894.9	496.4	879.7	433.1	1.7835478	140.0	
ESACC	R	8885998	8886057	60	876.6	442.6	545.1	105.2	12.98924	470.3	
ESACC	R	8886462	8886539	78	535.7	81.7	154.4	715.6	20.038572	624.5	
ESACC	R	8886586	8886620	35	155.7	706.1	220.0	652.0	2.2381089	237.4	
ESACC	R	8887134	8887168	35	214.5	642.4	93.7	464.1	5.810404	313.8	
ESACC	R	8887503	8887568	66	80.3	465.6	536.4	733.8	14.186807	684.3	
ESACC	R	8888024	8888046	23	512.7	736.7	592.1	741.8	2.1473715	177.7	
END 8888260
START 8889753
ESACC	R	8889885	8889945	61	509.6	393.4	855.8	729.5	13.065955	593.9	
ESACC	R	8890039	8890061	23	840.7	738.2	894.6	675.3	2.191095	176.5	
ESACC	R	8890234	8890299	66	890.0	674.0	306.1	237.1	19.719727	660.5	
ESACC	R	8890789	8890858	70	283.7	210.9	875.6	102.9	16.31801	654.7	
ESACC	R	8891166	8891187	22	858.4	99.7	920.9	103.1	1.6737313	141.0	
ESACC	R	8891306	8891353	48	906.1	94.9	918.6	422.4	9.003408	422.1	
ESACC	R	8891665	8891713	49	899.6	426.1	574.3	104.2	12.54747	471.0	
ESACC	R	8892407	8892468	62	556.7	87.1	215.2	592.7	16.736668	580.0	
ESACC	R	8892634	8892652	19	217.0	614.9	253.4	636.7	1.1414756	100.2	
ESACC	R	8893026	8893068	43	248.4	631.5	121.7	434.3	6.360693	307.9	
ESACC	R	8893460	8893527	68	100.1	432.0	578.4	726.6	15.099619	585.6	
END 8893981
START 8895602
ESACC	R	8895773	8895817	45	515.6	392.9	853.1	689.3	12.197845	595.3	
ESACC	R	8896002	8896063	62	844.2	693.5	274.5	212.3	20.172281	615.6	
ESACC	R	8896376	8896388	13	243.4	195.6	255.9	169.7	0.7978071	76.2	
ESACC	R	8896520	8896580	61	246.8	171.8	891.6	81.5	17.558641	680.8	
ESACC	R	8897120	8897173	54	887.7	77.9	920.2	424.5	9.561337	383.4	
ESACC	R	8897397	8897418	22	909.3	442.6	875.2	392.5	1.6518824	144.9	
ESACC	R	8897690	8897739	50	882.0	399.7	564.3	83.0	12.308302	472.5	
ESACC	R	8898131	8898192	62	553.5	83.9	223.4	578.1	16.31048	554.6	
ESACC	R	8898763	8898798	36	228.6	596.1	90.6	438.2	5.669234	313.4	
ESACC	R	8899051	8899072	22	77.2	432.5	125.7	446.9	1.3473985	125.1	
ESACC	R	8899175	8899227	53	120.8	444.4	549.1	693.7	13.363291	625.2	
END 8899653
START 8901538
ESACC	R	8901701	8901747	47	510.1	376.5	857.5	653.9	12.105946	580.0	
ESACC	R	8901970	8902027	58	856.8	656.6	302.1	218.1	19.169798	610.8	
ESACC	R	8902378	8902405	28	279.0	206.9	257.6	174.8	1.0689609	149.5	
ESACC	R	8902594	8902665	72	245.3	172.1	915.3	67.3	18.265242	710.8	
ESACC	R	8902868	8902971	104	885.2	72.4	250.0	178.0	17.390802	539.3	
ESACC	R	8903401	8903463	63	231.1	183.8	870.7	73.8	17.529282	688.4	
ESACC	R	8903878	8903945	68	867.8	75.1	919.5	459.0	10.622325	403.0	
ESACC	R	8904028	8904047	20	915.1	455.2	900.1	411.3	1.2706469	118.3	
ESACC	R	8904216	8904273	58	902.3	416.2	574.6	87.5	12.719029	473.4	
ESACC	R	8904655	8904733	79	565.3	68.7	183.5	711.0	20.289349	599.3	
ESACC	R	8904865	8904885	21	185.2	713.2	246.3	676.6	1.896246	166.6	
ESACC	R	8905138	8905162	25	231.5	669.6	275.7	635.8	1.496737	142.4	
ESACC	R	8905348	8905390	43	271.0	633.3	99.8	436.6	7.0523825	367.2	
ESACC	R	8905728	8905781	54	91.8	434.2	506.2	640.9	12.489577	575.0	
ESACC	R	8906174	8906210	37	505.3	648.5	578.3	729.3	2.9440813	286.8	
END 8906502
START 8908195
ESACC	R	8908378	8908420	43	510.9	365.2	851.8	648.8	12.0852165	613.9	
ESACC	R	8908787	8908838	52	840.4	657.8	306.4	179.3	19.471127	651.4	
ESACC	R	8909228	8909293	66	278.9	173.9	806.2	76.4	14.581817	661.9	
ESACC	R	8909438	8909472	35	786.4	78.1	884.7	64.4	2.672736	270.8	
ESACC	R	8909628	8909685	58	896.0	65.4	226.1	114.1	18.05797	523.8	
ESACC	R	8910021	8910084	64	242.2	151.9	884.9	81.1	17.433506	683.1	
ESACC	R	8910643	8910703	61	879.7	82.7	906.9	460.1	10.379285	379.8	
ESACC	R	8910777	8910799	23	894.0	474.5	891.8	413.2	1.6850898	136.8	
ESACC	R	8911021	8911065	45	889.6	419.6	571.4	103.2	12.320573	467.6	
ESACC	R	8911682	8911754	73	559.3	92.1	217.6	666.1	18.25627	617.2	
ESACC	R	8911809	8911831	23	225.7	661.0	272.8	629.0	1.5312593	133.3	
ESACC	R	8912343	8912385	43	256.9	635.2	111.2	462.8	6.097836	272.0	
ESACC	R	8913018	8913070	53	93.4	461.6	574.0	697.4	14.386176	541.5	
END 8913607
START 8915142
ESACC	R	8915315	8915361	47	513.3	388.0	916.7	720.1	14.107977	644.3	
ESACC	R	8915498	8915519	22	902.3	719.1	863.4	684.5	1.3738555	108.3	
ESACC	R	8915679	8915738	60	860.2	693.9	259.0	212.3	20.801195	625.0	
ESACC	R	8916029	8916042	14	239.9	203.3	232.6	173.0	0.86707115	78.5	
ESACC	R	8916246	8916305	60	234.9	173.9	842.9	90.6	16.593653	669.0	
ESACC	R	8916427	8916486	60	848.1	92.2	312.4	157.4	14.649386	479.3	
ESACC	R	8916634	8916685	52	291.5	152.9	894.7	80.5	16.403088	716.0	
ESACC	R	8917155	8917210	56	883.7	81.9	911.0	374.4	8.07972	416.7	
ESACC	R	8917604	8917652	49	897.4	393.0	573.4	99.1	11.999203	429.1	
ESACC	R	8918241	8918313	73	559.8	76.2	198.6	730.2	20.248976	606.2	
ESACC	R	8918352	8918377	26	214.7	744.2	279.6	649.8	3.0604103	251.4	
ESACC	R	8918630	8918647	18	272.3	646.5	230.3	643.0	1.1314669	100.0	
ESACC	R	8918840	8918878	39	239.0	637.0	110.5	424.2	6.7398777	310.5	
ESACC	R	8919221	8919285	65	105.2	423.5	552.1	712.3	14.336105	607.2	
ESACC	R	8919594	8919623	30	542.3	715.1	585.5	719.9	1.1762087	162.6	
END 8919700
START 8922904
ESACC	R	8923114	8923175	62	515.4	393.2	888.8	621.8	11.881888	596.9	
ESACC	R	8923422	8923495	74	870.1	619.5	252.3	201.0	20.181017	674.4	
ESACC	R	8923764	8923776	13	244.1	210.1	260.3	187.8	0.7623861	76.7	
ESACC	R	8923971	8924027	57	247.3	180.7	862.4	86.4	16.8283	677.0	
ESACC	R	8924481	8924538	58	853.9	85.1	928.1	447.0	10.137803	489.7	
ESACC	R	8924751	8924770	20	908.5	455.7	873.0	410.9	1.5535014	136.8	
ESACC	R	8924948	8924993	46	875.0	413.6	548.1	90.0	12.637303	473.4	
ESACC	R	8925364	8925437	74	529.2	89.3	214.3	682.6	18.324883	624.9	
ESACC	R	8925579	8925596	18	217.1	678.0	262.7	668.0	1.2484562	105.7	
ESACC	R	8925979	8926022	44	241.5	675.3	100.2	497.4	6.110691	373.2	
ESACC	R	8926330	8926341	12	91.4	480.8	98.3	459.7	0.604784	57.0	
ESACC	R	8926462	8926509	48	89.7	461.9	540.6	728.9	14.064634	670.8	
END 8926886
START 8928572
ESACC	R	8928707	8928756	50	495.7	398.4	830.5	707.0	12.360326	575.3	
ESACC	R	8929005	8929071	67	838.2	700.8	289.1	178.4	20.520306	693.9	
ESACC	R	8929582	8929628	47	271.1	166.3	447.6	159.1	4.85307	335.7	
ESACC	R	8929806	8929846	41	453.2	163.8	324.8	167.6	3.5387871	224.6	
ESACC	R	8929895	8929961	67	312.6	164.7	868.3	69.9	15.286864	684.5	
ESACC	R	8930199	8930220	22	840.8	75.1	903.7	83.5	1.699808	157.6	
ESACC	R	8930633	8930680	48	887.1	79.5	909.9	421.8	9.4235325	386.0	
ESACC	R	8931047	8931094	48	914.0	425.5	616.5	109.7	11.889135	486.8	
ESACC	R	8931449	8931510	62	593.2	94.5	258.3	608.6	16.847826	569.3	
ESACC	R	8932076	8932114	39	263.3	632.9	105.7	441.8	6.698561	364.7	
ESACC	R	8932515	8932579	65	86.3	449.1	561.5	703.2	14.481908	616.4	
END 8932941
START 8934532
ESACC	R	8934559	8934609	51	488.4	396.6	732.9	679.7	10.232652	404.1	
ESACC	R	8934769	8934806	38	735.4	676.2	863.3	672.6	3.412031	284.3	
ESACC	R	8935048	8935132	85	864.3	665.8	210.0	171.4	22.098896	589.3	
ESACC	R	8935241	8935270	30	208.4	171.9	245.5	172.4	1.0082482	154.3	
ESACC	R	8935634	8935695	62	246.6	178.9	892.6	97.2	17.581757	691.2	
ESACC	R	8936001	8936059	59	890.3	97.9	913.8	454.0	9.789625	456.9	
ESACC	R	8936181	8936197	17	900.1	465.4	899.3	434.8	0.83977735	77.6	
ESACC	R	8936403	8936448	46	896.8	444.1	605.6	103.6	12.298068	560.6	
ESACC	R	8936793	8936872	80	597.1	91.1	145.0	591.9	18.386742	456.7	
ESACC	R	8936976	8937013	38	136.9	601.5	242.3	625.3	2.8869913	338.0	
ESACC	R	8937593	8937648	56	252.7	625.9	86.7	464.4	6.2375894	387.6	
ESACC	R	8937813	8937831	19	84.2	464.9	116.1	434.1	1.1957998	101.4	
ESACC	R	8938178	8938300	123	90.9	446.2	570.6	745.5	15.163984	311.6	
ESACC	R	8938426	8938445	20	580.3	753.2	540.8	721.5	1.3612953	111.3	
END 8938735
START 8940260
ESACC	R	8940386	8940447	62	498.3	386.1	871.7	666.1	12.68105	607.5	
ESACC	R	8940757	8940821	65	859.4	667.4	262.2	237.0	19.900019	655.1	
ESACC	R	8941013	8941038	26	246.6	213.7	262.9	165.1	1.4247555	132.2	
ESACC	R	8941161	8941229	69	261.7	171.8	865.2	96.6	16.443293	697.9	
ESACC	R	8941370	8941423	54	834.5	106.2	936.8	334.2	6.860149	367.5	
ESACC	R	8941577	8941601	25	924.2	346.0	894.5	428.9	2.414213	203.8	
ESACC	R	8941810	8941851	42	898.9	418.7	882.5	116.0	8.33888	432.6	
ESACC	R	8942048	8942173	126	866.4	114.9	795.3	672.0	15.257486	519.8	
ESACC	R	8942407	8942442	36	792.8	682.1	836.4	684.9	1.1619964	205.2	
ESACC	R	8942513	8942572	60	852.9	686.8	919.5	177.0	13.928501	625.9	
ESACC	R	8942764	8942787	24	900.5	164.9	889.8	88.2	2.1293485	152.4	
ESACC	R	8943288	8943342	55	882.8	82.9	910.1	438.8	9.804537	461.0	
ESACC	R	8943670	8943714	45	902.1	452.1	613.7	118.9	12.084755	448.9	
ESACC	R	8943929	8943946	18	607.8	101.1	561.9	96.2	1.273582	106.0	
ESACC	R	8944637	8944705	69	561.8	98.9	213.4	727.5	19.531466	592.9	
ESACC	R	8944758	8944784	27	216.7	744.6	284.0	685.6	2.3848763	201.9	
ESACC	R	8945044	8945063	20	261.8	678.3	218.0	649.6	1.4042889	127.4	
ESACC	R	8945210	8945251	42	220.7	647.5	100.6	444.4	6.380962	353.7	
ESACC	R	8945848	8945905	58	82.0	437.6	570.7	695.5	14.842981	609.0	
ESACC	R	8946451	8946494	44	567.9	691.1	502.9	344.7	9.694539	425.9	
END 8946541
START 8950973
ESACC	R	8951149	8951202	54	504.6	390.8	863.2	691.9	12.69546	618.2	
ESACC	R	8951430	8951442	13	858.5	694.9	876.8	671.3	0.7925598	78.1	
ESACC	R	8951511	8951566	56	872.8	670.2	332.1	248.3	18.576239	669.4	
ESACC	R	8951693	8951716	24	319.3	245.7	249.1	199.7	2.3108287	193.4	
ESACC	R	8952177	8952235	59	246.6	199.4	881.1	71.5	17.487154	647.8	
ESACC	R	8952764	8952820	57	866.9	81.2	910.5	431.6	9.696706	458.9	
ESACC	R	8953146	8953190	45	890.5	436.0	565.3	110.5	12.625025	458.1	
ESACC	R	8953599	8953693	95	541.8	91.7	235.8	688.4	18.296236	444.3	
ESACC	R	8953846	8953859	14	238.7	687.7	254.9	656.9	0.93441725	84.5	
ESACC	R	8954143	8954200	58	245.1	654.5	652.8	126.5	18.236568	668.5	
ESACC	R	8954360	8954418	59	635.3	129.5	907.2	456.0	11.650001	633.4	
ESACC	R	8954626	8954648	23	884.0	462.5	916.9	437.5	1.113613	115.6	
ESACC	R	8954882	8954939	58	910.8	445.5	564.3	113.9	13.127018	504.6	
ESACC	R	8956140	8956227	88	564.0	90.1	198.9	598.1	17.130981	448.3	
ESACC	R	8956409	8956432	24	205.6	642.0	264.8	662.3	1.6747913	146.2	
ESACC	R	8956847	8956884	38	241.1	663.7	125.8	448.9	6.599159	333.9	
ESACC	R	8957200	8957259	60	100.8	448.4	558.2	765.4	14.919104	595.7	
ESACC	R	8957434	8957446	13	564.1	766.7	561.0	739.8	0.7202761	67.3	
END 8957737
START 8959485
ESACC	R	8959620	8959675	56	499.4	390.8	871.7	721.5	13.478783	550.1	
ESACC	R	8959757	8959780	24	873.6	733.6	854.0	668.6	1.8022197	142.9	
ESACC	R	8960014	8960066	53	850.6	673.0	261.4	198.2	20.47857	660.8	
ESACC	R	8960444	8960502	59	242.1	194.3	832.4	96.6	16.22523	683.9	
ESACC	R	8960850	8960873	24	837.3	93.0	902.8	94.7	1.7566549	161.9	
ESACC	R	8960988	8961041	54	898.4	91.7	895.7	467.2	10.302035	398.7	
ESACC	R	8961115	8961135	21	896.1	485.1	902.1	432.4	1.4526742	111.9	
ESACC	R	8961349	8961399	51	893.5	428.4	586.4	147.2	11.423009	456.3	
ESACC	R	8961584	8961602	19	570.8	139.3	580.4	89.1	1.4289508	130.7	
ESACC	R	8961841	8961897	57	574.1	87.1	141.6	519.7	16.738811	597.5	
ESACC	R	8962014	8962052	39	136.5	535.1	249.8	639.4	4.145898	413.7	
ESACC	R	8962327	8962354	28	246.4	654.6	153.2	527.0	4.268113	276.5	
ESACC	R	8962651	8962670	20	130.9	499.4	97.5	451.7	1.5786885	114.3	
ESACC	R	8962734	8962789	56	99.6	453.5	590.0	676.1	14.475651	699.5	
ESACC	R	8963021	8963117	97	592.7	689.4	123.9	483.3	13.787503	528.6	
ESACC	R	8963304	8963318	15	101.1	464.7	86.4	438.6	0.81361115	76.3	
ESACC	R	8963628	8963681	54	73.6	442.7	567.6	708.2	15.056664	529.1	
END 8964167
START 8966160
ESACC	R	8966341	8966376	36	590.5	573.7	899.3	715.1	9.103935	518.2	
ESACC	R	8966517	8966537	21	904.4	719.8	855.8	678.4	1.6857121	138.8	
ESACC	R	8966704	8966805	102	854.2	671.3	223.3	195.6	21.320385	604.0	
ESACC	R	8966927	8966958	32	222.1	196.2	256.0	183.7	0.9859755	142.1	
ESACC	R	8967078	8967145	68	261.3	187.5	842.9	77.9	16.051256	666.9	
ESACC	R	8967380	8967411	32	822.9	73.2	886.7	81.3	1.7271862	188.5	
ESACC	R	8967599	8967657	59	892.7	83.6	889.4	526.1	12.10702	464.2	
ESACC	R	8967689	8967713	25	880.1	539.9	891.8	446.7	2.568999	216.7	
ESACC	R	8967902	8967946	45	886.2	450.5	575.1	115.6	12.551084	532.7	
ESACC	R	8968245	8968317	73	571.0	108.8	267.3	619.1	16.318369	527.2	
ESACC	R	8968717	8968748	32	247.4	627.2	111.9	466.7	5.679068	342.8	
ESACC	R	8969203	8969268	66	95.3	445.5	598.5	692.2	15.064451	655.2	
END 8969593
START 8971447
ESACC	R	8971502	8971565	64	495.6	399.0	842.0	656.6	11.7445545	533.2	
ESACC	R	8971811	8971882	72	827.8	659.8	278.0	231.5	18.892614	643.3	
ESACC	R	8972281	8972350	70	270.9	218.3	907.9	91.3	17.525541	685.8	
ESACC	R	8972858	8972911	54	879.3	80.4	898.2	424.1	9.455785	431.6	
ESACC	R	8972962	8972983	22	884.5	436.7	902.1	381.8	1.5819325	146.8	
ESACC	R	8973243	8973282	40	901.3	394.0	624.8	120.2	10.676377	519.8	
ESACC	R	8973692	8973781	90	591.4	111.1	545.0	70.2	1.7133195	298.8	
ESACC	R	8973824	8973858	35	547.8	69.7	613.4	69.8	1.8071657	165.6	
ESACC	R	8973920	8973994	75	623.6	75.9	260.4	634.3	18.241274	616.8	
ESACC	R	8974047	8974109	63	269.0	634.5	600.3	114.7	16.910864	644.0	
ESACC	R	8974536	8974588	53	582.4	119.1	217.1	640.0	17.40015	519.0	
ESACC	R	8974740	8974757	18	222.9	680.0	262.5	664.9	1.1339635	99.8	
ESACC	R	8975035	8975077	43	252.8	667.1	108.8	443.4	7.185865	346.0	
ESACC	R	8975469	8975525	57	91.1	444.3	550.9	741.3	14.682591	636.1	
END 8976008
START 8977543
ESACC	R	8977680	8977741	62	506.1	407.5	881.4	718.6	13.180198	577.8	
ESACC	R	8977926	8977946	21	871.4	729.5	897.6	695.3	1.1364306	105.0	
ESACC	R	8978043	8978120	78	898.2	694.4	272.0	177.2	21.877258	732.6	
ESACC	R	8978505	8978555	51	270.6	179.1	893.2	110.0	16.935247	652.0	
ESACC	R	8978756	8978802	47	880.5	103.3	693.1	97.8	5.074007	305.6	
ESACC	R	8978901	8978942	42	670.2	89.4	859.1	70.6	5.1524987	407.5	
ESACC	R	8979571	8979627	57	859.6	68.1	892.1	331.1	7.2973833	410.3	
ESACC	R	8979687	8979739	53	876.5	336.5	343.1	192.1	15.042312	550.5	
ESACC	R	8979993	8980015	23	308.9	199.0	242.7	193.6	1.8150042	154.6	
ESACC	R	8980252	8980299	48	245.1	202.9	824.2	107.1	15.938164	633.1	
ESACC	R	8980521	8980543	23	818.9	100.2	891.9	95.3	1.9670027	157.3	
ESACC	R	8980677	8980729	53	884.6	94.4	921.3	456.9	9.99304	453.5	
ESACC	R	8980830	8980847	18	917.7	475.6	895.3	440.3	1.1358877	105.7	
ESACC	R	8981155	8981200	46	889.2	435.8	589.5	127.4	11.81141	478.6	
ESACC	R	8981534	8981547	14	579.5	111.9	551.7	95.6	0.8927824	84.9	
ESACC	R	8981669	8981749	81	557.2	95.9	244.8	677.8	18.042522	431.9	
ESACC	R	8981966	8981984	19	262.4	683.6	239.8	644.8	1.2062268	98.4	
ESACC	R	8982225	8982262	38	245.2	640.7	111.0	436.8	6.6112514	355.1	
ESACC	R	8982709	8982758	50	90.4	434.6	584.0	707.0	15.14245	597.4	
END 8983128
START 8988287
ESACC	R	8988462	8988517	56	504.5	407.2	948.5	717.8	14.572506	631.4	
ESACC	R	8988712	8988732	21	944.1	712.3	878.2	694.0	1.7896023	143.6	
ESACC	R	8988880	8988934	55	878.4	698.9	281.0	252.6	20.116814	670.4	
ESACC	R	8989182	8989196	15	258.4	239.5	268.0	212.7	0.79322505	80.4	
ESACC	R	8989371	8989440	70	261.1	207.5	889.1	93.4	17.26475	649.2	
ESACC	R	8989928	8989982	55	870.2	91.2	943.3	419.3	9.221562	440.7	
ESACC	R	8990250	8990298	49	932.5	433.6	566.8	136.4	12.8736515	438.7	
ESACC	R	8990697	8990761	65	553.2	124.8	231.1	671.6	17.368109	525.7	
ESACC	R	8990872	8990891	20	224.3	692.4	267.3	666.1	1.3492141	124.7	
ESACC	R	8991295	8991333	39	258.9	661.3	117.6	449.1	6.893773	391.7	
ESACC	R	8991852	8991909	58	114.8	435.8	591.9	782.6	15.814951	683.4	
ESACC	R	8991988	8992045	58	593.8	785.2	164.4	472.1	14.267401	587.9	
ESACC	R	8992351	8992366	16	94.3	459.0	131.1	454.5	0.987751	92.4	
ESACC	R	8992566	8992620	55	116.6	444.7	577.1	691.7	14.085931	577.8	
END 8993107
START 8995679
ESACC	R	8995858	8995921	64	513.2	394.0	931.3	692.0	13.846846	659.7	
ESACC	R	8996073	8996096	24	912.1	693.1	835.8	686.7	2.017732	178.3	
ESACC	R	8996515	8996589	75	838.5	688.5	261.2	235.4	19.85758	635.7	
ESACC	R	8996826	8996847	22	260.4	236.8	246.8	184.2	1.5134223	127.6	
ESACC	R	8996970	8997035	66	239.0	190.5	878.3	745.2	22.732716	686.0	
ESACC	R	8997200	8997221	22	863.1	746.1	874.3	691.8	1.4664325	121.3	
ESACC	R	8997330	8997395	66	878.9	687.0	288.4	206.4	20.561752	652.1	
ESACC	R	8997886	8997953	68	258.6	181.6	905.4	87.8	17.62547	647.8	
ESACC	R	8998408	8998451	44	882.7	76.2	902.0	415.6	9.338407	409.1	
ESACC	R	8998706	8998765	60	903.6	435.3	554.8	91.8	13.421383	480.2	
ESACC	R	8999010	8999028	19	536.5	81.7	577.7	91.0	1.1657815	97.9	
ESACC	R	8999227	8999314	88	568.1	93.5	204.1	772.5	20.831375	415.3	
ESACC	R	8999395	8999417	23	197.3	788.8	241.8	708.4	2.4293418	208.8	
ESACC	R	8999586	8999604	19	243.8	699.3	237.3	657.2	1.1434501	103.5	
ESACC	R	9000067	9000099	33	242.9	639.8	110.6	454.7	6.1521325	343.2	
ESACC	R	9000502	9000559	58	90.2	450.8	552.5	701.3	14.131492	596.0	
END 9000955
START 9002632
ESACC	R	9002820	9002881	62	500.8	401.9	864.0	688.0	12.538052	609.0	
ESACC	R	9003331	9003361	31	842.2	683.8	796.0	661.7	1.3652449	180.1	
ESACC	R	9003394	9003450	57	777.4	661.2	326.7	232.8	16.973625	647.2	
ESACC	R	9003738	9003794	57	319.5	230.0	849.1	692.7	19.06819	676.0	
ESACC	R	9004209	9004276	68	842.4	689.3	267.0	188.5	20.62664	673.0	
ESACC	R	9004420	9004437	18	254.6	176.5	278.7	189.9	0.7563807	81.0	
ESACC	R	9004712	9004764	53	267.7	183.0	858.4	114.6	16.12018	586.6	
ESACC	R	9004951	9004970	20	845.6	109.7	899.3	94.6	1.4985701	132.7	
ESACC	R	9005405	9005458	54	881.5	89.5	906.4	382.1	8.076932	395.8	
ESACC	R	9005872	9005932	61	900.4	403.5	350.9	243.4	15.560841	530.2	
ESACC	R	9006092	9006116	25	324.4	235.4	251.1	193.3	2.3248308	205.4	
ESACC	R	9006479	9006530	52	251.5	203.0	910.5	104.4	17.970993	684.1	
ESACC	R	9006885	9006931	47	901.9	96.1	923.0	434.0	9.287248	413.1	
ESACC	R	9007579	9007628	50	928.9	449.8	596.3	142.0	12.398485	436.5	
ESACC	R	9007980	9008025	46	570.6	123.5	853.4	99.1	7.7354736	540.2	
ESACC	R	9008138	9008192	55	857.4	103.1	279.5	213.1	15.955726	491.2	
ESACC	R	9009099	9009219	121	257.1	207.6	788.9	577.2	17.66984	621.5	
ESACC	R	9009387	9009424	38	808.0	596.8	875.3	692.7	3.1370497	342.4	
ESACC	R	9009733	9009789	57	881.0	700.7	283.4	241.0	20.343243	661.3	
ESACC	R	9010014	9010034	21	264.3	227.5	291.0	182.0	1.4659308	110.4	
ESACC	R	9010469	9010504	36	281.7	181.9	565.7	93.5	8.183618	477.5	
ESACC	R	9010951	9010987	37	584.0	91.3	915.5	88.9	8.971829	531.3	
ESACC	R	9011106	9011167	62	922.7	96.6	541.4	88.3	10.335883	490.9	
ESACC	R	9011296	9011326	31	546.0	87.7	582.1	90.9	0.9998648	143.4	
ESACC	R	9011516	9011580	65	576.2	89.7	871.7	241.5	9.082098	455.0	
ESACC	R	9011746	9011779	34	850.2	266.2	880.7	425.9	4.493142	375.0	
ESACC	R	9012091	9012129	39	899.6	437.5	891.0	129.3	8.481789	480.9	
ESACC	R	9012414	9012428	15	883.0	117.5	895.5	91.8	0.7818429	70.2	
ESACC	R	9012841	9012896	56	886.5	87.8	907.4	498.1	11.254904	480.5	
ESACC	R	9012962	9012979	18	898.5	514.1	893.2	468.2	1.2620151	109.6	
ESACC	R	9013239	9013291	53	887.2	467.5	555.0	76.2	14.075221	456.9	
ESACC	R	9013435	9013456	22	546.6	67.8	580.5	100.3	1.3015312	122.7	
ESACC	R	9013838	9013929	92	572.1	95.4	217.4	601.4	16.947245	337.1	
ESACC	R	9014626	9014663	38	230.4	610.1	97.0	445.4	5.729592	274.3	
ESACC	R	9015219	9015269	51	97.7	440.2	538.0	681.8	13.539234	586.9	
ESACC	R	9015766	9015808	43	531.3	666.5	514.4	330.0	9.294331	434.1	
END 9015810
START 9017393
ESACC	R	9017591	9017652	62	512.8	404.0	875.2	638.1	11.712496	570.4	
ESACC	R	9017911	9017985	75	852.7	636.0	247.9	240.7	19.553223	616.5	
ESACC	R	9018107	9018128	22	242.2	236.8	255.3	183.2	1.5351123	132.9	
ESACC	R	9018476	9018535	60	253.4	177.8	919.8	89.5	18.103172	694.0	
ESACC	R	9018844	9018860	17	923.3	90.6	884.4	84.3	1.0502704	92.7	
ESACC	R	9019105	9019162	58	881.9	92.4	920.2	454.7	9.991979	498.4	
ESACC	R	9019429	9019476	48	910.3	456.8	587.2	137.8	12.440021	455.2	
ESACC	R	9019837	9019896	60	575.6	129.2	275.4	585.4	15.050953	573.5	
ESACC	R	9020349	9020385	37	279.6	610.4	113.2	443.4	6.381056	340.8	
ESACC	R	9020632	9020645	14	106.9	439.2	131.7	445.7	0.684954	63.9	
ESACC	R	9020866	9020914	49	129.8	443.9	581.0	724.4	14.319744	633.8	
END 9021359
START 9023776
ESACC	R	9023970	9024006	37	793.1	687.3	879.8	694.6	2.3049242	263.3	
ESACC	R	9024178	9024246	69	891.8	696.5	297.1	235.8	20.292429	739.1	
ESACC	R	9024534	9024551	18	278.7	220.6	256.0	187.2	1.1187551	105.3	
ESACC	R	9024718	9024786	69	250.2	186.4	901.6	95.0	17.73906	708.1	
ESACC	R	9025242	9025295	54	875.2	91.3	935.1	446.9	9.872543	463.9	
ESACC	R	9025436	9025449	14	927.6	464.1	917.7	439.0	0.73535043	67.7	
ESACC	R	9025603	9025657	55	919.0	441.5	565.7	137.1	12.758228	489.8	
ESACC	R	9026045	9026107	63	554.3	121.9	207.1	672.8	17.78585	558.8	
ESACC	R	9026194	9026217	24	203.6	697.7	265.6	648.7	2.1145182	195.2	
ESACC	R	9026612	9026650	39	252.9	649.7	135.7	449.2	6.293797	338.8	
ESACC	R	9026807	9026850	44	126.1	450.6	266.6	644.1	6.4768453	480.3	
ESACC	R	9027079	9027125	47	261.3	650.5	125.1	449.4	6.582037	337.8	
ESACC	R	9027530	9027579	50	96.5	435.0	533.9	715.2	13.970431	638.4	
END 9027939
START 9029665
ESACC	R	9029829	9029869	41	501.5	400.5	840.1	645.6	11.376188	569.0	
ESACC	R	9030238	9030314	77	843.2	650.1	291.2	238.7	18.68193	581.9	
ESACC	R	9030520	9030542	23	283.0	228.7	269.7	174.7	1.5496064	117.5	
ESACC	R	9030756	9030803	48	267.9	177.2	846.7	74.1	15.943516	662.6	
ESACC	R	9031343	9031400	58	827.4	68.7	909.3	422.6	9.980427	487.1	
ESACC	R	9031659	9031707	49	901.1	431.8	571.4	134.3	12.171803	517.9	
ESACC	R	9032131	9032203	73	571.5	127.4	241.1	692.9	17.88217	628.1	
ESACC	R	9032315	9032337	23	247.7	686.3	276.8	633.5	1.6234925	123.0	
ESACC	R	9032728	9032767	40	264.9	637.0	129.3	442.0	6.4379926	340.2	
ESACC	R	9033035	9033091	57	113.4	447.7	596.7	727.6	15.008955	656.0	
ESACC	R	9033233	9033294	62	597.4	731.1	248.9	555.3	10.541026	436.9	
ESACC	R	9033368	9033425	58	245.8	559.2	593.5	725.6	10.418007	552.0	
ESACC	R	9033624	9033690	67	574.7	720.6	57.4	443.6	15.716251	671.7	
ESACC	R	9033808	9033841	34	68.6	440.4	123.3	441.1	1.4510552	190.5	
ESACC	R	9034056	9034114	59	119.5	445.3	613.9	723.3	15.246184	625.7	
ESACC	R	9034234	9034254	21	611.1	735.0	560.5	717.6	1.4429914	134.2	
END 9034786
START 9036283
ESACC	R	9036484	9036544	61	518.1	386.3	892.2	615.3	11.915376	615.1	
ESACC	R	9036812	9036862	51	871.0	615.5	287.8	210.7	19.2469	674.0	
ESACC	R	9037229	9037296	68	260.0	196.6	843.1	98.0	16.057604	697.3	
ESACC	R	9037466	9037522	57	823.8	101.4	292.7	179.3	14.612804	573.1	
ESACC	R	9037802	9037859	58	270.4	177.8	879.7	86.1	16.661795	673.5	
ESACC	R	9038427	9038483	57	862.4	91.8	918.9	473.0	10.566135	469.2	
ESACC	R	9038544	9038564	21	905.5	487.1	904.5	428.6	1.602961	142.3	
ESACC	R	9038746	9038775	30	904.1	437.1	805.3	328.7	4.0080643	270.8	
ESACC	R	9039013	9039050	38	790.0	325.7	582.4	97.1	8.539426	458.5	
ESACC	R	9039589	9039668	80	561.9	89.9	269.1	721.4	18.974371	590.7	
ESACC	R	9039737	9039764	28	272.0	716.9	264.8	637.8	2.1322463	153.5	
ESACC	R	9040088	9040127	40	255.5	647.7	114.7	457.1	6.4087205	310.6	
ESACC	R	9040626	9040647	22	100.1	452.4	151.3	443.5	1.3870538	113.2	
ESACC	R	9040933	9040983	51	143.1	447.2	567.2	676.1	13.022087	505.6	
END 9041435
START 9043049
ESACC	R	9043241	9043303	63	522.1	392.0	846.3	668.8	11.590365	535.1	
ESACC	R	9043608	9043661	54	826.1	669.3	300.7	229.1	18.615755	639.9	
ESACC	R	9044211	9044266	56	283.4	210.8	833.0	113.5	15.177377	637.2	
ESACC	R	9044429	9044448	20	831.9	117.4	883.9	95.3	1.5229567	131.7	
ESACC	R	9044854	9044910	57	874.7	94.9	914.2	422.3	9.068424	432.5	
ESACC	R	9045249	9045303	55	912.3	437.1	613.6	153.7	11.283914	476.9	
ESACC	R	9045504	9045523	20	599.4	143.0	579.8	101.5	1.2805835	124.1	
ESACC	R	9045764	9045812	49	578.2	109.1	76.7	490.6	17.14568	617.7	
ESACC	R	9045955	9045994	40	75.6	547.1	245.2	634.6	5.09298	429.6	
ESACC	R	9046547	9046590	44	258.2	641.2	134.3	479.7	5.5060344	224.0	
ESACC	R	9047132	9047197	66	114.5	490.6	581.3	724.3	14.022178	603.5	
END 9047558
START 9049041
ESACC	R	9049237	9049297	61	520.5	389.6	851.7	699.7	12.317354	575.4	
ESACC	R	9049439	9049471	33	831.3	705.7	887.2	685.3	1.5715587	177.0	
ESACC	R	9049605	9049660	56	891.2	686.8	346.8	265.7	18.621428	635.9	
ESACC	R	9049794	9049819	26	330.0	256.3	258.6	188.3	2.7247002	215.9	
ESACC	R	9050023	9050078	56	256.3	188.6	917.1	107.9	17.926884	655.9	
ESACC	R	9050271	9050288	18	899.4	111.2	877.0	82.7	0.9852911	86.8	
ESACC	R	9050691	9050746	56	872.3	84.8	927.1	429.4	9.56632	478.4	
ESACC	R	9051240	9051284	45	918.4	446.0	638.0	123.0	11.722691	496.5	
ESACC	R	9051474	9051496	23	621.1	115.4	567.2	108.1	1.5008124	137.1	
ESACC	R	9051864	9051939	76	565.6	99.4	217.3	692.1	18.744078	570.4	
ESACC	R	9052051	9052071	21	225.1	690.2	272.7	658.8	1.5279876	130.0	
ESACC	R	9052651	9052691	41	262.8	667.7	123.5	456.6	6.832996	307.4	
ESACC	R	9053220	9053289	70	102.4	459.4	591.1	754.2	15.3137455	577.4	
ESACC	R	9053480	9053495	16	572.2	753.4	564.9	721.2	0.8820999	83.3	
END 9054011
START 9058308
ESACC	R	9058849	9058901	53	520.1	394.3	238.7	208.1	9.308735	491.7	
ESACC	R	9059070	9059093	24	222.2	192.1	267.2	205.1	1.2786554	132.7	
ESACC	R	9059428	9059496	69	260.3	199.9	924.9	113.5	18.072048	707.7	
ESACC	R	9059745	9059807	63	896.1	116.4	297.3	170.4	16.274572	516.4	
ESACC	R	9059968	9060028	61	276.7	174.8	914.1	94.9	17.32179	680.0	
ESACC	R	9060217	9060380	164	896.4	109.4	295.5	215.6	16.526459	680.4	
ESACC	R	9060725	9060782	58	284.6	221.4	860.3	135.8	15.802708	724.5	
ESACC	R	9061077	9061099	23	848.3	135.3	892.2	118.2	1.2694262	106.6	
ESACC	R	9061534	9061581	48	881.7	107.7	568.5	89.0	8.515137	425.6	
ESACC	R	9064173	9064222	50	539.0	103.8	137.7	340.4	12.744982	471.0	
ESACC	R	9064492	9064550	59	130.3	359.9	553.5	146.7	12.95301	593.2	
END 9065507
START 9067587
ESACC	R	9067728	9067779	52	500.2	398.0	862.7	743.0	13.522786	694.5	
ESACC	R	9067874	9067899	26	857.5	761.2	882.2	681.4	2.2086601	180.8	
ESACC	R	9068110	9068173	64	868.6	690.3	221.9	155.7	22.601635	591.4	
ESACC	R	9068301	9068323	23	215.7	162.9	249.7	193.4	1.2543519	137.8	
ESACC	R	9068667	9068716	50	262.6	192.8	895.7	109.7	17.264534	709.8	
ESACC	R	9069213	9069258	46	871.8	103.7	898.9	428.5	8.964684	425.0	
ESACC	R	9069565	9069628	64	902.2	434.6	550.5	115.3	13.012365	532.5	
ESACC	R	9070070	9070141	72	545.1	120.8	203.9	686.8	18.036205	603.2	
ESACC	R	9070178	9070201	24	213.3	681.1	280.1	616.0	2.5089667	219.2	
ESACC	R	9070656	9070697	42	270.9	619.8	121.7	465.6	5.8053365	416.5	
ESACC	R	9071143	9071207	65	96.1	460.0	560.7	706.8	14.137893	665.5	
END 9071550
START 9077004
ESACC	R	9077182	9077247	66	518.5	392.1	939.3	667.8	13.572115	628.1	
ESACC	R	9077440	9077470	31	910.8	668.0	851.7	673.7	1.5647318	186.2	
ESACC	R	9077562	9077628	67	843.3	681.8	279.5	250.8	19.22537	616.8	
ESACC	R	9077962	9077982	21	266.0	237.9	251.7	206.3	0.9639466	103.0	
ESACC	R	9078355	9078420	66	253.9	207.0	825.1	115.0	15.709353	619.3	
ESACC	R	9078543	9078573	31	808.1	109.4	882.8	90.3	2.0786548	196.2	
ESACC	R	9079253	9079308	56	885.1	97.6	913.3	483.7	10.604779	445.8	
ESACC	R	9079359	9079386	28	909.4	500.0	889.9	427.5	2.0558758	116.5	
ESACC	R	9079581	9079630	50	882.4	433.3	573.3	122.3	12.040531	440.7	
ESACC	R	9079946	9080016	71	553.1	106.9	182.7	706.7	19.165611	549.6	
ESACC	R	9080069	9080098	30	193.4	717.2	297.4	653.4	3.2603314	227.0	
ESACC	R	9080387	9080410	24	274.9	654.2	209.7	655.8	1.7461818	135.4	
ESACC	R	9080467	9080504	38	221.7	657.4	106.5	480.5	5.6916494	373.1	
ESACC	R	9081126	9081175	50	105.2	463.8	549.2	749.8	14.179654	616.1	
ESACC	R	9081348	9081396	49	549.0	743.6	251.7	632.6	8.540875	419.4	
ESACC	R	9081633	9081649	17	239.7	624.9	264.8	651.1	0.9787926	84.2	
ESACC	R	9082016	9082065	50	262.7	635.6	94.9	440.1	6.9608045	369.0	
ESACC	R	9082456	9082509	54	79.5	438.4	559.6	730.7	15.07302	650.9	
END 9082879
START 9084958
ESACC	R	9085540	9085577	38	509.4	400.4	295.2	241.1	7.387791	408.2	
ESACC	R	9086271	9086324	54	273.9	239.4	911.9	82.1	17.738735	660.2	
ESACC	R	9086780	9086840	61	885.8	77.5	899.6	444.0	10.075421	347.9	
ESACC	R	9086983	9086996	14	897.4	458.1	928.3	447.9	0.8680215	79.0	
ESACC	R	9087290	9087338	49	918.7	445.0	607.1	110.9	12.511245	430.7	
ESACC	R	9087821	9087884	64	592.1	96.5	241.7	627.8	17.451206	601.0	
ESACC	R	9088408	9088446	39	253.2	661.1	120.3	470.7	6.2766676	341.4	
ESACC	R	9089031	9089085	55	106.2	467.0	554.1	724.6	13.885102	622.0	
END 9089432
START 9091261
ESACC	R	9091435	9091498	64	516.3	391.3	899.7	643.9	12.443787	627.5	
ESACC	R	9091962	9092016	55	866.6	644.3	291.8	236.2	19.097385	634.8	
ESACC	R	9092161	9092181	21	274.5	230.9	269.9	188.6	1.1882296	101.0	
ESACC	R	9092530	9092578	49	262.7	188.2	863.8	89.6	16.495623	646.1	
ESACC	R	9092838	9092856	19	853.5	88.0	901.5	92.7	1.2916286	118.5	
ESACC	R	9093407	9093458	52	896.5	86.7	898.6	444.2	9.8215885	339.2	
ESACC	R	9093834	9093880	47	902.6	453.6	586.9	137.2	12.256162	443.2	
ESACC	R	9094384	9094482	99	558.8	125.7	255.2	684.3	17.38615	462.3	
ESACC	R	9095021	9095061	41	251.0	675.2	105.6	458.6	7.0415363	320.6	
ESACC	R	9095407	9095460	54	107.6	454.7	546.6	762.1	14.38706	543.3	
ESACC	R	9095629	9095652	24	543.5	762.3	588.2	736.1	1.3927685	128.0	
END 9095790
START 9097541
ESACC	R	9097721	9097781	61	513.4	396.9	850.2	621.8	11.021961	576.2	
ESACC	R	9098030	9098095	66	835.9	621.2	265.9	230.8	18.754145	621.8	
ESACC	R	9098571	9098639	69	240.3	207.4	873.2	101.9	17.353258	672.6	
ESACC	R	9099167	9099226	60	849.1	100.7	944.5	445.3	9.79035	446.9	
ESACC	R	9099479	9099502	24	917.0	452.2	864.7	394.5	2.115461	160.4	
ESACC	R	9099542	9099587	46	860.1	393.5	583.9	105.9	10.975485	447.8	
ESACC	R	9099910	9099953	44	586.0	94.2	376.4	182.0	6.2747073	433.6	
ESACC	R	9100036	9100096	61	361.9	196.8	187.4	672.6	13.84577	595.6	
ESACC	R	9100503	9100540	38	215.6	654.9	125.7	463.4	5.7230554	340.8	
ESACC	R	9100949	9101001	53	99.4	460.4	543.7	680.8	13.346735	679.1	
END 9101361
START 9102741
ESACC	R	9102919	9102980	62	505.9	389.6	882.4	661.7	12.597107	626.2	
ESACC	R	9103318	9103391	74	851.6	673.1	222.2	200.0	21.26331	663.8	
ESACC	R	9103515	9103547	33	208.6	187.4	249.3	201.5	1.1734638	169.4	
ESACC	R	9103715	9103783	69	255.6	201.3	857.5	675.8	20.705385	584.6	
ESACC	R	9104262	9104314	53	840.4	665.4	278.5	265.6	18.682539	617.2	
ESACC	R	9104452	9104470	19	257.7	248.2	259.0	202.2	1.2836157	121.2	
ESACC	R	9104765	9104833	69	238.6	196.1	901.9	96.1	18.091444	700.3	
ESACC	R	9105382	9105437	56	881.5	87.8	922.1	404.2	8.759474	442.0	
ESACC	R	9105888	9105929	42	905.8	417.8	600.0	128.3	11.540184	497.8	
ESACC	R	9106433	9106529	97	564.8	126.7	288.3	671.7	16.761225	466.7	
ESACC	R	9107001	9107027	27	297.5	663.0	388.3	626.2	2.6520326	183.9	
ESACC	R	9107146	9107192	47	380.3	622.4	92.2	477.0	8.692377	366.6	
ESACC	R	9107549	9107609	61	67.2	470.8	582.4	662.9	14.748548	604.0	
END 9107999
START 9110153
END 9115031
START 9116582
END 9121031
START 9122599
END 9127752
START 9129223
ESACC	R	9131346	9131367	22	514.6	388.2	554.5	338.0	1.7900984	136.9	
END 9133473
START 9135063
ESACC	R	9139449	9139504	56	500.7	386.6	586.2	654.8	7.7615585	357.2	
ESACC	R	9139725	9139762	38	582.6	676.9	529.0	413.4	7.3962173	380.0	
END 9139867
START 9141796
ESACC	R	9141999	9142058	60	504.4	400.5	833.2	694.0	11.978726	572.3	
ESACC	R	9142264	9142287	24	814.2	700.6	871.3	691.1	1.5335944	131.6	
ESACC	R	9142352	9142427	76	862.9	690.4	284.8	207.5	20.362604	606.5	
ESACC	R	9142721	9142781	61	285.9	213.1	814.3	134.7	14.562044	562.7	
ESACC	R	9142941	9142999	59	808.2	142.7	342.6	183.1	12.75384	466.4	
ESACC	R	9143147	9143189	43	326.9	175.0	513.5	417.8	8.517666	599.0	
ESACC	R	9143337	9143347	11	512.5	440.6	517.8	419.7	0.6026694	65.4	
ESACC	R	9145195	9145251	57	508.6	401.6	260.4	633.8	9.308871	407.0	
ESACC	R	9145707	9145756	50	257.3	646.6	447.2	425.2	7.9856167	338.0	
ESACC	R	9145891	9145916	26	434.6	431.8	534.7	411.1	2.8214326	234.2	
END 9147330
START 9148832
ESACC	R	9151259	9151295	37	503.3	399.1	503.9	288.8	3.094014	124.7	
ESACC	R	9151603	9151629	27	499.6	302.7	493.6	388.4	2.4096494	139.7	
END 9154618
START 9156382
END 9161364
START 9162809
ESACC	R	9165996	9166038	43	504.9	379.1	535.5	205.0	4.9566073	251.9	
ESACC	R	9166316	9166351	36	525.2	211.7	509.4	389.6	5.0092864	282.5	
ESACC	R	9166629	9166648	20	519.3	389.2	466.5	401.6	1.4993501	128.0	
END 9168100
START 9169760
ESACC	R	9173317	9173356	40	490.5	395.7	543.9	292.1	3.2599192	194.5	
ESACC	R	9173519	9173609	91	542.3	305.0	512.4	813.4	13.820442	344.6	
ESACC	R	9173658	9173697	40	506.4	801.5	340.5	711.6	5.053402	245.5	
ESACC	R	9173756	9173783	28	338.2	706.5	221.1	660.7	3.371593	262.4	
ESACC	R	9174438	9174481	44	224.7	647.6	290.1	614.6	1.971907	295.9	
ESACC	R	9174513	9174559	47	281.1	607.4	74.1	545.0	5.7738934	373.5	
ESACC	R	9174642	9174665	24	57.0	537.5	98.8	464.2	2.276807	179.3	
ESACC	R	9174987	9175036	50	82.3	455.5	549.0	747.2	14.740645	603.1	
ESACC	R	9175263	9175279	17	545.7	749.9	549.6	714.9	0.9417302	77.0	
END 9175532
START 9177156
ESACC	R	9178626	9178667	42	487.9	392.9	267.9	225.2	7.6507535	300.3	
ESACC	R	9179037	9179096	60	238.4	219.0	888.5	98.2	17.86192	645.1	
ESACC	R	9179520	9179569	50	875.9	102.1	878.7	439.2	9.286805	333.0	
ESACC	R	9179884	9179950	67	889.6	442.8	527.8	82.5	14.009688	379.6	
ESACC	R	9180076	9180098	23	521.8	84.7	562.4	103.6	1.2395899	130.5	
ESACC	R	9180613	9180710	98	558.2	89.5	216.8	634.2	17.606697	475.2	
ESACC	R	9181269	9181301	33	217.4	649.5	108.9	476.6	5.512367	280.5	
ESACC	R	9181773	9181831	59	84.2	460.0	561.8	725.7	14.655437	623.7	
END 9182451
START 9184733
END 9190805
START 9192794
ESACC	R	9197957	9198014	58	475.5	384.1	496.4	688.8	8.39044	391.5	
END 9198340
START 9201132
END 9205875
START 9214503
ESACC	R	9214726	9214791	66	482.9	406.8	872.5	689.5	13.041254	648.0	
ESACC	R	9215569	9215628	60	832.5	689.3	228.1	213.1	20.775705	706.9	
ESACC	R	9215966	9215987	22	220.9	206.7	256.9	190.7	1.0762123	112.7	
ESACC	R	9216040	9216092	53	250.9	187.8	845.8	108.3	16.272078	641.3	
ESACC	R	9216312	9216334	23	825.7	108.9	889.4	99.7	1.7310201	142.3	
ESACC	R	9216633	9216688	56	881.9	96.2	866.1	488.5	10.770977	463.1	
ESACC	R	9216787	9216811	25	855.2	506.5	892.2	430.7	2.303458	167.5	
ESACC	R	9217156	9217213	58	883.9	427.0	478.5	158.5	13.3035965	456.2	
ESACC	R	9217317	9217354	38	468.1	141.6	551.5	92.2	2.6864896	255.3	
ESACC	R	9217559	9217618	60	556.6	91.4	884.3	79.5	8.91099	501.6	
ESACC	R	9218193	9218238	46	871.0	79.7	896.4	475.6	10.882667	511.8	
ESACC	R	9218341	9218365	25	900.8	483.4	891.1	420.7	1.7395039	136.4	
ESACC	R	9218644	9218689	46	885.6	430.7	542.4	108.5	12.917288	458.0	
ESACC	R	9218970	9218984	15	527.3	97.4	556.9	84.8	0.8891743	85.0	
ESACC	R	9219231	9219298	68	547.0	90.6	142.5	681.8	19.47829	620.5	
ESACC	R	9219387	9219412	26	136.7	696.5	241.9	676.5	2.8409612	231.7	
ESACC	R	9219934	9219978	45	226.3	667.4	102.1	439.2	7.022717	333.2	
ESACC	R	9220415	9220483	69	90.4	433.5	578.8	741.5	15.486356	654.2	
ESACC	R	9220730	9220742	13	556.5	731.3	533.4	721.7	0.6751616	66.9	
END 9220941
