START 19706590
EBLINK	R	19709731	19709839	109
EBLINK	R	19711907	19711991	85
END 19723740
START 19752064
END 19758471
START 19760330
END 19766856
START 19768425
EBLINK	R	19772147	19772179	33
END 19773248
START 19775226
END 19779706
START 19781761
END 19787003
START 19790271
END 19798007
START 19801868
END 19807316
START 19808682
EBLINK	R	19813630	19813671	42
END 19814075
START 19815433
END 19820629
START 19821811
END 19826471
START 19828678
END 19833395
START 19834736
END 19840013
START 19841789
EBLINK	R	19847977	19848099	123
END 19848543
START 19850206
END 19854573
START 19856119
END 19861543
START 19862642
EBLINK	R	19867409	19867578	170
END 19869106
START 19871079
EBLINK	R	19875957	19876014	58
END 19876160
START 19878433
EBLINK	R	19880421	19880513	93
EBLINK	R	19884325	19884463	139
END 19884976
START 19886727
END 19891707
START 19893280
EBLINK	R	19896943	19897054	112
END 19897392
START 19899855
END 19903656
START 19905378
END 19909102
START 19910673
EBLINK	R	19911918	19911996	79
END 19915351
START 19916809
END 19921845
START 19926185
END 19930473
START 19934755
END 19938996
START 19940779
END 19944489
START 19945810
END 19951249
START 19952554
END 19956787
START 19959179
END 19963387
START 19965292
END 19969426
START 19970980
END 19975146
START 19977045
END 19980995
START 19982433
END 19986556
START 19987900
END 19992260
START 19995072
END 19998865
START 20000397
END 20004969
START 20006487
END 20010982
START 20013102
END 20016528
START 20018326
END 20023125
START 20024926
END 20029007
START 20030704
EBLINK	R	20031136	20031249	114
EBLINK	R	20033447	20033552	106
END 20035742
START 20040602
EBLINK	R	20044008	20044009	2
END 20045619
START 20048640
END 20052785
START 20055401
EBLINK	R	20057091	20057226	136
END 20060533
START 20062457
END 20066289
START 20067794
END 20072994
START 20074914
END 20078715
START 20080362
END 20084003
START 20085564
END 20089917
START 20091778
END 20096473
START 20097826
END 20102556
START 20103879
END 20109834
START 20111549
END 20115211
START 20116787
END 20120961
START 20122468
END 20126881
START 20128814
END 20133433
START 20135332
END 20139309
START 20141030
END 20145052
START 20147878
END 20152514
START 20154783
EBLINK	R	20155343	20155433	91
END 20158109
START 20159936
END 20163293
START 20165030
END 20169003
START 20170591
END 20174662
START 20175967
END 20180564
START 20182271
END 20186367
START 20187825
END 20192233
START 20193816
END 20197418
START 20199298
END 20203088
START 20204634
END 20207793
START 20210473
END 20214117
START 20215570
END 20219917
START 20221481
END 20225549
START 20227002
END 20230835
START 20232220
END 20235839
START 20237234
EBLINK	R	20241218	20241264	47
END 20241613
START 20244035
END 20250067
START 20251883
END 20255507
START 20257180
END 20261641
START 20263061
END 20267498
START 20270148
END 20275965
START 20277420
END 20281547
START 20283149
END 20287818
START 20289366
END 20293751
START 20294985
END 20299074
START 20300486
EBLINK	R	20303145	20303232	88
END 20303949
START 20305220
END 20309798
START 20311278
END 20314973
START 20316775
END 20320701
START 20322336
END 20326677
START 20328975
END 20332773
START 20334824
END 20339479
START 20340961
END 20344962
START 20347112
END 20350545
START 20352113
END 20356642
START 20360369
END 20366949
START 20368618
END 20372341
START 20373930
END 20378306
START 20379739
END 20384115
START 20385450
END 20389637
