START 19706590
ESACC	R	19706970	19707025	56	517.9	358.2	159.3	380.1	9.803446	352.7	
ESACC	R	19707149	19707193	45	155.7	387.1	543.2	384.7	10.558794	452.6	
ESACC	R	19707340	19707391	52	533.7	392.5	466.1	607.8	6.2464504	211.1	
ESACC	R	19707476	19707521	46	467.2	606.5	208.4	412.4	8.842162	331.1	
ESACC	R	19707632	19707657	26	217.3	419.5	96.8	430.6	3.2493196	253.8	
ESACC	R	19707886	19707935	50	93.4	431.6	262.7	171.6	8.5061035	308.4	
ESACC	R	19708058	19708101	44	257.2	173.7	570.7	95.7	8.871751	417.1	
ESACC	R	19708221	19708264	44	559.0	92.5	866.8	80.6	8.381994	338.8	
ESACC	R	19708388	19708437	50	858.0	84.3	929.6	446.7	10.137954	406.4	
ESACC	R	19708620	19708694	75	931.2	437.6	848.2	687.9	7.1131973	240.2	
ESACC	R	19708930	19708973	44	861.7	663.7	505.5	688.2	9.572222	422.6	
ESACC	R	19709120	19709159	40	519.9	678.1	506.5	445.2	6.408874	289.4	
ESACC	R	19709265	19709284	20	500.9	441.1	521.5	396.4	1.3737559	135.8	
ESACC	R	19709563	19709609	47	523.9	395.8	803.0	681.9	10.899749	490.2	
ESACC	R	19709712	19709913	202	787.1	685.0	923.6	667.5	3.6364894	813.8	
ESACC	R	19710066	19710099	34	895.2	651.4	730.3	621.2	4.477816	216.6	
ESACC	R	19710204	19710234	31	738.1	624.9	582.4	671.2	4.3966465	299.2	
ESACC	R	19710379	19710432	54	587.4	675.5	206.6	549.4	10.8473425	330.1	
ESACC	R	19710622	19710675	54	210.7	549.1	276.7	181.9	10.300132	316.5	
ESACC	R	19710818	19710865	48	274.3	175.1	650.1	101.6	10.497477	405.6	
ESACC	R	19710980	19711040	61	636.4	105.1	884.8	674.2	16.909948	626.7	
ESACC	R	19711259	19711307	49	879.4	657.2	490.9	402.3	12.593229	487.3	
ESACC	R	19711466	19711472	7	506.3	393.5	514.7	385.2	0.3287046	50.1	
ESACC	R	19711876	19712035	160	503.8	404.3	448.1	309.8	3.0660493	823.7	
ESACC	R	19712102	19712141	40	455.2	315.0	270.0	186.4	6.2397327	287.8	
ESACC	R	19712278	19712344	67	268.6	174.3	837.5	661.1	20.298847	649.8	
ESACC	R	19712483	19712503	21	835.1	662.5	901.7	667.8	1.7675955	152.4	
ESACC	R	19713537	19713585	49	879.0	661.2	547.4	382.1	11.764945	394.0	
ESACC	R	19713692	19713747	56	557.0	386.0	913.9	647.4	11.987172	540.2	
ESACC	R	19713939	19713948	10	906.7	656.4	885.3	654.8	0.5655167	67.7	
ESACC	R	19714939	19714999	61	883.6	641.5	326.3	162.7	19.931227	622.4	
ESACC	R	19715097	19715119	23	332.6	166.3	266.0	170.5	1.8284149	179.5	
ESACC	R	19715774	19715815	42	264.9	171.0	542.5	374.4	9.523247	474.8	
ESACC	R	19715937	19715983	47	536.7	372.7	862.2	645.3	11.57142	513.2	
ESACC	R	19716137	19716179	43	857.9	639.3	887.3	390.7	6.809905	290.5	
ESACC	R	19716339	19716384	46	886.5	390.8	520.5	362.7	10.003338	358.7	
ESACC	R	19716514	19716555	42	530.6	357.5	571.3	75.3	7.9733725	337.6	
ESACC	R	19716714	19716757	44	571.8	76.7	246.3	177.1	9.346046	375.9	
ESACC	R	19717115	19717197	83	259.8	176.1	834.0	651.4	20.199074	543.2	
ESACC	R	19717428	19717451	24	828.5	634.3	909.0	667.2	2.3050628	210.8	
ESACC	R	19717568	19717631	64	903.5	661.5	267.6	170.5	21.67104	668.1	
ESACC	R	19717802	19717825	24	282.4	177.1	234.5	174.1	1.3078569	140.3	
ESACC	R	19718344	19718387	44	241.1	173.3	540.8	89.3	8.549563	391.7	
ESACC	R	19718512	19718554	43	533.0	86.2	878.0	85.0	9.375058	409.5	
ESACC	R	19718773	19718820	48	868.0	84.2	952.8	470.8	10.815061	469.0	
ESACC	R	19719003	19719051	49	940.7	461.3	580.1	687.2	11.436422	502.2	
ESACC	R	19719161	19719203	43	585.4	680.4	303.0	627.3	7.7770553	410.6	
ESACC	R	19719328	19719348	21	305.2	630.6	239.8	633.9	1.762701	158.7	
ESACC	R	19719936	19720020	85	254.3	629.1	902.7	512.7	17.623077	499.3	
ESACC	R	19720139	19720158	20	884.3	477.7	916.7	447.8	1.1906095	125.8	
ESACC	R	19720397	19720430	34	913.4	442.4	914.4	343.6	2.7144158	144.8	
ESACC	R	19720575	19720615	41	914.0	336.3	864.7	92.5	6.844389	293.2	
ESACC	R	19720734	19720773	40	872.3	83.3	588.8	78.3	7.705046	376.1	
ESACC	R	19721562	19721598	37	593.9	85.0	862.5	73.1	7.306332	347.4	
ESACC	R	19722049	19722111	63	854.5	73.6	131.2	433.2	21.762909	664.1	
ESACC	R	19722334	19722355	22	151.7	427.7	80.9	422.9	1.8925995	172.2	
ESACC	R	19722866	19722915	50	93.1	437.1	563.2	691.9	14.379904	529.7	
END 19723740
START 19752064
ESACC	R	19752313	19752358	46	508.7	366.1	621.7	122.8	7.4959993	257.2	
ESACC	R	19752465	19752503	39	619.1	119.4	849.1	97.6	6.28765	336.7	
ESACC	R	19752587	19752637	51	848.5	96.7	923.7	482.9	10.783936	472.4	
ESACC	R	19752776	19752806	31	924.8	475.7	886.5	658.8	5.0513115	324.9	
ESACC	R	19752963	19752978	16	888.7	652.6	896.7	612.9	1.0851252	98.1	
ESACC	R	19753228	19753246	19	884.2	609.9	899.7	637.4	0.84535795	84.3	
ESACC	R	19753421	19753484	64	900.2	633.5	319.3	182.1	19.925638	643.6	
ESACC	R	19753560	19753583	24	331.3	184.9	265.8	159.0	1.9348652	179.1	
ESACC	R	19753918	19753978	61	270.3	163.5	866.4	94.1	16.246754	561.2	
ESACC	R	19754129	19754140	12	865.4	90.3	886.8	77.5	0.67251575	72.7	
ESACC	R	19754174	19754221	48	880.7	84.4	930.2	479.1	10.89354	504.4	
ESACC	R	19754375	19754425	51	928.8	466.3	568.5	671.5	11.168453	626.9	
ESACC	R	19754558	19754596	39	569.7	673.5	290.4	617.1	7.721887	397.3	
ESACC	R	19754904	19754946	43	296.1	623.4	171.5	415.4	6.616972	278.6	
ESACC	R	19755113	19755175	63	166.8	422.8	914.3	431.3	19.988	631.4	
ESACC	R	19755621	19755673	53	904.6	428.4	648.3	95.9	11.520109	382.1	
ESACC	R	19755803	19755825	23	649.2	92.3	572.3	93.2	2.115693	190.7	
ESACC	R	19756359	19756396	38	569.4	100.3	850.8	73.2	7.7043357	351.4	
ESACC	R	19757091	19757167	77	836.4	68.0	89.8	451.3	22.539349	614.0	
ESACC	R	19757340	19757351	12	89.5	448.3	103.5	430.2	0.61981934	65.2	
ESACC	R	19757956	19758003	48	105.0	432.9	570.7	671.1	14.101309	571.1	
END 19758471
START 19760330
ESACC	R	19760571	19760611	41	493.3	383.7	628.3	187.4	6.646852	299.9	
ESACC	R	19760726	19760771	46	623.1	188.3	906.0	497.4	11.484274	527.6	
ESACC	R	19760880	19760910	31	903.3	494.8	879.4	624.7	3.5769522	263.7	
ESACC	R	19761163	19761204	42	885.3	621.0	880.6	347.1	7.4642644	301.8	
ESACC	R	19761302	19761340	39	879.6	354.0	873.8	592.6	6.5209646	318.7	
ESACC	R	19761797	19761816	20	870.1	584.0	898.7	636.2	1.5980163	137.5	
ESACC	R	19761917	19761980	64	892.3	633.6	332.6	190.7	19.344837	628.4	
ESACC	R	19762054	19762077	24	340.5	187.1	263.9	159.4	2.234029	209.4	
ESACC	R	19762539	19762598	60	278.6	170.8	859.8	91.3	15.903885	394.4	
ESACC	R	19762767	19762815	49	847.1	87.1	927.3	459.6	10.44145	454.8	
ESACC	R	19762975	19763017	43	923.1	456.8	549.9	679.1	11.703261	574.3	
ESACC	R	19763143	19763184	42	564.7	674.7	301.0	622.7	7.2839603	403.5	
ESACC	R	19763322	19763342	21	305.7	626.9	255.5	624.5	1.3546667	118.4	
ESACC	R	19763777	19763846	70	265.4	618.6	977.1	436.2	19.592478	609.5	
ESACC	R	19764018	19764034	17	976.8	434.5	940.5	430.2	0.96496207	98.3	
ESACC	R	19764312	19764365	54	939.2	425.7	640.4	63.5	12.840373	450.5	
ESACC	R	19764690	19764713	24	644.7	66.4	572.4	68.7	1.9900243	163.5	
ESACC	R	19765277	19765312	36	575.3	65.8	829.7	52.2	6.942083	374.8	
ESACC	R	19765532	19765551	20	829.1	52.9	880.1	58.4	1.3774173	139.6	
ESACC	R	19765620	19765694	75	873.7	57.6	141.4	486.6	22.836983	682.5	
ESACC	R	19765795	19765813	19	135.6	486.8	108.5	449.0	1.262283	124.7	
ESACC	R	19766337	19766386	50	108.0	434.6	557.8	690.7	13.941756	550.9	
END 19766856
START 19768425
ESACC	R	19768636	19768684	49	502.6	390.9	880.6	521.1	10.871727	438.4	
ESACC	R	19768820	19768848	29	881.7	519.3	878.2	648.4	3.4951484	236.7	
ESACC	R	19769119	19769185	67	888.1	644.2	283.9	183.0	20.550304	566.4	
ESACC	R	19769338	19769358	21	293.3	173.7	264.7	170.4	0.7878848	104.7	
ESACC	R	19769715	19769776	62	263.8	169.8	877.4	84.2	16.751982	519.8	
ESACC	R	19769921	19769969	49	872.2	81.3	945.6	449.9	10.286072	475.4	
ESACC	R	19770168	19770235	68	941.6	444.1	259.5	638.7	18.94242	675.3	
ESACC	R	19770448	19770457	10	254.9	637.0	262.6	621.2	0.4751902	52.8	
ESACC	R	19770620	19770672	53	261.7	622.1	938.2	468.6	18.540697	601.9	
ESACC	R	19770973	19771025	53	922.0	460.1	639.2	87.9	12.805325	450.5	
ESACC	R	19771144	19771164	21	638.7	80.1	581.6	71.1	1.5907191	159.9	
ESACC	R	19771577	19771614	38	581.2	82.5	848.4	64.5	7.2877784	366.1	
ESACC	R	19772093	19772219	127	840.2	61.6	124.2	460.8	22.077942	1042.7	
ESACC	R	19772709	19772756	48	136.7	439.3	534.9	687.2	12.681779	560.1	
END 19773248
START 19775226
ESACC	R	19775418	19775464	47	500.6	397.3	849.2	604.9	11.050261	468.3	
ESACC	R	19775827	19775893	67	846.3	602.2	260.0	247.9	18.58545	559.1	
ESACC	R	19776054	19776076	23	261.8	243.2	257.1	178.1	1.8204219	138.5	
ESACC	R	19776461	19776508	48	254.4	175.3	252.3	590.3	11.432647	456.2	
ESACC	R	19776901	19776958	58	250.7	596.1	898.1	448.8	17.818308	566.5	
ESACC	R	19777235	19777244	10	896.6	437.2	903.3	425.3	0.37256008	42.6	
ESACC	R	19777394	19777440	47	896.5	419.1	854.5	60.4	9.931815	369.2	
ESACC	R	19777561	19777594	34	855.3	61.2	603.8	73.1	6.8421626	423.7	
ESACC	R	19777988	19778025	38	592.5	76.5	864.2	66.1	7.388756	394.9	
ESACC	R	19778265	19778337	73	856.4	63.7	571.3	704.1	19.023386	572.4	
ESACC	R	19778519	19778529	11	569.0	699.6	555.0	680.5	0.64038885	64.3	
ESACC	R	19778618	19778680	63	555.2	684.9	127.0	431.4	13.4508095	532.0	
ESACC	R	19778878	19778901	24	126.9	433.8	92.7	426.7	0.931382	116.7	
ESACC	R	19779181	19779230	50	98.3	431.4	541.5	670.6	13.580259	602.9	
END 19779706
START 19781761
ESACC	R	19781971	19782016	46	499.0	379.8	819.8	650.6	11.453743	489.0	
ESACC	R	19782415	19782478	64	817.3	652.2	284.4	234.1	18.40245	553.0	
ESACC	R	19782560	19782582	23	291.2	230.8	239.7	184.5	1.9099464	163.7	
ESACC	R	19782840	19782890	51	252.1	190.6	266.2	627.7	12.014319	477.5	
ESACC	R	19783424	19783482	59	275.7	611.1	903.5	470.7	17.239584	497.7	
ESACC	R	19783636	19783653	18	892.1	464.8	924.2	443.9	1.0279684	106.8	
ESACC	R	19784023	19784075	53	923.5	435.6	699.0	189.5	9.126294	364.8	
ESACC	R	19784184	19784224	41	702.0	189.7	882.4	443.0	8.551854	525.0	
ESACC	R	19784498	19784521	24	888.7	441.6	940.2	442.1	1.3697494	150.5	
ESACC	R	19784658	19784707	50	938.6	442.6	586.6	98.2	13.445276	509.9	
ESACC	R	19784887	19784899	13	595.8	96.4	572.5	84.8	0.7188176	74.2	
ESACC	R	19785333	19785366	34	575.4	86.8	687.0	70.3	3.100097	174.3	
ESACC	R	19785455	19785483	29	679.7	71.3	851.6	75.2	4.666104	315.2	
ESACC	R	19785831	19785896	66	846.6	72.2	537.1	615.0	17.091269	437.3	
ESACC	R	19785990	19786051	62	538.0	598.9	137.3	414.8	11.952544	458.8	
ESACC	R	19786329	19786351	23	129.9	427.5	94.5	419.6	0.9685607	106.9	
ESACC	R	19786546	19786597	52	94.2	429.3	582.0	678.1	14.741803	557.4	
END 19787003
START 19790271
ESACC	R	19790348	19790391	44	504.4	395.0	863.1	600.5	11.245258	454.1	
ESACC	R	19790514	19790535	22	848.4	604.8	885.5	659.0	1.7581923	161.8	
ESACC	R	19790922	19790988	67	888.4	648.9	346.6	225.6	18.648504	578.4	
ESACC	R	19791047	19791071	25	346.7	227.6	260.5	175.7	2.7711105	213.6	
ESACC	R	19791338	19791391	54	267.9	177.8	546.5	641.0	14.852976	542.1	
ESACC	R	19791523	19791571	49	540.8	634.3	266.9	626.3	7.425946	409.0	
ESACC	R	19791655	19791711	57	260.8	624.9	876.6	415.1	17.497158	631.0	
ESACC	R	19791831	19791889	59	864.8	416.8	374.5	564.3	13.894684	689.9	
ESACC	R	19792003	19792038	36	369.7	570.9	267.4	609.3	2.9677634	288.4	
ESACC	R	19792679	19792730	52	263.2	620.5	856.1	460.7	16.546072	622.9	
ESACC	R	19792859	19792920	62	852.1	456.6	286.4	630.4	15.950703	665.5	
ESACC	R	19793725	19793778	54	271.4	613.4	873.9	447.5	16.818571	597.3	
ESACC	R	19793935	19793959	25	871.0	440.5	936.0	433.3	1.7445831	170.9	
ESACC	R	19794234	19794284	51	936.1	426.0	614.2	97.6	12.578385	457.9	
ESACC	R	19794448	19794468	21	610.6	97.2	575.8	82.9	1.0383501	102.0	
ESACC	R	19794775	19794810	36	575.7	95.6	836.9	68.8	7.1462564	365.7	
ESACC	R	19795003	19795024	22	827.5	66.7	887.9	69.5	1.6211296	157.8	
ESACC	R	19795253	19795369	117	872.3	70.2	118.3	408.0	22.174711	581.9	
ESACC	R	19795492	19795514	23	127.0	374.5	89.7	416.7	1.5266958	136.2	
ESACC	R	19795905	19795924	20	105.8	411.0	78.9	422.9	0.7846704	93.7	
ESACC	R	19796177	19796224	48	85.5	422.8	562.9	680.7	14.611659	634.4	
ESACC	R	19796341	19796406	66	556.0	677.6	113.0	428.5	13.721023	499.5	
ESACC	R	19796624	19796640	17	107.4	427.7	69.3	417.6	1.0479088	106.2	
ESACC	R	19796980	19797029	50	76.9	419.9	583.5	685.3	15.361746	591.2	
END 19798007
START 19801868
ESACC	R	19802152	19802192	41	503.8	402.0	869.5	553.6	10.769206	473.1	
ESACC	R	19802375	19802402	28	867.4	543.4	872.1	651.9	2.9350882	185.7	
ESACC	R	19802869	19802942	74	871.7	651.4	270.4	164.0	20.943142	504.2	
ESACC	R	19803088	19803104	17	280.8	166.7	245.6	172.7	0.97486925	91.3	
ESACC	R	19803611	19803664	54	247.4	181.8	263.1	639.4	12.561373	444.1	
ESACC	R	19803843	19803860	18	267.0	626.9	232.8	635.9	0.9510735	106.3	
ESACC	R	19804273	19804332	60	242.3	633.0	903.7	478.9	18.150536	531.8	
ESACC	R	19804655	19804664	10	901.2	467.0	915.8	453.7	0.5328712	59.6	
ESACC	R	19804867	19804883	17	907.7	450.1	927.0	441.8	0.5607894	76.5	
ESACC	R	19805016	19805061	46	923.0	440.5	617.8	77.6	12.989316	527.8	
ESACC	R	19805202	19805220	19	626.1	72.1	574.7	75.0	1.4163349	149.5	
ESACC	R	19805566	19805573	8	573.7	76.7	560.9	81.2	0.37423354	51.4	
ESACC	R	19805739	19805778	40	558.0	76.3	867.0	81.7	8.398067	423.0	
ESACC	R	19806154	19806216	63	863.1	80.7	498.0	684.2	19.170708	600.6	
ESACC	R	19806307	19806362	56	502.4	670.4	132.5	451.8	11.61824	426.3	
ESACC	R	19806515	19806534	20	132.9	449.2	80.9	437.5	1.4197404	135.1	
ESACC	R	19806725	19806776	52	94.3	432.3	559.2	692.1	14.324349	573.9	
END 19807316
START 19808682
ESACC	R	19808940	19808974	35	500.2	401.6	575.5	244.0	4.8869143	239.8	
ESACC	R	19809054	19809115	62	574.6	239.7	888.6	612.1	13.310608	547.2	
ESACC	R	19809335	19809350	16	882.6	620.2	860.3	634.1	0.6989834	81.7	
ESACC	R	19809483	19809539	57	860.9	639.1	565.9	112.0	16.501081	510.3	
ESACC	R	19809667	19809710	44	564.9	111.6	264.1	210.5	8.713273	468.1	
ESACC	R	19810002	19810007	6	264.7	203.2	253.7	198.1	0.33214423	53.5	
ESACC	R	19810393	19810446	54	255.3	197.6	273.4	623.3	11.72141	445.2	
ESACC	R	19810597	19810643	47	276.7	626.0	647.9	507.9	10.593202	377.8	
ESACC	R	19810749	19810801	53	631.6	504.7	288.6	610.5	9.787589	478.8	
ESACC	R	19811234	19811290	57	275.5	612.6	885.9	450.8	16.972422	550.9	
ESACC	R	19811528	19811545	18	883.0	444.3	921.9	437.9	1.052089	110.7	
ESACC	R	19811649	19811700	52	917.5	432.0	589.1	92.9	12.922156	481.9	
ESACC	R	19812294	19812332	39	581.0	100.2	859.6	81.4	7.588592	383.1	
ESACC	R	19812605	19812676	72	844.1	78.0	568.4	661.2	17.590582	466.9	
ESACC	R	19812792	19812851	60	564.9	661.5	119.3	399.8	13.964141	467.1	
ESACC	R	19812998	19813015	18	125.3	401.9	89.8	422.6	1.103264	99.6	
ESACC	R	19813584	19813734	151	100.9	426.6	541.1	701.2	13.976154	982.9	
ESACC	R	19813904	19813912	9	534.9	705.6	532.0	692.7	0.35602272	49.8	
END 19814075
START 19815433
ESACC	R	19815648	19815692	45	504.9	388.8	904.2	476.4	11.089878	455.2	
ESACC	R	19815794	19815824	31	892.5	477.4	878.7	646.3	4.5918875	312.9	
ESACC	R	19816047	19816107	61	887.7	635.9	532.4	159.4	16.213861	468.8	
ESACC	R	19816228	19816260	33	539.9	158.6	295.8	177.3	6.7448325	416.1	
ESACC	R	19816476	19816498	23	289.4	179.1	253.3	182.7	0.99143714	124.7	
ESACC	R	19816676	19816728	53	255.3	184.8	889.6	441.8	18.537521	674.2	
ESACC	R	19816850	19816870	21	884.4	441.0	933.7	439.7	1.3134	123.9	
ESACC	R	19817066	19817132	67	930.6	441.5	280.9	621.6	18.05332	644.7	
ESACC	R	19817829	19817844	16	277.8	621.7	244.0	622.1	0.9098894	92.1	
ESACC	R	19817978	19818035	58	248.3	618.0	949.8	461.0	19.164	582.8	
ESACC	R	19818255	19818307	53	934.9	453.8	833.7	194.7	7.634708	218.7	
ESACC	R	19818414	19818451	38	835.6	194.1	943.8	432.3	7.1797085	426.5	
ESACC	R	19818595	19818641	47	951.3	442.1	573.9	150.7	13.0006695	548.9	
ESACC	R	19818773	19818789	17	570.5	137.5	571.9	99.2	1.0720266	80.8	
ESACC	R	19819095	19819129	35	567.0	97.3	818.7	75.8	6.9028616	337.7	
ESACC	R	19819497	19819561	65	821.4	72.2	136.5	395.3	20.44995	597.3	
ESACC	R	19819670	19819692	23	153.0	391.4	90.1	424.1	1.9053143	162.5	
ESACC	R	19820056	19820105	50	101.1	425.9	552.0	664.7	13.761253	512.6	
ESACC	R	19820583	19820627	45	542.8	673.3	497.7	287.9	10.703481	368.6	
END 19820629
START 19821811
ESACC	R	19822021	19822066	46	506.5	404.1	906.5	461.9	10.957713	459.0	
ESACC	R	19822181	19822214	34	894.6	464.3	866.5	651.8	5.1358204	272.9	
ESACC	R	19822404	19822569	166	878.8	650.9	294.5	194.5	20.082314	612.6	
ESACC	R	19822751	19822770	20	292.0	180.2	241.6	176.5	1.3809112	120.9	
ESACC	R	19822944	19822994	51	242.5	171.5	258.8	625.1	12.469343	522.8	
ESACC	R	19823445	19823501	57	255.3	622.6	892.2	474.2	17.525084	573.7	
ESACC	R	19823988	19824038	51	882.4	456.7	559.8	84.1	13.523131	535.5	
ESACC	R	19824756	19824804	49	570.0	86.3	679.5	290.0	6.440101	374.7	
ESACC	R	19824829	19824862	34	679.9	297.7	842.2	137.1	6.290442	367.8	
ESACC	R	19824996	19825010	15	840.5	127.8	857.7	101.3	0.86531466	83.5	
ESACC	R	19825325	19825398	74	851.0	102.2	107.1	457.9	22.161194	680.9	
ESACC	R	19825538	19825551	14	110.4	455.2	101.5	431.9	0.6808283	72.7	
ESACC	R	19825965	19826014	50	107.9	428.7	570.9	677.7	14.175385	560.8	
END 19826471
START 19828678
ESACC	R	19828875	19828922	48	519.6	402.6	851.4	642.3	11.139984	497.1	
ESACC	R	19829236	19829307	72	858.1	635.5	270.2	265.1	18.799267	532.7	
ESACC	R	19829558	19829576	19	261.3	253.7	267.6	210.6	1.2161536	119.1	
ESACC	R	19829887	19829950	64	255.4	202.9	727.4	540.6	15.8815155	576.8	
ESACC	R	19830040	19830070	31	718.6	546.0	880.6	453.8	5.048061	349.3	
ESACC	R	19830193	19830250	58	873.7	451.4	419.7	597.5	12.924133	537.7	
ESACC	R	19830368	19830406	39	411.2	597.0	265.3	615.4	3.9909987	343.5	
ESACC	R	19830877	19830943	67	256.4	623.1	913.5	476.6	18.016085	552.3	
ESACC	R	19831126	19831177	52	922.7	469.1	750.1	125.9	10.531669	336.9	
ESACC	R	19831253	19831283	31	753.2	120.8	588.3	87.9	4.6095676	315.0	
ESACC	R	19831967	19832000	34	600.5	84.1	830.9	87.5	6.278637	378.4	
ESACC	R	19832342	19832412	71	820.6	78.7	106.0	419.8	21.30983	539.9	
ESACC	R	19832969	19833017	49	109.0	416.0	545.6	671.6	13.665855	518.9	
END 19833395
START 19834736
ESACC	R	19835663	19835712	50	507.9	387.7	262.6	199.7	8.555329	343.8	
ESACC	R	19836100	19836154	55	269.7	193.5	254.5	627.1	11.935583	418.1	
ESACC	R	19836590	19836647	58	261.3	619.3	911.5	442.4	18.06506	562.5	
ESACC	R	19836899	19836948	50	900.3	438.3	766.5	166.9	8.328912	290.3	
ESACC	R	19837024	19837049	26	764.4	160.3	635.1	107.0	3.8418095	282.1	
ESACC	R	19837301	19837318	18	624.0	100.4	580.7	94.6	1.2037891	100.0	
ESACC	R	19837745	19837782	38	583.9	92.2	840.3	66.9	7.0120783	338.2	
ESACC	R	19838054	19838121	68	835.0	64.9	141.9	459.3	21.517576	543.4	
ESACC	R	19838246	19838265	20	146.8	444.8	100.7	431.6	1.2831384	132.2	
ESACC	R	19838752	19838798	47	105.1	437.2	556.6	678.0	13.792854	574.5	
ESACC	R	19838972	19839025	54	554.5	676.4	126.9	437.4	13.238172	446.1	
ESACC	R	19839232	19839253	22	131.5	432.1	93.8	425.0	1.0227156	118.2	
ESACC	R	19839484	19839534	51	94.9	420.5	548.6	669.4	13.955069	550.7	
ESACC	R	19839843	19839863	21	554.1	666.5	575.8	687.4	0.8159938	100.1	
END 19840013
START 19841789
ESACC	R	19847269	19847305	37	517.4	382.0	265.0	406.7	6.9682117	354.8	
ESACC	R	19847448	19847480	33	272.3	402.2	91.9	413.0	4.86517	294.3	
ESACC	R	19847948	19848142	195	101.8	444.9	538.5	425.7	11.8466	880.5	
ESACC	R	19848512	19848541	30	538.6	421.5	511.2	418.0	0.76321036	80.8	
END 19848543
START 19850206
END 19854573
START 19856119
END 19861543
START 19862642
ESACC	R	19867379	19867638	260	495.7	395.1	513.5	391.9	0.49981567	1099.9	
END 19869106
START 19871079
ESACC	R	19875924	19876058	135	515.1	388.6	509.4	419.9	0.8907773	1027.2	
END 19876160
START 19878433
ESACC	R	19880397	19880562	166	496.9	392.5	484.6	387.2	0.37079594	880.1	
ESACC	R	19883724	19883769	46	502.7	394.3	136.9	435.1	10.004439	402.2	
ESACC	R	19883897	19883917	21	146.1	426.3	98.8	440.6	1.3227057	133.1	
ESACC	R	19884288	19884517	230	98.1	445.1	512.9	412.1	11.263139	346.9	
ESACC	R	19884620	19884665	46	519.2	418.7	567.1	721.4	8.395782	389.4	
END 19884976
START 19886727
ESACC	R	19886931	19886975	45	509.7	397.5	909.3	504.1	11.2083645	456.4	
ESACC	R	19887114	19887144	31	905.6	496.4	879.4	667.8	4.6841345	303.4	
ESACC	R	19887297	19887382	86	886.5	660.6	472.2	182.3	17.236506	321.1	
ESACC	R	19887442	19887474	33	476.3	180.4	279.1	163.1	5.446574	359.7	
ESACC	R	19887732	19887751	20	282.6	160.5	247.7	193.4	1.321603	118.6	
ESACC	R	19888128	19888178	51	250.5	193.1	239.6	666.9	12.966402	461.5	
ESACC	R	19888581	19888641	61	243.5	654.4	870.3	450.5	17.696547	532.6	
ESACC	R	19890104	19890145	42	865.3	429.3	542.4	409.1	8.804292	405.5	
ESACC	R	19890252	19890310	59	543.5	412.2	125.3	437.9	11.37108	444.8	
ESACC	R	19890631	19890654	24	121.3	439.5	78.7	449.3	1.1628939	146.8	
ESACC	R	19890897	19890947	51	82.0	444.1	575.0	710.2	15.025456	581.9	
ESACC	R	19891400	19891447	48	566.7	712.2	548.8	334.1	10.398901	361.5	
ESACC	R	19891605	19891628	24	549.2	334.2	497.9	389.6	2.1044514	181.3	
END 19891707
START 19893280
ESACC	R	19893429	19893474	46	516.0	415.7	892.6	679.0	12.435996	528.5	
ESACC	R	19893697	19893761	65	888.2	671.7	304.2	519.4	16.171452	487.3	
ESACC	R	19893921	19893969	49	297.1	513.9	256.5	201.5	8.73607	380.8	
ESACC	R	19894355	19894407	53	261.7	204.1	248.3	630.1	11.725019	413.5	
ESACC	R	19894765	19894822	58	251.7	620.3	931.1	455.5	18.687542	587.9	
ESACC	R	19895246	19895297	52	926.1	459.5	661.2	116.8	11.863425	376.6	
ESACC	R	19895420	19895443	24	661.4	116.1	577.3	93.5	2.3981977	217.5	
ESACC	R	19895629	19895644	16	585.4	99.4	562.9	87.0	0.71004677	88.3	
ESACC	R	19896427	19896489	63	558.4	94.6	105.8	468.4	16.033407	581.3	
ESACC	R	19896685	19896700	16	93.9	467.7	83.5	454.4	0.45601496	57.9	
ESACC	R	19896910	19897112	203	93.6	453.5	578.4	656.6	14.139543	972.3	
END 19897392
START 19899855
ESACC	R	19899880	19899926	47	508.9	395.5	868.4	602.8	11.28894	532.7	
ESACC	R	19900090	19900101	12	868.4	611.4	887.3	630.0	0.7080498	66.1	
ESACC	R	19900198	19900267	70	879.1	632.0	284.2	202.5	19.87199	568.1	
ESACC	R	19900794	19900811	18	281.2	193.0	243.5	186.8	1.0430864	101.2	
ESACC	R	19900886	19900947	62	246.6	184.9	266.4	638.4	12.453236	544.4	
ESACC	R	19901214	19901222	9	261.9	636.8	260.3	618.3	0.5032015	61.1	
ESACC	R	19901394	19901453	60	259.2	611.5	936.6	458.9	18.559885	575.7	
ESACC	R	19901695	19901744	50	930.9	453.6	643.9	95.0	12.564427	473.6	
ESACC	R	19901853	19901876	24	643.5	84.3	575.7	79.7	1.8695952	187.9	
ESACC	R	19902220	19902265	46	585.2	82.6	844.5	71.6	7.0623584	370.7	
ESACC	R	19902579	19902656	78	858.5	69.8	119.5	419.9	21.97591	601.3	
ESACC	R	19903166	19903215	50	109.9	432.3	524.9	681.1	13.054242	588.0	
END 19903656
START 19905378
ESACC	R	19905512	19905555	44	494.4	393.4	787.8	663.7	10.888417	540.5	
ESACC	R	19905941	19905964	24	800.3	656.4	844.3	653.1	1.1766732	133.0	
ESACC	R	19906050	19906111	62	840.9	642.5	271.0	258.1	18.62468	565.8	
ESACC	R	19906242	19906260	19	272.9	246.6	266.3	195.2	1.4470346	133.2	
ESACC	R	19906585	19906596	12	266.1	195.2	243.7	188.3	0.6407759	75.2	
ESACC	R	19906668	19906730	63	246.0	189.4	273.6	641.6	12.428501	528.9	
ESACC	R	19906990	19907056	67	269.8	646.6	893.4	461.9	17.436157	543.3	
ESACC	R	19907296	19907353	58	901.9	453.3	638.1	119.6	11.675614	472.9	
ESACC	R	19907503	19907523	21	622.1	104.5	570.6	96.2	1.4394827	150.8	
ESACC	R	19907795	19907832	38	579.6	105.3	865.9	83.8	7.8132095	409.8	
ESACC	R	19908074	19908148	75	859.0	76.4	101.4	414.0	22.254414	657.2	
ESACC	R	19908611	19908658	48	94.4	420.6	500.1	647.3	12.550706	581.1	
ESACC	R	19908899	19908921	23	513.9	645.0	570.8	692.2	2.0056107	208.1	
END 19909102
START 19910673
ESACC	R	19910840	19910885	46	510.8	409.2	882.6	624.4	11.654711	533.4	
ESACC	R	19911295	19911366	72	885.1	616.6	288.9	216.1	19.449455	596.1	
ESACC	R	19911514	19911583	70	277.2	215.6	902.6	681.0	21.004398	683.9	
ESACC	R	19911683	19911702	20	914.0	689.2	870.4	654.3	1.4773606	135.4	
ESACC	R	19911869	19912053	185	883.2	655.6	259.3	199.3	20.869509	1768.3	
ESACC	R	19912459	19912520	62	269.4	198.3	270.4	626.4	11.777199	464.0	
ESACC	R	19912818	19912884	67	267.0	637.6	905.9	439.3	17.94107	565.8	
ESACC	R	19913402	19913455	54	919.4	426.8	615.1	127.6	11.6839695	462.8	
ESACC	R	19913569	19913588	20	613.7	118.8	576.8	92.2	1.2591293	121.1	
ESACC	R	19913940	19913977	38	577.9	98.6	858.1	89.9	7.628307	394.1	
ESACC	R	19914344	19914420	77	851.6	82.2	135.4	474.4	21.995214	594.6	
ESACC	R	19914527	19914547	21	123.7	477.3	97.2	433.4	1.3945004	127.8	
ESACC	R	19915007	19915054	48	101.0	435.0	542.4	681.4	13.628872	551.2	
END 19915351
START 19916809
ESACC	R	19917020	19917065	46	497.6	399.6	825.1	654.6	11.310523	526.7	
ESACC	R	19917319	19917341	23	835.4	650.6	883.1	668.9	1.355243	143.9	
ESACC	R	19917480	19917555	76	880.6	664.1	259.3	239.8	20.31233	595.4	
ESACC	R	19917671	19917692	22	252.3	235.2	263.1	187.5	1.3627851	122.1	
ESACC	R	19917929	19917992	64	257.0	193.0	252.9	665.8	12.936177	530.4	
ESACC	R	19918068	19918082	15	247.8	670.2	245.2	642.7	0.7445015	83.0	
ESACC	R	19918343	19918355	13	250.6	642.0	269.3	624.2	0.696736	71.7	
ESACC	R	19918492	19918549	58	266.2	622.5	893.5	458.3	17.402658	573.1	
ESACC	R	19918780	19918815	36	891.2	451.4	833.8	307.6	4.2615314	211.5	
ESACC	R	19918915	19918951	37	837.2	314.3	923.2	421.5	3.7530499	375.9	
ESACC	R	19919507	19919559	53	929.4	431.7	592.3	105.1	12.830841	467.7	
ESACC	R	19919980	19920020	41	591.7	101.8	845.8	74.1	6.9568486	361.5	
ESACC	R	19920540	19920617	78	842.0	78.4	153.6	408.2	20.620895	531.2	
ESACC	R	19920726	19920748	23	142.0	418.1	98.6	429.7	1.2018975	143.0	
ESACC	R	19921402	19921453	52	100.1	426.2	557.6	703.5	14.403878	565.8	
END 19921845
START 19926185
ESACC	R	19926372	19926420	49	499.0	400.1	884.3	652.9	12.489493	521.1	
ESACC	R	19926734	19926801	68	876.9	649.0	335.8	207.1	18.955088	608.0	
ESACC	R	19926897	19926928	32	331.5	197.0	273.8	180.8	1.6444881	213.9	
ESACC	R	19927436	19927500	65	265.1	177.8	263.8	621.7	12.195106	495.2	
ESACC	R	19927978	19928036	59	262.3	625.4	890.4	448.2	17.541237	552.1	
ESACC	R	19928342	19928392	51	883.5	435.6	878.1	210.9	6.2003117	202.4	
ESACC	R	19928528	19928568	41	882.3	205.8	718.1	93.0	5.432422	236.6	
ESACC	R	19928679	19928705	27	717.9	100.4	591.0	99.4	3.4815938	280.3	
ESACC	R	19929021	19929032	12	591.7	97.1	565.2	87.6	0.7767611	75.4	
ESACC	R	19929194	19929231	38	565.9	84.4	866.8	79.1	8.177944	395.9	
ESACC	R	19929516	19929590	75	855.8	84.3	106.3	433.1	22.21894	625.0	
ESACC	R	19930125	19930178	54	96.0	430.9	522.3	663.3	13.092892	561.4	
END 19930473
START 19934755
ESACC	R	19934901	19934946	46	507.9	395.3	858.8	636.0	11.566885	524.9	
ESACC	R	19935193	19935244	52	861.4	631.4	735.2	120.6	14.382316	495.0	
ESACC	R	19935331	19935358	28	739.7	114.0	600.7	89.9	3.8719187	291.9	
ESACC	R	19935488	19935539	52	606.0	91.6	332.2	144.2	7.673895	469.5	
ESACC	R	19935656	19935680	25	320.4	146.8	257.1	171.6	1.8627253	203.2	
ESACC	R	19936193	19936258	66	253.2	171.5	908.8	405.3	18.817501	607.0	
ESACC	R	19936425	19936497	73	917.7	410.9	285.0	610.2	17.815083	690.4	
ESACC	R	19936688	19936711	24	285.7	607.4	248.2	623.7	1.1035721	135.1	
ESACC	R	19936890	19936959	70	248.1	623.1	900.3	441.6	18.150507	602.0	
ESACC	R	19937209	19937263	55	923.6	427.0	630.6	111.5	11.791895	420.0	
ESACC	R	19937402	19937421	20	635.8	104.3	584.3	89.2	1.480104	147.3	
ESACC	R	19937683	19937727	45	586.9	95.5	833.8	76.3	6.748569	401.5	
ESACC	R	19938077	19938151	75	846.8	71.2	168.9	392.5	20.28638	566.0	
ESACC	R	19938273	19938296	24	154.8	396.2	107.7	430.2	1.5694828	182.5	
ESACC	R	19938753	19938803	51	113.2	428.1	560.0	667.9	13.691504	602.3	
END 19938996
START 19940779
ESACC	R	19941077	19941130	54	508.6	410.4	845.5	664.6	11.473254	468.8	
ESACC	R	19941285	19941326	42	861.0	661.6	864.1	394.7	7.2531867	334.2	
ESACC	R	19941407	19941474	68	865.7	394.1	269.9	212.6	16.915163	590.7	
ESACC	R	19942248	19942290	43	252.2	200.7	579.1	122.0	9.233213	479.2	
ESACC	R	19942805	19942816	12	580.8	124.4	584.9	96.6	0.78580487	81.6	
ESACC	R	19943119	19943156	38	577.5	94.0	834.6	80.3	7.01575	332.5	
ESACC	R	19943385	19943449	65	829.1	74.4	128.3	387.0	20.690674	593.5	
ESACC	R	19943583	19943606	24	134.0	380.4	89.8	428.9	1.7803031	156.7	
ESACC	R	19943929	19943984	56	95.2	422.7	519.8	681.9	13.417325	558.2	
ESACC	R	19944439	19944452	14	529.7	694.7	560.6	678.8	0.9419707	85.8	
END 19944489
START 19945810
ESACC	R	19946717	19946766	50	513.5	373.3	845.7	650.2	11.795657	516.3	
ESACC	R	19947011	19947068	58	854.8	639.1	348.2	240.2	17.528084	530.9	
ESACC	R	19947157	19947180	24	351.0	227.5	274.3	184.8	2.4196043	229.5	
ESACC	R	19947659	19947711	53	287.9	182.1	265.0	609.4	11.787787	445.9	
ESACC	R	19948085	19948154	70	264.1	611.8	916.7	440.4	18.087606	584.8	
ESACC	R	19948484	19948542	59	926.4	430.4	702.9	98.0	10.97152	433.0	
ESACC	R	19948784	19948806	23	689.2	84.8	599.8	78.4	2.4624882	224.5	
ESACC	R	19949695	19949729	35	595.3	83.7	817.9	79.3	6.074897	333.6	
ESACC	R	19949897	19949920	24	811.7	82.7	872.7	89.6	1.6529576	137.2	
ESACC	R	19950012	19950092	81	864.4	86.5	80.9	480.0	23.486076	632.7	
ESACC	R	19950193	19950215	23	65.4	481.9	94.8	434.0	1.5224147	153.6	
ESACC	R	19950553	19950611	59	89.3	433.1	542.8	666.8	13.739281	573.9	
END 19951249
START 19952554
ESACC	R	19952716	19952762	47	510.9	401.7	835.1	661.7	11.310764	526.1	
ESACC	R	19953172	19953237	66	853.9	659.3	337.5	218.3	18.44573	570.1	
ESACC	R	19953303	19953328	26	339.6	215.2	255.1	165.3	2.7022903	232.4	
ESACC	R	19953663	19953722	60	261.6	170.5	260.9	621.9	12.4011135	515.6	
ESACC	R	19954030	19954046	17	260.9	622.8	269.9	589.9	0.9264344	98.6	
ESACC	R	19954240	19954304	65	265.3	597.1	870.5	459.7	16.697495	552.7	
ESACC	R	19954691	19954751	61	885.4	444.3	594.7	111.5	12.133389	438.2	
ESACC	R	19955143	19955180	38	591.9	99.2	850.2	84.3	7.0407133	352.3	
ESACC	R	19955569	19955642	74	853.6	82.2	161.7	394.5	20.497833	594.4	
ESACC	R	19955762	19955790	29	155.8	400.0	117.6	432.2	1.3538449	164.5	
ESACC	R	19956237	19956287	51	108.1	430.1	560.6	688.4	14.034466	577.8	
END 19956787
START 19959179
ESACC	R	19959343	19959389	47	506.7	406.8	844.9	679.0	11.799937	544.9	
ESACC	R	19959678	19959756	79	851.2	671.4	271.0	198.4	20.271444	541.0	
ESACC	R	19960139	19960198	60	256.4	185.3	262.6	618.5	11.9186535	508.0	
ESACC	R	19960460	19960530	71	254.8	628.8	913.2	455.4	18.227295	508.6	
ESACC	R	19960713	19960745	33	916.8	454.9	814.5	337.1	4.254699	246.5	
ESACC	R	19960912	19960955	44	820.5	335.9	919.6	414.8	3.4392166	323.8	
ESACC	R	19961098	19961144	47	920.3	425.1	819.2	81.2	9.853933	400.3	
ESACC	R	19961268	19961322	55	820.9	78.8	944.7	382.0	8.973939	435.1	
ESACC	R	19961428	19961485	58	946.0	394.2	630.4	125.0	11.323001	559.4	
ESACC	R	19961627	19961651	25	620.4	114.1	571.7	82.5	1.605254	188.8	
ESACC	R	19961972	19962009	38	573.5	86.4	872.4	89.9	8.122861	440.1	
ESACC	R	19962397	19962473	77	864.1	85.3	142.8	446.4	21.717134	620.4	
ESACC	R	19963010	19963059	50	112.8	438.1	532.7	673.2	12.996257	565.0	
ESACC	R	19963305	19963334	30	534.5	674.9	571.5	687.3	1.0583807	165.1	
END 19963387
START 19965292
ESACC	R	19965461	19965499	39	502.5	384.1	825.5	623.7	10.9766245	555.7	
ESACC	R	19965777	19965834	58	832.0	635.2	328.3	320.2	16.146786	482.5	
ESACC	R	19965925	19965949	25	328.6	297.2	272.2	208.8	2.9158258	242.8	
ESACC	R	19966485	19966535	51	260.5	203.3	244.6	639.8	11.9994755	481.4	
ESACC	R	19966897	19966965	69	254.4	630.4	886.4	476.7	17.43159	548.7	
ESACC	R	19967107	19967134	28	893.5	467.8	924.9	439.2	1.1451514	136.2	
ESACC	R	19967436	19967487	52	930.1	439.4	602.5	101.1	12.882962	499.5	
ESACC	R	19967912	19967985	74	596.5	103.7	525.6	741.1	17.4988	524.3	
ESACC	R	19968093	19968117	25	524.4	748.6	578.0	674.2	2.4685075	234.5	
ESACC	R	19968205	19968259	55	568.3	676.3	833.4	120.6	16.792845	564.1	
ESACC	R	19968436	19968566	131	821.9	112.0	140.2	423.5	20.262316	667.7	
ESACC	R	19968688	19968713	26	158.4	411.4	83.0	430.9	2.0835936	180.7	
ESACC	R	19968977	19969039	63	92.9	424.7	570.6	673.3	14.4989395	594.3	
ESACC	R	19969275	19969292	18	583.3	686.0	548.5	702.1	1.0378984	97.6	
END 19969426
START 19970980
ESACC	R	19971161	19971211	51	507.1	385.4	847.2	657.9	11.861152	521.2	
ESACC	R	19971376	19971448	73	863.0	657.4	354.3	242.0	17.833637	566.0	
ESACC	R	19971555	19971578	24	342.3	234.2	266.7	183.9	2.5051715	206.6	
ESACC	R	19972096	19972157	62	269.1	187.6	266.4	603.7	11.478855	490.0	
ESACC	R	19972738	19972793	56	261.9	617.0	843.7	449.3	16.319118	534.5	
ESACC	R	19973012	19973044	33	845.8	430.3	938.8	426.8	2.4884944	280.2	
ESACC	R	19973176	19973224	49	944.1	431.5	623.9	95.9	12.674259	496.2	
ESACC	R	19973348	19973370	23	635.4	97.6	584.8	87.4	1.4226017	163.1	
ESACC	R	19973720	19973757	38	589.2	91.7	847.1	86.0	7.019467	388.5	
ESACC	R	19973940	19973965	26	847.5	90.1	898.9	84.0	1.3863381	136.0	
ESACC	R	19974096	19974173	78	888.7	83.1	143.1	452.8	22.37395	639.6	
ESACC	R	19974780	19974834	55	117.6	442.2	553.8	693.3	13.5712805	557.1	
END 19975146
START 19977045
ESACC	R	19977215	19977269	55	506.4	403.4	903.9	504.1	11.126696	505.6	
ESACC	R	19977358	19977389	32	913.3	512.9	881.7	660.8	4.078497	279.7	
ESACC	R	19977703	19977780	78	885.8	653.4	300.3	188.2	20.230614	561.3	
ESACC	R	19978238	19978302	65	275.5	181.9	264.8	644.6	12.714845	507.2	
ESACC	R	19978675	19978682	8	262.8	642.2	261.5	631.1	0.30243272	40.9	
ESACC	R	19978821	19978880	60	255.3	629.0	918.8	467.1	18.256462	575.2	
ESACC	R	19979162	19979172	11	919.3	459.6	914.1	443.8	0.4544327	48.5	
ESACC	R	19979334	19979385	52	910.7	448.2	585.7	98.8	13.06834	546.3	
ESACC	R	19979689	19979728	40	585.6	91.8	868.1	81.9	7.6815276	405.1	
ESACC	R	19980084	19980193	110	866.9	77.7	135.6	404.1	21.54047	580.0	
ESACC	R	19980310	19980333	24	127.7	402.9	99.6	444.3	1.3620182	146.6	
ESACC	R	19980595	19980651	57	104.3	441.4	552.2	670.8	13.56615	625.1	
END 19980995
START 19982433
ESACC	R	19982641	19982694	54	512.6	396.6	890.9	493.5	10.610122	476.2	
ESACC	R	19982786	19982815	30	895.7	494.6	883.6	667.6	4.6803827	301.1	
ESACC	R	19983136	19983199	64	892.4	660.6	316.4	225.9	19.524363	629.1	
ESACC	R	19983276	19983307	32	318.4	211.8	272.6	174.7	1.6274068	224.9	
ESACC	R	19983540	19983599	60	272.6	166.3	274.5	579.1	11.387703	524.1	
ESACC	R	19983956	19984020	65	263.3	594.4	731.1	161.7	17.43775	584.8	
ESACC	R	19984156	19984209	54	736.5	145.5	944.5	397.0	8.922773	600.5	
ESACC	R	19984584	19984628	45	943.0	415.8	648.8	102.7	11.734214	545.3	
ESACC	R	19984747	19984779	33	647.8	90.7	584.3	75.6	1.7968285	210.4	
ESACC	R	19985159	19985196	38	578.3	79.9	858.3	64.5	7.620612	429.7	
ESACC	R	19985427	19985504	78	856.8	68.6	112.2	435.3	22.312796	683.6	
ESACC	R	19985964	19986025	62	101.0	443.7	571.4	659.8	13.948908	609.0	
ESACC	R	19986517	19986554	38	583.9	662.2	543.0	329.3	9.251746	436.6	
END 19986556
START 19987900
ESACC	R	19988044	19988100	57	518.9	411.5	815.0	650.6	10.372799	544.6	
ESACC	R	19988292	19988350	59	824.4	659.9	384.5	240.7	16.575567	562.8	
ESACC	R	19988454	19988488	35	386.6	229.8	289.7	193.6	2.852092	295.0	
ESACC	R	19988889	19988950	62	280.3	183.9	281.1	605.6	11.633123	510.7	
ESACC	R	19989083	19989138	56	278.7	620.0	290.0	192.6	11.778109	500.4	
ESACC	R	19989446	19989495	50	289.2	164.1	289.9	588.3	11.718248	504.3	
ESACC	R	19989690	19989710	21	286.8	582.2	270.2	603.4	0.73204076	96.1	
ESACC	R	19990010	19990077	68	265.3	607.4	886.8	428.2	17.39002	592.8	
ESACC	R	19990338	19990360	23	907.8	420.6	945.7	416.4	1.013214	112.7	
ESACC	R	19990465	19990513	49	941.1	418.4	605.2	106.6	12.522401	559.0	
ESACC	R	19990917	19990961	45	604.1	96.5	852.7	79.2	6.781627	381.6	
ESACC	R	19991338	19991414	77	861.5	75.6	163.1	409.3	20.881403	590.8	
ESACC	R	19991534	19991557	24	152.3	416.4	98.4	429.3	1.4822428	142.6	
ESACC	R	19991918	19991966	49	103.9	430.2	523.0	698.6	13.408205	601.6	
END 19992260
START 19995072
ESACC	R	19995339	19995399	61	504.1	402.7	882.4	653.6	12.303541	533.3	
ESACC	R	19995760	19995819	60	892.3	657.8	563.6	623.0	8.874145	486.7	
ESACC	R	19995944	19995996	53	562.3	622.6	329.4	475.4	7.552971	369.5	
ESACC	R	19996121	19996159	39	320.1	471.3	263.2	188.9	8.007716	404.8	
ESACC	R	19996390	19996453	64	266.0	187.6	273.9	631.2	12.188699	544.0	
ESACC	R	19996813	19996880	68	269.6	640.0	868.3	426.5	17.095604	550.3	
ESACC	R	19997148	19997211	64	887.6	418.0	626.4	108.3	11.137555	347.1	
ESACC	R	19997461	19997481	21	607.7	94.4	572.1	89.4	0.99061227	103.1	
ESACC	R	19997747	19997795	49	579.2	83.7	866.0	78.9	7.794609	437.2	
ESACC	R	19998082	19998165	84	874.6	68.8	141.4	407.9	21.734373	628.8	
ESACC	R	19998306	19998333	28	143.0	418.3	110.6	425.6	0.88928306	144.5	
ESACC	R	19998619	19998682	64	95.9	428.4	563.0	667.3	14.143499	603.9	
END 19998865
START 20000397
ESACC	R	20000571	20000616	46	495.6	388.7	818.1	658.6	11.463909	550.0	
ESACC	R	20000883	20000959	77	831.8	648.1	331.2	167.5	18.879267	510.7	
ESACC	R	20001050	20001075	26	321.1	154.1	242.4	176.4	2.2384381	219.8	
ESACC	R	20001725	20001777	53	245.7	173.2	256.7	611.7	12.066957	493.3	
ESACC	R	20002053	20002118	66	261.6	605.4	841.8	459.2	16.121866	514.8	
ESACC	R	20002441	20002486	46	865.2	436.2	893.9	102.4	9.215037	425.0	
ESACC	R	20002812	20002859	48	890.0	97.2	652.9	65.6	6.4844975	386.1	
ESACC	R	20003169	20003214	46	638.9	69.5	858.4	66.0	5.9573655	379.7	
ESACC	R	20003403	20003479	77	868.9	73.7	144.9	415.0	21.561861	667.1	
ESACC	R	20003855	20003876	22	121.8	425.7	83.7	449.1	1.1979362	102.8	
ESACC	R	20003988	20004041	54	91.9	446.9	526.3	653.9	12.971595	642.9	
ESACC	R	20004134	20004197	64	539.7	661.0	146.4	434.6	12.286189	495.8	
ESACC	R	20004475	20004538	64	135.3	431.5	566.6	668.5	13.302821	589.6	
END 20004969
START 20006487
ESACC	R	20006578	20006632	55	522.2	403.9	856.1	624.7	10.893849	556.0	
ESACC	R	20006836	20006910	75	864.0	629.8	354.9	201.2	18.099358	531.9	
ESACC	R	20006990	20007024	35	341.7	185.7	277.9	175.0	1.7733147	219.8	
ESACC	R	20007505	20007570	66	262.7	173.2	265.2	620.8	12.296889	440.7	
ESACC	R	20008021	20008084	64	258.5	642.1	856.8	449.7	16.918407	586.4	
ESACC	R	20008395	20008445	51	867.4	429.2	626.5	115.1	10.898041	405.2	
ESACC	R	20008580	20008602	23	625.3	106.8	568.6	92.2	1.6143457	149.0	
ESACC	R	20008834	20008850	17	581.6	95.7	550.4	83.9	0.9205363	94.0	
ESACC	R	20009123	20009163	41	561.5	86.4	862.6	72.2	8.191514	405.5	
ESACC	R	20009435	20009510	76	857.4	73.8	107.4	435.9	22.35523	656.6	
ESACC	R	20010359	20010419	61	100.0	430.7	509.2	651.3	12.552111	548.0	
ESACC	R	20010629	20010660	32	522.9	662.8	580.0	667.4	1.5566297	212.4	
END 20010982
START 20013102
ESACC	R	20013147	20013191	45	908.9	672.6	620.7	469.7	9.504853	382.0	
ESACC	R	20013335	20013380	46	621.2	462.9	869.0	666.5	8.687529	503.6	
ESACC	R	20013590	20013638	49	876.7	661.9	863.2	233.6	11.659981	428.9	
ESACC	R	20013719	20013792	74	863.1	226.0	301.5	143.1	15.433629	576.3	
ESACC	R	20013923	20013952	30	296.9	135.2	266.8	156.9	1.0206455	172.2	
ESACC	R	20014114	20014178	65	260.8	160.3	279.1	619.4	12.63972	501.1	
ESACC	R	20014544	20014559	16	273.1	630.1	264.8	606.6	0.67582405	55.3	
ESACC	R	20014681	20014812	132	265.1	611.2	915.2	438.9	18.029345	604.7	
ESACC	R	20014986	20015052	67	919.8	438.6	637.7	122.6	11.605991	400.9	
ESACC	R	20015215	20015238	24	626.3	106.8	578.0	84.9	1.4641076	164.5	
ESACC	R	20015529	20015566	38	582.4	91.6	866.0	81.7	7.711399	406.8	
ESACC	R	20015812	20015888	77	863.6	84.4	121.0	363.5	21.31708	634.3	
ESACC	R	20016052	20016075	24	101.6	367.2	123.7	437.9	2.0323033	168.6	
ESACC	R	20016256	20016313	58	121.5	428.2	515.9	641.5	12.127218	618.4	
END 20016528
START 20018326
ESACC	R	20018462	20018520	59	506.4	400.8	855.0	647.7	11.614209	579.0	
ESACC	R	20018833	20018909	77	874.2	658.1	284.8	194.4	20.303324	547.1	
ESACC	R	20019420	20019474	55	266.9	185.8	249.9	594.7	11.273905	455.0	
ESACC	R	20019686	20019754	69	261.9	593.0	884.3	425.5	17.327457	612.8	
ESACC	R	20020158	20020210	53	902.3	412.6	610.6	95.2	11.823491	419.0	
ESACC	R	20020505	20020526	22	615.5	89.6	576.4	89.7	1.077138	111.7	
ESACC	R	20020684	20020717	34	581.9	93.4	823.7	84.7	6.5929866	411.7	
ESACC	R	20020989	20021067	79	819.6	83.5	154.3	409.0	20.060648	675.3	
ESACC	R	20021175	20021204	30	156.3	413.8	115.9	430.1	1.1711627	185.1	
ESACC	R	20021606	20021663	58	108.0	429.9	555.9	658.6	13.561281	586.6	
ESACC	R	20022014	20022060	47	555.1	674.7	515.5	334.9	9.423716	391.6	
ESACC	R	20022206	20022314	109	517.1	344.1	168.6	428.5	9.795183	447.8	
ESACC	R	20022421	20022453	33	169.9	428.9	118.7	436.2	1.3854892	212.0	
ESACC	R	20022640	20022698	59	110.9	435.5	556.1	640.3	13.229112	597.4	
END 20023125
START 20024926
ESACC	R	20025100	20025148	49	532.2	426.0	865.0	673.0	11.244856	529.3	
ESACC	R	20025369	20025440	72	878.0	674.4	313.1	207.1	19.855371	593.1	
ESACC	R	20026018	20026081	64	281.5	193.6	262.1	623.9	11.849391	451.6	
ESACC	R	20026430	20026496	67	263.7	639.5	893.5	461.2	17.546223	594.4	
ESACC	R	20026899	20026949	51	914.1	444.8	621.7	121.4	11.943776	427.2	
ESACC	R	20027287	20027307	21	612.0	115.9	577.4	96.0	1.1034106	125.5	
ESACC	R	20027458	20027501	44	579.7	98.9	829.1	86.0	6.8050547	415.8	
ESACC	R	20027818	20027917	100	837.4	85.1	115.6	467.3	21.993574	562.9	
ESACC	R	20027989	20028005	17	113.5	465.3	88.6	433.9	1.0851088	111.5	
ESACC	R	20028448	20028510	63	99.5	435.3	569.3	678.7	14.260376	602.1	
ESACC	R	20028733	20028755	23	577.9	695.8	520.2	698.9	1.5659169	177.2	
END 20029007
START 20030704
ESACC	R	20030867	20030914	48	506.9	396.4	863.9	674.8	12.292866	555.1	
ESACC	R	20031090	20031296	207	870.2	673.3	238.8	229.9	20.796938	1544.9	
ESACC	R	20031437	20031450	14	249.5	229.2	255.1	201.7	0.7821144	64.9	
ESACC	R	20031725	20031784	60	254.8	203.2	260.8	618.7	11.431694	487.5	
ESACC	R	20032125	20032189	65	262.9	634.1	860.7	430.1	17.009068	618.1	
ESACC	R	20032523	20032574	52	877.4	411.3	606.4	97.8	11.395406	443.3	
ESACC	R	20032820	20032845	26	613.0	92.0	540.9	79.6	2.0160344	216.0	
ESACC	R	20033135	20033175	41	547.4	89.9	873.6	86.9	8.876578	442.0	
ESACC	R	20033420	20033600	181	862.4	95.4	97.5	465.1	22.779922	1178.6	
ESACC	R	20034029	20034076	48	94.6	437.9	535.6	680.0	13.548383	577.1	
ESACC	R	20034517	20034539	23	542.3	685.5	502.3	629.3	1.8745289	141.2	
ESACC	R	20034935	20034961	27	501.4	620.0	559.1	687.0	2.4022691	190.1	
ESACC	R	20035717	20035740	24	556.7	683.1	539.7	505.4	4.89066	319.2	
END 20035742
START 20040602
ESACC	R	20040838	20040875	38	490.0	388.6	672.1	498.1	5.8651276	401.7	
ESACC	R	20040960	20041004	45	677.8	492.4	831.0	633.3	5.653713	467.7	
ESACC	R	20041179	20041250	72	839.6	649.6	395.0	220.7	16.852636	527.6	
ESACC	R	20041332	20041363	32	374.9	205.9	255.4	176.5	3.3753982	334.9	
ESACC	R	20041779	20041840	62	258.1	183.0	273.0	600.9	11.519495	500.0	
ESACC	R	20042123	20042189	67	266.8	617.1	835.2	404.1	16.397362	541.3	
ESACC	R	20042477	20042533	57	850.4	390.3	692.1	108.1	8.9416	345.9	
ESACC	R	20042648	20042673	26	680.2	94.1	559.2	92.0	3.3292637	291.1	
ESACC	R	20043076	20043111	36	567.8	96.0	837.2	76.2	7.371105	435.0	
ESACC	R	20043352	20043435	84	830.5	78.9	129.7	432.5	21.17952	618.6	
ESACC	R	20043576	20043599	24	129.5	434.5	85.3	435.1	1.1772121	140.1	
ESACC	R	20043975	20044024	50	84.4	437.9	514.9	709.1	13.688341	590.4	
ESACC	R	20044244	20044310	67	529.8	708.2	134.4	462.9	12.553586	639.7	
ESACC	R	20044579	20044630	52	111.7	455.7	542.3	685.6	13.157571	642.8	
ESACC	R	20045120	20045130	11	557.9	688.9	536.7	703.0	0.6885725	77.0	
END 20045619
START 20048640
ESACC	R	20048793	20048847	55	495.6	395.3	872.9	531.1	10.904404	500.6	
ESACC	R	20049013	20049044	32	885.3	535.4	878.1	682.8	3.9776204	259.9	
ESACC	R	20049286	20049359	74	888.8	670.1	317.9	195.3	20.083698	583.5	
ESACC	R	20049474	20049508	35	308.2	189.6	256.8	185.1	1.4099708	203.7	
ESACC	R	20049915	20049976	62	249.2	186.8	249.8	619.5	11.887373	450.9	
ESACC	R	20050414	20050484	71	234.5	629.2	857.8	473.4	17.241268	554.1	
ESACC	R	20050807	20050856	50	876.0	447.4	690.6	127.6	10.177089	425.7	
ESACC	R	20050932	20050957	26	696.0	124.3	572.4	84.4	3.5728672	304.5	
ESACC	R	20051495	20051544	50	578.8	94.0	853.2	83.8	7.4720263	387.8	
ESACC	R	20051756	20051841	86	865.5	81.8	91.6	377.4	22.203295	619.3	
ESACC	R	20052367	20052417	51	83.2	393.3	499.4	671.1	13.501588	581.8	
ESACC	R	20052723	20052751	29	514.6	671.4	547.1	681.7	0.92610043	131.8	
END 20052785
START 20055401
ESACC	R	20055563	20055613	51	494.2	397.1	856.0	668.5	12.278188	549.4	
ESACC	R	20056007	20056069	63	866.9	659.6	349.0	618.3	13.929394	520.9	
ESACC	R	20056193	20056249	57	327.0	619.4	283.0	206.0	11.466986	525.2	
ESACC	R	20056445	20056467	23	273.2	191.4	242.1	179.0	0.9163536	112.7	
ESACC	R	20056623	20056684	62	243.2	183.3	253.4	596.2	11.378014	520.0	
ESACC	R	20057065	20057309	245	257.3	622.1	906.3	479.9	17.779108	1093.4	
ESACC	R	20057468	20057489	22	891.4	486.3	938.8	473.0	1.3104962	127.0	
ESACC	R	20057588	20057640	53	933.5	471.6	625.4	127.3	12.633781	545.6	
ESACC	R	20057845	20057868	24	627.3	103.5	582.7	102.7	1.2288527	125.5	
ESACC	R	20058064	20058104	41	583.6	98.1	866.6	92.6	7.691731	417.2	
ESACC	R	20058427	20058500	74	861.7	91.3	141.8	397.3	21.06089	610.0	
ESACC	R	20058633	20058655	23	122.0	406.2	90.4	435.6	1.166432	145.2	
ESACC	R	20059021	20059081	61	90.3	433.7	518.0	692.0	13.444218	600.8	
END 20060533
START 20062457
ESACC	R	20062629	20062679	51	495.8	398.2	843.3	688.4	12.291301	560.0	
ESACC	R	20062888	20062910	23	855.8	687.8	907.3	683.0	1.3630561	144.0	
ESACC	R	20063061	20063130	70	899.0	678.3	255.5	380.7	19.01629	546.0	
ESACC	R	20063248	20063279	32	239.0	375.8	251.0	187.5	5.247998	322.2	
ESACC	R	20063744	20063794	51	252.2	185.7	252.9	613.7	11.774431	463.8	
ESACC	R	20064169	20064233	65	259.8	613.4	858.3	451.4	16.708948	553.7	
ESACC	R	20064652	20064699	48	877.3	437.9	615.0	121.1	11.315021	479.8	
ESACC	R	20064818	20064836	19	619.9	110.4	575.8	96.0	1.279734	113.5	
ESACC	R	20065016	20065062	47	581.1	97.8	837.9	93.9	6.9981155	423.9	
ESACC	R	20065313	20065385	73	844.5	92.1	131.1	394.8	20.86481	642.7	
ESACC	R	20065974	20066033	60	105.9	411.9	569.8	675.8	14.39508	631.3	
END 20066289
START 20067794
ESACC	R	20069265	20069307	43	496.3	395.9	308.6	206.3	7.402076	390.7	
ESACC	R	20069411	20069433	23	307.0	205.2	243.1	186.4	1.8229579	172.6	
ESACC	R	20069688	20069744	57	255.5	184.2	239.7	627.6	12.1888	443.0	
ESACC	R	20070217	20070284	68	240.5	618.4	864.8	455.9	17.336306	564.6	
ESACC	R	20070549	20070601	53	893.4	446.9	669.5	135.8	10.53486	360.5	
ESACC	R	20070711	20070735	25	670.2	122.5	580.2	97.9	2.5695133	216.5	
ESACC	R	20071094	20071131	38	584.3	97.0	851.5	85.1	7.2782383	382.7	
ESACC	R	20071586	20071665	80	846.2	81.1	135.5	431.9	21.35825	603.5	
ESACC	R	20071826	20071848	23	123.6	436.1	94.9	418.1	0.91033614	131.1	
ESACC	R	20072145	20072204	60	91.4	430.9	520.8	693.6	13.545738	604.4	
ESACC	R	20072633	20072644	12	526.3	702.5	516.0	682.4	0.6096313	60.7	
END 20072994
START 20074914
ESACC	R	20075138	20075197	60	501.6	399.2	810.7	650.4	10.862077	495.1	
ESACC	R	20075332	20075355	24	816.8	663.1	884.0	676.4	1.8153993	165.6	
ESACC	R	20075496	20075566	71	873.4	679.0	319.2	631.1	14.854463	469.0	
ESACC	R	20075668	20075714	47	300.4	625.5	252.2	210.1	11.5023985	519.6	
ESACC	R	20076200	20076261	62	260.1	195.2	261.1	621.7	11.717064	491.0	
ESACC	R	20076620	20076686	67	260.3	638.1	887.8	468.0	17.426464	589.8	
ESACC	R	20076944	20076969	26	901.5	458.4	910.4	395.5	1.7442439	148.6	
ESACC	R	20077083	20077142	60	915.4	398.2	617.2	100.0	11.556013	559.4	
ESACC	R	20077454	20077488	35	598.0	84.6	859.5	83.2	7.1060843	402.1	
ESACC	R	20077783	20077858	76	857.8	82.3	167.8	386.4	20.357246	595.0	
ESACC	R	20077982	20078015	34	147.5	396.6	101.0	419.9	1.3977516	219.1	
ESACC	R	20078353	20078368	16	88.1	424.6	106.4	420.3	0.50016725	74.0	
ESACC	R	20078506	20078564	59	100.5	420.9	527.9	679.1	13.472194	627.3	
END 20078715
START 20080362
ESACC	R	20080564	20080620	57	494.1	392.6	794.9	635.4	10.564591	542.1	
ESACC	R	20080806	20080871	66	805.8	646.6	317.1	455.6	14.204303	533.8	
ESACC	R	20080982	20081020	39	297.7	449.8	267.8	174.0	7.71514	443.4	
ESACC	R	20081401	20081468	68	268.5	171.6	270.0	599.3	11.782438	502.7	
ESACC	R	20081655	20081720	66	267.9	610.2	840.3	471.6	15.867584	580.3	
ESACC	R	20081852	20081883	32	860.8	462.0	911.4	428.7	1.6332101	233.3	
ESACC	R	20082084	20082137	54	922.7	423.1	619.2	87.1	12.403881	460.2	
ESACC	R	20082722	20082761	40	620.2	90.3	841.2	66.1	6.0508537	318.3	
ESACC	R	20082987	20083066	80	839.6	66.2	171.7	445.3	20.770752	646.8	
ESACC	R	20083193	20083214	22	165.4	451.3	120.2	426.0	1.3960487	150.6	
ESACC	R	20083421	20083470	50	117.5	425.5	527.9	674.1	12.958529	627.1	
ESACC	R	20083786	20083809	24	538.5	674.3	564.5	691.6	0.84607846	106.2	
END 20084003
START 20085564
ESACC	R	20085758	20085814	57	500.1	397.5	862.7	619.0	11.558134	541.1	
ESACC	R	20086024	20086097	74	879.0	623.7	350.4	184.1	18.681686	592.4	
ESACC	R	20086173	20086209	37	330.2	178.5	251.9	174.8	2.1447558	275.7	
ESACC	R	20086615	20086676	62	232.6	171.4	244.2	587.9	11.462348	543.4	
ESACC	R	20086972	20087038	67	236.1	607.3	877.1	473.5	17.568485	620.4	
ESACC	R	20087313	20087375	63	895.6	462.1	308.4	592.8	16.184923	648.8	
ESACC	R	20087545	20087566	22	283.9	592.3	266.1	614.6	0.77396613	99.2	
ESACC	R	20087673	20087736	64	270.1	619.1	870.3	457.1	16.730532	596.1	
ESACC	R	20087961	20088023	63	895.6	448.9	667.8	124.7	10.893102	364.8	
ESACC	R	20088153	20088184	32	658.9	109.4	602.7	93.5	1.608437	214.3	
ESACC	R	20088511	20088547	37	595.2	95.3	859.7	82.9	7.195726	381.6	
ESACC	R	20088824	20088907	84	854.1	87.7	106.1	404.2	21.83767	638.7	
ESACC	R	20089217	20089244	28	103.4	406.2	87.0	431.0	0.8078747	140.9	
ESACC	R	20089494	20089606	113	93.1	445.9	519.7	699.1	13.347107	904.4	
END 20089917
START 20091778
ESACC	R	20091943	20091999	57	504.7	387.8	867.4	613.8	11.625988	571.1	
ESACC	R	20092184	20092252	69	875.7	625.5	363.9	257.8	17.128325	511.9	
ESACC	R	20092363	20092389	27	345.3	240.7	260.6	167.9	3.0854728	275.5	
ESACC	R	20093026	20093078	53	249.9	164.9	240.1	602.7	12.046937	512.8	
ESACC	R	20093740	20093803	64	242.9	608.3	887.7	473.9	17.648907	561.4	
ESACC	R	20093939	20093962	24	887.3	464.4	921.6	432.7	1.2613064	157.5	
ESACC	R	20094099	20094145	47	926.0	432.9	619.9	118.7	11.999389	500.3	
ESACC	R	20094448	20094471	24	614.8	103.1	561.2	72.1	1.7111485	179.1	
ESACC	R	20094789	20094838	50	569.4	78.1	868.9	77.5	8.138604	409.0	
ESACC	R	20095347	20095358	12	868.2	69.8	850.2	75.1	0.5047395	56.1	
ESACC	R	20095430	20095509	80	854.1	73.1	125.3	404.4	21.560045	572.4	
ESACC	R	20096009	20096067	59	112.1	418.5	522.3	647.3	12.701499	603.1	
ESACC	R	20096323	20096354	32	533.0	663.2	574.6	667.2	1.1356198	167.0	
END 20096473
START 20097826
ESACC	R	20098025	20098066	42	507.4	379.0	565.4	650.7	7.6626735	394.2	
ESACC	R	20098177	20098215	39	569.6	650.4	861.7	665.2	7.8517523	453.7	
ESACC	R	20098383	20098448	66	865.8	668.5	277.4	233.6	19.78328	622.0	
ESACC	R	20098595	20098610	16	273.3	214.5	257.6	181.6	1.0127697	103.8	
ESACC	R	20098962	20099013	52	252.8	181.6	253.7	616.5	11.964262	479.6	
ESACC	R	20099298	20099363	66	261.4	615.7	890.3	451.7	17.467724	571.0	
ESACC	R	20099661	20099722	62	904.0	440.5	635.8	119.5	11.484562	476.9	
ESACC	R	20099965	20099987	23	623.9	106.8	580.0	97.1	1.2393477	150.8	
ESACC	R	20100308	20100343	36	584.1	95.2	864.5	84.2	7.625656	452.2	
ESACC	R	20100636	20100687	52	864.4	74.1	622.7	78.5	6.560153	363.9	
ESACC	R	20101035	20101080	46	611.2	79.8	862.8	72.8	6.8396974	407.9	
ESACC	R	20101406	20101486	81	872.4	74.4	146.5	450.5	22.01093	622.3	
ESACC	R	20101624	20101641	18	131.7	466.6	107.2	436.9	1.0429834	95.3	
ESACC	R	20102072	20102124	53	102.7	436.2	566.9	694.5	14.302509	582.3	
END 20102556
START 20103879
ESACC	R	20104056	20104112	57	511.4	400.4	830.6	644.6	10.950672	547.7	
ESACC	R	20104280	20104334	55	838.1	654.5	387.2	290.6	15.788017	517.5	
ESACC	R	20104434	20104464	31	388.7	273.7	294.3	181.8	3.6566293	311.6	
ESACC	R	20104874	20104940	67	284.4	173.4	266.6	617.9	12.2547035	512.1	
ESACC	R	20105211	20105278	68	264.6	639.3	847.3	471.0	16.321459	549.3	
ESACC	R	20105371	20105402	32	866.5	463.1	922.9	444.0	1.5945672	193.5	
ESACC	R	20105624	20105675	52	930.2	436.1	710.3	128.1	10.369327	369.4	
ESACC	R	20105836	20105862	27	711.6	123.2	597.8	89.2	3.2666743	266.2	
ESACC	R	20106060	20106119	60	605.3	99.6	904.8	410.4	11.832167	547.7	
ESACC	R	20106317	20106338	22	910.5	425.1	963.4	417.7	1.4177544	139.5	
ESACC	R	20106446	20106509	64	955.7	418.9	597.6	97.7	13.128791	545.2	
ESACC	R	20106816	20106869	54	579.2	88.8	923.4	393.4	12.568572	564.1	
ESACC	R	20107605	20107653	49	930.6	407.9	589.6	115.4	12.280841	530.8	
ESACC	R	20107980	20107992	13	594.5	97.0	576.5	75.5	0.77817106	67.3	
ESACC	R	20108187	20108227	41	578.0	73.6	866.4	60.3	7.8455887	412.5	
ESACC	R	20108616	20108693	78	856.8	64.6	161.0	418.9	21.07549	612.5	
ESACC	R	20108841	20108864	24	138.6	422.5	96.7	431.6	1.1449604	163.0	
ESACC	R	20109314	20109359	46	93.9	430.2	541.0	674.1	13.715344	575.1	
END 20109834
START 20111549
ESACC	R	20111730	20111785	56	512.6	390.6	873.1	644.8	11.976369	561.6	
ESACC	R	20111980	20112055	76	882.1	651.7	348.8	241.8	18.241352	525.0	
ESACC	R	20112133	20112163	31	335.9	229.2	263.5	180.2	2.409958	253.5	
ESACC	R	20112613	20112675	63	259.7	177.9	281.7	596.0	11.533368	525.7	
ESACC	R	20112971	20113038	68	274.9	617.4	890.5	460.5	17.05169	581.6	
ESACC	R	20113552	20113614	63	905.5	441.3	576.5	71.6	13.567718	536.3	
ESACC	R	20113930	20113974	45	572.4	63.7	835.4	70.5	7.1686883	449.1	
ESACC	R	20114228	20114303	76	849.1	75.0	141.8	349.8	20.445242	633.5	
ESACC	R	20114452	20114477	26	125.0	360.3	114.9	413.7	1.4955921	150.6	
ESACC	R	20114818	20114877	60	101.3	408.8	536.8	652.5	13.481765	616.8	
END 20115211
START 20116787
ESACC	R	20116919	20116961	43	498.9	405.9	809.3	645.0	10.690796	525.9	
ESACC	R	20117273	20117297	25	823.9	641.9	890.7	655.1	1.8069701	180.1	
ESACC	R	20117374	20117447	74	882.6	655.2	336.9	198.8	19.279388	598.3	
ESACC	R	20117569	20117599	31	327.6	187.8	273.4	180.5	1.4988669	194.6	
ESACC	R	20117861	20117921	61	267.7	182.7	275.9	640.9	12.572615	509.1	
ESACC	R	20118311	20118378	68	270.2	645.6	884.7	486.1	17.01531	581.5	
ESACC	R	20118815	20118863	49	898.9	465.6	607.9	134.8	12.0966625	516.9	
ESACC	R	20119123	20119144	22	609.3	114.5	581.8	64.8	1.579822	139.2	
ESACC	R	20119323	20119361	39	586.2	71.1	888.1	72.9	8.181722	448.9	
ESACC	R	20119950	20119962	13	871.5	72.2	841.5	78.5	0.82380676	86.9	
ESACC	R	20120087	20120164	78	848.8	77.6	149.1	364.6	20.407509	608.2	
ESACC	R	20120293	20120318	26	134.1	372.5	96.5	424.5	1.7477019	146.4	
ESACC	R	20120556	20120604	49	97.4	423.8	534.7	695.7	13.871171	638.2	
ESACC	R	20120917	20120959	43	540.4	693.4	554.2	673.4	0.6569927	89.6	
END 20120961
START 20122468
ESACC	R	20122619	20122676	58	507.0	396.4	862.6	671.2	12.202255	573.1	
ESACC	R	20122944	20123014	71	874.6	673.0	289.6	194.6	20.437395	536.4	
ESACC	R	20123114	20123143	30	289.9	187.4	255.3	178.2	0.9795674	166.0	
ESACC	R	20123434	20123497	64	253.5	172.6	263.9	578.0	11.187009	506.8	
ESACC	R	20123789	20123858	70	260.0	596.9	893.8	438.1	17.56072	596.9	
ESACC	R	20124186	20124248	63	910.2	430.1	634.5	103.2	11.739859	473.6	
ESACC	R	20124351	20124375	25	621.7	89.5	565.5	80.8	1.5670615	169.6	
ESACC	R	20124684	20124694	11	572.8	74.9	554.4	62.3	0.6165362	64.0	
ESACC	R	20124942	20124965	24	561.7	63.8	589.8	65.9	0.77631104	111.7	
ESACC	R	20125083	20125118	36	586.8	65.4	848.4	57.8	7.1214724	400.9	
ESACC	R	20125370	20125446	77	847.5	60.9	104.6	404.6	21.993662	653.2	
ESACC	R	20125940	20125992	53	88.9	421.2	542.5	664.6	13.866116	613.2	
ESACC	R	20126582	20126620	39	560.1	665.7	526.1	460.3	5.719226	292.6	
ESACC	R	20126760	20126802	43	526.0	470.1	549.8	648.8	4.959148	344.1	
END 20126881
START 20128814
ESACC	R	20128951	20129000	50	511.3	387.3	859.2	649.8	11.858009	545.6	
ESACC	R	20129227	20129304	78	870.5	645.7	311.5	190.6	19.530838	541.0	
ESACC	R	20129618	20129712	95	292.5	184.0	900.0	674.2	21.091934	599.0	
ESACC	R	20130095	20130163	69	893.2	650.5	284.5	217.4	20.193375	589.4	
ESACC	R	20130281	20130305	25	287.5	202.7	266.4	181.8	0.82044894	124.5	
ESACC	R	20130676	20130684	9	255.3	183.6	241.5	178.1	0.4060341	52.5	
ESACC	R	20130812	20130875	64	247.3	178.4	264.5	585.2	11.216327	531.1	
ESACC	R	20131137	20131205	69	262.8	604.8	878.4	446.7	17.081394	571.2	
ESACC	R	20131557	20131613	57	904.8	435.0	613.8	102.9	12.116998	448.0	
ESACC	R	20131925	20131942	18	617.6	95.1	585.8	71.1	1.1019788	102.8	
ESACC	R	20132116	20132149	34	588.7	76.4	844.3	71.2	6.956593	411.1	
ESACC	R	20132413	20132486	74	845.3	77.5	161.3	364.8	20.026802	559.9	
ESACC	R	20132608	20132638	31	143.2	365.4	102.3	429.8	2.081232	243.8	
ESACC	R	20133028	20133088	61	91.9	429.7	519.6	664.8	13.148015	561.3	
END 20133433
START 20135332
ESACC	R	20135486	20135529	44	505.8	385.4	823.2	652.2	11.312268	553.3	
ESACC	R	20135728	20135801	74	832.0	656.7	348.8	246.5	17.25279	523.7	
ESACC	R	20135871	20135895	25	330.9	241.5	242.7	190.6	2.800837	249.7	
ESACC	R	20136314	20136397	84	249.6	175.0	264.9	623.5	12.3284025	351.3	
ESACC	R	20136756	20136761	6	271.3	617.8	271.1	609.1	0.23647483	42.8	
ESACC	R	20137232	20137306	75	267.8	614.6	883.8	456.1	17.09455	512.9	
ESACC	R	20137726	20137769	44	906.9	441.7	618.5	135.1	11.542001	488.9	
ESACC	R	20137924	20137949	26	602.4	113.3	582.5	91.0	0.8297861	129.6	
ESACC	R	20138127	20138164	38	578.1	90.4	846.3	83.0	7.3008456	381.4	
ESACC	R	20138398	20138475	78	852.9	84.7	126.1	413.8	21.491152	599.4	
ESACC	R	20138793	20138812	20	109.1	424.7	90.5	426.0	0.49596483	81.6	
ESACC	R	20138984	20139042	59	92.5	426.3	557.9	678.4	14.253308	628.9	
END 20139309
START 20141030
ESACC	R	20141190	20141235	46	503.0	398.5	821.1	662.8	11.258247	544.6	
ESACC	R	20141517	20141621	105	828.7	658.2	279.6	246.5	18.624544	500.8	
ESACC	R	20142023	20142085	63	280.9	186.9	258.5	584.1	10.974135	479.3	
ESACC	R	20142481	20142547	67	253.9	600.1	876.6	476.7	17.052485	575.4	
ESACC	R	20142881	20142898	18	901.6	468.2	924.1	444.0	0.89312667	95.8	
ESACC	R	20143028	20143088	61	918.2	445.9	613.0	112.8	12.374545	525.5	
ESACC	R	20143533	20143565	33	604.3	85.7	853.3	87.4	6.775674	399.4	
ESACC	R	20143830	20143908	79	844.7	86.3	115.7	436.5	21.766289	598.1	
ESACC	R	20144336	20144379	44	87.8	438.1	548.8	672.8	13.930492	590.1	
ESACC	R	20145036	20145050	15	551.4	687.2	539.9	606.2	2.2232199	97.3	
END 20145052
START 20147878
ESACC	R	20148045	20148087	43	500.8	402.0	892.2	492.3	10.911215	506.1	
ESACC	R	20148242	20148274	33	895.7	486.3	888.4	658.4	4.655381	328.0	
ESACC	R	20148456	20148532	77	891.3	649.1	287.1	182.0	20.656153	599.6	
ESACC	R	20148845	20148897	53	268.5	174.6	534.5	105.2	7.5597525	354.2	
ESACC	R	20149016	20149061	46	553.1	104.5	849.1	99.1	8.066786	497.4	
ESACC	R	20149249	20149309	61	861.9	98.8	975.4	417.3	9.243402	495.4	
ESACC	R	20149429	20149498	70	971.5	433.2	522.5	700.3	14.0100565	743.4	
ESACC	R	20149621	20149672	52	526.8	703.3	302.6	628.7	6.3938723	449.7	
ESACC	R	20149941	20149970	30	289.2	625.0	250.6	618.1	1.0571465	166.0	
ESACC	R	20150173	20150327	155	246.0	625.1	921.0	460.4	18.574324	573.9	
ESACC	R	20150483	20150533	51	938.8	454.3	701.9	121.0	11.189402	405.0	
ESACC	R	20150627	20150664	38	699.8	106.5	594.4	89.1	2.935887	304.3	
ESACC	R	20151008	20151048	41	585.8	94.4	835.2	85.1	6.8005366	416.6	
ESACC	R	20151300	20151377	78	851.4	88.4	152.7	406.7	20.733397	569.4	
ESACC	R	20151516	20151544	29	135.3	419.1	99.2	428.4	0.9959943	140.3	
ESACC	R	20151902	20151963	62	87.2	437.3	565.2	678.2	14.40955	633.6	
ESACC	R	20152190	20152208	19	580.5	694.2	541.2	666.9	1.2968405	120.3	
END 20152514
START 20154783
ESACC	R	20154925	20154986	62	508.7	398.9	838.7	668.5	11.58965	563.4	
ESACC	R	20155296	20155479	184	854.9	680.1	240.6	202.1	21.01429	1353.0	
ESACC	R	20155721	20155779	59	245.8	196.9	272.3	609.4	11.370708	484.3	
ESACC	R	20156077	20156141	65	262.4	626.9	860.2	464.3	16.650278	583.9	
ESACC	R	20156403	20156427	25	892.6	458.9	941.9	432.1	1.5012411	161.8	
ESACC	R	20156507	20156557	51	931.2	430.7	586.4	103.4	12.992926	578.5	
ESACC	R	20156822	20156862	41	591.8	93.1	886.5	96.3	7.9977784	438.4	
ESACC	R	20157295	20157363	69	873.3	92.3	155.7	462.2	21.757574	595.3	
ESACC	R	20157481	20157515	35	150.9	457.0	96.2	445.7	1.4912466	225.0	
ESACC	R	20157728	20157749	22	87.8	444.3	108.8	434.7	0.61682403	90.2	
ESACC	R	20157864	20157924	61	102.6	436.8	548.8	675.3	13.637759	630.1	
END 20158109
START 20159936
ESACC	R	20160078	20160125	48	503.6	392.5	836.4	647.4	11.412531	562.7	
ESACC	R	20160517	20160593	77	841.8	651.3	298.5	215.3	18.913485	588.3	
ESACC	R	20160701	20160722	22	291.7	206.6	248.1	182.4	1.369221	123.8	
ESACC	R	20161169	20161221	53	253.8	183.6	258.6	632.2	12.324861	461.3	
ESACC	R	20161535	20161604	70	253.4	619.8	879.0	433.5	17.549057	561.4	
ESACC	R	20161889	20161947	59	899.8	423.8	643.4	133.8	10.621428	420.3	
ESACC	R	20162040	20162069	30	632.8	121.5	583.9	97.7	1.5022187	187.0	
ESACC	R	20162309	20162358	50	583.5	95.7	855.2	90.3	7.394715	393.7	
ESACC	R	20162614	20162689	76	865.0	92.5	179.8	408.5	20.378002	633.7	
ESACC	R	20162809	20162841	33	159.9	420.4	112.9	423.3	1.2608931	221.3	
ESACC	R	20163012	20163072	61	100.5	432.5	520.6	639.1	12.638807	615.9	
END 20163293
START 20165030
ESACC	R	20165171	20165232	62	506.3	388.6	827.9	650.6	11.306265	552.4	
ESACC	R	20165502	20165565	64	830.9	664.2	289.9	204.6	19.270046	521.7	
ESACC	R	20165712	20165735	24	294.0	192.1	257.8	192.4	0.98910683	113.0	
ESACC	R	20166101	20166160	60	265.7	189.4	277.4	540.5	9.717526	487.2	
ESACC	R	20166346	20166411	66	274.4	560.0	785.7	130.4	18.247395	581.4	
ESACC	R	20166688	20166722	35	794.3	121.4	864.9	111.5	1.922517	280.9	
ESACC	R	20166793	20166849	57	879.9	111.8	950.7	415.5	8.5538	514.9	
ESACC	R	20167025	20167084	60	942.7	427.2	640.2	102.8	12.122985	539.5	
ESACC	R	20167338	20167357	20	622.6	89.8	592.7	76.9	0.8986574	94.4	
ESACC	R	20167499	20167543	45	596.9	78.6	840.4	67.6	6.632853	431.5	
ESACC	R	20167914	20167992	79	852.2	72.2	128.6	412.9	21.54502	557.8	
ESACC	R	20168532	20168592	61	104.7	424.9	540.3	665.6	13.425685	617.0	
END 20169003
START 20170591
ESACC	R	20170667	20170726	60	504.8	380.5	828.9	637.2	11.282638	535.2	
ESACC	R	20170923	20170955	33	832.9	651.4	881.3	647.5	1.2880809	177.2	
ESACC	R	20171215	20171292	78	886.0	650.8	254.9	193.3	21.026073	599.9	
ESACC	R	20171453	20171467	15	243.1	191.6	257.9	169.2	0.7429313	74.3	
ESACC	R	20171723	20171785	63	253.9	178.0	273.0	594.1	11.474521	491.1	
ESACC	R	20172156	20172220	65	269.5	603.0	881.5	448.4	16.965284	623.5	
ESACC	R	20172474	20172528	55	907.2	435.6	696.2	117.4	10.488077	333.2	
ESACC	R	20172635	20172660	26	696.9	106.3	590.0	81.4	3.017606	287.8	
ESACC	R	20173075	20173107	33	601.4	90.7	861.1	77.1	7.067085	440.4	
ESACC	R	20173312	20173335	24	856.4	78.6	912.9	83.8	1.5174347	144.6	
ESACC	R	20173465	20173545	81	905.3	77.0	163.4	417.9	21.942068	625.4	
ESACC	R	20174013	20174073	61	136.3	430.8	567.1	647.1	13.046885	591.3	
ESACC	R	20174387	20174439	53	576.6	653.0	604.5	341.8	8.630602	276.4	
ESACC	R	20174590	20174615	26	604.3	340.4	534.0	395.5	2.4819636	207.8	
END 20174662
START 20175967
ESACC	R	20176124	20176185	62	508.1	386.6	870.1	647.9	12.133902	558.4	
ESACC	R	20176362	20176435	74	874.6	661.2	336.6	175.1	19.664314	592.4	
ESACC	R	20176553	20176584	32	323.2	168.7	279.1	166.0	1.2105644	177.4	
ESACC	R	20176956	20177012	57	273.8	165.7	686.4	295.1	11.867928	584.2	
ESACC	R	20177150	20177174	25	692.7	310.5	610.4	302.6	2.2780209	168.0	
ESACC	R	20177205	20177253	49	616.6	301.5	366.1	208.3	7.388332	552.6	
ESACC	R	20177379	20177402	24	335.2	201.2	281.4	170.9	1.6996872	183.0	
ESACC	R	20177593	20177657	65	292.7	172.5	269.4	602.1	11.867935	506.0	
ESACC	R	20178157	20178166	10	267.6	616.2	282.8	606.0	0.4953228	53.8	
ESACC	R	20178368	20178440	73	272.5	607.1	952.8	459.6	18.580015	591.9	
ESACC	R	20178691	20178705	15	974.1	447.1	968.3	414.6	0.8998405	81.7	
ESACC	R	20178809	20178861	53	967.2	412.1	656.7	94.6	12.106599	486.5	
ESACC	R	20178980	20179003	24	651.1	79.2	589.5	77.0	1.6957426	172.1	
ESACC	R	20179334	20179373	40	589.6	80.2	878.1	78.4	7.8291955	414.9	
ESACC	R	20179609	20179691	83	875.1	77.9	144.5	386.8	21.331741	588.4	
ESACC	R	20179802	20179830	29	144.0	392.1	107.4	418.0	1.2100419	173.3	
ESACC	R	20180265	20180313	49	100.6	422.4	545.2	684.9	13.928411	577.8	
END 20180564
START 20182271
ESACC	R	20182424	20182467	44	509.8	397.3	906.2	506.3	11.156556	504.0	
ESACC	R	20182634	20182685	52	895.5	502.8	792.5	314.3	5.8912096	322.8	
ESACC	R	20182762	20182822	61	789.8	306.2	905.2	605.5	8.7627735	425.1	
ESACC	R	20182986	20183051	66	906.0	613.5	887.0	134.4	13.046498	483.6	
ESACC	R	20183157	20183228	72	883.2	113.1	327.5	172.4	15.149191	627.9	
ESACC	R	20183313	20183344	32	330.2	170.7	289.0	166.7	1.1358248	190.0	
ESACC	R	20183572	20183633	62	276.2	173.9	282.0	601.6	11.7834215	560.1	
ESACC	R	20183964	20184030	67	276.8	607.9	836.7	327.3	16.982815	598.7	
ESACC	R	20184150	20184192	43	851.6	317.1	944.7	408.4	3.538864	369.6	
ESACC	R	20184403	20184427	25	949.3	421.1	923.8	358.4	1.8505698	126.7	
ESACC	R	20184499	20184560	62	920.8	364.7	653.7	101.1	10.274835	487.8	
ESACC	R	20184722	20184744	23	643.5	86.7	578.0	67.7	1.8780415	187.7	
ESACC	R	20184986	20185036	51	582.5	75.0	868.1	75.6	7.7608867	392.4	
ESACC	R	20185429	20185534	106	864.9	72.1	137.0	494.7	22.646048	570.2	
ESACC	R	20185626	20185653	28	141.7	459.3	107.4	439.9	1.0582484	150.6	
ESACC	R	20185907	20185955	49	103.6	438.1	478.7	655.8	11.714553	586.6	
ESACC	R	20186088	20186118	31	497.2	658.3	542.9	673.2	1.3076234	201.7	
ESACC	R	20186321	20186365	45	550.9	675.0	507.0	371.2	8.455362	455.1	
END 20186367
START 20187825
ESACC	R	20188009	20188053	45	511.0	389.9	569.5	686.7	8.30945	407.0	
ESACC	R	20188192	20188241	50	579.1	684.4	881.0	657.9	8.103565	491.3	
ESACC	R	20188455	20188534	80	902.7	656.0	343.3	179.2	19.90744	588.4	
ESACC	R	20188607	20188639	33	323.2	166.2	273.1	164.9	1.3730818	208.0	
ESACC	R	20189125	20189194	70	256.3	168.9	254.1	618.0	12.338056	503.6	
ESACC	R	20189382	20189449	68	257.9	628.0	908.9	473.7	17.90564	626.4	
ESACC	R	20189711	20189769	59	930.0	462.1	833.8	138.3	9.272731	369.0	
ESACC	R	20189878	20189925	48	829.9	120.3	614.9	79.8	5.9729075	429.0	
ESACC	R	20190268	20190290	23	602.5	76.4	580.6	67.5	0.6522565	105.8	
ESACC	R	20190422	20190470	49	579.6	74.6	847.3	71.7	7.284797	437.3	
ESACC	R	20190788	20190865	78	858.4	72.6	129.4	394.1	21.428522	612.1	
ESACC	R	20191938	20191990	53	114.2	420.4	542.6	697.5	13.764987	528.9	
END 20192233
START 20193816
ESACC	R	20194073	20194122	50	499.0	397.5	879.6	636.9	12.204472	493.6	
ESACC	R	20194366	20194439	74	888.2	632.9	338.9	288.7	17.577806	592.6	
ESACC	R	20194520	20194545	26	322.2	275.9	259.2	203.8	2.6545403	238.4	
ESACC	R	20194812	20194875	64	269.6	199.5	267.9	602.3	11.111819	521.5	
ESACC	R	20195182	20195232	51	261.9	614.8	592.0	646.7	8.975653	510.6	
ESACC	R	20195299	20195347	49	616.3	645.8	870.5	450.3	8.695128	575.7	
ESACC	R	20195717	20195772	56	877.0	419.5	573.5	94.5	12.218533	452.8	
ESACC	R	20196181	20196217	37	579.2	81.1	864.2	82.2	7.744625	401.9	
ESACC	R	20196618	20196694	77	860.4	78.2	168.6	410.1	20.700514	610.2	
ESACC	R	20196879	20196910	32	147.3	414.8	108.1	414.0	1.0483594	178.0	
ESACC	R	20197087	20197146	60	97.0	415.3	540.8	648.9	13.544272	579.1	
END 20197418
START 20199298
ESACC	R	20199551	20199610	60	506.3	393.1	803.0	676.5	11.185405	518.6	
ESACC	R	20199762	20199786	25	811.3	685.2	883.8	667.1	1.9804103	168.0	
ESACC	R	20200012	20200087	76	871.5	665.6	324.0	237.7	18.837221	576.1	
ESACC	R	20200268	20200301	34	311.2	220.6	256.5	196.7	1.638731	229.4	
ESACC	R	20200448	20200508	61	249.1	192.6	271.5	565.4	10.316316	500.0	
ESACC	R	20200750	20200815	66	265.3	583.1	876.6	398.0	17.222746	600.0	
ESACC	R	20201147	20201207	61	891.2	400.5	716.6	100.2	9.553813	368.9	
ESACC	R	20201289	20201322	34	703.7	89.9	591.6	79.7	3.0927134	343.7	
ESACC	R	20201592	20201626	35	576.4	74.3	860.4	88.0	7.726717	446.7	
ESACC	R	20201945	20202019	75	865.7	92.1	168.3	375.1	20.312014	568.5	
ESACC	R	20202177	20202209	33	153.1	382.0	106.5	423.2	1.6854329	206.2	
ESACC	R	20202457	20202518	62	102.0	429.5	535.1	661.5	13.247976	574.5	
ESACC	R	20202835	20202856	22	543.2	671.4	564.3	655.7	0.71433336	97.2	
ESACC	R	20203056	20203086	31	565.2	661.3	543.7	400.2	7.216915	387.1	
END 20203088
START 20204634
ESACC	R	20204817	20204873	57	509.8	394.9	800.7	627.7	10.182035	515.6	
ESACC	R	20205039	20205070	32	806.1	642.8	868.3	662.3	1.7351091	213.3	
ESACC	R	20205158	20205234	77	873.8	657.5	284.1	189.8	20.377989	657.3	
ESACC	R	20205549	20205615	67	269.9	179.5	282.2	612.7	11.922156	539.7	
ESACC	R	20205883	20205949	67	275.8	622.4	830.9	450.9	15.682682	570.6	
ESACC	R	20206030	20206066	37	844.7	444.6	923.8	432.1	2.1426704	269.6	
ESACC	R	20206249	20206298	50	934.2	429.2	759.5	109.8	9.984437	426.7	
ESACC	R	20206387	20206415	29	759.5	104.8	579.1	75.0	5.0114965	378.2	
ESACC	R	20206678	20206725	48	591.0	76.7	841.7	76.4	6.821774	435.4	
ESACC	R	20207003	20207085	83	859.4	77.1	151.8	462.1	21.719843	579.9	
ESACC	R	20207182	20207205	24	141.3	472.2	96.6	433.2	1.6007942	149.8	
ESACC	R	20207487	20207531	45	100.9	439.6	542.9	670.0	13.4382925	605.3	
END 20207793
START 20210473
ESACC	R	20210529	20210587	59	509.6	396.1	838.2	637.0	11.095104	520.7	
ESACC	R	20210816	20210894	79	848.3	644.3	336.0	209.7	18.272177	511.1	
ESACC	R	20210985	20211016	32	319.0	198.3	274.4	185.2	1.2756791	224.5	
ESACC	R	20211433	20211495	63	263.8	174.0	306.6	563.1	10.811699	507.7	
ESACC	R	20211736	20211810	75	300.6	585.6	892.5	432.2	16.477684	573.0	
ESACC	R	20212190	20212253	64	884.7	417.4	603.8	74.4	12.18127	467.8	
ESACC	R	20213034	20213082	49	572.6	64.6	849.3	63.5	7.5293136	428.7	
ESACC	R	20213345	20213447	103	859.8	59.5	127.0	458.0	22.43734	585.0	
ESACC	R	20213839	20213894	56	126.7	440.6	542.0	649.8	12.568934	591.9	
END 20214117
START 20215570
ESACC	R	20215658	20215713	56	508.7	390.4	884.9	636.0	12.192447	603.4	
ESACC	R	20215982	20216044	63	891.2	644.5	285.7	267.5	19.26989	607.9	
ESACC	R	20216242	20216266	25	287.8	257.7	269.0	187.3	2.0326378	162.1	
ESACC	R	20216703	20216777	75	273.4	194.3	269.7	585.3	10.801574	342.4	
ESACC	R	20217049	20217116	68	270.1	596.0	882.4	447.2	16.95568	607.7	
ESACC	R	20217272	20217319	48	898.9	448.7	886.2	106.8	9.398976	399.5	
ESACC	R	20217527	20217577	51	878.9	99.4	657.2	67.8	6.0713873	339.1	
ESACC	R	20217709	20217732	24	636.1	59.3	589.9	63.7	1.2768548	155.1	
ESACC	R	20218140	20218184	45	593.6	66.1	857.5	65.9	7.1711984	434.1	
ESACC	R	20218405	20218476	72	870.2	68.2	205.5	385.6	19.941517	628.4	
ESACC	R	20218582	20218615	34	184.9	391.6	131.4	409.7	1.5226092	197.2	
ESACC	R	20218738	20218807	70	117.6	413.3	823.2	99.3	20.823902	694.7	
ESACC	R	20218952	20218983	32	834.6	95.4	886.6	77.0	1.4851516	231.4	
ESACC	R	20219104	20219222	119	898.1	79.5	136.1	396.6	22.158615	675.3	
ESACC	R	20219423	20219445	23	130.4	367.8	117.4	436.5	1.9242175	173.6	
ESACC	R	20219623	20219681	59	120.0	424.8	552.0	668.8	13.399479	610.7	
END 20219917
START 20221481
ESACC	R	20221612	20221656	45	509.5	405.2	828.3	676.3	11.3867235	553.7	
ESACC	R	20221871	20221938	68	843.3	676.0	350.6	450.9	14.648072	552.1	
ESACC	R	20222048	20222084	37	331.9	442.0	275.0	204.1	6.8161435	440.0	
ESACC	R	20222590	20222640	51	287.8	203.2	271.0	625.3	11.621076	447.6	
ESACC	R	20222807	20222861	55	270.4	617.2	275.7	231.7	10.62081	498.9	
ESACC	R	20223131	20223194	64	275.2	204.9	259.7	623.5	11.523478	536.0	
ESACC	R	20223488	20223554	67	255.7	630.0	873.5	452.1	17.28096	625.4	
ESACC	R	20223794	20223857	64	899.4	440.1	653.5	117.5	11.142059	457.0	
ESACC	R	20224127	20224146	20	634.7	105.9	584.1	90.3	1.4604628	144.0	
ESACC	R	20224524	20224562	39	594.8	84.8	888.9	65.8	7.9874535	441.8	
ESACC	R	20224804	20224881	78	887.9	75.3	144.5	409.2	21.921015	643.5	
ESACC	R	20225340	20225397	58	117.0	414.9	569.7	664.8	13.963695	607.7	
END 20225549
START 20227002
ESACC	R	20227138	20227187	50	508.9	382.5	818.7	672.1	11.559881	544.8	
ESACC	R	20227357	20227430	74	833.3	667.0	339.6	192.5	18.629066	575.0	
ESACC	R	20227528	20227559	32	330.2	179.8	279.2	174.8	1.4042231	208.9	
ESACC	R	20227942	20228007	66	266.6	178.4	263.7	608.8	11.840702	545.1	
ESACC	R	20228302	20228367	66	260.8	620.8	874.6	456.0	17.101736	636.4	
ESACC	R	20228960	20229022	63	908.2	440.7	624.3	95.8	12.256466	458.6	
ESACC	R	20229481	20229525	45	611.3	82.0	846.8	87.5	6.409974	371.1	
ESACC	R	20229846	20229925	80	855.7	82.5	201.1	366.8	19.339296	552.1	
ESACC	R	20230038	20230072	35	184.6	374.4	130.2	416.8	1.8736031	252.2	
ESACC	R	20230319	20230379	61	116.5	421.2	552.4	648.9	13.294789	607.9	
ESACC	R	20230792	20230833	42	557.7	664.6	561.8	339.3	8.974498	478.2	
END 20230835
START 20232220
ESACC	R	20232619	20232666	48	520.7	395.2	296.2	208.7	8.084468	385.2	
ESACC	R	20232975	20232995	21	295.2	192.8	246.0	180.4	1.3880488	126.8	
ESACC	R	20233126	20233176	51	254.2	183.0	281.8	619.2	12.023289	472.9	
ESACC	R	20233618	20233685	68	285.2	610.3	880.2	452.0	16.569092	555.3	
ESACC	R	20233996	20234047	52	906.9	430.7	645.5	101.7	11.527147	396.0	
ESACC	R	20234200	20234220	21	636.5	95.4	586.6	80.3	1.4357578	130.4	
ESACC	R	20234442	20234479	38	593.1	81.8	869.1	87.6	7.501716	425.1	
ESACC	R	20234815	20234890	76	865.0	92.3	143.2	393.4	21.058544	562.1	
ESACC	R	20235321	20235379	59	117.1	410.9	529.8	627.4	12.619831	592.2	
END 20235839
START 20237234
ESACC	R	20240823	20240875	53	511.8	392.8	257.1	421.3	7.03273	362.0	
ESACC	R	20240970	20241008	39	242.8	423.8	139.1	440.0	2.8306484	318.6	
ESACC	R	20241189	20241332	144	130.6	445.7	535.4	408.7	11.047777	1055.7	
ESACC	R	20241415	20241427	13	534.2	425.8	523.6	405.4	0.6413739	66.1	
END 20241613
START 20244035
ESACC	R	20248650	20248693	44	513.1	379.7	166.0	417.9	9.530091	419.1	
ESACC	R	20248843	20248877	35	172.2	415.5	108.2	428.6	1.7511108	218.5	
ESACC	R	20249001	20249061	61	96.2	432.5	513.6	538.6	11.652572	520.7	
ESACC	R	20249193	20249233	41	526.4	544.5	552.6	664.8	3.3683267	312.1	
ESACC	R	20249583	20249625	43	551.5	677.0	522.0	384.8	8.079154	369.2	
END 20250067
START 20251883
ESACC	R	20252327	20252388	62	894.5	661.2	427.1	278.5	16.403711	524.3	
ESACC	R	20252477	20252517	41	432.3	278.0	266.8	193.8	5.1275873	358.1	
ESACC	R	20252995	20253056	62	268.3	196.9	257.5	627.3	11.844057	420.3	
ESACC	R	20253383	20253452	70	259.3	634.5	865.8	454.2	17.008856	495.5	
ESACC	R	20253782	20253812	31	887.2	444.0	933.2	441.7	1.2266572	163.9	
ESACC	R	20253931	20253980	50	932.7	439.9	593.3	102.7	13.08248	563.4	
ESACC	R	20254297	20254334	38	590.8	89.5	861.3	72.0	7.366467	399.2	
ESACC	R	20254605	20254683	79	856.3	73.1	153.5	402.0	20.929943	642.0	
ESACC	R	20254817	20254848	32	140.1	414.6	100.4	428.9	1.1305338	178.6	
ESACC	R	20255110	20255164	55	88.7	427.2	533.7	670.8	13.666457	582.8	
END 20255507
START 20257180
ESACC	R	20257333	20257393	61	521.0	390.8	849.9	661.2	11.580734	563.9	
ESACC	R	20257600	20257671	72	856.3	683.6	356.3	213.2	18.636208	541.6	
ESACC	R	20257752	20257788	37	342.9	203.3	269.4	184.2	2.0858471	267.8	
ESACC	R	20258184	20258250	67	259.1	179.2	257.1	598.8	11.559355	491.3	
ESACC	R	20258503	20258573	71	261.1	611.4	904.0	413.6	18.063343	588.5	
ESACC	R	20258836	20258895	60	921.7	405.7	651.6	103.2	11.104591	522.0	
ESACC	R	20259053	20259077	25	637.6	89.4	574.4	84.6	1.7437842	200.3	
ESACC	R	20259413	20259449	37	589.8	74.2	884.4	85.0	8.0001545	451.6	
ESACC	R	20259640	20259686	47	881.0	82.2	611.4	76.3	7.3179665	456.9	
ESACC	R	20259909	20259922	14	591.5	75.9	568.5	83.7	0.6698257	67.7	
ESACC	R	20260318	20260357	40	570.9	83.6	878.8	67.4	8.367503	405.4	
ESACC	R	20260642	20260744	103	873.9	64.0	110.9	513.7	23.754282	571.4	
ESACC	R	20260955	20260966	12	106.1	452.8	96.0	440.9	0.4222053	55.7	
ESACC	R	20261246	20261309	64	97.7	438.9	547.7	676.7	13.718694	541.2	
END 20261641
START 20263061
ESACC	R	20263203	20263253	51	506.2	383.1	850.3	669.0	12.171508	548.2	
ESACC	R	20263463	20263538	76	850.1	667.8	306.1	225.1	19.018686	597.5	
ESACC	R	20263643	20263666	24	287.7	215.8	264.5	170.2	1.4215497	139.2	
ESACC	R	20263979	20264042	64	262.0	179.1	265.9	614.3	11.972958	540.9	
ESACC	R	20264321	20264395	75	262.6	623.8	917.5	462.1	18.079235	637.0	
ESACC	R	20264645	20264660	16	931.3	450.5	908.2	425.1	0.92899525	85.3	
ESACC	R	20264816	20264876	61	910.5	421.2	611.7	95.9	12.114869	580.0	
ESACC	R	20265251	20265296	46	593.2	70.7	847.6	60.5	6.928196	414.6	
ESACC	R	20265656	20265731	76	862.5	69.5	138.8	400.9	21.437384	594.7	
ESACC	R	20266167	20266222	56	108.9	410.6	524.5	658.1	13.08499	651.7	
ESACC	R	20266534	20266601	68	539.6	665.0	115.3	437.8	12.995196	542.8	
ESACC	R	20267004	20267053	50	102.8	427.9	512.6	647.6	12.558454	621.5	
ESACC	R	20267227	20267257	31	532.0	648.5	569.3	680.6	1.3367546	200.2	
END 20267498
START 20270148
ESACC	R	20270307	20270363	57	514.4	389.5	927.6	614.9	12.734913	549.3	
ESACC	R	20270733	20270818	86	924.3	625.3	257.8	182.0	21.547249	642.8	
ESACC	R	20271295	20271358	64	262.6	172.1	268.4	562.0	10.771874	507.4	
ESACC	R	20271573	20271592	20	264.3	580.3	268.6	632.3	1.4197178	135.4	
ESACC	R	20272135	20272214	80	263.5	624.2	789.6	114.0	19.952744	591.5	
ESACC	R	20272296	20272329	34	799.8	108.0	869.3	91.1	1.9306115	211.6	
ESACC	R	20272456	20272524	69	872.4	92.9	954.7	414.5	9.10296	464.8	
ESACC	R	20272880	20272933	54	946.8	420.2	595.2	87.2	13.21656	574.4	
ESACC	R	20273213	20273233	21	594.5	83.1	564.5	85.8	0.8298709	99.2	
ESACC	R	20273496	20273502	7	576.3	81.5	588.6	77.2	0.35938966	45.5	
ESACC	R	20273692	20273735	44	576.5	78.5	844.6	77.8	7.2952633	415.6	
ESACC	R	20274071	20274150	80	849.9	72.9	115.5	427.9	21.954449	629.6	
ESACC	R	20274984	20275047	64	91.8	429.4	568.5	690.9	14.622839	648.3	
ESACC	R	20275281	20275313	33	571.7	703.7	419.8	607.8	4.8777475	322.3	
ESACC	R	20275488	20275494	7	420.2	606.9	406.7	613.0	0.40430027	54.7	
ESACC	R	20275676	20275713	38	413.6	612.1	536.0	679.8	3.804915	389.6	
END 20275965
START 20277420
ESACC	R	20277602	20277643	42	513.7	402.6	813.6	675.0	11.034071	553.2	
ESACC	R	20277855	20277886	32	834.6	678.1	874.3	673.6	1.0571162	175.3	
ESACC	R	20278081	20278181	101	881.6	673.6	297.5	246.0	19.571268	564.4	
ESACC	R	20278311	20278340	30	294.1	194.6	268.0	184.9	0.7636324	138.6	
ESACC	R	20278569	20278633	65	262.5	184.9	268.4	604.0	11.546564	472.9	
ESACC	R	20278905	20278974	70	264.4	620.9	941.2	429.5	18.809563	591.2	
ESACC	R	20279364	20279387	24	963.8	421.0	903.9	415.0	1.5973394	137.3	
ESACC	R	20279549	20279606	58	920.2	414.6	624.7	121.8	11.390429	456.5	
ESACC	R	20279793	20279812	20	606.7	105.1	567.8	90.4	1.1476004	102.3	
ESACC	R	20280018	20280064	47	574.9	92.5	845.2	80.4	7.3627563	441.7	
ESACC	R	20280512	20280588	77	861.1	78.6	144.8	437.7	21.595783	645.7	
ESACC	R	20280711	20280734	24	131.2	447.8	106.3	420.0	1.0120219	149.0	
ESACC	R	20281134	20281184	51	105.4	430.3	529.8	674.0	13.200385	610.4	
ESACC	R	20281527	20281545	19	539.1	672.7	565.2	515.5	4.3654885	294.4	
END 20281547
START 20283149
ESACC	R	20283313	20283365	53	510.5	390.7	898.2	612.5	12.117105	533.6	
ESACC	R	20283508	20283529	22	913.8	611.1	891.5	666.2	1.587958	148.1	
ESACC	R	20283737	20283810	74	893.2	657.2	323.9	206.6	19.667828	607.0	
ESACC	R	20283917	20283947	31	312.0	189.5	271.5	191.1	1.1089721	172.4	
ESACC	R	20284316	20284382	67	262.8	191.2	273.2	618.1	11.747544	464.9	
ESACC	R	20284652	20284717	66	264.9	634.1	871.4	460.2	16.959173	577.9	
ESACC	R	20284853	20284883	31	885.3	456.3	918.3	431.4	1.1140301	153.4	
ESACC	R	20285156	20285204	49	927.5	431.0	598.6	113.9	12.48847	576.6	
ESACC	R	20285334	20285349	16	592.5	104.0	568.5	81.4	0.9135307	84.4	
ESACC	R	20285764	20285810	47	573.3	85.2	863.1	85.5	7.8750043	432.8	
ESACC	R	20286037	20286084	48	867.2	83.3	629.7	79.4	6.4459505	436.9	
ESACC	R	20286259	20286281	23	611.9	81.2	563.3	90.0	1.3611604	126.9	
ESACC	R	20286399	20286446	48	569.7	86.8	876.3	81.4	8.321561	467.1	
ESACC	R	20286662	20286742	81	882.7	74.0	129.2	395.7	22.005175	642.4	
ESACC	R	20287247	20287304	58	119.3	415.6	525.0	658.2	12.787373	619.2	
ESACC	R	20287802	20287816	15	535.7	679.1	540.7	672.3	0.22875395	43.7	
END 20287818
START 20289366
ESACC	R	20289572	20289618	47	501.0	391.4	801.9	670.7	11.1906185	538.4	
ESACC	R	20289859	20289891	33	816.3	670.2	876.2	666.7	1.5895202	200.0	
ESACC	R	20290027	20290099	73	883.9	663.9	285.7	214.6	20.230825	622.9	
ESACC	R	20290462	20290522	61	262.8	204.0	262.1	604.3	11.027564	490.6	
ESACC	R	20290883	20290951	69	256.4	624.4	879.5	456.5	17.321873	609.2	
ESACC	R	20291263	20291315	53	904.4	440.7	753.9	107.1	10.0688095	338.0	
ESACC	R	20291409	20291450	42	753.9	104.6	602.8	90.2	4.1590605	396.9	
ESACC	R	20291704	20291739	36	592.8	89.9	871.8	80.8	7.5857	443.4	
ESACC	R	20292139	20292234	96	868.7	78.1	106.4	401.7	22.236778	574.6	
ESACC	R	20292455	20292482	28	116.8	415.1	94.6	419.4	0.6028667	120.7	
ESACC	R	20292755	20292810	56	84.6	423.3	505.0	676.2	13.2184925	671.9	
ESACC	R	20292928	20292991	64	524.3	694.1	136.5	450.2	12.369882	633.2	
ESACC	R	20293278	20293338	61	122.0	442.2	545.8	668.1	12.96647	626.3	
END 20293751
START 20294985
ESACC	R	20295160	20295220	61	503.6	388.1	862.8	645.7	12.012967	580.4	
ESACC	R	20295396	20295469	74	866.7	666.6	315.2	214.9	19.33146	604.3	
ESACC	R	20295574	20295601	28	297.5	204.8	283.5	197.8	0.43052503	116.9	
ESACC	R	20296108	20296172	65	264.2	189.0	261.0	618.3	11.810498	476.2	
ESACC	R	20296345	20296413	69	259.6	633.0	888.6	445.5	17.622227	595.3	
ESACC	R	20296899	20296946	48	914.7	430.0	804.5	100.1	9.569463	413.6	
ESACC	R	20297040	20297071	32	809.4	100.6	596.4	84.8	5.828235	424.6	
ESACC	R	20297418	20297468	51	588.1	92.5	842.9	79.7	6.9424205	412.2	
ESACC	R	20297717	20297794	78	855.9	79.5	145.2	379.0	20.791285	606.7	
ESACC	R	20297939	20297962	24	123.2	384.9	83.0	423.6	1.5088048	152.1	
ESACC	R	20298615	20298670	56	96.6	420.1	518.8	652.9	13.02364	666.3	
ESACC	R	20298903	20298925	23	541.8	667.3	570.8	709.0	1.373351	146.5	
END 20299074
START 20300486
ESACC	R	20300631	20300690	60	519.2	388.2	856.2	666.7	11.875076	506.5	
ESACC	R	20300861	20300924	64	873.2	674.2	356.6	206.0	18.908642	554.4	
ESACC	R	20301008	20301042	35	355.8	196.3	299.7	191.8	1.5463398	209.0	
ESACC	R	20301486	20301549	64	281.8	191.5	255.7	581.7	10.802252	472.4	
ESACC	R	20301782	20301912	131	253.7	602.6	907.1	478.4	17.818304	606.6	
ESACC	R	20302155	20302180	26	914.5	446.0	928.3	432.0	0.530534	98.4	
ESACC	R	20302292	20302345	54	933.3	423.3	629.6	101.2	12.114573	620.5	
ESACC	R	20302498	20302517	20	620.4	84.0	575.4	85.6	1.2404703	126.9	
ESACC	R	20302796	20302843	48	579.3	86.4	848.6	84.0	7.328192	420.9	
ESACC	R	20303091	20303278	188	863.3	76.9	111.9	426.6	22.26975	1426.1	
ESACC	R	20303531	20303592	62	112.1	428.7	554.6	690.4	13.863792	593.9	
ESACC	R	20303890	20303947	58	567.3	698.4	519.2	379.4	8.862263	432.2	
END 20303949
START 20305220
ESACC	R	20305411	20305457	47	509.0	399.7	868.1	661.7	12.065606	570.8	
ESACC	R	20305912	20305986	75	873.2	661.5	313.6	219.3	19.336166	591.8	
ESACC	R	20306244	20306273	30	301.0	198.0	270.6	210.6	0.90313864	145.9	
ESACC	R	20306516	20306576	61	261.5	205.4	268.3	595.5	10.762966	486.7	
ESACC	R	20306850	20306917	68	270.6	609.0	930.5	446.3	18.194273	618.2	
ESACC	R	20307430	20307485	56	948.5	445.9	593.1	105.1	13.4404335	525.3	
ESACC	R	20307884	20307918	35	591.4	98.6	843.5	85.2	6.8699265	406.3	
ESACC	R	20308454	20308528	75	841.0	86.6	185.5	381.0	19.471952	565.5	
ESACC	R	20308657	20308690	34	172.5	392.5	125.2	425.8	1.5665021	213.2	
ESACC	R	20309074	20309136	63	111.1	427.7	554.5	665.7	13.587639	578.5	
END 20309798
START 20311278
ESACC	R	20311418	20311477	60	514.9	382.5	851.4	665.4	11.9611635	560.4	
ESACC	R	20311664	20311692	29	867.8	678.5	905.9	667.7	1.0431758	132.6	
ESACC	R	20311821	20311905	85	909.9	669.5	264.8	243.0	20.826324	520.3	
ESACC	R	20312098	20312128	31	245.5	230.9	284.7	201.4	1.3506458	169.5	
ESACC	R	20312354	20312434	81	290.9	208.5	278.1	631.3	11.636561	220.2	
ESACC	R	20312730	20312796	67	276.3	629.9	894.2	468.4	17.140207	568.1	
ESACC	R	20313021	20313052	32	910.6	458.7	972.4	429.3	1.8220851	236.2	
ESACC	R	20313273	20313333	61	972.8	420.0	629.1	90.4	12.971724	591.9	
ESACC	R	20313630	20313647	18	615.4	70.8	598.7	69.5	0.46084753	80.2	
ESACC	R	20313770	20313806	37	597.2	74.0	864.6	75.9	7.266494	452.4	
ESACC	R	20314018	20314048	31	862.6	70.1	905.5	70.0	1.1455314	145.3	
ESACC	R	20314176	20314252	77	903.1	71.4	177.3	427.7	21.787813	629.4	
ESACC	R	20314336	20314368	33	165.6	432.9	117.5	411.7	1.4137253	186.0	
ESACC	R	20314608	20314665	58	99.5	411.6	577.9	656.4	14.49557	627.2	
END 20314973
START 20316775
ESACC	R	20316916	20316971	56	516.3	393.9	818.8	652.6	10.851726	511.9	
ESACC	R	20317118	20317147	30	834.5	666.1	882.9	682.4	1.3523781	187.2	
ESACC	R	20317214	20317285	72	890.3	681.4	319.6	187.7	20.404003	624.8	
ESACC	R	20317685	20317707	23	294.2	174.5	262.5	137.4	1.3483824	136.1	
ESACC	R	20317838	20317902	65	268.8	147.6	263.9	628.1	13.201218	582.5	
ESACC	R	20318141	20318160	20	262.5	643.2	282.9	617.9	0.8788908	92.8	
ESACC	R	20318236	20318302	67	283.8	623.1	923.6	451.6	17.735403	608.8	
ESACC	R	20318675	20318725	51	944.7	433.0	615.3	103.3	12.73675	551.7	
ESACC	R	20318915	20318936	22	616.6	88.7	584.6	82.4	0.89884	114.5	
ESACC	R	20319219	20319257	39	585.6	87.6	873.3	87.5	7.817936	407.3	
ESACC	R	20319555	20319650	96	867.1	94.0	95.0	436.6	22.63864	608.0	
ESACC	R	20320318	20320382	65	104.5	416.0	552.4	661.4	13.776893	563.0	
END 20320701
START 20322336
ESACC	R	20322487	20322545	59	505.3	387.4	754.9	670.7	10.327795	503.0	
ESACC	R	20322672	20322707	36	763.8	686.6	861.1	690.1	2.5860229	280.8	
ESACC	R	20322825	20322904	80	869.9	691.5	282.2	170.4	21.212738	602.6	
ESACC	R	20323236	20323301	66	273.0	159.8	271.6	609.9	12.382453	588.6	
ESACC	R	20323617	20323682	66	261.0	617.5	746.6	392.7	14.556746	515.9	
ESACC	R	20323787	20323827	41	762.5	382.4	908.1	405.2	3.9748847	371.1	
ESACC	R	20324049	20324100	52	915.2	408.9	650.1	96.4	11.233981	483.8	
ESACC	R	20324187	20324220	34	644.8	91.2	582.5	89.8	1.7143372	229.1	
ESACC	R	20324556	20324573	18	580.6	83.8	618.2	78.5	1.0462817	90.5	
ESACC	R	20324694	20324726	33	610.9	78.9	847.5	83.6	6.4394107	432.5	
ESACC	R	20324867	20324913	47	845.7	79.7	606.6	75.1	6.507371	478.0	
ESACC	R	20325183	20325232	50	584.9	66.5	865.4	74.2	7.6252584	452.9	
ESACC	R	20325638	20325716	79	872.4	73.1	150.8	328.2	20.586025	550.5	
ESACC	R	20325740	20325778	39	124.8	332.6	105.9	385.3	1.5388982	176.0	
ESACC	R	20325895	20325912	18	91.9	382.9	105.4	413.2	0.90654916	91.2	
ESACC	R	20326208	20326271	64	94.3	406.4	539.1	644.3	13.62368	615.5	
END 20326677
START 20328975
ESACC	R	20329102	20329160	59	502.0	382.9	855.2	653.7	12.110486	582.1	
ESACC	R	20329384	20329457	74	868.0	664.1	349.3	212.6	18.670702	507.1	
ESACC	R	20329526	20329557	32	339.1	210.9	280.7	167.6	2.0057123	224.5	
ESACC	R	20329898	20329962	65	279.8	169.6	264.4	621.3	12.416374	527.4	
ESACC	R	20330286	20330353	68	261.5	628.3	878.0	463.1	17.131762	578.6	
ESACC	R	20330603	20330630	28	899.4	453.8	940.5	436.2	1.1933861	171.1	
ESACC	R	20330789	20330839	51	931.4	437.5	610.2	101.0	12.728243	532.9	
ESACC	R	20331225	20331275	51	601.2	92.1	854.9	78.5	6.9136734	388.8	
ESACC	R	20331681	20331757	77	872.2	76.3	607.7	672.8	17.748274	631.4	
ESACC	R	20331850	20331921	72	598.3	692.1	144.9	440.6	14.006693	573.2	
ESACC	R	20332283	20332336	54	128.0	436.7	522.1	629.7	11.88841	578.7	
ESACC	R	20332474	20332500	27	544.0	631.0	557.5	680.0	1.3795239	168.6	
ESACC	R	20332713	20332771	59	569.6	671.8	520.1	503.3	4.81707	370.2	
END 20332773
START 20334824
ESACC	R	20334986	20335042	57	512.4	387.7	862.6	648.8	11.884499	589.1	
ESACC	R	20335461	20335532	72	876.9	656.2	312.8	221.3	19.307207	637.1	
ESACC	R	20335667	20335689	23	295.9	204.6	259.5	175.2	1.2890456	132.7	
ESACC	R	20336004	20336069	66	268.0	177.8	264.9	618.8	12.132341	473.8	
ESACC	R	20336422	20336490	69	260.5	627.9	936.1	462.4	18.570322	608.9	
ESACC	R	20336842	20336876	35	951.7	449.6	826.5	330.5	4.6873546	304.3	
ESACC	R	20336986	20337040	55	825.8	335.4	638.8	110.6	8.081798	456.8	
ESACC	R	20337295	20337312	18	621.5	91.9	590.0	83.5	0.89876056	89.6	
ESACC	R	20337625	20337668	44	591.4	88.2	830.4	89.2	6.512321	436.2	
ESACC	R	20337981	20338049	69	852.9	87.2	537.3	591.8	16.311089	615.6	
ESACC	R	20338120	20338193	74	527.4	603.9	107.0	424.1	12.358645	521.7	
ESACC	R	20338577	20338624	48	113.7	421.9	526.1	680.4	13.146983	610.8	
ESACC	R	20339034	20339045	12	526.0	682.8	520.1	703.5	0.58046985	55.0	
ESACC	R	20339080	20339098	19	525.8	699.4	570.7	705.0	1.2261041	90.9	
ESACC	R	20339452	20339477	26	561.5	688.4	543.7	440.6	6.815776	444.3	
END 20339479
START 20340961
ESACC	R	20341155	20341202	48	511.5	388.2	867.5	675.8	12.432751	544.5	
ESACC	R	20341652	20341717	66	880.5	674.7	298.2	227.1	19.85388	587.2	
ESACC	R	20341815	20341837	23	314.4	207.9	299.9	151.9	1.6140364	156.5	
ESACC	R	20342188	20342199	12	310.8	167.4	290.0	144.7	0.851346	86.3	
ESACC	R	20342348	20342414	67	297.3	151.1	274.1	615.5	12.791337	497.5	
ESACC	R	20342689	20342761	73	271.3	632.2	933.8	412.7	18.69636	585.1	
ESACC	R	20343192	20343248	57	946.7	408.1	597.4	115.4	12.427465	530.2	
ESACC	R	20343559	20343595	37	587.8	95.2	856.3	90.2	7.307439	464.4	
ESACC	R	20344108	20344184	77	853.1	79.3	89.4	406.5	22.2908	670.8	
ESACC	R	20344372	20344401	30	73.8	419.2	94.5	412.7	0.577304	117.3	
ESACC	R	20344558	20344614	57	93.4	414.2	580.9	692.6	15.1216545	627.1	
ESACC	R	20344798	20344819	22	593.7	695.6	560.0	674.6	1.0759221	117.0	
END 20344962
START 20347112
ESACC	R	20347296	20347351	56	510.4	386.8	879.9	643.3	12.222289	571.6	
ESACC	R	20347545	20347621	77	894.0	644.6	291.7	232.5	19.729895	592.8	
ESACC	R	20347744	20347762	19	269.9	221.8	273.1	175.3	1.3000146	101.2	
ESACC	R	20347971	20348031	61	273.1	177.0	280.2	578.7	11.083064	558.5	
ESACC	R	20348331	20348401	71	271.6	588.4	865.0	439.5	16.48579	575.1	
ESACC	R	20348656	20348680	25	884.3	425.4	943.9	435.2	1.6078094	185.4	
ESACC	R	20348758	20348818	61	938.4	433.6	625.4	87.2	12.772211	579.3	
ESACC	R	20349046	20349067	22	617.1	67.8	590.7	67.2	0.7264637	106.7	
ESACC	R	20349203	20349250	48	591.6	68.3	858.8	73.7	7.2624063	470.6	
ESACC	R	20349466	20349544	79	870.3	74.1	148.4	403.7	21.377964	644.9	
ESACC	R	20349852	20349880	29	140.3	413.1	110.5	424.3	0.85429007	154.9	
ESACC	R	20350112	20350170	59	96.6	423.8	525.9	629.5	12.864092	608.0	
ESACC	R	20350449	20350506	58	535.1	652.1	502.4	318.8	9.250905	331.5	
END 20350545
START 20352113
ESACC	R	20352270	20352314	45	513.1	379.9	793.0	635.0	10.364231	543.8	
ESACC	R	20352532	20352603	72	815.8	630.6	391.4	192.2	16.687038	512.5	
ESACC	R	20352692	20352727	36	378.7	181.2	288.0	178.1	2.4932668	336.0	
ESACC	R	20352959	20353025	67	271.0	176.6	909.2	461.4	18.915873	695.5	
ESACC	R	20353163	20353183	21	920.9	473.8	930.9	429.9	1.230035	102.9	
ESACC	R	20353271	20353337	67	932.2	441.9	503.5	667.9	13.0526705	687.1	
ESACC	R	20353409	20353448	40	501.0	667.5	321.8	622.1	5.016597	472.1	
ESACC	R	20353782	20353845	64	303.1	621.8	911.5	458.5	16.908619	617.7	
ESACC	R	20354063	20354092	30	925.3	444.4	951.4	433.9	0.7486995	145.8	
ESACC	R	20354189	20354249	61	960.4	430.1	608.5	100.9	13.14032	568.6	
ESACC	R	20354839	20354873	35	597.2	74.5	872.8	73.3	7.479042	428.9	
ESACC	R	20355301	20355387	87	858.2	70.3	183.9	374.7	19.999075	551.0	
ESACC	R	20355514	20355547	34	173.9	357.8	122.6	412.1	2.0363276	237.4	
ESACC	R	20356019	20356080	62	104.0	407.2	523.5	646.0	13.041506	608.9	
ESACC	R	20356580	20356640	61	537.2	669.1	554.0	346.5	8.911237	431.9	
END 20356642
START 20360369
ESACC	R	20360517	20360576	60	508.0	379.1	823.4	639.7	11.167464	564.4	
ESACC	R	20360695	20360729	35	828.1	652.2	890.2	635.9	1.7022387	208.0	
ESACC	R	20361068	20361083	16	889.9	649.7	908.6	626.2	0.7995734	85.4	
ESACC	R	20361370	20361442	73	900.8	627.0	320.2	221.2	19.188435	650.8	
ESACC	R	20361571	20361595	25	308.5	210.1	261.9	171.6	1.6669854	171.6	
ESACC	R	20361714	20361734	21	262.0	175.1	239.4	169.6	0.63457537	94.6	
ESACC	R	20361963	20362027	65	235.6	176.2	255.2	572.0	10.931533	470.4	
ESACC	R	20362444	20362461	18	252.5	594.9	268.7	591.2	0.44871977	74.2	
ESACC	R	20363157	20363168	12	269.5	595.6	249.6	609.6	0.6579033	72.3	
ESACC	R	20363336	20363403	68	252.4	614.4	896.4	480.8	17.623428	609.0	
ESACC	R	20363496	20363563	68	907.6	478.3	314.9	606.6	16.291952	663.9	
ESACC	R	20363725	20363753	29	287.6	621.1	256.3	637.8	0.9573906	136.0	
ESACC	R	20364203	20364333	131	252.3	617.4	927.1	438.5	18.666428	595.0	
ESACC	R	20364529	20364537	9	934.9	435.5	949.9	425.7	0.47955835	58.1	
ESACC	R	20364883	20364934	52	945.2	423.7	597.4	136.2	12.32011	559.6	
ESACC	R	20365154	20365164	11	597.1	104.1	603.7	83.9	0.5920676	56.1	
ESACC	R	20365480	20365516	37	588.8	84.7	841.4	78.6	6.875547	420.3	
ESACC	R	20365885	20365965	81	853.5	91.7	115.8	427.0	21.798813	627.4	
ESACC	R	20366297	20366307	11	108.0	435.9	118.5	427.8	0.35717523	50.4	
ESACC	R	20366480	20366539	60	109.6	430.9	555.1	656.4	13.482086	597.8	
END 20366949
START 20368618
ESACC	R	20368763	20368810	48	510.7	390.6	867.1	676.4	12.400009	574.4	
ESACC	R	20369105	20369173	69	879.7	669.5	310.1	208.3	19.846188	545.7	
ESACC	R	20369260	20369291	32	306.0	197.6	255.2	176.7	1.5054419	195.1	
ESACC	R	20369656	20369718	63	246.6	174.6	254.5	587.3	11.3711605	479.2	
ESACC	R	20370141	20370208	68	247.0	607.1	889.1	455.2	17.707708	603.4	
ESACC	R	20370439	20370463	25	906.3	447.9	925.1	421.7	0.8759728	115.3	
ESACC	R	20370562	20370615	54	920.6	419.6	618.7	98.0	12.088011	519.1	
ESACC	R	20370727	20370750	24	613.9	91.9	578.4	78.2	1.0497805	157.9	
ESACC	R	20370992	20371038	47	581.4	84.5	872.7	80.5	7.916534	439.8	
ESACC	R	20371333	20371407	75	890.6	80.4	188.0	367.4	20.456005	571.3	
ESACC	R	20371520	20371553	34	164.7	367.9	106.9	417.4	2.0638473	251.8	
ESACC	R	20372039	20372101	63	88.5	426.6	564.1	678.4	14.49007	626.4	
END 20372341
START 20373930
ESACC	R	20374099	20374158	60	513.2	396.1	867.9	627.2	11.504245	530.8	
ESACC	R	20374355	20374425	71	869.9	641.4	275.1	253.5	19.198898	527.5	
ESACC	R	20374536	20374558	23	280.6	241.9	261.7	181.3	1.7677003	149.6	
ESACC	R	20374974	20375035	62	267.8	188.9	270.2	579.3	10.769853	520.6	
ESACC	R	20375422	20375488	67	276.5	588.6	867.2	453.9	16.32305	617.9	
ESACC	R	20375617	20375650	34	886.5	444.9	937.2	426.2	1.4443824	215.7	
ESACC	R	20376135	20376186	52	939.5	422.8	598.5	95.2	12.925279	523.2	
ESACC	R	20376351	20376358	8	603.7	84.8	602.2	68.5	0.45591557	60.4	
ESACC	R	20376797	20376832	36	586.0	73.7	858.2	68.7	7.3980327	431.6	
ESACC	R	20377159	20377244	86	863.9	75.5	177.0	442.9	21.028572	620.4	
ESACC	R	20377332	20377361	30	170.1	445.4	126.5	431.0	1.2342054	178.4	
ESACC	R	20377806	20377865	60	111.3	428.0	563.7	658.7	13.708331	571.4	
END 20378306
START 20379739
ESACC	R	20379850	20379907	58	518.7	380.8	869.0	679.0	12.490687	489.7	
ESACC	R	20380107	20380186	80	879.7	672.5	310.6	208.9	19.877512	588.9	
ESACC	R	20380287	20380314	28	294.4	196.3	270.9	173.3	0.90829116	123.9	
ESACC	R	20380783	20380849	67	263.9	169.9	260.4	601.2	11.881922	452.3	
ESACC	R	20381260	20381327	68	251.0	624.9	877.7	437.0	17.590029	581.4	
ESACC	R	20381556	20381584	29	903.3	426.0	946.8	430.0	1.1605784	179.5	
ESACC	R	20381954	20382015	62	949.3	426.9	608.2	110.5	12.702916	583.5	
ESACC	R	20382136	20382183	48	591.1	100.1	968.0	423.2	13.522904	642.7	
ESACC	R	20382406	20382453	48	972.1	425.2	626.8	110.2	12.732291	479.0	
ESACC	R	20382576	20382598	23	605.9	85.4	579.6	67.6	0.8779336	114.0	
ESACC	R	20382843	20382879	37	574.5	73.3	883.4	76.4	8.383072	442.1	
ESACC	R	20383155	20383234	80	878.8	87.6	122.0	347.2	21.461855	602.9	
ESACC	R	20383334	20383357	24	120.4	356.4	95.1	425.0	2.0041778	198.8	
ESACC	R	20383758	20383819	62	96.2	418.1	566.8	634.6	13.984053	598.1	
ESACC	R	20384054	20384073	20	570.5	655.1	551.5	696.8	1.2407571	123.1	
END 20384115
START 20385450
ESACC	R	20385616	20385674	59	504.6	386.1	844.5	637.4	11.515746	561.8	
ESACC	R	20385964	20386022	59	860.7	647.4	545.3	98.7	17.26935	523.1	
ESACC	R	20386223	20386274	52	541.0	83.9	270.1	168.1	7.8041153	504.3	
ESACC	R	20386461	20386526	66	256.1	169.5	268.1	623.0	12.463035	531.7	
ESACC	R	20386924	20386989	66	259.2	632.0	887.7	500.3	17.204681	589.7	
ESACC	R	20387075	20387096	22	907.7	494.6	928.0	442.7	1.518892	140.9	
ESACC	R	20387293	20387351	59	932.5	445.7	662.5	123.4	11.515006	353.1	
ESACC	R	20387448	20387479	32	661.3	116.6	587.5	88.1	2.180356	263.4	
ESACC	R	20387840	20387876	37	581.8	92.6	879.9	86.8	8.091149	413.6	
ESACC	R	20388233	20388332	100	880.2	82.3	101.8	435.2	22.90422	575.1	
ESACC	R	20389190	20389247	58	107.8	418.7	545.6	645.4	13.313287	582.6	
ESACC	R	20389464	20389486	23	560.0	652.6	554.2	699.8	1.2870886	131.9	
END 20389637
