START 19371908
END 19382952
START 19405486
END 19413906
START 19418982
END 19426916
START 19431775
END 19438358
START 19443222
END 19449613
START 19454920
END 19460571
START 19464897
END 19470301
START 19474720
END 19480316
START 19484353
END 19489799
START 19493506
END 19499624
START 19502914
END 19508079
START 19515236
END 19520182
START 19523388
END 19529304
START 19532971
END 19537859
START 19540765
END 19545355
START 19548589
END 19553236
START 19555853
END 19560452
START 19563172
END 19568082
START 19571486
END 19576443
START 19580702
END 19585900
START 19588696
END 19593611
START 19598033
END 19603213
START 19606288
END 19612124
START 19615104
END 19619910
START 19622081
END 19627166
START 19629865
END 19634040
START 19636953
END 19640859
START 19645385
END 19651477
START 19655690
END 19661504
START 19664140
END 19670088
START 19671706
END 19676097
START 19679730
END 19684216
START 19686601
END 19691375
START 19693789
END 19698218
START 19717062
END 19722571
START 19730359
END 19734962
START 19737223
END 19741563
START 19744649
END 19751043
START 19753769
END 19758739
START 19762433
END 19767445
START 19769513
END 19773823
START 19777410
END 19781540
START 19784674
END 19789519
START 19791314
END 19796161
START 19800099
END 19804991
START 19814372
END 19820186
START 19821815
END 19825977
START 19827933
END 19832507
START 19833890
END 19837704
START 19840586
EBLINK	R	19845261	19845402	142
EBLINK	R	19850159	19850336	178
END 19851671
START 19854718
END 19860324
START 19864469
END 19868871
START 19871135
END 19875381
START 19877159
END 19882154
START 19884071
END 19889678
START 19891808
END 19896176
START 19898217
END 19903356
START 19904968
EBLINK	R	19920007	19920089	83
EBLINK	R	19920457	19920598	142
END 19921932
START 19926473
END 19931094
START 19933226
END 19936873
START 19939275
END 19943814
START 19946851
EBLINK	R	19953452	19953526	75
END 19956330
START 19959036
END 19963455
START 19965222
END 19969723
START 19972453
END 19977079
START 19978932
END 19983277
START 19985105
END 19989787
START 19991549
END 19995850
START 19998645
END 20002599
START 20004446
END 20010194
START 20012214
END 20017877
START 20021471
END 20025997
START 20027863
END 20033825
START 20035465
END 20039744
START 20041569
END 20046593
START 20048586
END 20054598
START 20056714
END 20062051
START 20063602
END 20068155
START 20070233
END 20074291
START 20076394
END 20080480
START 20082507
END 20086198
START 20089555
END 20094065
START 20096027
END 20100066
START 20102211
END 20106208
START 20108980
END 20112720
START 20115165
END 20119312
START 20121245
END 20125300
START 20127200
END 20131059
START 20132914
END 20141874
START 20143878
END 20147731
START 20149622
END 20155934
START 20159415
END 20165154
START 20166951
END 20171780
START 20174022
END 20181333
START 20184696
END 20190611
START 20192593
END 20196494
START 20199521
END 20206207
START 20207753
END 20212517
START 20214488
END 20219848
START 20222163
END 20227047
START 20229419
END 20233948
