Message Truncated! !V TRIAL_VAR loclist [((889, 669), (261, 181), (261, 638), (922, 433), (572, 88), (884, 76), (103, 437), (570, 692)), ((889, 669), (261, 181), (261, 638), (922, 433), (572, 88), (884, 76), (103, 437), (570, 692)), ((889, 669), (261, 181), (884, 76), (922, 433), (572, 88), (261, 638), (103, 437), (570, 692)), ((889, 669), (261, 181), (884, 76), (922, 433), (572, 88), (261, 638), (103, 437), (570, 692))]
Message Truncated! !V TRIAL_VAR loclist [((889, 669), (261, 181), (261, 638), (922, 433), (572, 88), (884, 76), (103, 437), (570, 692)), ((889, 669), (261, 181), (261, 638), (922, 433), (572, 88), (884, 76), (103, 437), (570, 692)), ((889, 669), (261, 181), (884, 76), (922, 433), (572, 88), (261, 638), (103, 437), (570, 692)), ((889, 669), (261, 181), (884, 76), (922, 433), (572, 88), (261, 638), (103, 437), (570, 692))]
Message Truncated! !V TRIAL_VAR loclist [((889, 669), (261, 181), (261, 638), (922, 433), (572, 88), (884, 76), (103, 437), (570, 692)), ((889, 669), (261, 181), (261, 638), (922, 433), (572, 88), (884, 76), (103, 437), (570, 692)), ((889, 669), (261, 181), (884, 76), (922, 433), (572, 88), (261, 638), (103, 437), (570, 692)), ((889, 669), (261, 181), (884, 76), (922, 433), (572, 88), (261, 638), (103, 437), (570, 692))]
Message Truncated! !V TRIAL_VAR loclist [((889, 669), (261, 181), (261, 638), (922, 433), (572, 88), (884, 76), (103, 437), (570, 692)), ((889, 669), (261, 181), (261, 638), (922, 433), (572, 88), (884, 76), (103, 437), (570, 692)), ((889, 669), (261, 181), (884, 76), (922, 433), (572, 88), (261, 638), (103, 437), (570, 692)), ((889, 669), (261, 181), (884, 76), (922, 433), (572, 88), (261, 638), (103, 437), (570, 692))]
Message Truncated! !V TRIAL_VAR loclist [((889, 669), (261, 181), (261, 638), (922, 433), (572, 88), (884, 76), (103, 437), (570, 692)), ((889, 669), (261, 181), (261, 638), (922, 433), (572, 88), (884, 76), (103, 437), (570, 692)), ((889, 669), (261, 181), (884, 76), (922, 433), (572, 88), (261, 638), (103, 437), (570, 692)), ((889, 669), (261, 181), (884, 76), (922, 433), (572, 88), (261, 638), (103, 437), (570, 692))]
Message Truncated! !V TRIAL_VAR loclist [((889, 669), (261, 181), (261, 638), (922, 433), (572, 88), (884, 76), (103, 437), (570, 692)), ((889, 669), (261, 181), (261, 638), (922, 433), (572, 88), (884, 76), (103, 437), (570, 692)), ((889, 669), (261, 181), (884, 76), (922, 433), (572, 88), (261, 638), (103, 437), (570, 692)), ((889, 669), (261, 181), (884, 76), (922, 433), (572, 88), (261, 638), (103, 437), (570, 692))]
Message Truncated! !V TRIAL_VAR loclist [((889, 669), (261, 181), (261, 638), (922, 433), (572, 88), (884, 76), (103, 437), (570, 692)), ((889, 669), (261, 181), (261, 638), (922, 433), (572, 88), (884, 76), (103, 437), (570, 692)), ((889, 669), (261, 181), (884, 76), (922, 433), (572, 88), (261, 638), (103, 437), (570, 692)), ((889, 669), (261, 181), (884, 76), (922, 433), (572, 88), (261, 638), (103, 437), (570, 692))]
Message Truncated! !V TRIAL_VAR loclist [((889, 669), (261, 181), (261, 638), (922, 433), (572, 88), (884, 76), (103, 437), (570, 692)), ((889, 669), (261, 181), (261, 638), (922, 433), (572, 88), (884, 76), (103, 437), (570, 692)), ((889, 669), (261, 181), (884, 76), (922, 433), (572, 88), (261, 638), (103, 437), (570, 692)), ((889, 669), (261, 181), (884, 76), (922, 433), (572, 88), (261, 638), (103, 437), (570, 692))]
Message Truncated! !V TRIAL_VAR loclist [((889, 669), (261, 181), (261, 638), (922, 433), (572, 88), (884, 76), (103, 437), (570, 692)), ((889, 669), (261, 181), (261, 638), (922, 433), (572, 88), (884, 76), (103, 437), (570, 692)), ((889, 669), (261, 181), (884, 76), (922, 433), (572, 88), (261, 638), (103, 437), (570, 692)), ((889, 669), (261, 181), (884, 76), (922, 433), (572, 88), (261, 638), (103, 437), (570, 692))]
Message Truncated! !V TRIAL_VAR loclist [((889, 669), (261, 181), (261, 638), (922, 433), (572, 88), (884, 76), (103, 437), (570, 692)), ((889, 669), (261, 181), (261, 638), (922, 433), (572, 88), (884, 76), (103, 437), (570, 692)), ((889, 669), (261, 181), (884, 76), (922, 433), (572, 88), (261, 638), (103, 437), (570, 692)), ((889, 669), (261, 181), (884, 76), (922, 433), (572, 88), (261, 638), (103, 437), (570, 692))]
Message Truncated! !V TRIAL_VAR loclist [((889, 669), (261, 181), (261, 638), (922, 433), (572, 88), (884, 76), (103, 437), (570, 692)), ((889, 669), (261, 181), (261, 638), (922, 433), (572, 88), (884, 76), (103, 437), (570, 692)), ((889, 669), (261, 181), (884, 76), (922, 433), (572, 88), (261, 638), (103, 437), (570, 692)), ((889, 669), (261, 181), (884, 76), (922, 433), (572, 88), (261, 638), (103, 437), (570, 692))]
Message Truncated! !V TRIAL_VAR loclist [((889, 669), (261, 181), (261, 638), (922, 433), (572, 88), (884, 76), (103, 437), (570, 692)), ((889, 669), (261, 181), (261, 638), (922, 433), (572, 88), (884, 76), (103, 437), (570, 692)), ((889, 669), (261, 181), (884, 76), (922, 433), (572, 88), (261, 638), (103, 437), (570, 692)), ((889, 669), (261, 181), (884, 76), (922, 433), (572, 88), (261, 638), (103, 437), (570, 692))]
Message Truncated! !V TRIAL_VAR loclist [((889, 669), (261, 181), (261, 638), (922, 433), (572, 88), (884, 76), (103, 437), (570, 692)), ((889, 669), (261, 181), (261, 638), (922, 433), (572, 88), (884, 76), (103, 437), (570, 692)), ((889, 669), (261, 181), (884, 76), (922, 433), (572, 88), (261, 638), (103, 437), (570, 692)), ((889, 669), (261, 181), (884, 76), (922, 433), (572, 88), (261, 638), (103, 437), (570, 692))]
Message Truncated! !V TRIAL_VAR loclist [((889, 669), (261, 181), (261, 638), (922, 433), (572, 88), (884, 76), (103, 437), (570, 692)), ((889, 669), (261, 181), (261, 638), (922, 433), (572, 88), (884, 76), (103, 437), (570, 692)), ((889, 669), (261, 181), (884, 76), (922, 433), (572, 88), (261, 638), (103, 437), (570, 692)), ((889, 669), (261, 181), (884, 76), (922, 433), (572, 88), (261, 638), (103, 437), (570, 692))]
Message Truncated! !V TRIAL_VAR loclist [((889, 669), (261, 181), (261, 638), (922, 433), (572, 88), (884, 76), (103, 437), (570, 692)), ((889, 669), (261, 181), (261, 638), (922, 433), (572, 88), (884, 76), (103, 437), (570, 692)), ((889, 669), (261, 181), (884, 76), (922, 433), (572, 88), (261, 638), (103, 437), (570, 692)), ((889, 669), (261, 181), (884, 76), (922, 433), (572, 88), (261, 638), (103, 437), (570, 692))]
Message Truncated! !V TRIAL_VAR loclist [((889, 669), (261, 181), (261, 638), (922, 433), (572, 88), (884, 76), (103, 437), (570, 692)), ((889, 669), (261, 181), (261, 638), (922, 433), (572, 88), (884, 76), (103, 437), (570, 692)), ((889, 669), (261, 181), (884, 76), (922, 433), (572, 88), (261, 638), (103, 437), (570, 692)), ((889, 669), (261, 181), (884, 76), (922, 433), (572, 88), (261, 638), (103, 437), (570, 692))]
Message Truncated! !V TRIAL_VAR loclist [((889, 669), (261, 181), (261, 638), (922, 433), (572, 88), (884, 76), (103, 437), (570, 692)), ((889, 669), (261, 181), (261, 638), (922, 433), (572, 88), (884, 76), (103, 437), (570, 692)), ((889, 669), (261, 181), (884, 76), (922, 433), (572, 88), (261, 638), (103, 437), (570, 692)), ((889, 669), (261, 181), (884, 76), (922, 433), (572, 88), (261, 638), (103, 437), (570, 692))]
Message Truncated! !V TRIAL_VAR loclist [((889, 669), (261, 181), (261, 638), (922, 433), (572, 88), (884, 76), (103, 437), (570, 692)), ((889, 669), (261, 181), (261, 638), (922, 433), (572, 88), (884, 76), (103, 437), (570, 692)), ((889, 669), (261, 181), (884, 76), (922, 433), (572, 88), (261, 638), (103, 437), (570, 692)), ((889, 669), (261, 181), (884, 76), (922, 433), (572, 88), (261, 638), (103, 437), (570, 692))]
Message Truncated! !V TRIAL_VAR loclist [((889, 669), (261, 181), (261, 638), (922, 433), (572, 88), (884, 76), (103, 437), (570, 692)), ((889, 669), (261, 181), (261, 638), (922, 433), (572, 88), (884, 76), (103, 437), (570, 692)), ((889, 669), (261, 181), (884, 76), (922, 433), (572, 88), (261, 638), (103, 437), (570, 692)), ((889, 669), (261, 181), (884, 76), (922, 433), (572, 88), (261, 638), (103, 437), (570, 692))]
Message Truncated! !V TRIAL_VAR loclist [((889, 669), (261, 181), (261, 638), (922, 433), (572, 88), (884, 76), (103, 437), (570, 692)), ((889, 669), (261, 181), (261, 638), (922, 433), (572, 88), (884, 76), (103, 437), (570, 692)), ((889, 669), (261, 181), (884, 76), (922, 433), (572, 88), (261, 638), (103, 437), (570, 692)), ((889, 669), (261, 181), (884, 76), (922, 433), (572, 88), (261, 638), (103, 437), (570, 692))]
Message Truncated! !V TRIAL_VAR loclist [((889, 669), (261, 181), (261, 638), (922, 433), (572, 88), (884, 76), (103, 437), (570, 692)), ((889, 669), (261, 181), (261, 638), (922, 433), (572, 88), (884, 76), (103, 437), (570, 692)), ((889, 669), (261, 181), (884, 76), (922, 433), (572, 88), (261, 638), (103, 437), (570, 692)), ((889, 669), (261, 181), (884, 76), (922, 433), (572, 88), (261, 638), (103, 437), (570, 692))]
Message Truncated! !V TRIAL_VAR loclist [((889, 669), (261, 181), (261, 638), (922, 433), (572, 88), (884, 76), (103, 437), (570, 692)), ((889, 669), (261, 181), (261, 638), (922, 433), (572, 88), (884, 76), (103, 437), (570, 692)), ((889, 669), (261, 181), (884, 76), (922, 433), (572, 88), (261, 638), (103, 437), (570, 692)), ((889, 669), (261, 181), (884, 76), (922, 433), (572, 88), (261, 638), (103, 437), (570, 692))]
Message Truncated! !V TRIAL_VAR loclist [((889, 669), (261, 181), (261, 638), (922, 433), (572, 88), (884, 76), (103, 437), (570, 692)), ((889, 669), (261, 181), (261, 638), (922, 433), (572, 88), (884, 76), (103, 437), (570, 692)), ((889, 669), (261, 181), (884, 76), (922, 433), (572, 88), (261, 638), (103, 437), (570, 692)), ((889, 669), (261, 181), (884, 76), (922, 433), (572, 88), (261, 638), (103, 437), (570, 692))]
Message Truncated! !V TRIAL_VAR loclist [((889, 669), (261, 181), (261, 638), (922, 433), (572, 88), (884, 76), (103, 437), (570, 692)), ((889, 669), (261, 181), (261, 638), (922, 433), (572, 88), (884, 76), (103, 437), (570, 692)), ((889, 669), (261, 181), (884, 76), (922, 433), (572, 88), (261, 638), (103, 437), (570, 692)), ((889, 669), (261, 181), (884, 76), (922, 433), (572, 88), (261, 638), (103, 437), (570, 692))]
Message Truncated! !V TRIAL_VAR loclist [((889, 669), (261, 181), (261, 638), (922, 433), (572, 88), (884, 76), (103, 437), (570, 692)), ((889, 669), (261, 181), (261, 638), (922, 433), (572, 88), (884, 76), (103, 437), (570, 692)), ((889, 669), (261, 181), (884, 76), (922, 433), (572, 88), (261, 638), (103, 437), (570, 692)), ((889, 669), (261, 181), (884, 76), (922, 433), (572, 88), (261, 638), (103, 437), (570, 692))]
Message Truncated! !V TRIAL_VAR loclist [((889, 669), (261, 181), (261, 638), (922, 433), (572, 88), (884, 76), (103, 437), (570, 692)), ((889, 669), (261, 181), (261, 638), (922, 433), (572, 88), (884, 76), (103, 437), (570, 692)), ((889, 669), (261, 181), (884, 76), (922, 433), (572, 88), (261, 638), (103, 437), (570, 692)), ((889, 669), (261, 181), (884, 76), (922, 433), (572, 88), (261, 638), (103, 437), (570, 692))]
Message Truncated! !V TRIAL_VAR loclist [((889, 669), (261, 181), (261, 638), (922, 433), (572, 88), (884, 76), (103, 437), (570, 692)), ((889, 669), (261, 181), (261, 638), (922, 433), (572, 88), (884, 76), (103, 437), (570, 692)), ((889, 669), (261, 181), (884, 76), (922, 433), (572, 88), (261, 638), (103, 437), (570, 692)), ((889, 669), (261, 181), (884, 76), (922, 433), (572, 88), (261, 638), (103, 437), (570, 692))]
Message Truncated! !V TRIAL_VAR loclist [((889, 669), (261, 181), (261, 638), (922, 433), (572, 88), (884, 76), (103, 437), (570, 692)), ((889, 669), (261, 181), (261, 638), (922, 433), (572, 88), (884, 76), (103, 437), (570, 692)), ((889, 669), (261, 181), (884, 76), (922, 433), (572, 88), (261, 638), (103, 437), (570, 692)), ((889, 669), (261, 181), (884, 76), (922, 433), (572, 88), (261, 638), (103, 437), (570, 692))]
Message Truncated! !V TRIAL_VAR loclist [((889, 669), (261, 181), (261, 638), (922, 433), (572, 88), (884, 76), (103, 437), (570, 692)), ((889, 669), (261, 181), (261, 638), (922, 433), (572, 88), (884, 76), (103, 437), (570, 692)), ((889, 669), (261, 181), (884, 76), (922, 433), (572, 88), (261, 638), (103, 437), (570, 692)), ((889, 669), (261, 181), (884, 76), (922, 433), (572, 88), (261, 638), (103, 437), (570, 692))]
Message Truncated! !V TRIAL_VAR loclist [((889, 669), (261, 181), (261, 638), (922, 433), (572, 88), (884, 76), (103, 437), (570, 692)), ((889, 669), (261, 181), (261, 638), (922, 433), (572, 88), (884, 76), (103, 437), (570, 692)), ((889, 669), (261, 181), (884, 76), (922, 433), (572, 88), (261, 638), (103, 437), (570, 692)), ((889, 669), (261, 181), (884, 76), (922, 433), (572, 88), (261, 638), (103, 437), (570, 692))]
Message Truncated! !V TRIAL_VAR loclist [((889, 669), (261, 181), (261, 638), (922, 433), (572, 88), (884, 76), (103, 437), (570, 692)), ((889, 669), (261, 181), (261, 638), (922, 433), (572, 88), (884, 76), (103, 437), (570, 692)), ((889, 669), (261, 181), (884, 76), (922, 433), (572, 88), (261, 638), (103, 437), (570, 692)), ((889, 669), (261, 181), (884, 76), (922, 433), (572, 88), (261, 638), (103, 437), (570, 692))]
Message Truncated! !V TRIAL_VAR loclist [((889, 669), (261, 181), (261, 638), (922, 433), (572, 88), (884, 76), (103, 437), (570, 692)), ((889, 669), (261, 181), (261, 638), (922, 433), (572, 88), (884, 76), (103, 437), (570, 692)), ((889, 669), (261, 181), (884, 76), (922, 433), (572, 88), (261, 638), (103, 437), (570, 692)), ((889, 669), (261, 181), (884, 76), (922, 433), (572, 88), (261, 638), (103, 437), (570, 692))]
Message Truncated! !V TRIAL_VAR loclist [((889, 669), (261, 181), (261, 638), (922, 433), (572, 88), (884, 76), (103, 437), (570, 692)), ((889, 669), (261, 181), (261, 638), (922, 433), (572, 88), (884, 76), (103, 437), (570, 692)), ((889, 669), (261, 181), (884, 76), (922, 433), (572, 88), (261, 638), (103, 437), (570, 692)), ((889, 669), (261, 181), (884, 76), (922, 433), (572, 88), (261, 638), (103, 437), (570, 692))]
Message Truncated! !V TRIAL_VAR loclist [((889, 669), (261, 181), (261, 638), (922, 433), (572, 88), (884, 76), (103, 437), (570, 692)), ((889, 669), (261, 181), (261, 638), (922, 433), (572, 88), (884, 76), (103, 437), (570, 692)), ((889, 669), (261, 181), (884, 76), (922, 433), (572, 88), (261, 638), (103, 437), (570, 692)), ((889, 669), (261, 181), (884, 76), (922, 433), (572, 88), (261, 638), (103, 437), (570, 692))]
Message Truncated! !V TRIAL_VAR loclist [((889, 669), (261, 181), (261, 638), (922, 433), (572, 88), (884, 76), (103, 437), (570, 692)), ((889, 669), (261, 181), (261, 638), (922, 433), (572, 88), (884, 76), (103, 437), (570, 692)), ((889, 669), (261, 181), (884, 76), (922, 433), (572, 88), (261, 638), (103, 437), (570, 692)), ((889, 669), (261, 181), (884, 76), (922, 433), (572, 88), (261, 638), (103, 437), (570, 692))]
Message Truncated! !V TRIAL_VAR loclist [((889, 669), (261, 181), (261, 638), (922, 433), (572, 88), (884, 76), (103, 437), (570, 692)), ((889, 669), (261, 181), (261, 638), (922, 433), (572, 88), (884, 76), (103, 437), (570, 692)), ((889, 669), (261, 181), (884, 76), (922, 433), (572, 88), (261, 638), (103, 437), (570, 692)), ((889, 669), (261, 181), (884, 76), (922, 433), (572, 88), (261, 638), (103, 437), (570, 692))]
Message Truncated! !V TRIAL_VAR loclist [((889, 669), (261, 181), (261, 638), (922, 433), (572, 88), (884, 76), (103, 437), (570, 692)), ((889, 669), (261, 181), (261, 638), (922, 433), (572, 88), (884, 76), (103, 437), (570, 692)), ((889, 669), (261, 181), (884, 76), (922, 433), (572, 88), (261, 638), (103, 437), (570, 692)), ((889, 669), (261, 181), (884, 76), (922, 433), (572, 88), (261, 638), (103, 437), (570, 692))]
Message Truncated! !V TRIAL_VAR loclist [((889, 669), (261, 181), (261, 638), (922, 433), (572, 88), (884, 76), (103, 437), (570, 692)), ((889, 669), (261, 181), (261, 638), (922, 433), (572, 88), (884, 76), (103, 437), (570, 692)), ((889, 669), (261, 181), (884, 76), (922, 433), (572, 88), (261, 638), (103, 437), (570, 692)), ((889, 669), (261, 181), (884, 76), (922, 433), (572, 88), (261, 638), (103, 437), (570, 692))]
Message Truncated! !V TRIAL_VAR loclist [((889, 669), (261, 181), (261, 638), (922, 433), (572, 88), (884, 76), (103, 437), (570, 692)), ((889, 669), (261, 181), (261, 638), (922, 433), (572, 88), (884, 76), (103, 437), (570, 692)), ((889, 669), (261, 181), (884, 76), (922, 433), (572, 88), (261, 638), (103, 437), (570, 692)), ((889, 669), (261, 181), (884, 76), (922, 433), (572, 88), (261, 638), (103, 437), (570, 692))]
Message Truncated! !V TRIAL_VAR loclist [((889, 669), (261, 181), (261, 638), (922, 433), (572, 88), (884, 76), (103, 437), (570, 692)), ((889, 669), (261, 181), (261, 638), (922, 433), (572, 88), (884, 76), (103, 437), (570, 692)), ((889, 669), (261, 181), (884, 76), (922, 433), (572, 88), (261, 638), (103, 437), (570, 692)), ((889, 669), (261, 181), (884, 76), (922, 433), (572, 88), (261, 638), (103, 437), (570, 692))]
Message Truncated! !V TRIAL_VAR loclist [((889, 669), (261, 181), (261, 638), (922, 433), (572, 88), (884, 76), (103, 437), (570, 692)), ((889, 669), (261, 181), (261, 638), (922, 433), (572, 88), (884, 76), (103, 437), (570, 692)), ((889, 669), (261, 181), (884, 76), (922, 433), (572, 88), (261, 638), (103, 437), (570, 692)), ((889, 669), (261, 181), (884, 76), (922, 433), (572, 88), (261, 638), (103, 437), (570, 692))]
Message Truncated! !V TRIAL_VAR loclist [((889, 669), (261, 181), (261, 638), (922, 433), (572, 88), (884, 76), (103, 437), (570, 692)), ((889, 669), (261, 181), (261, 638), (922, 433), (572, 88), (884, 76), (103, 437), (570, 692)), ((889, 669), (261, 181), (884, 76), (922, 433), (572, 88), (261, 638), (103, 437), (570, 692)), ((889, 669), (261, 181), (884, 76), (922, 433), (572, 88), (261, 638), (103, 437), (570, 692))]
Message Truncated! !V TRIAL_VAR loclist [((889, 669), (261, 181), (261, 638), (922, 433), (572, 88), (884, 76), (103, 437), (570, 692)), ((889, 669), (261, 181), (261, 638), (922, 433), (572, 88), (884, 76), (103, 437), (570, 692)), ((889, 669), (261, 181), (884, 76), (922, 433), (572, 88), (261, 638), (103, 437), (570, 692)), ((889, 669), (261, 181), (884, 76), (922, 433), (572, 88), (261, 638), (103, 437), (570, 692))]
Message Truncated! !V TRIAL_VAR loclist [((889, 669), (261, 181), (261, 638), (922, 433), (572, 88), (884, 76), (103, 437), (570, 692)), ((889, 669), (261, 181), (261, 638), (922, 433), (572, 88), (884, 76), (103, 437), (570, 692)), ((889, 669), (261, 181), (884, 76), (922, 433), (572, 88), (261, 638), (103, 437), (570, 692)), ((889, 669), (261, 181), (884, 76), (922, 433), (572, 88), (261, 638), (103, 437), (570, 692))]
Message Truncated! !V TRIAL_VAR loclist [((889, 669), (261, 181), (261, 638), (922, 433), (572, 88), (884, 76), (103, 437), (570, 692)), ((889, 669), (261, 181), (261, 638), (922, 433), (572, 88), (884, 76), (103, 437), (570, 692)), ((889, 669), (261, 181), (884, 76), (922, 433), (572, 88), (261, 638), (103, 437), (570, 692)), ((889, 669), (261, 181), (884, 76), (922, 433), (572, 88), (261, 638), (103, 437), (570, 692))]
Message Truncated! !V TRIAL_VAR loclist [((889, 669), (261, 181), (261, 638), (922, 433), (572, 88), (884, 76), (103, 437), (570, 692)), ((889, 669), (261, 181), (261, 638), (922, 433), (572, 88), (884, 76), (103, 437), (570, 692)), ((889, 669), (261, 181), (884, 76), (922, 433), (572, 88), (261, 638), (103, 437), (570, 692)), ((889, 669), (261, 181), (884, 76), (922, 433), (572, 88), (261, 638), (103, 437), (570, 692))]
Message Truncated! !V TRIAL_VAR loclist [((889, 669), (261, 181), (261, 638), (922, 433), (572, 88), (884, 76), (103, 437), (570, 692)), ((889, 669), (261, 181), (261, 638), (922, 433), (572, 88), (884, 76), (103, 437), (570, 692)), ((889, 669), (261, 181), (884, 76), (922, 433), (572, 88), (261, 638), (103, 437), (570, 692)), ((889, 669), (261, 181), (884, 76), (922, 433), (572, 88), (261, 638), (103, 437), (570, 692))]
Message Truncated! !V TRIAL_VAR loclist [((889, 669), (261, 181), (261, 638), (922, 433), (572, 88), (884, 76), (103, 437), (570, 692)), ((889, 669), (261, 181), (261, 638), (922, 433), (572, 88), (884, 76), (103, 437), (570, 692)), ((889, 669), (261, 181), (884, 76), (922, 433), (572, 88), (261, 638), (103, 437), (570, 692)), ((889, 669), (261, 181), (884, 76), (922, 433), (572, 88), (261, 638), (103, 437), (570, 692))]
Message Truncated! !V TRIAL_VAR loclist [((889, 669), (261, 181), (261, 638), (922, 433), (572, 88), (884, 76), (103, 437), (570, 692)), ((889, 669), (261, 181), (261, 638), (922, 433), (572, 88), (884, 76), (103, 437), (570, 692)), ((889, 669), (261, 181), (884, 76), (922, 433), (572, 88), (261, 638), (103, 437), (570, 692)), ((889, 669), (261, 181), (884, 76), (922, 433), (572, 88), (261, 638), (103, 437), (570, 692))]
Message Truncated! !V TRIAL_VAR loclist [((889, 669), (261, 181), (261, 638), (922, 433), (572, 88), (884, 76), (103, 437), (570, 692)), ((889, 669), (261, 181), (261, 638), (922, 433), (572, 88), (884, 76), (103, 437), (570, 692)), ((889, 669), (261, 181), (884, 76), (922, 433), (572, 88), (261, 638), (103, 437), (570, 692)), ((889, 669), (261, 181), (884, 76), (922, 433), (572, 88), (261, 638), (103, 437), (570, 692))]
Message Truncated! !V TRIAL_VAR loclist [((889, 669), (261, 181), (261, 638), (922, 433), (572, 88), (884, 76), (103, 437), (570, 692)), ((889, 669), (261, 181), (261, 638), (922, 433), (572, 88), (884, 76), (103, 437), (570, 692)), ((889, 669), (261, 181), (884, 76), (922, 433), (572, 88), (261, 638), (103, 437), (570, 692)), ((889, 669), (261, 181), (884, 76), (922, 433), (572, 88), (261, 638), (103, 437), (570, 692))]
Message Truncated! !V TRIAL_VAR loclist [((889, 669), (261, 181), (261, 638), (922, 433), (572, 88), (884, 76), (103, 437), (570, 692)), ((889, 669), (261, 181), (261, 638), (922, 433), (572, 88), (884, 76), (103, 437), (570, 692)), ((889, 669), (261, 181), (884, 76), (922, 433), (572, 88), (261, 638), (103, 437), (570, 692)), ((889, 669), (261, 181), (884, 76), (922, 433), (572, 88), (261, 638), (103, 437), (570, 692))]
Message Truncated! !V TRIAL_VAR loclist [((889, 669), (261, 181), (261, 638), (922, 433), (572, 88), (884, 76), (103, 437), (570, 692)), ((889, 669), (261, 181), (261, 638), (922, 433), (572, 88), (884, 76), (103, 437), (570, 692)), ((889, 669), (261, 181), (884, 76), (922, 433), (572, 88), (261, 638), (103, 437), (570, 692)), ((889, 669), (261, 181), (884, 76), (922, 433), (572, 88), (261, 638), (103, 437), (570, 692))]
Message Truncated! !V TRIAL_VAR loclist [((889, 669), (261, 181), (261, 638), (922, 433), (572, 88), (884, 76), (103, 437), (570, 692)), ((889, 669), (261, 181), (261, 638), (922, 433), (572, 88), (884, 76), (103, 437), (570, 692)), ((889, 669), (261, 181), (884, 76), (922, 433), (572, 88), (261, 638), (103, 437), (570, 692)), ((889, 669), (261, 181), (884, 76), (922, 433), (572, 88), (261, 638), (103, 437), (570, 692))]
Message Truncated! !V TRIAL_VAR loclist [((889, 669), (261, 181), (261, 638), (922, 433), (572, 88), (884, 76), (103, 437), (570, 692)), ((889, 669), (261, 181), (261, 638), (922, 433), (572, 88), (884, 76), (103, 437), (570, 692)), ((889, 669), (261, 181), (884, 76), (922, 433), (572, 88), (261, 638), (103, 437), (570, 692)), ((889, 669), (261, 181), (884, 76), (922, 433), (572, 88), (261, 638), (103, 437), (570, 692))]
Message Truncated! !V TRIAL_VAR loclist [((889, 669), (261, 181), (261, 638), (922, 433), (572, 88), (884, 76), (103, 437), (570, 692)), ((889, 669), (261, 181), (261, 638), (922, 433), (572, 88), (884, 76), (103, 437), (570, 692)), ((889, 669), (261, 181), (884, 76), (922, 433), (572, 88), (261, 638), (103, 437), (570, 692)), ((889, 669), (261, 181), (884, 76), (922, 433), (572, 88), (261, 638), (103, 437), (570, 692))]
Message Truncated! !V TRIAL_VAR loclist [((889, 669), (261, 181), (261, 638), (922, 433), (572, 88), (884, 76), (103, 437), (570, 692)), ((889, 669), (261, 181), (261, 638), (922, 433), (572, 88), (884, 76), (103, 437), (570, 692)), ((889, 669), (261, 181), (884, 76), (922, 433), (572, 88), (261, 638), (103, 437), (570, 692)), ((889, 669), (261, 181), (884, 76), (922, 433), (572, 88), (261, 638), (103, 437), (570, 692))]
Message Truncated! !V TRIAL_VAR loclist [((889, 669), (261, 181), (261, 638), (922, 433), (572, 88), (884, 76), (103, 437), (570, 692)), ((889, 669), (261, 181), (261, 638), (922, 433), (572, 88), (884, 76), (103, 437), (570, 692)), ((889, 669), (261, 181), (884, 76), (922, 433), (572, 88), (261, 638), (103, 437), (570, 692)), ((889, 669), (261, 181), (884, 76), (922, 433), (572, 88), (261, 638), (103, 437), (570, 692))]
Message Truncated! !V TRIAL_VAR loclist [((889, 669), (261, 181), (261, 638), (922, 433), (572, 88), (884, 76), (103, 437), (570, 692)), ((889, 669), (261, 181), (261, 638), (922, 433), (572, 88), (884, 76), (103, 437), (570, 692)), ((889, 669), (261, 181), (884, 76), (922, 433), (572, 88), (261, 638), (103, 437), (570, 692)), ((889, 669), (261, 181), (884, 76), (922, 433), (572, 88), (261, 638), (103, 437), (570, 692))]
Message Truncated! !V TRIAL_VAR loclist [((889, 669), (261, 181), (261, 638), (922, 433), (572, 88), (884, 76), (103, 437), (570, 692)), ((889, 669), (261, 181), (261, 638), (922, 433), (572, 88), (884, 76), (103, 437), (570, 692)), ((889, 669), (261, 181), (884, 76), (922, 433), (572, 88), (261, 638), (103, 437), (570, 692)), ((889, 669), (261, 181), (884, 76), (922, 433), (572, 88), (261, 638), (103, 437), (570, 692))]
Message Truncated! !V TRIAL_VAR loclist [((889, 669), (261, 181), (261, 638), (922, 433), (572, 88), (884, 76), (103, 437), (570, 692)), ((889, 669), (261, 181), (261, 638), (922, 433), (572, 88), (884, 76), (103, 437), (570, 692)), ((889, 669), (261, 181), (884, 76), (922, 433), (572, 88), (261, 638), (103, 437), (570, 692)), ((889, 669), (261, 181), (884, 76), (922, 433), (572, 88), (261, 638), (103, 437), (570, 692))]
Message Truncated! !V TRIAL_VAR loclist [((889, 669), (261, 181), (261, 638), (922, 433), (572, 88), (884, 76), (103, 437), (570, 692)), ((889, 669), (261, 181), (884, 76), (922, 433), (572, 88), (261, 638), (103, 437), (570, 692)), ((889, 669), (261, 181), (884, 76), (922, 433), (572, 88), (261, 638), (103, 437), (570, 692)), ((889, 669), (261, 181), (261, 638), (922, 433), (572, 88), (884, 76), (103, 437), (570, 692))]
Message Truncated! !V TRIAL_VAR loclist [((889, 669), (261, 181), (261, 638), (922, 433), (572, 88), (884, 76), (103, 437), (570, 692)), ((889, 669), (261, 181), (884, 76), (922, 433), (572, 88), (261, 638), (103, 437), (570, 692)), ((889, 669), (261, 181), (884, 76), (922, 433), (572, 88), (261, 638), (103, 437), (570, 692)), ((889, 669), (261, 181), (261, 638), (922, 433), (572, 88), (884, 76), (103, 437), (570, 692))]
Message Truncated! !V TRIAL_VAR loclist [((889, 669), (261, 181), (261, 638), (922, 433), (572, 88), (884, 76), (103, 437), (570, 692)), ((889, 669), (261, 181), (884, 76), (922, 433), (572, 88), (261, 638), (103, 437), (570, 692)), ((889, 669), (261, 181), (884, 76), (922, 433), (572, 88), (261, 638), (103, 437), (570, 692)), ((889, 669), (261, 181), (261, 638), (922, 433), (572, 88), (884, 76), (103, 437), (570, 692))]
Message Truncated! !V TRIAL_VAR loclist [((889, 669), (261, 181), (261, 638), (922, 433), (572, 88), (884, 76), (103, 437), (570, 692)), ((889, 669), (261, 181), (884, 76), (922, 433), (572, 88), (261, 638), (103, 437), (570, 692)), ((889, 669), (261, 181), (884, 76), (922, 433), (572, 88), (261, 638), (103, 437), (570, 692)), ((889, 669), (261, 181), (261, 638), (922, 433), (572, 88), (884, 76), (103, 437), (570, 692))]
Message Truncated! !V TRIAL_VAR loclist [((889, 669), (261, 181), (261, 638), (922, 433), (572, 88), (884, 76), (103, 437), (570, 692)), ((889, 669), (261, 181), (884, 76), (922, 433), (572, 88), (261, 638), (103, 437), (570, 692)), ((889, 669), (261, 181), (884, 76), (922, 433), (572, 88), (261, 638), (103, 437), (570, 692)), ((889, 669), (261, 181), (261, 638), (922, 433), (572, 88), (884, 76), (103, 437), (570, 692))]
Message Truncated! !V TRIAL_VAR loclist [((889, 669), (261, 181), (261, 638), (922, 433), (572, 88), (884, 76), (103, 437), (570, 692)), ((889, 669), (261, 181), (884, 76), (922, 433), (572, 88), (261, 638), (103, 437), (570, 692)), ((889, 669), (261, 181), (884, 76), (922, 433), (572, 88), (261, 638), (103, 437), (570, 692)), ((889, 669), (261, 181), (261, 638), (922, 433), (572, 88), (884, 76), (103, 437), (570, 692))]
Message Truncated! !V TRIAL_VAR loclist [((889, 669), (261, 181), (261, 638), (922, 433), (572, 88), (884, 76), (103, 437), (570, 692)), ((889, 669), (261, 181), (884, 76), (922, 433), (572, 88), (261, 638), (103, 437), (570, 692)), ((889, 669), (261, 181), (884, 76), (922, 433), (572, 88), (261, 638), (103, 437), (570, 692)), ((889, 669), (261, 181), (261, 638), (922, 433), (572, 88), (884, 76), (103, 437), (570, 692))]
Message Truncated! !V TRIAL_VAR loclist [((889, 669), (261, 181), (261, 638), (922, 433), (572, 88), (884, 76), (103, 437), (570, 692)), ((889, 669), (261, 181), (884, 76), (922, 433), (572, 88), (261, 638), (103, 437), (570, 692)), ((889, 669), (261, 181), (884, 76), (922, 433), (572, 88), (261, 638), (103, 437), (570, 692)), ((889, 669), (261, 181), (261, 638), (922, 433), (572, 88), (884, 76), (103, 437), (570, 692))]
Message Truncated! !V TRIAL_VAR loclist [((889, 669), (261, 181), (261, 638), (922, 433), (572, 88), (884, 76), (103, 437), (570, 692)), ((889, 669), (261, 181), (884, 76), (922, 433), (572, 88), (261, 638), (103, 437), (570, 692)), ((889, 669), (261, 181), (884, 76), (922, 433), (572, 88), (261, 638), (103, 437), (570, 692)), ((889, 669), (261, 181), (261, 638), (922, 433), (572, 88), (884, 76), (103, 437), (570, 692))]
Message Truncated! !V TRIAL_VAR loclist [((889, 669), (261, 181), (261, 638), (922, 433), (572, 88), (884, 76), (103, 437), (570, 692)), ((889, 669), (261, 181), (884, 76), (922, 433), (572, 88), (261, 638), (103, 437), (570, 692)), ((889, 669), (261, 181), (884, 76), (922, 433), (572, 88), (261, 638), (103, 437), (570, 692)), ((889, 669), (261, 181), (261, 638), (922, 433), (572, 88), (884, 76), (103, 437), (570, 692))]
Message Truncated! !V TRIAL_VAR loclist [((889, 669), (261, 181), (261, 638), (922, 433), (572, 88), (884, 76), (103, 437), (570, 692)), ((889, 669), (261, 181), (884, 76), (922, 433), (572, 88), (261, 638), (103, 437), (570, 692)), ((889, 669), (261, 181), (884, 76), (922, 433), (572, 88), (261, 638), (103, 437), (570, 692)), ((889, 669), (261, 181), (261, 638), (922, 433), (572, 88), (884, 76), (103, 437), (570, 692))]
Message Truncated! !V TRIAL_VAR loclist [((889, 669), (261, 181), (261, 638), (922, 433), (572, 88), (884, 76), (103, 437), (570, 692)), ((889, 669), (261, 181), (884, 76), (922, 433), (572, 88), (261, 638), (103, 437), (570, 692)), ((889, 669), (261, 181), (884, 76), (922, 433), (572, 88), (261, 638), (103, 437), (570, 692)), ((889, 669), (261, 181), (261, 638), (922, 433), (572, 88), (884, 76), (103, 437), (570, 692))]
Message Truncated! !V TRIAL_VAR loclist [((889, 669), (261, 181), (261, 638), (922, 433), (572, 88), (884, 76), (103, 437), (570, 692)), ((889, 669), (261, 181), (884, 76), (922, 433), (572, 88), (261, 638), (103, 437), (570, 692)), ((889, 669), (261, 181), (884, 76), (922, 433), (572, 88), (261, 638), (103, 437), (570, 692)), ((889, 669), (261, 181), (261, 638), (922, 433), (572, 88), (884, 76), (103, 437), (570, 692))]
Message Truncated! !V TRIAL_VAR loclist [((889, 669), (261, 181), (261, 638), (922, 433), (572, 88), (884, 76), (103, 437), (570, 692)), ((889, 669), (261, 181), (884, 76), (922, 433), (572, 88), (261, 638), (103, 437), (570, 692)), ((889, 669), (261, 181), (884, 76), (922, 433), (572, 88), (261, 638), (103, 437), (570, 692)), ((889, 669), (261, 181), (261, 638), (922, 433), (572, 88), (884, 76), (103, 437), (570, 692))]
Message Truncated! !V TRIAL_VAR loclist [((889, 669), (261, 181), (261, 638), (922, 433), (572, 88), (884, 76), (103, 437), (570, 692)), ((889, 669), (261, 181), (884, 76), (922, 433), (572, 88), (261, 638), (103, 437), (570, 692)), ((889, 669), (261, 181), (884, 76), (922, 433), (572, 88), (261, 638), (103, 437), (570, 692)), ((889, 669), (261, 181), (261, 638), (922, 433), (572, 88), (884, 76), (103, 437), (570, 692))]
Message Truncated! !V TRIAL_VAR loclist [((889, 669), (261, 181), (261, 638), (922, 433), (572, 88), (884, 76), (103, 437), (570, 692)), ((889, 669), (261, 181), (884, 76), (922, 433), (572, 88), (261, 638), (103, 437), (570, 692)), ((889, 669), (261, 181), (884, 76), (922, 433), (572, 88), (261, 638), (103, 437), (570, 692)), ((889, 669), (261, 181), (261, 638), (922, 433), (572, 88), (884, 76), (103, 437), (570, 692))]
Message Truncated! !V TRIAL_VAR loclist [((889, 669), (261, 181), (261, 638), (922, 433), (572, 88), (884, 76), (103, 437), (570, 692)), ((889, 669), (261, 181), (884, 76), (922, 433), (572, 88), (261, 638), (103, 437), (570, 692)), ((889, 669), (261, 181), (884, 76), (922, 433), (572, 88), (261, 638), (103, 437), (570, 692)), ((889, 669), (261, 181), (261, 638), (922, 433), (572, 88), (884, 76), (103, 437), (570, 692))]
Message Truncated! !V TRIAL_VAR loclist [((889, 669), (261, 181), (261, 638), (922, 433), (572, 88), (884, 76), (103, 437), (570, 692)), ((889, 669), (261, 181), (884, 76), (922, 433), (572, 88), (261, 638), (103, 437), (570, 692)), ((889, 669), (261, 181), (884, 76), (922, 433), (572, 88), (261, 638), (103, 437), (570, 692)), ((889, 669), (261, 181), (261, 638), (922, 433), (572, 88), (884, 76), (103, 437), (570, 692))]
Message Truncated! !V TRIAL_VAR loclist [((889, 669), (261, 181), (261, 638), (922, 433), (572, 88), (884, 76), (103, 437), (570, 692)), ((889, 669), (261, 181), (884, 76), (922, 433), (572, 88), (261, 638), (103, 437), (570, 692)), ((889, 669), (261, 181), (884, 76), (922, 433), (572, 88), (261, 638), (103, 437), (570, 692)), ((889, 669), (261, 181), (261, 638), (922, 433), (572, 88), (884, 76), (103, 437), (570, 692))]
Message Truncated! !V TRIAL_VAR loclist [((889, 669), (261, 181), (261, 638), (922, 433), (572, 88), (884, 76), (103, 437), (570, 692)), ((889, 669), (261, 181), (884, 76), (922, 433), (572, 88), (261, 638), (103, 437), (570, 692)), ((889, 669), (261, 181), (884, 76), (922, 433), (572, 88), (261, 638), (103, 437), (570, 692)), ((889, 669), (261, 181), (261, 638), (922, 433), (572, 88), (884, 76), (103, 437), (570, 692))]
Message Truncated! !V TRIAL_VAR loclist [((889, 669), (261, 181), (261, 638), (922, 433), (572, 88), (884, 76), (103, 437), (570, 692)), ((889, 669), (261, 181), (261, 638), (922, 433), (572, 88), (884, 76), (103, 437), (570, 692)), ((889, 669), (261, 181), (884, 76), (922, 433), (572, 88), (261, 638), (103, 437), (570, 692)), ((889, 669), (261, 181), (884, 76), (922, 433), (572, 88), (261, 638), (103, 437), (570, 692))]
Message Truncated! !V TRIAL_VAR loclist [((889, 669), (261, 181), (261, 638), (922, 433), (572, 88), (884, 76), (103, 437), (570, 692)), ((889, 669), (261, 181), (261, 638), (922, 433), (572, 88), (884, 76), (103, 437), (570, 692)), ((889, 669), (261, 181), (884, 76), (922, 433), (572, 88), (261, 638), (103, 437), (570, 692)), ((889, 669), (261, 181), (884, 76), (922, 433), (572, 88), (261, 638), (103, 437), (570, 692))]
Message Truncated! !V TRIAL_VAR loclist [((889, 669), (261, 181), (261, 638), (922, 433), (572, 88), (884, 76), (103, 437), (570, 692)), ((889, 669), (261, 181), (261, 638), (922, 433), (572, 88), (884, 76), (103, 437), (570, 692)), ((889, 669), (261, 181), (884, 76), (922, 433), (572, 88), (261, 638), (103, 437), (570, 692)), ((889, 669), (261, 181), (884, 76), (922, 433), (572, 88), (261, 638), (103, 437), (570, 692))]
Message Truncated! !V TRIAL_VAR loclist [((889, 669), (261, 181), (261, 638), (922, 433), (572, 88), (884, 76), (103, 437), (570, 692)), ((889, 669), (261, 181), (261, 638), (922, 433), (572, 88), (884, 76), (103, 437), (570, 692)), ((889, 669), (261, 181), (884, 76), (922, 433), (572, 88), (261, 638), (103, 437), (570, 692)), ((889, 669), (261, 181), (884, 76), (922, 433), (572, 88), (261, 638), (103, 437), (570, 692))]
Message Truncated! !V TRIAL_VAR loclist [((889, 669), (261, 181), (261, 638), (922, 433), (572, 88), (884, 76), (103, 437), (570, 692)), ((889, 669), (261, 181), (261, 638), (922, 433), (572, 88), (884, 76), (103, 437), (570, 692)), ((889, 669), (261, 181), (884, 76), (922, 433), (572, 88), (261, 638), (103, 437), (570, 692)), ((889, 669), (261, 181), (884, 76), (922, 433), (572, 88), (261, 638), (103, 437), (570, 692))]
Message Truncated! !V TRIAL_VAR loclist [((889, 669), (261, 181), (261, 638), (922, 433), (572, 88), (884, 76), (103, 437), (570, 692)), ((889, 669), (261, 181), (261, 638), (922, 433), (572, 88), (884, 76), (103, 437), (570, 692)), ((889, 669), (261, 181), (884, 76), (922, 433), (572, 88), (261, 638), (103, 437), (570, 692)), ((889, 669), (261, 181), (884, 76), (922, 433), (572, 88), (261, 638), (103, 437), (570, 692))]
Message Truncated! !V TRIAL_VAR loclist [((889, 669), (261, 181), (261, 638), (922, 433), (572, 88), (884, 76), (103, 437), (570, 692)), ((889, 669), (261, 181), (261, 638), (922, 433), (572, 88), (884, 76), (103, 437), (570, 692)), ((889, 669), (261, 181), (884, 76), (922, 433), (572, 88), (261, 638), (103, 437), (570, 692)), ((889, 669), (261, 181), (884, 76), (922, 433), (572, 88), (261, 638), (103, 437), (570, 692))]
Message Truncated! !V TRIAL_VAR loclist [((889, 669), (261, 181), (261, 638), (922, 433), (572, 88), (884, 76), (103, 437), (570, 692)), ((889, 669), (261, 181), (261, 638), (922, 433), (572, 88), (884, 76), (103, 437), (570, 692)), ((889, 669), (261, 181), (884, 76), (922, 433), (572, 88), (261, 638), (103, 437), (570, 692)), ((889, 669), (261, 181), (884, 76), (922, 433), (572, 88), (261, 638), (103, 437), (570, 692))]
Message Truncated! !V TRIAL_VAR loclist [((889, 669), (261, 181), (261, 638), (922, 433), (572, 88), (884, 76), (103, 437), (570, 692)), ((889, 669), (261, 181), (261, 638), (922, 433), (572, 88), (884, 76), (103, 437), (570, 692)), ((889, 669), (261, 181), (884, 76), (922, 433), (572, 88), (261, 638), (103, 437), (570, 692)), ((889, 669), (261, 181), (884, 76), (922, 433), (572, 88), (261, 638), (103, 437), (570, 692))]
Message Truncated! !V TRIAL_VAR loclist [((889, 669), (261, 181), (261, 638), (922, 433), (572, 88), (884, 76), (103, 437), (570, 692)), ((889, 669), (261, 181), (261, 638), (922, 433), (572, 88), (884, 76), (103, 437), (570, 692)), ((889, 669), (261, 181), (884, 76), (922, 433), (572, 88), (261, 638), (103, 437), (570, 692)), ((889, 669), (261, 181), (884, 76), (922, 433), (572, 88), (261, 638), (103, 437), (570, 692))]
Message Truncated! !V TRIAL_VAR loclist [((889, 669), (261, 181), (261, 638), (922, 433), (572, 88), (884, 76), (103, 437), (570, 692)), ((889, 669), (261, 181), (261, 638), (922, 433), (572, 88), (884, 76), (103, 437), (570, 692)), ((889, 669), (261, 181), (884, 76), (922, 433), (572, 88), (261, 638), (103, 437), (570, 692)), ((889, 669), (261, 181), (884, 76), (922, 433), (572, 88), (261, 638), (103, 437), (570, 692))]
Message Truncated! !V TRIAL_VAR loclist [((889, 669), (261, 181), (261, 638), (922, 433), (572, 88), (884, 76), (103, 437), (570, 692)), ((889, 669), (261, 181), (261, 638), (922, 433), (572, 88), (884, 76), (103, 437), (570, 692)), ((889, 669), (261, 181), (884, 76), (922, 433), (572, 88), (261, 638), (103, 437), (570, 692)), ((889, 669), (261, 181), (884, 76), (922, 433), (572, 88), (261, 638), (103, 437), (570, 692))]
Message Truncated! !V TRIAL_VAR loclist [((889, 669), (261, 181), (261, 638), (922, 433), (572, 88), (884, 76), (103, 437), (570, 692)), ((889, 669), (261, 181), (261, 638), (922, 433), (572, 88), (884, 76), (103, 437), (570, 692)), ((889, 669), (261, 181), (884, 76), (922, 433), (572, 88), (261, 638), (103, 437), (570, 692)), ((889, 669), (261, 181), (884, 76), (922, 433), (572, 88), (261, 638), (103, 437), (570, 692))]
Message Truncated! !V TRIAL_VAR loclist [((889, 669), (261, 181), (261, 638), (922, 433), (572, 88), (884, 76), (103, 437), (570, 692)), ((889, 669), (261, 181), (261, 638), (922, 433), (572, 88), (884, 76), (103, 437), (570, 692)), ((889, 669), (261, 181), (884, 76), (922, 433), (572, 88), (261, 638), (103, 437), (570, 692)), ((889, 669), (261, 181), (884, 76), (922, 433), (572, 88), (261, 638), (103, 437), (570, 692))]
Message Truncated! !V TRIAL_VAR loclist [((889, 669), (261, 181), (261, 638), (922, 433), (572, 88), (884, 76), (103, 437), (570, 692)), ((889, 669), (261, 181), (261, 638), (922, 433), (572, 88), (884, 76), (103, 437), (570, 692)), ((889, 669), (261, 181), (884, 76), (922, 433), (572, 88), (261, 638), (103, 437), (570, 692)), ((889, 669), (261, 181), (884, 76), (922, 433), (572, 88), (261, 638), (103, 437), (570, 692))]
Message Truncated! !V TRIAL_VAR loclist [((889, 669), (261, 181), (261, 638), (922, 433), (572, 88), (884, 76), (103, 437), (570, 692)), ((889, 669), (261, 181), (261, 638), (922, 433), (572, 88), (884, 76), (103, 437), (570, 692)), ((889, 669), (261, 181), (884, 76), (922, 433), (572, 88), (261, 638), (103, 437), (570, 692)), ((889, 669), (261, 181), (884, 76), (922, 433), (572, 88), (261, 638), (103, 437), (570, 692))]
Message Truncated! !V TRIAL_VAR loclist [((889, 669), (261, 181), (261, 638), (922, 433), (572, 88), (884, 76), (103, 437), (570, 692)), ((889, 669), (261, 181), (261, 638), (922, 433), (572, 88), (884, 76), (103, 437), (570, 692)), ((889, 669), (261, 181), (884, 76), (922, 433), (572, 88), (261, 638), (103, 437), (570, 692)), ((889, 669), (261, 181), (884, 76), (922, 433), (572, 88), (261, 638), (103, 437), (570, 692))]
Message Truncated! !V TRIAL_VAR loclist [((889, 669), (261, 181), (261, 638), (922, 433), (572, 88), (884, 76), (103, 437), (570, 692)), ((889, 669), (261, 181), (261, 638), (922, 433), (572, 88), (884, 76), (103, 437), (570, 692)), ((889, 669), (261, 181), (884, 76), (922, 433), (572, 88), (261, 638), (103, 437), (570, 692)), ((889, 669), (261, 181), (884, 76), (922, 433), (572, 88), (261, 638), (103, 437), (570, 692))]
Message Truncated! !V TRIAL_VAR loclist [((889, 669), (261, 181), (261, 638), (922, 433), (572, 88), (884, 76), (103, 437), (570, 692)), ((889, 669), (261, 181), (261, 638), (922, 433), (572, 88), (884, 76), (103, 437), (570, 692)), ((889, 669), (261, 181), (884, 76), (922, 433), (572, 88), (261, 638), (103, 437), (570, 692)), ((889, 669), (261, 181), (884, 76), (922, 433), (572, 88), (261, 638), (103, 437), (570, 692))]
Message Truncated! !V TRIAL_VAR loclist [((889, 669), (261, 181), (261, 638), (922, 433), (572, 88), (884, 76), (103, 437), (570, 692)), ((889, 669), (261, 181), (261, 638), (922, 433), (572, 88), (884, 76), (103, 437), (570, 692)), ((889, 669), (261, 181), (884, 76), (922, 433), (572, 88), (261, 638), (103, 437), (570, 692)), ((889, 669), (261, 181), (884, 76), (922, 433), (572, 88), (261, 638), (103, 437), (570, 692))]
